%!PS-Adobe-3.0 EPSF-3.0
%%Creator: (MATLAB, The Mathworks, Inc. Version 9.3.0.713579 \(R2017b\). Operating System: Mac OS X)
%%Title: ./phi_thp_relationship.eps
%%CreationDate: 2018-07-10T10:03:01
%%Pages: (atend)
%%BoundingBox:     3     1   200   204
%%LanguageLevel: 3
%%EndComments
%%BeginProlog
%%BeginResource: procset (Apache XML Graphics Std ProcSet) 1.2 0
%%Version: 1.2 0
%%Copyright: (Copyright 2001-2003,2010 The Apache Software Foundation. License terms: http://www.apache.org/licenses/LICENSE-2.0)
/bd{bind def}bind def
/ld{load def}bd
/GR/grestore ld
/GS/gsave ld
/RM/rmoveto ld
/C/curveto ld
/t/show ld
/L/lineto ld
/ML/setmiterlimit ld
/CT/concat ld
/f/fill ld
/N/newpath ld
/S/stroke ld
/CC/setcmykcolor ld
/A/ashow ld
/cp/closepath ld
/RC/setrgbcolor ld
/LJ/setlinejoin ld
/GC/setgray ld
/LW/setlinewidth ld
/M/moveto ld
/re {4 2 roll M
1 index 0 rlineto
0 exch rlineto
neg 0 rlineto
cp } bd
/_ctm matrix def
/_tm matrix def
/BT { _ctm currentmatrix pop matrix _tm copy pop 0 0 moveto } bd
/ET { _ctm setmatrix } bd
/iTm { _ctm setmatrix _tm concat } bd
/Tm { _tm astore pop iTm 0 0 moveto } bd
/ux 0.0 def
/uy 0.0 def
/F {
  /Tp exch def
  /Tf exch def
  Tf findfont Tp scalefont setfont
  /cf Tf def  /cs Tp def
} bd
/ULS {currentpoint /uy exch def /ux exch def} bd
/ULE {
  /Tcx currentpoint pop def
  gsave
  newpath
  cf findfont cs scalefont dup
  /FontMatrix get 0 get /Ts exch def /FontInfo get dup
  /UnderlinePosition get Ts mul /To exch def
  /UnderlineThickness get Ts mul /Tt exch def
  ux uy To add moveto  Tcx uy To add lineto
  Tt setlinewidth stroke
  grestore
} bd
/OLE {
  /Tcx currentpoint pop def
  gsave
  newpath
  cf findfont cs scalefont dup
  /FontMatrix get 0 get /Ts exch def /FontInfo get dup
  /UnderlinePosition get Ts mul /To exch def
  /UnderlineThickness get Ts mul /Tt exch def
  ux uy To add cs add moveto Tcx uy To add cs add lineto
  Tt setlinewidth stroke
  grestore
} bd
/SOE {
  /Tcx currentpoint pop def
  gsave
  newpath
  cf findfont cs scalefont dup
  /FontMatrix get 0 get /Ts exch def /FontInfo get dup
  /UnderlinePosition get Ts mul /To exch def
  /UnderlineThickness get Ts mul /Tt exch def
  ux uy To add cs 10 mul 26 idiv add moveto Tcx uy To add cs 10 mul 26 idiv add lineto
  Tt setlinewidth stroke
  grestore
} bd
/QT {
/Y22 exch store
/X22 exch store
/Y21 exch store
/X21 exch store
currentpoint
/Y21 load 2 mul add 3 div exch
/X21 load 2 mul add 3 div exch
/X21 load 2 mul /X22 load add 3 div
/Y21 load 2 mul /Y22 load add 3 div
/X22 load /Y22 load curveto
} bd
/SSPD {
dup length /d exch dict def
{
/v exch def
/k exch def
currentpagedevice k known {
/cpdv currentpagedevice k get def
v cpdv ne {
/upd false def
/nullv v type /nulltype eq def
/nullcpdv cpdv type /nulltype eq def
nullv nullcpdv or
{
/upd true def
} {
/sametype v type cpdv type eq def
sametype {
v type /arraytype eq {
/vlen v length def
/cpdvlen cpdv length def
vlen cpdvlen eq {
0 1 vlen 1 sub {
/i exch def
/obj v i get def
/cpdobj cpdv i get def
obj cpdobj ne {
/upd true def
exit
} if
} for
} {
/upd true def
} ifelse
} {
v type /dicttype eq {
v {
/dv exch def
/dk exch def
/cpddv cpdv dk get def
dv cpddv ne {
/upd true def
exit
} if
} forall
} {
/upd true def
} ifelse
} ifelse
} if
} ifelse
upd true eq {
d k v put
} if
} if
} if
} forall
d length 0 gt {
d setpagedevice
} if
} bd
/RE { % /NewFontName [NewEncodingArray] /FontName RE -
  findfont dup length dict begin
  {
    1 index /FID ne
    {def} {pop pop} ifelse
  } forall
  /Encoding exch def
  /FontName 1 index def
  currentdict definefont pop
  end
} bind def
%%EndResource
%%BeginResource: procset (Apache XML Graphics EPS ProcSet) 1.0 0
%%Version: 1.0 0
%%Copyright: (Copyright 2002-2003 The Apache Software Foundation. License terms: http://www.apache.org/licenses/LICENSE-2.0)
/BeginEPSF { %def
/b4_Inc_state save def         % Save state for cleanup
/dict_count countdictstack def % Count objects on dict stack
/op_count count 1 sub def      % Count objects on operand stack
userdict begin                 % Push userdict on dict stack
/showpage { } def              % Redefine showpage, { } = null proc
0 setgray 0 setlinecap         % Prepare graphics state
1 setlinewidth 0 setlinejoin
10 setmiterlimit [ ] 0 setdash newpath
/languagelevel where           % If level not equal to 1 then
{pop languagelevel             % set strokeadjust and
1 ne                           % overprint to their defaults.
{false setstrokeadjust false setoverprint
} if
} if
} bd
/EndEPSF { %def
count op_count sub {pop} repeat            % Clean up stacks
countdictstack dict_count sub {end} repeat
b4_Inc_state restore
} bd
%%EndResource
%FOPBeginFontDict
%%IncludeResource: font Courier-Oblique
%%IncludeResource: font Courier-BoldOblique
%%IncludeResource: font Courier-Bold
%%IncludeResource: font ZapfDingbats
%%IncludeResource: font Symbol
%%IncludeResource: font Helvetica
%%IncludeResource: font Helvetica-Oblique
%%IncludeResource: font Helvetica-Bold
%%IncludeResource: font Helvetica-BoldOblique
%%IncludeResource: font Times-Roman
%%IncludeResource: font Times-Italic
%%IncludeResource: font Times-Bold
%%IncludeResource: font Times-BoldItalic
%%IncludeResource: font Courier
%FOPEndFontDict
%%BeginResource: encoding WinAnsiEncoding
/WinAnsiEncoding [
/.notdef /.notdef /.notdef /.notdef /.notdef
/.notdef /.notdef /.notdef /.notdef /.notdef
/.notdef /.notdef /.notdef /.notdef /.notdef
/.notdef /.notdef /.notdef /.notdef /.notdef
/.notdef /.notdef /.notdef /.notdef /.notdef
/.notdef /.notdef /.notdef /.notdef /.notdef
/.notdef /.notdef /space /exclam /quotedbl
/numbersign /dollar /percent /ampersand /quotesingle
/parenleft /parenright /asterisk /plus /comma
/hyphen /period /slash /zero /one
/two /three /four /five /six
/seven /eight /nine /colon /semicolon
/less /equal /greater /question /at
/A /B /C /D /E
/F /G /H /I /J
/K /L /M /N /O
/P /Q /R /S /T
/U /V /W /X /Y
/Z /bracketleft /backslash /bracketright /asciicircum
/underscore /quoteleft /a /b /c
/d /e /f /g /h
/i /j /k /l /m
/n /o /p /q /r
/s /t /u /v /w
/x /y /z /braceleft /bar
/braceright /asciitilde /bullet /Euro /bullet
/quotesinglbase /florin /quotedblbase /ellipsis /dagger
/daggerdbl /circumflex /perthousand /Scaron /guilsinglleft
/OE /bullet /Zcaron /bullet /bullet
/quoteleft /quoteright /quotedblleft /quotedblright /bullet
/endash /emdash /asciitilde /trademark /scaron
/guilsinglright /oe /bullet /zcaron /Ydieresis
/space /exclamdown /cent /sterling /currency
/yen /brokenbar /section /dieresis /copyright
/ordfeminine /guillemotleft /logicalnot /sfthyphen /registered
/macron /degree /plusminus /twosuperior /threesuperior
/acute /mu /paragraph /middot /cedilla
/onesuperior /ordmasculine /guillemotright /onequarter /onehalf
/threequarters /questiondown /Agrave /Aacute /Acircumflex
/Atilde /Adieresis /Aring /AE /Ccedilla
/Egrave /Eacute /Ecircumflex /Edieresis /Igrave
/Iacute /Icircumflex /Idieresis /Eth /Ntilde
/Ograve /Oacute /Ocircumflex /Otilde /Odieresis
/multiply /Oslash /Ugrave /Uacute /Ucircumflex
/Udieresis /Yacute /Thorn /germandbls /agrave
/aacute /acircumflex /atilde /adieresis /aring
/ae /ccedilla /egrave /eacute /ecircumflex
/edieresis /igrave /iacute /icircumflex /idieresis
/eth /ntilde /ograve /oacute /ocircumflex
/otilde /odieresis /divide /oslash /ugrave
/uacute /ucircumflex /udieresis /yacute /thorn
/ydieresis
] def
%%EndResource
%FOPBeginFontReencode
/Courier-Oblique findfont
dup length dict begin
  {1 index /FID ne {def} {pop pop} ifelse} forall
  /Encoding WinAnsiEncoding def
  currentdict
end
/Courier-Oblique exch definefont pop
/Courier-BoldOblique findfont
dup length dict begin
  {1 index /FID ne {def} {pop pop} ifelse} forall
  /Encoding WinAnsiEncoding def
  currentdict
end
/Courier-BoldOblique exch definefont pop
/Courier-Bold findfont
dup length dict begin
  {1 index /FID ne {def} {pop pop} ifelse} forall
  /Encoding WinAnsiEncoding def
  currentdict
end
/Courier-Bold exch definefont pop
/Helvetica findfont
dup length dict begin
  {1 index /FID ne {def} {pop pop} ifelse} forall
  /Encoding WinAnsiEncoding def
  currentdict
end
/Helvetica exch definefont pop
/Helvetica-Oblique findfont
dup length dict begin
  {1 index /FID ne {def} {pop pop} ifelse} forall
  /Encoding WinAnsiEncoding def
  currentdict
end
/Helvetica-Oblique exch definefont pop
/Helvetica-Bold findfont
dup length dict begin
  {1 index /FID ne {def} {pop pop} ifelse} forall
  /Encoding WinAnsiEncoding def
  currentdict
end
/Helvetica-Bold exch definefont pop
/Helvetica-BoldOblique findfont
dup length dict begin
  {1 index /FID ne {def} {pop pop} ifelse} forall
  /Encoding WinAnsiEncoding def
  currentdict
end
/Helvetica-BoldOblique exch definefont pop
/Times-Roman findfont
dup length dict begin
  {1 index /FID ne {def} {pop pop} ifelse} forall
  /Encoding WinAnsiEncoding def
  currentdict
end
/Times-Roman exch definefont pop
/Times-Italic findfont
dup length dict begin
  {1 index /FID ne {def} {pop pop} ifelse} forall
  /Encoding WinAnsiEncoding def
  currentdict
end
/Times-Italic exch definefont pop
/Times-Bold findfont
dup length dict begin
  {1 index /FID ne {def} {pop pop} ifelse} forall
  /Encoding WinAnsiEncoding def
  currentdict
end
/Times-Bold exch definefont pop
/Times-BoldItalic findfont
dup length dict begin
  {1 index /FID ne {def} {pop pop} ifelse} forall
  /Encoding WinAnsiEncoding def
  currentdict
end
/Times-BoldItalic exch definefont pop
/Courier findfont
dup length dict begin
  {1 index /FID ne {def} {pop pop} ifelse} forall
  /Encoding WinAnsiEncoding def
  currentdict
end
/Courier exch definefont pop
%FOPEndFontReencode
%%EndProlog
%%Page: 1 1
%%PageBoundingBox: 0 0 216 216
%%BeginPageSetup
[1 0 0 -1 0 216] CT
%%EndPageSetup
GS
1 GC
N
0 0 216 216 re
f
GR
GS
1 GC
N
0 0 216 216 re
f
GR
GS
1 GC
N
28 191.5 M
195.5 191.5 L
195.5 16 L
28 16 L
cp
f
GR
GS
0.149 GC
2 setlinecap
1 LJ
0.5 LW
N
28 191.5 M
195.5 191.5 L
S
GR
GS
0.149 GC
2 setlinecap
1 LJ
0.5 LW
N
28 16 M
195.5 16 L
S
GR
GS
0.149 GC
2 setlinecap
1 LJ
0.5 LW
N
28 191.5 M
28 189.748 L
S
GR
GS
0.149 GC
2 setlinecap
1 LJ
0.5 LW
N
111.75 191.5 M
111.75 189.748 L
S
GR
GS
0.149 GC
2 setlinecap
1 LJ
0.5 LW
N
195.5 191.5 M
195.5 189.748 L
S
GR
GS
0.149 GC
2 setlinecap
1 LJ
0.5 LW
N
28 16 M
28 17.752 L
S
GR
GS
0.149 GC
2 setlinecap
1 LJ
0.5 LW
N
111.75 16 M
111.75 17.752 L
S
GR
GS
0.149 GC
2 setlinecap
1 LJ
0.5 LW
N
195.5 16 M
195.5 17.752 L
S
GR
GS
[1 0 0 1 28 195.10001] CT
0.149 GC
N
0 6.892 M
-0.984 6.892 -1.336 6.087 QT
-1.688 5.282 -1.688 4.173 QT
-1.688 3.47 -1.563 2.861 QT
-1.438 2.251 -1.055 1.822 QT
-0.672 1.392 0 1.392 QT
0.531 1.392 0.867 1.65 QT
1.203 1.907 1.375 2.314 QT
1.547 2.72 1.617 3.189 QT
1.688 3.657 1.688 4.173 QT
1.688 4.861 1.555 5.454 QT
1.422 6.048 1.055 6.47 QT
0.688 6.892 0 6.892 QT
cp
0 6.689 M
0.453 6.689 0.672 6.228 QT
0.891 5.767 0.938 5.212 QT
0.984 4.657 0.984 4.032 QT
0.984 3.439 0.938 2.931 QT
0.891 2.423 0.672 2.009 QT
0.453 1.595 0 1.595 QT
-0.453 1.595 -0.672 2.009 QT
-0.891 2.423 -0.938 2.931 QT
-0.984 3.439 -0.984 4.032 QT
-0.984 4.486 -0.969 4.876 QT
-0.953 5.267 -0.859 5.689 QT
-0.766 6.111 -0.555 6.4 QT
-0.344 6.689 0 6.689 QT
cp
f
GR
GS
[1 0 0 1 111.75 195.10001] CT
0.149 GC
N
-1.611 6.579 M
-1.611 6.532 -1.58 6.454 QT
-1.361 5.986 -1.166 5.54 QT
-0.97 5.095 -0.814 4.673 QT
-0.658 4.251 -0.533 3.767 QT
-1.049 3.767 L
-1.345 3.767 -1.595 3.947 QT
-1.845 4.126 -2.017 4.407 QT
-2.033 4.439 -2.064 4.439 QT
-2.158 4.439 L
-2.236 4.439 -2.236 4.361 QT
-2.236 4.345 -2.22 4.314 QT
-1.955 3.876 -1.658 3.572 QT
-1.361 3.267 -0.986 3.267 QT
1.92 3.267 L
1.998 3.267 2.061 3.322 QT
2.123 3.376 2.123 3.47 QT
2.123 3.595 2.037 3.681 QT
1.951 3.767 1.842 3.767 QT
0.811 3.767 L
0.686 4.392 0.67 4.986 QT
0.67 5.767 0.951 6.376 QT
0.967 6.423 0.967 6.486 QT
0.967 6.564 0.92 6.642 QT
0.873 6.72 0.787 6.767 QT
0.701 6.814 0.623 6.814 QT
0.405 6.814 0.326 6.47 QT
0.248 6.126 0.248 5.798 QT
0.248 5.345 0.326 4.915 QT
0.405 4.486 0.576 3.767 QT
-0.299 3.767 L
-0.924 6.329 -1.049 6.595 QT
-1.174 6.814 -1.361 6.814 QT
-1.47 6.814 -1.541 6.743 QT
-1.611 6.673 -1.611 6.579 QT
cp
f
GR
GS
[1 0 0 1 195.5 195.10001] CT
0.149 GC
N
-4.017 6.72 M
-4.017 6.501 L
-4.017 6.486 -4.002 6.454 QT
-2.767 5.079 L
-2.486 4.782 -2.306 4.572 QT
-2.127 4.361 -1.955 4.095 QT
-1.783 3.829 -1.689 3.548 QT
-1.595 3.267 -1.595 2.954 QT
-1.595 2.626 -1.713 2.329 QT
-1.83 2.032 -2.072 1.853 QT
-2.314 1.673 -2.658 1.673 QT
-3.002 1.673 -3.275 1.884 QT
-3.549 2.095 -3.674 2.423 QT
-3.642 2.407 -3.58 2.407 QT
-3.408 2.407 -3.275 2.532 QT
-3.142 2.657 -3.142 2.845 QT
-3.142 3.032 -3.275 3.157 QT
-3.408 3.282 -3.58 3.282 QT
-3.767 3.282 -3.892 3.15 QT
-4.017 3.017 -4.017 2.845 QT
-4.017 2.548 -3.908 2.282 QT
-3.799 2.017 -3.588 1.814 QT
-3.377 1.611 -3.103 1.501 QT
-2.83 1.392 -2.533 1.392 QT
-2.08 1.392 -1.681 1.587 QT
-1.283 1.782 -1.056 2.134 QT
-0.83 2.486 -0.83 2.954 QT
-0.83 3.298 -0.978 3.611 QT
-1.127 3.923 -1.369 4.181 QT
-1.611 4.439 -1.978 4.767 QT
-2.345 5.095 -2.47 5.204 QT
-3.377 6.064 L
-2.611 6.064 L
-2.033 6.064 -1.658 6.056 QT
-1.283 6.048 -1.252 6.032 QT
-1.158 5.923 -1.064 5.298 QT
-0.83 5.298 L
-1.049 6.72 L
-4.017 6.72 L
cp
f
GR
GS
[1 0 0 1 195.5 195.10001] CT
0.149 GC
N
0.389 6.579 M
0.389 6.532 0.42 6.454 QT
0.639 5.986 0.834 5.54 QT
1.03 5.095 1.186 4.673 QT
1.342 4.251 1.467 3.767 QT
0.951 3.767 L
0.655 3.767 0.405 3.947 QT
0.155 4.126 -0.017 4.407 QT
-0.033 4.439 -0.064 4.439 QT
-0.158 4.439 L
-0.236 4.439 -0.236 4.361 QT
-0.236 4.345 -0.22 4.314 QT
0.045 3.876 0.342 3.572 QT
0.639 3.267 1.014 3.267 QT
3.92 3.267 L
3.998 3.267 4.061 3.322 QT
4.123 3.376 4.123 3.47 QT
4.123 3.595 4.037 3.681 QT
3.951 3.767 3.842 3.767 QT
2.811 3.767 L
2.686 4.392 2.67 4.986 QT
2.67 5.767 2.951 6.376 QT
2.967 6.423 2.967 6.486 QT
2.967 6.564 2.92 6.642 QT
2.873 6.72 2.787 6.767 QT
2.701 6.814 2.623 6.814 QT
2.405 6.814 2.326 6.47 QT
2.248 6.126 2.248 5.798 QT
2.248 5.345 2.326 4.915 QT
2.405 4.486 2.576 3.767 QT
1.701 3.767 L
1.076 6.329 0.951 6.595 QT
0.826 6.814 0.639 6.814 QT
0.53 6.814 0.459 6.743 QT
0.389 6.673 0.389 6.579 QT
cp
f
GR
GS
[1 0 0 1 111.75008 205.44] CT
0.149 GC
N
-0.872 9.142 M
-0.465 7.517 L
-0.934 7.517 -1.325 7.306 QT
-1.715 7.095 -1.958 6.712 QT
-2.2 6.329 -2.2 5.876 QT
-2.2 5.392 -1.958 4.947 QT
-1.715 4.501 -1.294 4.142 QT
-0.872 3.783 -0.387 3.587 QT
0.097 3.392 0.566 3.392 QT
1.113 1.204 L
1.128 1.142 1.175 1.142 QT
1.285 1.142 L
1.316 1.142 1.339 1.173 QT
1.363 1.204 1.363 1.236 QT
0.831 3.392 L
1.16 3.392 1.48 3.517 QT
1.8 3.642 2.042 3.861 QT
2.285 4.079 2.417 4.376 QT
2.55 4.673 2.55 5.017 QT
2.55 5.517 2.308 5.954 QT
2.066 6.392 1.66 6.751 QT
1.253 7.111 0.753 7.314 QT
0.253 7.517 -0.215 7.517 QT
-0.622 9.189 L
-0.637 9.236 -0.7 9.236 QT
-0.809 9.236 L
-0.84 9.236 -0.856 9.204 QT
-0.872 9.173 -0.872 9.142 QT
cp
-0.419 7.283 M
0.503 3.626 L
0.269 3.626 0.019 3.712 QT
-0.231 3.798 -0.45 3.939 QT
-0.669 4.079 -0.856 4.267 QT
-1.075 4.486 -1.239 4.783 QT
-1.403 5.079 -1.489 5.415 QT
-1.575 5.751 -1.575 6.064 QT
-1.575 6.408 -1.426 6.681 QT
-1.278 6.954 -1.02 7.119 QT
-0.762 7.283 -0.419 7.283 QT
cp
-0.153 7.283 M
0.191 7.283 0.574 7.087 QT
0.956 6.892 1.206 6.642 QT
1.535 6.298 1.73 5.814 QT
1.925 5.329 1.925 4.829 QT
1.925 4.501 1.785 4.22 QT
1.644 3.939 1.378 3.783 QT
1.113 3.626 0.769 3.626 QT
-0.153 7.283 L
cp
f
GR
GS
0.149 GC
2 setlinecap
1 LJ
0.5 LW
N
28 191.5 M
28 16 L
S
GR
GS
0.149 GC
2 setlinecap
1 LJ
0.5 LW
N
195.5 191.5 M
195.5 16 L
S
GR
GS
0.149 GC
2 setlinecap
1 LJ
0.5 LW
N
28 191.5 M
29.752 191.5 L
S
GR
GS
0.149 GC
2 setlinecap
1 LJ
0.5 LW
N
28 103.75 M
29.752 103.75 L
S
GR
GS
0.149 GC
2 setlinecap
1 LJ
0.5 LW
N
28 16 M
29.752 16 L
S
GR
GS
0.149 GC
2 setlinecap
1 LJ
0.5 LW
N
195.5 191.5 M
193.748 191.5 L
S
GR
GS
0.149 GC
2 setlinecap
1 LJ
0.5 LW
N
195.5 103.75 M
193.748 103.75 L
S
GR
GS
0.149 GC
2 setlinecap
1 LJ
0.5 LW
N
195.5 16 M
193.748 16 L
S
GR
GS
[1 0 0 1 24.4 191.5] CT
0.149 GC
N
-2 2.092 M
-2.984 2.092 -3.336 1.287 QT
-3.688 0.482 -3.688 -0.627 QT
-3.688 -1.33 -3.563 -1.939 QT
-3.438 -2.549 -3.055 -2.978 QT
-2.672 -3.408 -2 -3.408 QT
-1.469 -3.408 -1.133 -3.15 QT
-0.797 -2.893 -0.625 -2.486 QT
-0.453 -2.08 -0.383 -1.611 QT
-0.313 -1.143 -0.313 -0.627 QT
-0.313 0.061 -0.445 0.654 QT
-0.578 1.248 -0.945 1.67 QT
-1.313 2.092 -2 2.092 QT
cp
-2 1.889 M
-1.547 1.889 -1.328 1.428 QT
-1.109 0.967 -1.063 0.412 QT
-1.016 -0.143 -1.016 -0.768 QT
-1.016 -1.361 -1.063 -1.869 QT
-1.109 -2.377 -1.328 -2.791 QT
-1.547 -3.205 -2 -3.205 QT
-2.453 -3.205 -2.672 -2.791 QT
-2.891 -2.377 -2.938 -1.869 QT
-2.984 -1.361 -2.984 -0.768 QT
-2.984 -0.314 -2.969 0.076 QT
-2.953 0.467 -2.859 0.889 QT
-2.766 1.311 -2.555 1.6 QT
-2.344 1.889 -2 1.889 QT
cp
f
GR
GS
[1 0 0 1 24.4 103.75] CT
0.149 GC
N
-4.035 1.779 M
-4.035 1.732 -4.003 1.654 QT
-3.785 1.186 -3.589 0.74 QT
-3.394 0.295 -3.238 -0.127 QT
-3.082 -0.549 -2.957 -1.033 QT
-3.472 -1.033 L
-3.769 -1.033 -4.019 -0.853 QT
-4.269 -0.674 -4.441 -0.393 QT
-4.457 -0.361 -4.488 -0.361 QT
-4.582 -0.361 L
-4.66 -0.361 -4.66 -0.439 QT
-4.66 -0.455 -4.644 -0.486 QT
-4.378 -0.924 -4.082 -1.228 QT
-3.785 -1.533 -3.41 -1.533 QT
-0.503 -1.533 L
-0.425 -1.533 -0.363 -1.478 QT
-0.3 -1.424 -0.3 -1.33 QT
-0.3 -1.205 -0.386 -1.119 QT
-0.472 -1.033 -0.582 -1.033 QT
-1.613 -1.033 L
-1.738 -0.408 -1.753 0.186 QT
-1.753 0.967 -1.472 1.576 QT
-1.457 1.623 -1.457 1.686 QT
-1.457 1.764 -1.503 1.842 QT
-1.55 1.92 -1.636 1.967 QT
-1.722 2.014 -1.8 2.014 QT
-2.019 2.014 -2.097 1.67 QT
-2.175 1.326 -2.175 0.998 QT
-2.175 0.545 -2.097 0.115 QT
-2.019 -0.314 -1.847 -1.033 QT
-2.722 -1.033 L
-3.347 1.529 -3.472 1.795 QT
-3.597 2.014 -3.785 2.014 QT
-3.894 2.014 -3.964 1.943 QT
-4.035 1.873 -4.035 1.779 QT
cp
f
GR
GS
[1 0 0 1 24.4 16] CT
0.149 GC
N
-8.441 1.92 M
-8.441 1.701 L
-8.441 1.686 -8.425 1.654 QT
-7.191 0.279 L
-6.91 -0.018 -6.73 -0.228 QT
-6.55 -0.439 -6.379 -0.705 QT
-6.207 -0.971 -6.113 -1.252 QT
-6.019 -1.533 -6.019 -1.846 QT
-6.019 -2.174 -6.136 -2.471 QT
-6.254 -2.768 -6.496 -2.947 QT
-6.738 -3.127 -7.082 -3.127 QT
-7.425 -3.127 -7.699 -2.916 QT
-7.972 -2.705 -8.097 -2.377 QT
-8.066 -2.393 -8.004 -2.393 QT
-7.832 -2.393 -7.699 -2.268 QT
-7.566 -2.143 -7.566 -1.955 QT
-7.566 -1.768 -7.699 -1.643 QT
-7.832 -1.518 -8.004 -1.518 QT
-8.191 -1.518 -8.316 -1.65 QT
-8.441 -1.783 -8.441 -1.955 QT
-8.441 -2.252 -8.332 -2.518 QT
-8.222 -2.783 -8.011 -2.986 QT
-7.8 -3.189 -7.527 -3.299 QT
-7.254 -3.408 -6.957 -3.408 QT
-6.504 -3.408 -6.105 -3.213 QT
-5.707 -3.018 -5.48 -2.666 QT
-5.254 -2.314 -5.254 -1.846 QT
-5.254 -1.502 -5.402 -1.189 QT
-5.55 -0.877 -5.793 -0.619 QT
-6.035 -0.361 -6.402 -0.033 QT
-6.769 0.295 -6.894 0.404 QT
-7.8 1.264 L
-7.035 1.264 L
-6.457 1.264 -6.082 1.256 QT
-5.707 1.248 -5.675 1.232 QT
-5.582 1.123 -5.488 0.498 QT
-5.254 0.498 L
-5.472 1.92 L
-8.441 1.92 L
cp
f
GR
GS
[1 0 0 1 24.4 16] CT
0.149 GC
N
/f529709247{-4.035 1.779 M
-4.035 1.732 -4.003 1.654 QT
-3.785 1.186 -3.589 0.74 QT
-3.394 0.295 -3.238 -0.127 QT
-3.082 -0.549 -2.957 -1.033 QT
-3.472 -1.033 L
-3.769 -1.033 -4.019 -0.853 QT
-4.269 -0.674 -4.441 -0.393 QT
-4.457 -0.361 -4.488 -0.361 QT
-4.582 -0.361 L
-4.66 -0.361 -4.66 -0.439 QT
-4.66 -0.455 -4.644 -0.486 QT
-4.378 -0.924 -4.082 -1.228 QT
-3.785 -1.533 -3.41 -1.533 QT
-0.503 -1.533 L
-0.425 -1.533 -0.363 -1.478 QT
-0.3 -1.424 -0.3 -1.33 QT
-0.3 -1.205 -0.386 -1.119 QT
-0.472 -1.033 -0.582 -1.033 QT
-1.613 -1.033 L
-1.738 -0.408 -1.753 0.186 QT
-1.753 0.967 -1.472 1.576 QT
-1.457 1.623 -1.457 1.686 QT
-1.457 1.764 -1.503 1.842 QT
-1.55 1.92 -1.636 1.967 QT
-1.722 2.014 -1.8 2.014 QT
-2.019 2.014 -2.097 1.67 QT
-2.175 1.326 -2.175 0.998 QT
-2.175 0.545 -2.097 0.115 QT
-2.019 -0.314 -1.847 -1.033 QT
-2.722 -1.033 L
-3.347 1.529 -3.472 1.795 QT
-3.597 2.014 -3.785 2.014 QT
-3.894 2.014 -3.964 1.943 QT
-4.035 1.873 -4.035 1.779 QT
cp}def
f529709247
f
GR
GS
[0 -1 1 0 12.55275 103.74991] CT
0.149 GC
N
/f-1933739689{-10.085 -1.418 M
-9.678 -3.043 L
-10.147 -3.043 -10.538 -3.254 QT
-10.928 -3.465 -11.171 -3.848 QT
-11.413 -4.231 -11.413 -4.684 QT
-11.413 -5.168 -11.171 -5.613 QT
-10.928 -6.059 -10.506 -6.418 QT
-10.085 -6.777 -9.6 -6.973 QT
-9.116 -7.168 -8.647 -7.168 QT
-8.1 -9.356 L
-8.085 -9.418 -8.038 -9.418 QT
-7.928 -9.418 L
-7.897 -9.418 -7.874 -9.387 QT
-7.85 -9.356 -7.85 -9.324 QT
-8.381 -7.168 L
-8.053 -7.168 -7.733 -7.043 QT
-7.413 -6.918 -7.171 -6.699 QT
-6.928 -6.481 -6.796 -6.184 QT
-6.663 -5.887 -6.663 -5.543 QT
-6.663 -5.043 -6.905 -4.606 QT
-7.147 -4.168 -7.553 -3.809 QT
-7.96 -3.449 -8.46 -3.246 QT
-8.96 -3.043 -9.428 -3.043 QT
-9.835 -1.371 L
-9.85 -1.324 -9.913 -1.324 QT
-10.022 -1.324 L
-10.053 -1.324 -10.069 -1.356 QT
-10.085 -1.387 -10.085 -1.418 QT
cp
-9.631 -3.277 M
-8.71 -6.934 L
-8.944 -6.934 -9.194 -6.848 QT
-9.444 -6.762 -9.663 -6.621 QT
-9.881 -6.481 -10.069 -6.293 QT
-10.288 -6.074 -10.452 -5.777 QT
-10.616 -5.481 -10.702 -5.145 QT
-10.788 -4.809 -10.788 -4.496 QT
-10.788 -4.152 -10.639 -3.879 QT
-10.491 -3.606 -10.233 -3.441 QT
-9.975 -3.277 -9.631 -3.277 QT
cp
-9.366 -3.277 M
-9.022 -3.277 -8.639 -3.473 QT
-8.256 -3.668 -8.006 -3.918 QT
-7.678 -4.262 -7.483 -4.746 QT
-7.288 -5.231 -7.288 -5.731 QT
-7.288 -6.059 -7.428 -6.34 QT
-7.569 -6.621 -7.835 -6.777 QT
-8.1 -6.934 -8.444 -6.934 QT
-9.366 -3.277 L
cp}def
f-1933739689
f
GR
GS
[0 -1 1 0 12.55275 103.74991] CT
0.149 GC
N
/f-366356620{-3.714 -5.231 M
-3.792 -5.231 -3.839 -5.293 QT
-3.886 -5.356 -3.886 -5.418 QT
-3.886 -5.481 -3.839 -5.543 QT
-3.792 -5.606 -3.714 -5.606 QT
1.442 -5.606 L
1.521 -5.606 1.567 -5.543 QT
1.614 -5.481 1.614 -5.418 QT
1.614 -5.356 1.567 -5.293 QT
1.521 -5.231 1.442 -5.231 QT
-3.714 -5.231 L
cp}def
f-366356620
f
GR
GS
[0 -1 1 0 12.55275 103.74991] CT
0.149 GC
N
/f2011813095{5.617 -3.074 M
5.211 -3.074 4.961 -3.371 QT
4.711 -3.668 4.617 -4.09 QT
4.524 -4.512 4.524 -4.918 QT
4.524 -4.934 L
4.524 -5.371 4.61 -5.856 QT
4.695 -6.34 4.86 -6.824 QT
5.024 -7.309 5.211 -7.684 QT
5.336 -7.949 5.547 -8.277 QT
5.758 -8.606 6.016 -8.887 QT
6.274 -9.168 6.57 -9.34 QT
6.867 -9.512 7.164 -9.512 QT
7.18 -9.512 L
7.508 -9.512 7.727 -9.332 QT
7.945 -9.152 8.063 -8.871 QT
8.18 -8.59 8.227 -8.27 QT
8.274 -7.949 8.274 -7.652 QT
8.274 -6.981 8.094 -6.27 QT
7.914 -5.559 7.586 -4.902 QT
7.461 -4.652 7.242 -4.309 QT
7.024 -3.965 6.781 -3.699 QT
6.539 -3.434 6.235 -3.254 QT
5.93 -3.074 5.617 -3.074 QT
5.617 -3.074 L
cp
5.633 -3.309 M
5.93 -3.309 6.203 -3.629 QT
6.477 -3.949 6.688 -4.402 QT
6.899 -4.856 7.055 -5.332 QT
7.211 -5.809 7.274 -6.137 QT
5.445 -6.137 L
5.305 -5.574 5.227 -5.16 QT
5.149 -4.746 5.149 -4.356 QT
5.149 -3.309 5.633 -3.309 QT
cp
5.508 -6.449 M
7.352 -6.449 L
7.461 -6.856 7.516 -7.121 QT
7.57 -7.387 7.61 -7.676 QT
7.649 -7.965 7.649 -8.231 QT
7.649 -9.277 7.164 -9.277 QT
6.602 -9.277 6.188 -8.356 QT
5.774 -7.434 5.508 -6.449 QT
cp}def
f2011813095
f
GR
GS
[0 -1 1 0 12.55275 103.74991] CT
0.149 GC
N
/f-785651037{8.139 -0.692 M
8.092 -0.692 8.092 -0.754 QT
8.108 -0.895 8.17 -0.895 QT
8.358 -0.895 8.436 -0.926 QT
8.514 -0.957 8.545 -1.098 QT
9.217 -3.801 L
9.264 -3.911 9.264 -4.082 QT
9.264 -4.348 9.092 -4.348 QT
8.905 -4.348 8.811 -4.121 QT
8.717 -3.895 8.639 -3.551 QT
8.639 -3.52 8.592 -3.52 QT
8.514 -3.52 L
8.498 -3.52 8.483 -3.543 QT
8.467 -3.567 8.467 -3.582 QT
8.53 -3.832 8.592 -4.02 QT
8.655 -4.207 8.78 -4.356 QT
8.905 -4.504 9.092 -4.504 QT
9.311 -4.504 9.459 -4.387 QT
9.608 -4.27 9.655 -4.067 QT
9.827 -4.254 10.022 -4.379 QT
10.217 -4.504 10.436 -4.504 QT
10.686 -4.504 10.873 -4.364 QT
11.061 -4.223 11.155 -4.012 QT
11.248 -3.801 11.248 -3.536 QT
11.248 -3.161 11.045 -2.746 QT
10.842 -2.332 10.506 -2.059 QT
10.17 -1.786 9.78 -1.786 QT
9.608 -1.786 9.467 -1.879 QT
9.327 -1.973 9.248 -2.145 QT
8.967 -1.067 L
8.952 -0.989 8.952 -0.973 QT
8.952 -0.895 9.358 -0.895 QT
9.405 -0.895 9.405 -0.817 QT
9.389 -0.739 9.373 -0.715 QT
9.358 -0.692 9.311 -0.692 QT
8.139 -0.692 L
cp
9.795 -1.942 M
9.998 -1.942 10.178 -2.114 QT
10.358 -2.286 10.467 -2.489 QT
10.545 -2.661 10.616 -2.895 QT
10.686 -3.129 10.741 -3.387 QT
10.795 -3.645 10.795 -3.801 QT
10.795 -3.942 10.756 -4.059 QT
10.717 -4.176 10.639 -4.262 QT
10.561 -4.348 10.42 -4.348 QT
10.202 -4.348 10.006 -4.192 QT
9.811 -4.036 9.655 -3.801 QT
9.655 -3.786 L
9.327 -2.457 L
9.358 -2.239 9.475 -2.09 QT
9.592 -1.942 9.795 -1.942 QT
cp}def
f-785651037
f
GR
GS
[1 0 0 1 149.16904 84.80116] CT
N
0.75 0 M
0.75 0.414 0.414 0.75 0 0.75 C
-0.414 0.75 -0.75 0.414 -0.75 0 C
-0.75 -0.414 -0.414 -0.75 0 -0.75 C
0.414 -0.75 0.75 -0.414 0.75 0 C
cp
f
GR
GS
[1 0 0 1 178.09656 136.16722] CT
N
/f1472890730{0.75 0 M
0.75 0.414 0.414 0.75 0 0.75 C
-0.414 0.75 -0.75 0.414 -0.75 0 C
-0.75 -0.414 -0.414 -0.75 0 -0.75 C
0.414 -0.75 0.75 -0.414 0.75 0 C
cp}def
f1472890730
f
GR
GS
[1 0 0 1 128.99216 142.22884] CT
N
f1472890730
f
GR
GS
[1 0 0 1 152.26122 129.19894] CT
N
f1472890730
f
GR
GS
[1 0 0 1 64.05943 137.49138] CT
N
f1472890730
f
GR
GS
[1 0 0 1 32.54175 107.30802] CT
N
f1472890730
f
GR
GS
[1 0 0 1 83.48941 81.3327] CT
N
f1472890730
f
GR
GS
[1 0 0 1 156.40517 117.13586] CT
N
f1472890730
f
GR
GS
[1 0 0 1 94.90121 95.97095] CT
N
f1472890730
f
GR
GS
[1 0 0 1 61.03905 84.38674] CT
N
f1472890730
f
GR
GS
[1 0 0 1 133.28 110.53812] CT
N
f1472890730
f
GR
GS
[1 0 0 1 181.82291 114.54082] CT
N
f1472890730
f
GR
GS
[1 0 0 1 77.83206 75.26354] CT
N
f1472890730
f
GR
GS
[1 0 0 1 72.72022 103.6507] CT
N
f1472890730
f
GR
GS
[1 0 0 1 131.15305 120.18668] CT
N
f1472890730
f
GR
GS
[1 0 0 1 101.01011 83.20533] CT
N
f1472890730
f
GR
GS
[1 0 0 1 53.31272 127.93493] CT
N
f1472890730
f
GR
GS
[1 0 0 1 118.0658 60.51901] CT
N
f1472890730
f
GR
GS
[1 0 0 1 145.61768 90.03466] CT
N
f1472890730
f
GR
GS
[1 0 0 1 152.07817 83.13587] CT
N
f1472890730
f
GR
GS
[1 0 0 1 54.55213 95.4273] CT
N
f1472890730
f
GR
GS
[1 0 0 1 158.68646 103.84505] CT
N
f1472890730
f
GR
GS
[1 0 0 1 122.02161 57.14771] CT
N
f1472890730
f
GR
GS
[1 0 0 1 137.16675 96.32479] CT
N
f1472890730
f
GR
GS
[1 0 0 1 76.80725 119.09206] CT
N
f1472890730
f
GR
GS
[1 0 0 1 80.75671 103.45322] CT
N
f1472890730
f
GR
GS
[1 0 0 1 98.09587 72.90182] CT
N
f1472890730
f
GR
GS
[1 0 0 1 113.89069 110.13235] CT
N
f1472890730
f
GR
GS
[1 0 0 1 135.5331 106.04393] CT
N
f1472890730
f
GR
GS
[1 0 0 1 120.17349 129.04976] CT
N
f1472890730
f
GR
GS
[1 0 0 1 40.72288 57.75248] CT
N
f1472890730
f
GR
GS
[1 0 0 1 110.74263 64.26349] CT
N
f1472890730
f
GR
GS
[1 0 0 1 100.27177 142.29114] CT
N
f1472890730
f
GR
GS
[1 0 0 1 169.13673 84.59265] CT
N
f1472890730
f
GR
GS
[1 0 0 1 125.25926 103.56611] CT
N
f1472890730
f
GR
GS
[1 0 0 1 49.6684 90.37474] CT
N
f1472890730
f
GR
GS
[1 0 0 1 58.45798 87.64757] CT
N
f1472890730
f
GR
GS
[1 0 0 1 186.48718 86.97591] CT
N
f1472890730
f
GR
GS
[1 0 0 1 144.98289 141.46149] CT
N
f1472890730
f
GR
GS
[1 0 0 1 128.32365 136.35518] CT
N
f1472890730
f
GR
GS
[1 0 0 1 145.12593 143.62938] CT
N
f1472890730
f
GR
GS
[1 0 0 1 115.92758 56.76591] CT
N
f1472890730
f
GR
GS
[1 0 0 1 165.89265 110.48083] CT
N
f1472890730
f
GR
GS
[1 0 0 1 105.23035 90.47195] CT
N
f1472890730
f
GR
GS
[1 0 0 1 132.58893 112.69164] CT
N
f1472890730
f
GR
GS
[1 0 0 1 168.60915 67.42152] CT
N
f1472890730
f
GR
GS
[1 0 0 1 169.09256 155.80435] CT
N
f1472890730
f
GR
GS
[1 0 0 1 105.94817 144.58603] CT
N
f1472890730
f
GR
GS
[1 0 0 1 124.09493 52.53303] CT
N
f1472890730
f
GR
GS
[1 0 0 1 110.87563 71.737] CT
N
f1472890730
f
GR
GS
[1 0 0 1 79.50112 84.93169] CT
N
f1472890730
f
GR
GS
[1 0 0 1 100.87723 70.14272] CT
N
f1472890730
f
GR
GS
[1 0 0 1 65.6913 93.60108] CT
N
f1472890730
f
GR
GS
[1 0 0 1 84.5537 109.31665] CT
N
f1472890730
f
GR
GS
[1 0 0 1 169.34442 104.27129] CT
N
f1472890730
f
GR
GS
[1 0 0 1 71.51709 94.72288] CT
N
f1472890730
f
GR
GS
[1 0 0 1 114.44746 111.34348] CT
N
f1472890730
f
GR
GS
[1 0 0 1 151.58748 73.41718] CT
N
f1472890730
f
GR
GS
[1 0 0 1 91.59134 60.13464] CT
N
f1472890730
f
GR
GS
[1 0 0 1 159.61621 130.59921] CT
N
f1472890730
f
GR
GS
[1 0 0 1 37.94053 117.06257] CT
N
f1472890730
f
GR
GS
[1 0 0 1 46.57243 120.79135] CT
N
f1472890730
f
GR
GS
[1 0 0 1 103.02253 55.30157] CT
N
f1472890730
f
GR
GS
[1 0 0 1 194.50722 74.19724] CT
N
f1472890730
f
GR
GS
[1 0 0 1 89.01622 101.24587] CT
N
f1472890730
f
GR
GS
[1 0 0 1 51.89061 98.78979] CT
N
f1472890730
f
GR
GS
[1 0 0 1 139.95964 126.51433] CT
N
f1472890730
f
GR
GS
[1 0 0 1 74.94865 91.99557] CT
N
f1472890730
f
GR
GS
[1 0 0 1 190.52403 85.24403] CT
N
f1472890730
f
GR
GS
[1 0 0 1 96.66711 146.35179] CT
N
f1472890730
f
GR
GS
[1 0 0 1 152.17584 131.05316] CT
N
f1472890730
f
GR
GS
[1 0 0 1 181.36082 112.37218] CT
N
f1472890730
f
GR
GS
[1 0 0 1 62.56736 133.92609] CT
N
f1472890730
f
GR
GS
[1 0 0 1 48.0598 101.71982] CT
N
f1472890730
f
GR
GS
[1 0 0 1 94.41518 112.80927] CT
N
f1472890730
f
GR
GS
[1 0 0 1 164.17537 106.51525] CT
N
f1472890730
f
GR
GS
[1 0 0 1 129.34593 88.02184] CT
N
f1472890730
f
GR
GS
[1 0 0 1 95.45095 81.2495] CT
N
f1472890730
f
GR
GS
[1 0 0 1 81.13313 83.13438] CT
N
f1472890730
f
GR
GS
[1 0 0 1 87.06094 52.69193] CT
N
f1472890730
f
GR
GS
[1 0 0 1 181.60913 130.73039] CT
N
f1472890730
f
GR
GS
[1 0 0 1 53.11437 100.75822] CT
N
f1472890730
f
GR
GS
[1 0 0 1 65.58066 106.01933] CT
N
f1472890730
f
GR
GS
[1 0 0 1 152.18665 126.55634] CT
N
f1472890730
f
GR
GS
[1 0 0 1 173.56514 150.74178] CT
N
f1472890730
f
GR
GS
[1 0 0 1 76.68497 97.72874] CT
N
f1472890730
f
GR
GS
[1 0 0 1 113.42864 62.97438] CT
N
f1472890730
f
GR
GS
[1 0 0 1 174.95787 149.95731] CT
N
f1472890730
f
GR
GS
[1 0 0 1 80.1283 148.30696] CT
N
f1472890730
f
GR
GS
[1 0 0 1 39.54641 132.10915] CT
N
f1472890730
f
GR
GS
[1 0 0 1 52.16779 98.99519] CT
N
f1472890730
f
GR
GS
[1 0 0 1 86.32072 102.65068] CT
N
f1472890730
f
GR
GS
[1 0 0 1 124.66073 58.17527] CT
N
f1472890730
f
GR
GS
[1 0 0 1 35.72068 99.15639] CT
N
f1472890730
f
GR
GS
[1 0 0 1 69.51498 101.59223] CT
N
f1472890730
f
GR
GS
[1 0 0 1 59.24412 76.84803] CT
N
f1472890730
f
GR
GS
[1 0 0 1 173.96347 126.28931] CT
N
f1472890730
f
GR
GS
[1 0 0 1 127.39734 115.16312] CT
N
f1472890730
f
GR
GS
[1 0 0 1 85.65372 118.8593] CT
N
f1472890730
f
GR
GS
[1 0 0 1 95.78534 78.78276] CT
N
f1472890730
f
GR
GS
[1 0 0 1 150.32336 115.92747] CT
N
f1472890730
f
GR
GS
[1 0 0 1 70.15343 139.6091] CT
N
f1472890730
f
GR
GS
[1 0 0 1 114.13742 65.85317] CT
N
f1472890730
f
GR
GS
[1 0 0 1 180.56468 183.28716] CT
N
f1472890730
f
GR
GS
[1 0 0 1 94.15024 80.33053] CT
N
f1472890730
f
GR
GS
[1 0 0 1 151.95572 91.26645] CT
N
f1472890730
f
GR
GS
[1 0 0 1 42.79309 114.1156] CT
N
f1472890730
f
GR
GS
[1 0 0 1 108.46207 79.86723] CT
N
f1472890730
f
GR
GS
[1 0 0 1 146.01114 86.51452] CT
N
f1472890730
f
GR
GS
[1 0 0 1 160.51476 96.72771] CT
N
f1472890730
f
GR
GS
[1 0 0 1 117.15665 141.55208] CT
N
f1472890730
f
GR
GS
[1 0 0 1 111.5592 44.63318] CT
N
f1472890730
f
GR
GS
[1 0 0 1 127.25503 121.07693] CT
N
f1472890730
f
GR
GS
[1 0 0 1 124.84541 68.55797] CT
N
f1472890730
f
GR
GS
[1 0 0 1 151.79446 62.58755] CT
N
f1472890730
f
GR
GS
[1 0 0 1 86.68267 117.19544] CT
N
f1472890730
f
GR
GS
[1 0 0 1 141.20216 80.87376] CT
N
f1472890730
f
GR
GS
[1 0 0 1 141.2372 70.05013] CT
N
f1472890730
f
GR
GS
[1 0 0 1 132.94345 109.56051] CT
N
f1472890730
f
GR
GS
[1 0 0 1 171.15561 78.84002] CT
N
f1472890730
f
GR
GS
[1 0 0 1 151.80809 94.00272] CT
N
f1472890730
f
GR
GS
[1 0 0 1 160.1628 57.08315] CT
N
f1472890730
f
GR
GS
[1 0 0 1 190.99934 145.33678] CT
N
f1472890730
f
GR
GS
[1 0 0 1 84.62582 92.58235] CT
N
f1472890730
f
GR
GS
[1 0 0 1 139.16728 78.40104] CT
N
f1472890730
f
GR
GS
[1 0 0 1 194.36783 128.12442] CT
N
f1472890730
f
GR
GS
[1 0 0 1 184.87769 52.68475] CT
N
f1472890730
f
GR
GS
[1 0 0 1 54.20971 95.81369] CT
N
f1472890730
f
GR
GS
[1 0 0 1 85.91476 103.48115] CT
N
f1472890730
f
GR
GS
[1 0 0 1 138.49614 104.91292] CT
N
f1472890730
f
GR
GS
[1 0 0 1 81.7214 149.6853] CT
N
f1472890730
f
GR
GS
[1 0 0 1 140.36754 99.87254] CT
N
f1472890730
f
GR
GS
[1 0 0 1 132.62939 130.08304] CT
N
f1472890730
f
GR
GS
[1 0 0 1 52.73582 107.11236] CT
N
f1472890730
f
GR
GS
[1 0 0 1 161.04411 118.87807] CT
N
f1472890730
f
GR
GS
[1 0 0 1 107.78436 124.55908] CT
N
f1472890730
f
GR
GS
[1 0 0 1 58.06678 77.41667] CT
N
f1472890730
f
GR
GS
[1 0 0 1 110.07489 129.00957] CT
N
f1472890730
f
GR
GS
[1 0 0 1 57.24821 118.18243] CT
N
f1472890730
f
GR
GS
[1 0 0 1 66.92617 130.50978] CT
N
f1472890730
f
GR
GS
[1 0 0 1 108.50106 87.18255] CT
N
f1472890730
f
GR
GS
[1 0 0 1 187.54025 86.46937] CT
N
f1472890730
f
GR
GS
[1 0 0 1 132.59933 86.44457] CT
N
f1472890730
f
GR
GS
[1 0 0 1 162.83263 108.17007] CT
N
f1472890730
f
GR
GS
[1 0 0 1 137.69701 120.05689] CT
N
f1472890730
f
GR
GS
[1 0 0 1 52.79713 121.26081] CT
N
f1472890730
f
GR
GS
[1 0 0 1 135.24236 100.31238] CT
N
f1472890730
f
GR
GS
[1 0 0 1 73.71045 136.28981] CT
N
f1472890730
f
GR
GS
[1 0 0 1 95.16153 74.06377] CT
N
f1472890730
f
GR
GS
[1 0 0 1 176.6217 65.93266] CT
N
f1472890730
f
GR
GS
[1 0 0 1 122.44992 81.91699] CT
N
f1472890730
f
GR
GS
[1 0 0 1 91.3803 77.86186] CT
N
f1472890730
f
GR
GS
[1 0 0 1 40.72363 120.11518] CT
N
f1472890730
f
GR
GS
[1 0 0 1 52.89274 130.44748] CT
N
f1472890730
f
GR
GS
[1 0 0 1 115.47833 138.9458] CT
N
f1472890730
f
GR
GS
[1 0 0 1 142.48784 117.22564] CT
N
f1472890730
f
GR
GS
[1 0 0 1 84.55814 156.62708] CT
N
f1472890730
f
GR
GS
[1 0 0 1 91.49466 103.12857] CT
N
f1472890730
f
GR
GS
[1 0 0 1 92.341 93.31061] CT
N
f1472890730
f
GR
GS
[1 0 0 1 93.74526 111.6766] CT
N
f1472890730
f
GR
GS
[1 0 0 1 60.25438 149.73735] CT
N
f1472890730
f
GR
GS
[1 0 0 1 76.36903 123.77707] CT
N
f1472890730
f
GR
GS
[1 0 0 1 36.29725 108.73007] CT
N
f1472890730
f
GR
GS
[1 0 0 1 163.52211 85.77956] CT
N
f1472890730
f
GR
GS
[1 0 0 1 70.37331 100.21889] CT
N
f1472890730
f
GR
GS
[1 0 0 1 58.80866 112.53217] CT
N
f1472890730
f
GR
GS
[1 0 0 1 153.40944 82.774] CT
N
f1472890730
f
GR
GS
[1 0 0 1 100.63542 137.31464] CT
N
f1472890730
f
GR
GS
[1 0 0 1 103.02752 68.45824] CT
N
f1472890730
f
GR
GS
[1 0 0 1 36.8296 148.93666] CT
N
f1472890730
f
GR
GS
[1 0 0 1 67.91846 108.87884] CT
N
f1472890730
f
GR
GS
[1 0 0 1 72.17138 132.84473] CT
N
f1472890730
f
GR
GS
[1 0 0 1 101.8992 81.44818] CT
N
f1472890730
f
GR
GS
[1 0 0 1 107.99584 143.94437] CT
N
f1472890730
f
GR
GS
[1 0 0 1 63.41063 118.67823] CT
N
f1472890730
f
GR
GS
[1 0 0 1 160.74039 86.09675] CT
N
f1472890730
f
GR
GS
[1 0 0 1 159.24724 120.85509] CT
N
f1472890730
f
GR
GS
[1 0 0 1 167.75529 74.19556] CT
N
f1472890730
f
GR
GS
[1 0 0 1 143.31573 149.99141] CT
N
f1472890730
f
GR
GS
[1 0 0 1 73.22588 86.49585] CT
N
f1472890730
f
GR
GS
[1 0 0 1 37.74844 129.94354] CT
N
f1472890730
f
GR
GS
[1 0 0 1 48.71031 78.0603] CT
N
f1472890730
f
GR
GS
[1 0 0 1 162.89098 108.37999] CT
N
f1472890730
f
GR
GS
[1 0 0 1 88.21761 93.38622] CT
N
f1472890730
f
GR
GS
[1 0 0 1 192.43979 118.33585] CT
N
f1472890730
f
GR
GS
[1 0 0 1 74.87121 101.25004] CT
N
f1472890730
f
GR
GS
[1 0 0 1 80.1748 92.51604] CT
N
f1472890730
f
GR
GS
[1 0 0 1 160.63354 90.04071] CT
N
f1472890730
f
GR
GS
[1 0 0 1 134.89571 102.68259] CT
N
f1472890730
f
GR
GS
[1 0 0 1 99.47731 68.58226] CT
N
f1472890730
f
GR
GS
[1 0 0 1 48.17842 121.70085] CT
N
f1472890730
f
GR
GS
[1 0 0 1 111.09636 130.47473] CT
N
f1472890730
f
GR
GS
[1 0 0 1 78.74567 110.60819] CT
N
f1472890730
f
GR
GS
[1 0 0 1 59.26021 94.68924] CT
N
f1472890730
f
GR
GS
[1 0 0 1 126.01116 98.03177] CT
N
f1472890730
f
GR
GS
[1 0 0 1 142.89354 90.46368] CT
N
f1472890730
f
GR
GS
[1 0 0 1 186.04375 79.67884] CT
N
f1472890730
f
GR
GS
[1 0 0 1 86.47227 141.70604] CT
N
f1472890730
f
GR
GS
[1 0 0 1 77.27679 97.94547] CT
N
f1472890730
f
GR
GS
[1 0 0 1 76.90205 92.37099] CT
N
f1472890730
f
GR
GS
[1 0 0 1 113.35496 132.10889] CT
N
f1472890730
f
GR
GS
[1 0 0 1 31.91921 122.05166] CT
N
f1472890730
f
GR
GS
[1 0 0 1 71.19622 125.31384] CT
N
f1472890730
f
GR
GS
[1 0 0 1 91.76334 127.73895] CT
N
f1472890730
f
GR
GS
[1 0 0 1 94.14569 147.47289] CT
N
f1472890730
f
GR
GS
[1 0 0 1 71.27061 70.39178] CT
N
f1472890730
f
GR
GS
[1 0 0 1 116.55298 131.10478] CT
N
f1472890730
f
GR
GS
[1 0 0 1 156.72758 111.58221] CT
N
f1472890730
f
GR
GS
[1 0 0 1 157.9369 112.54784] CT
N
f1472890730
f
GR
GS
[1 0 0 1 139.89574 99.87486] CT
N
f1472890730
f
GR
GS
[1 0 0 1 139.49554 106.48017] CT
N
f1472890730
f
GR
GS
[1 0 0 1 127.33583 143.05988] CT
N
f1472890730
f
GR
GS
[1 0 0 1 74.12789 127.51412] CT
N
f1472890730
f
GR
GS
[1 0 0 1 77.36067 119.95983] CT
N
f1472890730
f
GR
GS
[1 0 0 1 53.35047 92.63416] CT
N
f1472890730
f
GR
GS
[1 0 0 1 134.70334 113.94336] CT
N
f1472890730
f
GR
GS
[1 0 0 1 105.09786 117.60124] CT
N
f1472890730
f
GR
GS
[1 0 0 1 56.28793 142.66904] CT
N
f1472890730
f
GR
GS
[1 0 0 1 76.62023 95.55663] CT
N
f1472890730
f
GR
GS
[1 0 0 1 144.63135 134.27916] CT
N
f1472890730
f
GR
GS
[1 0 0 1 45.66247 66.5485] CT
N
f1472890730
f
GR
GS
[1 0 0 1 59.22147 78.62814] CT
N
f1472890730
f
GR
GS
[1 0 0 1 147.7247 125.17959] CT
N
f1472890730
f
GR
GS
[1 0 0 1 170.30972 118.37553] CT
N
f1472890730
f
GR
GS
[1 0 0 1 130.02029 60.25669] CT
N
f1472890730
f
GR
GS
[1 0 0 1 38.53978 98.30317] CT
N
f1472890730
f
GR
GS
[1 0 0 1 137.04254 148.11298] CT
N
f1472890730
f
GR
GS
[1 0 0 1 66.38793 131.01422] CT
N
f1472890730
f
GR
GS
[1 0 0 1 131.38979 133.52917] CT
N
f1472890730
f
GR
GS
[1 0 0 1 141.45399 90.14868] CT
N
f1472890730
f
GR
GS
[1 0 0 1 173.48422 104.7837] CT
N
f1472890730
f
GR
GS
[1 0 0 1 101.95332 111.89063] CT
N
f1472890730
f
GR
GS
[1 0 0 1 82.33354 59.96047] CT
N
f1472890730
f
GR
GS
[1 0 0 1 78.28746 93.88814] CT
N
f1472890730
f
GR
GS
[1 0 0 1 129.34106 77.18033] CT
N
f1472890730
f
GR
GS
[1 0 0 1 122.92684 111.4927] CT
N
f1472890730
f
GR
GS
[1 0 0 1 91.92048 129.57759] CT
N
f1472890730
f
GR
GS
[1 0 0 1 138.75735 103.60095] CT
N
f1472890730
f
GR
GS
[1 0 0 1 122.28569 90.01642] CT
N
f1472890730
f
GR
GS
[1 0 0 1 131.56329 129.28593] CT
N
f1472890730
f
GR
GS
[1 0 0 1 156.69431 124.29809] CT
N
f1472890730
f
GR
GS
[1 0 0 1 56.60773 92.7378] CT
N
f1472890730
f
GR
GS
[1 0 0 1 109.7131 78.32606] CT
N
f1472890730
f
GR
GS
[1 0 0 1 130.39938 87.95273] CT
N
f1472890730
f
GR
GS
[1 0 0 1 146.48161 96.97318] CT
N
f1472890730
f
GR
GS
[1 0 0 1 86.85522 103.71933] CT
N
f1472890730
f
GR
GS
[1 0 0 1 104.26353 127.82923] CT
N
f1472890730
f
GR
GS
[1 0 0 1 71.94341 90.91497] CT
N
f1472890730
f
GR
GS
[1 0 0 1 152.38869 125.70908] CT
N
f1472890730
f
GR
GS
[1 0 0 1 122.89029 132.33167] CT
N
f1472890730
f
GR
GS
[1 0 0 1 121.18691 131.09721] CT
N
f1472890730
f
GR
GS
[1 0 0 1 109.37624 154.64807] CT
N
f1472890730
f
GR
GS
[1 0 0 1 101.90856 44.73958] CT
N
f1472890730
f
GR
GS
[1 0 0 1 149.81924 77.82837] CT
N
f1472890730
f
GR
GS
[1 0 0 1 30.26334 131.79245] CT
N
f1472890730
f
GR
GS
[1 0 0 1 149.20284 103.00762] CT
N
f1472890730
f
GR
GS
[1 0 0 1 166.26814 90.38291] CT
N
f1472890730
f
GR
GS
[1 0 0 1 125.44504 123.33733] CT
N
f1472890730
f
GR
GS
[1 0 0 1 114.20574 44.31255] CT
N
f1472890730
f
GR
GS
[1 0 0 1 145.4453 82.79322] CT
N
f1472890730
f
GR
GS
[1 0 0 1 75.92661 115.41425] CT
N
f1472890730
f
GR
GS
[1 0 0 1 127.9692 108.21876] CT
N
f1472890730
f
GR
GS
[1 0 0 1 73.55223 101.10284] CT
N
f1472890730
f
GR
GS
[1 0 0 1 117.23846 136.60364] CT
N
f1472890730
f
GR
GS
[1 0 0 1 74.06039 104.66284] CT
N
f1472890730
f
GR
GS
[1 0 0 1 49.49167 143.79054] CT
N
f1472890730
f
GR
GS
[1 0 0 1 112.14281 86.82265] CT
N
f1472890730
f
GR
GS
[1 0 0 1 64.78223 89.36228] CT
N
f1472890730
f
GR
GS
[1 0 0 1 132.66188 102.8261] CT
N
f1472890730
f
GR
GS
[1 0 0 1 38.78596 128.70181] CT
N
f1472890730
f
GR
GS
[1 0 0 1 68.35264 99.68387] CT
N
f1472890730
f
GR
GS
[1 0 0 1 148.55627 80.2084] CT
N
f1472890730
f
GR
GS
[1 0 0 1 106.21021 69.41508] CT
N
f1472890730
f
GR
GS
[1 0 0 1 100.82295 55.89398] CT
N
f1472890730
f
GR
GS
[1 0 0 1 112.68623 92.21687] CT
N
f1472890730
f
GR
GS
[1 0 0 1 131.59187 129.54929] CT
N
f1472890730
f
GR
GS
[1 0 0 1 98.36217 128.25795] CT
N
f1472890730
f
GR
GS
[1 0 0 1 140.1788 64.68333] CT
N
f1472890730
f
GR
GS
[1 0 0 1 110.41846 156.43585] CT
N
f1472890730
f
GR
GS
[1 0 0 1 65.29578 101.56548] CT
N
f1472890730
f
GR
GS
[1 0 0 1 161.70122 55.89631] CT
N
f1472890730
f
GR
GS
[1 0 0 1 121.8494 56.21597] CT
N
f1472890730
f
GR
GS
[1 0 0 1 80.51218 85.8927] CT
N
f1472890730
f
GR
GS
[1 0 0 1 184.46477 58.10284] CT
N
f1472890730
f
GR
GS
[1 0 0 1 123.05118 130.81227] CT
N
f1472890730
f
GR
GS
[1 0 0 1 123.69584 60.48737] CT
N
f1472890730
f
GR
GS
[1 0 0 1 91.87806 53.39732] CT
N
f1472890730
f
GR
GS
[1 0 0 1 170.57556 81.67347] CT
N
f1472890730
f
GR
GS
[1 0 0 1 42.92149 101.36944] CT
N
f1472890730
f
GR
GS
[1 0 0 1 69.939 86.2015] CT
N
f1472890730
f
GR
GS
[1 0 0 1 148.46255 88.33006] CT
N
f1472890730
f
GR
GS
[1 0 0 1 153.22774 76.57471] CT
N
f1472890730
f
GR
GS
[1 0 0 1 161.01784 82.34976] CT
N
f1472890730
f
GR
GS
[1 0 0 1 102.28455 67.09082] CT
N
f1472890730
f
GR
GS
[1 0 0 1 127.91663 90.48946] CT
N
f1472890730
f
GR
GS
[1 0 0 1 143.61333 76.00656] CT
N
f1472890730
f
GR
GS
[1 0 0 1 38.86994 61.16861] CT
N
f1472890730
f
GR
GS
[1 0 0 1 144.91875 71.40257] CT
N
f1472890730
f
GR
GS
[1 0 0 1 113.98182 49.11143] CT
N
f1472890730
f
GR
GS
[1 0 0 1 159.24609 65.75676] CT
N
f1472890730
f
GR
GS
[1 0 0 1 158.5475 68.8583] CT
N
f1472890730
f
GR
GS
[1 0 0 1 29.62999 88.34792] CT
N
f1472890730
f
GR
GS
[1 0 0 1 135.65715 113.06339] CT
N
f1472890730
f
GR
GS
[1 0 0 1 84.56374 124.23499] CT
N
f1472890730
f
GR
GS
[1 0 0 1 74.31641 91.05148] CT
N
f1472890730
f
GR
GS
[1 0 0 1 104.12887 80.05933] CT
N
f1472890730
f
GR
GS
[1 0 0 1 70.95153 138.21806] CT
N
f1472890730
f
GR
GS
[1 0 0 1 122.8234 130.27969] CT
N
f1472890730
f
GR
GS
[1 0 0 1 78.78555 90.21702] CT
N
f1472890730
f
GR
GS
[1 0 0 1 110.15645 51.19421] CT
N
f1472890730
f
GR
GS
[1 0 0 1 137.68233 94.33488] CT
N
f1472890730
f
GR
GS
[1 0 0 1 153.95013 136.18065] CT
N
f1472890730
f
GR
GS
[1 0 0 1 148.61212 94.37737] CT
N
f1472890730
f
GR
GS
[1 0 0 1 141.26987 92.27484] CT
N
f1472890730
f
GR
GS
[1 0 0 1 78.96318 92.92606] CT
N
f1472890730
f
GR
GS
[1 0 0 1 64.09555 127.23046] CT
N
f1472890730
f
GR
GS
[1 0 0 1 169.83263 104.59161] CT
N
f1472890730
f
GR
GS
[1 0 0 1 138.84285 114.68928] CT
N
f1472890730
f
GR
GS
[1 0 0 1 95.4153 148.56633] CT
N
f1472890730
f
GR
GS
[1 0 0 1 125.45695 133.95201] CT
N
f1472890730
f
GR
GS
[1 0 0 1 76.19656 120.00639] CT
N
f1472890730
f
GR
GS
[1 0 0 1 131.5199 43.5752] CT
N
f1472890730
f
GR
GS
[1 0 0 1 61.49437 128.62791] CT
N
f1472890730
f
GR
GS
[1 0 0 1 125.37674 128.491] CT
N
f1472890730
f
GR
GS
[1 0 0 1 86.15997 128.27684] CT
N
f1472890730
f
GR
GS
[1 0 0 1 76.12244 96.4532] CT
N
f1472890730
f
GR
GS
[1 0 0 1 83.41138 96.55671] CT
N
f1472890730
f
GR
GS
[1 0 0 1 79.69431 117.6898] CT
N
f1472890730
f
GR
GS
[1 0 0 1 109.79832 140.03856] CT
N
f1472890730
f
GR
GS
[1 0 0 1 60.36488 105.20522] CT
N
f1472890730
f
GR
GS
[1 0 0 1 163.25359 96.27766] CT
N
f1472890730
f
GR
GS
[1 0 0 1 123.76423 63.08646] CT
N
f1472890730
f
GR
GS
[1 0 0 1 62.85969 153.32011] CT
N
f1472890730
f
GR
GS
[1 0 0 1 136.97369 123.58065] CT
N
f1472890730
f
GR
GS
[1 0 0 1 127.35941 113.47438] CT
N
f1472890730
f
GR
GS
[1 0 0 1 125.14907 91.01934] CT
N
f1472890730
f
GR
GS
[1 0 0 1 107.10701 71.7373] CT
N
f1472890730
f
GR
GS
[1 0 0 1 122.16545 135.30577] CT
N
f1472890730
f
GR
GS
[1 0 0 1 74.01997 119.0535] CT
N
f1472890730
f
GR
GS
[1 0 0 1 101.15914 61.52481] CT
N
f1472890730
f
GR
GS
[1 0 0 1 121.73193 85.08503] CT
N
f1472890730
f
GR
GS
[1 0 0 1 134.01431 77.15988] CT
N
f1472890730
f
GR
GS
[1 0 0 1 128.82465 100.80689] CT
N
f1472890730
f
GR
GS
[1 0 0 1 148.92 116.86749] CT
N
f1472890730
f
GR
GS
[1 0 0 1 41.2192 122.48312] CT
N
f1472890730
f
GR
GS
[1 0 0 1 107.43227 69.48351] CT
N
f1472890730
f
GR
GS
[1 0 0 1 40.73789 134.49915] CT
N
f1472890730
f
GR
GS
[1 0 0 1 54.01702 79.36161] CT
N
f1472890730
f
GR
GS
[1 0 0 1 55.79717 129.92752] CT
N
f1472890730
f
GR
GS
[1 0 0 1 38.77722 113.37003] CT
N
f1472890730
f
GR
GS
[1 0 0 1 74.16989 43.66005] CT
N
f1472890730
f
GR
GS
[1 0 0 1 187.38519 122.92104] CT
N
f1472890730
f
GR
GS
[1 0 0 1 125.67493 132.96724] CT
N
f1472890730
f
GR
GS
[1 0 0 1 88.92946 135.29836] CT
N
f1472890730
f
GR
GS
[1 0 0 1 132.18483 84.53268] CT
N
f1472890730
f
GR
GS
[1 0 0 1 48.38398 118.73118] CT
N
f1472890730
f
GR
GS
[1 0 0 1 134.97208 59.50494] CT
N
f1472890730
f
GR
GS
[1 0 0 1 62.49686 96.30523] CT
N
f1472890730
f
GR
GS
[1 0 0 1 157.53107 137.3808] CT
N
f1472890730
f
GR
GS
[1 0 0 1 165.49968 69.73386] CT
N
f1472890730
f
GR
GS
[1 0 0 1 110.70672 68.20894] CT
N
f1472890730
f
GR
GS
[1 0 0 1 77.43824 147.96019] CT
N
f1472890730
f
GR
GS
[1 0 0 1 117.41318 155.71652] CT
N
f1472890730
f
GR
GS
[1 0 0 1 168.12204 57.68544] CT
N
f1472890730
f
GR
GS
[1 0 0 1 111.40063 68.43716] CT
N
f1472890730
f
GR
GS
[1 0 0 1 174.21259 84.19547] CT
N
f1472890730
f
GR
GS
[1 0 0 1 96.97168 123.79074] CT
N
f1472890730
f
GR
GS
[1 0 0 1 170.64006 115.16096] CT
N
f1472890730
f
GR
GS
[1 0 0 1 143.90233 91.90727] CT
N
f1472890730
f
GR
GS
[1 0 0 1 141.58321 101.79041] CT
N
f1472890730
f
GR
GS
[1 0 0 1 102.59364 134.3363] CT
N
f1472890730
f
GR
GS
[1 0 0 1 143.63879 98.57787] CT
N
f1472890730
f
GR
GS
[1 0 0 1 113.37459 143.1631] CT
N
f1472890730
f
GR
GS
[1 0 0 1 165.9635 110.22155] CT
N
f1472890730
f
GR
GS
[1 0 0 1 72.70123 149.93878] CT
N
f1472890730
f
GR
GS
[1 0 0 1 111.32553 58.56001] CT
N
f1472890730
f
GR
GS
[1 0 0 1 90.27647 85.84477] CT
N
f1472890730
f
GR
GS
[1 0 0 1 100.36335 57.06945] CT
N
f1472890730
f
GR
GS
[1 0 0 1 76.34849 88.61853] CT
N
f1472890730
f
GR
GS
[1 0 0 1 68.82347 107.01778] CT
N
f1472890730
f
GR
GS
[1 0 0 1 94.2556 69.2983] CT
N
f1472890730
f
GR
GS
[1 0 0 1 127.54454 126.90084] CT
N
f1472890730
f
GR
GS
[1 0 0 1 83.58711 62.27134] CT
N
f1472890730
f
GR
GS
[1 0 0 1 114.12239 147.6821] CT
N
f1472890730
f
GR
GS
[1 0 0 1 159.80067 110.46958] CT
N
f1472890730
f
GR
GS
[1 0 0 1 133.89182 95.22113] CT
N
f1472890730
f
GR
GS
[1 0 0 1 98.01377 136.47185] CT
N
f1472890730
f
GR
GS
[1 0 0 1 130.96762 62.01637] CT
N
f1472890730
f
GR
GS
[1 0 0 1 142.42085 108.52076] CT
N
f1472890730
f
GR
GS
[1 0 0 1 131.36139 71.41486] CT
N
f1472890730
f
GR
GS
[1 0 0 1 86.8869 94.40379] CT
N
f1472890730
f
GR
GS
[1 0 0 1 112.36123 132.66779] CT
N
f1472890730
f
GR
GS
[1 0 0 1 158.65295 63.88285] CT
N
f1472890730
f
GR
GS
[1 0 0 1 75.58273 125.26882] CT
N
f1472890730
f
GR
GS
[1 0 0 1 139.3007 95.23233] CT
N
f1472890730
f
GR
GS
[1 0 0 1 122.83069 120.30745] CT
N
f1472890730
f
GR
GS
[1 0 0 1 169.3231 103.65198] CT
N
f1472890730
f
GR
GS
[1 0 0 1 100.01109 88.23045] CT
N
f1472890730
f
GR
GS
[1 0 0 1 105.90586 93.4194] CT
N
f1472890730
f
GR
GS
[1 0 0 1 134.29929 79.50034] CT
N
f1472890730
f
GR
GS
[1 0 0 1 129.35815 126.52263] CT
N
f1472890730
f
GR
GS
[1 0 0 1 134.7267 58.29537] CT
N
f1472890730
f
GR
GS
[1 0 0 1 142.45575 52.07057] CT
N
f1472890730
f
GR
GS
[1 0 0 1 46.41196 102.58039] CT
N
f1472890730
f
GR
GS
[1 0 0 1 158.52222 88.74253] CT
N
f1472890730
f
GR
GS
[1 0 0 1 125.64046 72.77587] CT
N
f1472890730
f
GR
GS
[1 0 0 1 119.58843 96.09751] CT
N
f1472890730
f
GR
GS
[1 0 0 1 92.65211 93.7822] CT
N
f1472890730
f
GR
GS
[1 0 0 1 96.27338 116.57972] CT
N
f1472890730
f
GR
GS
[1 0 0 1 131.9016 95.36089] CT
N
f1472890730
f
GR
GS
[1 0 0 1 131.44099 47.88561] CT
N
f1472890730
f
GR
GS
[1 0 0 1 98.53036 135.90361] CT
N
f1472890730
f
GR
GS
[1 0 0 1 129.01208 103.64026] CT
N
f1472890730
f
GR
GS
[1 0 0 1 130.87857 117.91955] CT
N
f1472890730
f
GR
GS
[1 0 0 1 110.62922 131.75258] CT
N
f1472890730
f
GR
GS
[1 0 0 1 192.5219 135.8091] CT
N
f1472890730
f
GR
GS
[1 0 0 1 142.56276 57.4399] CT
N
f1472890730
f
GR
GS
[1 0 0 1 120.10371 119.73051] CT
N
f1472890730
f
GR
GS
[1 0 0 1 100.54064 82.81744] CT
N
f1472890730
f
GR
GS
[1 0 0 1 127.52975 42.67546] CT
N
f1472890730
f
GR
GS
[1 0 0 1 141.88181 88.53248] CT
N
f1472890730
f
GR
GS
[1 0 0 1 65.46492 120.1273] CT
N
f1472890730
f
GR
GS
[1 0 0 1 54.79428 137.67676] CT
N
f1472890730
f
GR
GS
[1 0 0 1 48.5038 119.53514] CT
N
f1472890730
f
GR
GS
[1 0 0 1 149.18178 98.28028] CT
N
f1472890730
f
GR
GS
[1 0 0 1 85.99438 81.40786] CT
N
f1472890730
f
GR
GS
[1 0 0 1 82.51601 81.31909] CT
N
f1472890730
f
GR
GS
[1 0 0 1 144.82326 131.49585] CT
N
f1472890730
f
GR
GS
[1 0 0 1 142.40164 111.77378] CT
N
f1472890730
f
GR
GS
[1 0 0 1 57.91136 111.66509] CT
N
f1472890730
f
GR
GS
[1 0 0 1 56.8032 102.74635] CT
N
f1472890730
f
GR
GS
[1 0 0 1 171.65529 102.20921] CT
N
f1472890730
f
GR
GS
[1 0 0 1 148.88625 82.9615] CT
N
f1472890730
f
GR
GS
[1 0 0 1 126.98463 115.58669] CT
N
f1472890730
f
GR
GS
[1 0 0 1 75.53172 108.30187] CT
N
f1472890730
f
GR
GS
[1 0 0 1 120.0265 154.77231] CT
N
f1472890730
f
GR
GS
[1 0 0 1 116.41949 150.15663] CT
N
f1472890730
f
GR
GS
[1 0 0 1 156.53145 112.45925] CT
N
f1472890730
f
GR
GS
[1 0 0 1 145.35625 106.65632] CT
N
f1472890730
f
GR
GS
[1 0 0 1 102.09589 145.28789] CT
N
f1472890730
f
GR
GS
[1 0 0 1 134.63716 121.87471] CT
N
f1472890730
f
GR
GS
[1 0 0 1 129.75366 130.40202] CT
N
f1472890730
f
GR
GS
[1 0 0 1 134.08745 122.92313] CT
N
f1472890730
f
GR
GS
[1 0 0 1 81.92114 102.07347] CT
N
f1472890730
f
GR
GS
[1 0 0 1 119.27396 137.61092] CT
N
f1472890730
f
GR
GS
[1 0 0 1 159.67458 110.7608] CT
N
f1472890730
f
GR
GS
[1 0 0 1 125.74718 51.74498] CT
N
f1472890730
f
GR
GS
[1 0 0 1 146.78383 97.55657] CT
N
f1472890730
f
GR
GS
[1 0 0 1 84.50684 149.90915] CT
N
f1472890730
f
GR
GS
[1 0 0 1 116.6608 91.48421] CT
N
f1472890730
f
GR
GS
[1 0 0 1 99.97766 139.49832] CT
N
f1472890730
f
GR
GS
[1 0 0 1 165.5276 94.3484] CT
N
f1472890730
f
GR
GS
[1 0 0 1 69.27473 134.43889] CT
N
f1472890730
f
GR
GS
[1 0 0 1 57.05636 134.1044] CT
N
f1472890730
f
GR
GS
[1 0 0 1 131.37537 173.34483] CT
N
f1472890730
f
GR
GS
[1 0 0 1 54.02181 69.02692] CT
N
f1472890730
f
GR
GS
[1 0 0 1 47.93619 101.65746] CT
N
f1472890730
f
GR
GS
[1 0 0 1 60.16733 102.78152] CT
N
f1472890730
f
GR
GS
[1 0 0 1 142.09187 117.39059] CT
N
f1472890730
f
GR
GS
[1 0 0 1 186.83093 131.54997] CT
N
f1472890730
f
GR
GS
[1 0 0 1 119.18322 139.26625] CT
N
f1472890730
f
GR
GS
[1 0 0 1 127.93703 121.30962] CT
N
f1472890730
f
GR
GS
[1 0 0 1 129.28671 132.04544] CT
N
f1472890730
f
GR
GS
[1 0 0 1 77.7184 91.40032] CT
N
f1472890730
f
GR
GS
[1 0 0 1 95.56306 77.71855] CT
N
f1472890730
f
GR
GS
[1 0 0 1 159.35597 96.22423] CT
N
f1472890730
f
GR
GS
[1 0 0 1 36.06963 146.49847] CT
N
f1472890730
f
GR
GS
[1 0 0 1 94.07294 69.60121] CT
N
f1472890730
f
GR
GS
[1 0 0 1 90.29234 75.58134] CT
N
f1472890730
f
GR
GS
[1 0 0 1 112.09742 130.5392] CT
N
f1472890730
f
GR
GS
[1 0 0 1 147.36784 108.66313] CT
N
f1472890730
f
GR
GS
[1 0 0 1 177.85614 72.78732] CT
N
f1472890730
f
GR
GS
[1 0 0 1 98.97192 140.55614] CT
N
f1472890730
f
GR
GS
[1 0 0 1 65.3948 134.99939] CT
N
f1472890730
f
GR
GS
[1 0 0 1 113.32961 59.74013] CT
N
f1472890730
f
GR
GS
[1 0 0 1 145.99681 123.08685] CT
N
f1472890730
f
GR
GS
[1 0 0 1 127.4561 130.36874] CT
N
f1472890730
f
GR
GS
[1 0 0 1 106.30589 142.39888] CT
N
f1472890730
f
GR
GS
[1 0 0 1 81.1428 130.93956] CT
N
f1472890730
f
GR
GS
[1 0 0 1 42.53643 130.83015] CT
N
f1472890730
f
GR
GS
[1 0 0 1 143.14609 57.59791] CT
N
f1472890730
f
GR
GS
[1 0 0 1 115.16286 155.56258] CT
N
f1472890730
f
GR
GS
[1 0 0 1 102.77548 136.72185] CT
N
f1472890730
f
GR
GS
[1 0 0 1 52.5855 135.72757] CT
N
f1472890730
f
GR
GS
[1 0 0 1 79.9422 142.48759] CT
N
f1472890730
f
GR
GS
[1 0 0 1 165.00568 58.76931] CT
N
f1472890730
f
GR
GS
[1 0 0 1 95.89631 141.76669] CT
N
f1472890730
f
GR
GS
[1 0 0 1 147.13382 150.3609] CT
N
f1472890730
f
GR
GS
[1 0 0 1 128.35008 132.44676] CT
N
f1472890730
f
GR
GS
[1 0 0 1 130.73863 152.00308] CT
N
f1472890730
f
GR
GS
[1 0 0 1 93.75279 132.90608] CT
N
f1472890730
f
GR
GS
[1 0 0 1 153.85916 122.58219] CT
N
f1472890730
f
GR
GS
[1 0 0 1 123.37724 141.32909] CT
N
f1472890730
f
GR
GS
[1 0 0 1 70.70318 150.90811] CT
N
f1472890730
f
GR
GS
[1 0 0 1 142.70029 48.18816] CT
N
f1472890730
f
GR
GS
[1 0 0 1 58.45282 141.73366] CT
N
f1472890730
f
GR
GS
[1 0 0 1 37.20225 127.49832] CT
N
f1472890730
f
GR
GS
[1 0 0 1 137.47705 147.847] CT
N
f1472890730
f
GR
GS
[1 0 0 1 92.66818 99.20212] CT
N
f1472890730
f
GR
GS
[1 0 0 1 104.8256 92.85696] CT
N
f1472890730
f
GR
GS
[1 0 0 1 85.29321 91.13831] CT
N
f1472890730
f
GR
GS
[1 0 0 1 114.25007 85.8783] CT
N
f1472890730
f
GR
GS
[1 0 0 1 99.33431 84.31802] CT
N
f1472890730
f
GR
GS
[1 0 0 1 97.79139 83.44919] CT
N
f1472890730
f
GR
GS
[1 0 0 1 124.13867 78.48248] CT
N
f1472890730
f
GR
GS
[1 0 0 1 115.77599 79.79558] CT
N
f1472890730
f
GR
GS
[1 0 0 1 145.83632 71.21265] CT
N
f1472890730
f
GR
GS
[1 0 0 1 124.32115 82.96043] CT
N
f1472890730
f
GR
GS
[1 0 0 1 107.51511 88.87733] CT
N
f1472890730
f
GR
GS
[1 0 0 1 137.64503 82.65034] CT
N
f1472890730
f
GR
GS
[1 0 0 1 42.9191 80.40936] CT
N
f1472890730
f
GR
GS
[1 0 0 1 53.13889 123.12337] CT
N
f1472890730
f
GR
GS
[1 0 0 1 129.04932 132.3997] CT
N
f1472890730
f
GR
GS
[1 0 0 1 162.48296 79.85378] CT
N
f1472890730
f
GR
GS
[1 0 0 1 37.39185 93.02326] CT
N
f1472890730
f
GR
GS
[1 0 0 1 71.67355 68.3055] CT
N
f1472890730
f
GR
GS
[1 0 0 1 93.49691 73.97016] CT
N
f1472890730
f
GR
GS
[1 0 0 1 79.66341 127.62129] CT
N
f1472890730
f
GR
GS
[1 0 0 1 148.21753 90.59273] CT
N
f1472890730
f
GR
GS
[1 0 0 1 41.14329 104.5825] CT
N
f1472890730
f
GR
GS
[1 0 0 1 116.71475 124.31398] CT
N
f1472890730
f
GR
GS
[1 0 0 1 112.86732 145.9847] CT
N
f1472890730
f
GR
GS
[1 0 0 1 72.56102 135.34917] CT
N
f1472890730
f
GR
GS
[1 0 0 1 147.02956 73.76556] CT
N
f1472890730
f
GR
GS
[1 0 0 1 194.84416 73.71823] CT
N
f1472890730
f
GR
GS
[1 0 0 1 134.74901 75.34922] CT
N
f1472890730
f
GR
GS
[1 0 0 1 143.94403 75.2738] CT
N
f1472890730
f
GR
GS
[1 0 0 1 96.0418 89.8351] CT
N
f1472890730
f
GR
GS
[1 0 0 1 96.1535 112.19112] CT
N
f1472890730
f
GR
GS
[1 0 0 1 137.69153 78.0239] CT
N
f1472890730
f
GR
GS
[1 0 0 1 85.91741 123.43507] CT
N
f1472890730
f
GR
GS
[1 0 0 1 73.30294 112.27538] CT
N
f1472890730
f
GR
GS
[1 0 0 1 107.15332 134.37578] CT
N
f1472890730
f
GR
GS
[1 0 0 1 148.19704 123.48473] CT
N
f1472890730
f
GR
GS
[1 0 0 1 131.78493 78.90382] CT
N
f1472890730
f
GR
GS
[1 0 0 1 124.3918 61.77713] CT
N
f1472890730
f
GR
GS
[1 0 0 1 101.48965 150.14824] CT
N
f1472890730
f
GR
GS
[1 0 0 1 101.65102 126.3178] CT
N
f1472890730
f
GR
GS
[1 0 0 1 96.88194 96.15147] CT
N
f1472890730
f
GR
GS
[1 0 0 1 85.16649 87.55506] CT
N
f1472890730
f
GR
GS
[1 0 0 1 89.69874 59.922] CT
N
f1472890730
f
GR
GS
[1 0 0 1 130.61357 146.19254] CT
N
f1472890730
f
GR
GS
[1 0 0 1 157.13898 61.39875] CT
N
f1472890730
f
GR
GS
[1 0 0 1 83.21958 120.69449] CT
N
f1472890730
f
GR
GS
[1 0 0 1 137.6443 84.84196] CT
N
f1472890730
f
GR
GS
[1 0 0 1 105.07256 130.51912] CT
N
f1472890730
f
GR
GS
[1 0 0 1 120.54123 68.12573] CT
N
f1472890730
f
GR
GS
[1 0 0 1 95.30631 136.64467] CT
N
f1472890730
f
GR
GS
[1 0 0 1 156.96646 85.53814] CT
N
f1472890730
f
GR
GS
[1 0 0 1 165.60648 60.32431] CT
N
f1472890730
f
GR
GS
[1 0 0 1 123.91263 147.4024] CT
N
f1472890730
f
GR
GS
[1 0 0 1 103.71912 144.26907] CT
N
f1472890730
f
GR
GS
[1 0 0 1 128.23286 140.7795] CT
N
f1472890730
f
GR
GS
[1 0 0 1 86.09023 75.69633] CT
N
f1472890730
f
GR
GS
[1 0 0 1 144.06967 85.32822] CT
N
f1472890730
f
GR
GS
[1 0 0 1 138.58798 100.8856] CT
N
f1472890730
f
GR
GS
[1 0 0 1 136.63684 114.43018] CT
N
f1472890730
f
GR
GS
[1 0 0 1 104.17427 139.23119] CT
N
f1472890730
f
GR
GS
[1 0 0 1 103.13582 133.56516] CT
N
f1472890730
f
GR
GS
[1 0 0 1 75.41623 143.75735] CT
N
f1472890730
f
GR
GS
[1 0 0 1 121.99635 145.28241] CT
N
f1472890730
f
GR
GS
[1 0 0 1 73.70343 137.97194] CT
N
f1472890730
f
GR
GS
[1 0 0 1 116.13874 133.93272] CT
N
f1472890730
f
GR
GS
[1 0 0 1 78.52964 104.57159] CT
N
f1472890730
f
GR
GS
[1 0 0 1 87.12701 89.34288] CT
N
f1472890730
f
GR
GS
[1 0 0 1 73.14616 93.1346] CT
N
f1472890730
f
GR
GS
[1 0 0 1 77.21213 70.70263] CT
N
f1472890730
f
GR
GS
[1 0 0 1 185.73853 65.40242] CT
N
f1472890730
f
GR
GS
[1 0 0 1 53.32968 139.80463] CT
N
f1472890730
f
GR
GS
[1 0 0 1 44.32855 126.36192] CT
N
f1472890730
f
GR
GS
[1 0 0 1 99.3588 94.622] CT
N
f1472890730
f
GR
GS
[1 0 0 1 136.11642 152.55258] CT
N
f1472890730
f
GR
GS
[1 0 0 1 175.9985 79.96484] CT
N
f1472890730
f
GR
GS
[1 0 0 1 123.15127 59.21093] CT
N
f1472890730
f
GR
GS
[1 0 0 1 94.0146 111.28513] CT
N
f1472890730
f
GR
GS
[1 0 0 1 68.86954 89.99455] CT
N
f1472890730
f
GR
GS
[1 0 0 1 154.466 64.16315] CT
N
f1472890730
f
GR
GS
[1 0 0 1 157.73471 79.57191] CT
N
f1472890730
f
GR
GS
[1 0 0 1 148.10832 90.96752] CT
N
f1472890730
f
GR
GS
[1 0 0 1 159.3325 68.11352] CT
N
f1472890730
f
GR
GS
[1 0 0 1 111.72242 130.43196] CT
N
f1472890730
f
GR
GS
[1 0 0 1 52.70234 131.25345] CT
N
f1472890730
f
GR
GS
[1 0 0 1 164.10699 66.83446] CT
N
f1472890730
f
GR
GS
[1 0 0 1 94.29922 96.32281] CT
N
f1472890730
f
GR
GS
[1 0 0 1 95.36235 108.46248] CT
N
f1472890730
f
GR
GS
[1 0 0 1 145.5804 87.52824] CT
N
f1472890730
f
GR
GS
[1 0 0 1 95.36209 137.96765] CT
N
f1472890730
f
GR
GS
[1 0 0 1 90.34605 127.59911] CT
N
f1472890730
f
GR
GS
[1 0 0 1 120.22527 79.61369] CT
N
f1472890730
f
GR
GS
[1 0 0 1 151.63437 83.43825] CT
N
f1472890730
f
GR
GS
[1 0 0 1 85.16645 122.10043] CT
N
f1472890730
f
GR
GS
[1 0 0 1 109.35253 139.13553] CT
N
f1472890730
f
GR
GS
[1 0 0 1 151.92007 71.32206] CT
N
f1472890730
f
GR
GS
[1 0 0 1 115.96499 132.34969] CT
N
f1472890730
f
GR
GS
[1 0 0 1 89.65231 113.35665] CT
N
f1472890730
f
GR
GS
[1 0 0 1 74.05877 117.46458] CT
N
f1472890730
f
GR
GS
[1 0 0 1 148.88869 83.5812] CT
N
f1472890730
f
GR
GS
[1 0 0 1 121.92574 136.02275] CT
N
f1472890730
f
GR
GS
[1 0 0 1 140.91374 123.68293] CT
N
f1472890730
f
GR
GS
[1 0 0 1 90.10873 116.44229] CT
N
f1472890730
f
GR
GS
[1 0 0 1 128.429 146.10458] CT
N
f1472890730
f
GR
GS
[1 0 0 1 75.58472 135.52489] CT
N
f1472890730
f
GR
GS
[1 0 0 1 117.16755 151.99947] CT
N
f1472890730
f
GR
GS
[1 0 0 1 53.42899 135.82416] CT
N
f1472890730
f
GR
GS
[1 0 0 1 103.70818 127.51424] CT
N
f1472890730
f
GR
GS
[1 0 0 1 136.23016 85.44915] CT
N
f1472890730
f
GR
GS
[1 0 0 1 92.18499 113.91485] CT
N
f1472890730
f
GR
GS
[1 0 0 1 110.5162 87.7462] CT
N
f1472890730
f
GR
GS
[1 0 0 1 74.61572 143.57957] CT
N
f1472890730
f
GR
GS
[1 0 0 1 119.23299 117.84209] CT
N
f1472890730
f
GR
GS
[1 0 0 1 119.83925 126.20485] CT
N
f1472890730
f
GR
GS
[1 0 0 1 112.93883 139.34418] CT
N
f1472890730
f
GR
GS
[1 0 0 1 89.21755 136.16852] CT
N
f1472890730
f
GR
GS
[1 0 0 1 113.81223 98.4792] CT
N
f1472890730
f
GR
GS
[1 0 0 1 87.5789 135.05196] CT
N
f1472890730
f
GR
GS
[1 0 0 1 143.2765 69.18779] CT
N
f1472890730
f
GR
GS
[1 0 0 1 111.87991 95.14476] CT
N
f1472890730
f
GR
GS
[1 0 0 1 179.78076 84.73602] CT
N
f1472890730
f
GR
GS
[1 0 0 1 105.27153 83.198] CT
N
f1472890730
f
GR
GS
[1 0 0 1 56.37174 125.76344] CT
N
f1472890730
f
GR
GS
[1 0 0 1 188.54082 61.35128] CT
N
f1472890730
f
GR
GS
[1 0 0 1 138.82756 87.18484] CT
N
f1472890730
f
GR
GS
[1 0 0 1 130.91292 125.67203] CT
N
f1472890730
f
GR
GS
[1 0 0 1 118.88705 139.08006] CT
N
f1472890730
f
GR
GS
[1 0 0 1 151.57814 87.9812] CT
N
f1472890730
f
GR
GS
[1 0 0 1 168.81602 104.09091] CT
N
f1472890730
f
GR
GS
[1 0 0 1 95.17888 103.42355] CT
N
f1472890730
f
GR
GS
[1 0 0 1 151.99763 94.14796] CT
N
f1472890730
f
GR
GS
[1 0 0 1 50.50731 144.57668] CT
N
f1472890730
f
GR
GS
[1 0 0 1 168.79759 90.37231] CT
N
f1472890730
f
GR
GS
[1 0 0 1 154.02965 67.57746] CT
N
f1472890730
f
GR
GS
[1 0 0 1 120.58599 130.30367] CT
N
f1472890730
f
GR
GS
[1 0 0 1 131.05431 80.8493] CT
N
f1472890730
f
GR
GS
[1 0 0 1 107.36018 152.4765] CT
N
f1472890730
f
GR
GS
[1 0 0 1 144.74826 89.15562] CT
N
f1472890730
f
GR
GS
[1 0 0 1 127.4895 96.65373] CT
N
f1472890730
f
GR
GS
[1 0 0 1 142.33595 102.41331] CT
N
f1472890730
f
GR
GS
[1 0 0 1 129.27025 105.90237] CT
N
f1472890730
f
GR
GS
[1 0 0 1 139.11433 98.08338] CT
N
f1472890730
f
GR
GS
[1 0 0 1 101.27996 136.08313] CT
N
f1472890730
f
GR
GS
[1 0 0 1 119.68356 62.49199] CT
N
f1472890730
f
GR
GS
[1 0 0 1 126.02036 115.54803] CT
N
f1472890730
f
GR
GS
[1 0 0 1 128.51585 116.16716] CT
N
f1472890730
f
GR
GS
[1 0 0 1 176.89182 106.6842] CT
N
f1472890730
f
GR
GS
[1 0 0 1 127.18429 137.80482] CT
N
f1472890730
f
GR
GS
[1 0 0 1 176.33095 96.69455] CT
N
f1472890730
f
GR
GS
[1 0 0 1 121.74723 142.40166] CT
N
f1472890730
f
GR
GS
[1 0 0 1 133.82431 129.61557] CT
N
f1472890730
f
GR
GS
[1 0 0 1 37.45715 158.44025] CT
N
f1472890730
f
GR
GS
[1 0 0 1 29.62144 91.74155] CT
N
f1472890730
f
GR
GS
[1 0 0 1 40.22943 132.02324] CT
N
f1472890730
f
GR
GS
[1 0 0 1 139.51395 60.51351] CT
N
f1472890730
f
GR
GS
[1 0 0 1 90.87654 93.86316] CT
N
f1472890730
f
GR
GS
[1 0 0 1 109.77433 69.85234] CT
N
f1472890730
f
GR
GS
[1 0 0 1 83.72345 118.28403] CT
N
f1472890730
f
GR
GS
[1 0 0 1 138.92036 122.90105] CT
N
f1472890730
f
GR
GS
[1 0 0 1 83.04589 110.74696] CT
N
f1472890730
f
GR
GS
[1 0 0 1 141.01328 103.64963] CT
N
f1472890730
f
GR
GS
[1 0 0 1 115.55033 133.13184] CT
N
f1472890730
f
GR
GS
[1 0 0 1 116.61001 120.60437] CT
N
f1472890730
f
GR
GS
[1 0 0 1 106.35006 132.92119] CT
N
f1472890730
f
GR
GS
[1 0 0 1 72.13815 117.45612] CT
N
f1472890730
f
GR
GS
[1 0 0 1 69.74065 105.58163] CT
N
f1472890730
f
GR
GS
[1 0 0 1 119.99825 81.23779] CT
N
f1472890730
f
GR
GS
[1 0 0 1 75.66229 112.32747] CT
N
f1472890730
f
GR
GS
[1 0 0 1 125.57259 104.76189] CT
N
f1472890730
f
GR
GS
[1 0 0 1 124.35945 85.36571] CT
N
f1472890730
f
GR
GS
[1 0 0 1 98.5712 103.56078] CT
N
f1472890730
f
GR
GS
[1 0 0 1 121.30145 115.3056] CT
N
f1472890730
f
GR
GS
[1 0 0 1 76.96637 131.3342] CT
N
f1472890730
f
GR
GS
[1 0 0 1 110.57407 129.53235] CT
N
f1472890730
f
GR
GS
[1 0 0 1 127.04102 100.05157] CT
N
f1472890730
f
GR
GS
[1 0 0 1 170.9362 104.46198] CT
N
f1472890730
f
GR
GS
[1 0 0 1 108.38392 101.75626] CT
N
f1472890730
f
GR
GS
[1 0 0 1 133.5816 104.3625] CT
N
f1472890730
f
GR
GS
[1 0 0 1 117.90316 129.31627] CT
N
f1472890730
f
GR
GS
[1 0 0 1 82.9021 139.8887] CT
N
f1472890730
f
GR
GS
[1 0 0 1 42.39951 115.16516] CT
N
f1472890730
f
GR
GS
[1 0 0 1 154.63684 98.70792] CT
N
f1472890730
f
GR
GS
[1 0 0 1 84.33134 98.48121] CT
N
f1472890730
f
GR
GS
[1 0 0 1 106.88529 83.73457] CT
N
f1472890730
f
GR
GS
[1 0 0 1 87.36362 147.82941] CT
N
f1472890730
f
GR
GS
[1 0 0 1 87.65786 106.87861] CT
N
f1472890730
f
GR
GS
[1 0 0 1 107.77755 147.21735] CT
N
f1472890730
f
GR
GS
[1 0 0 1 113.89117 126.8651] CT
N
f1472890730
f
GR
GS
[1 0 0 1 104.07254 140.92548] CT
N
f1472890730
f
GR
GS
[1 0 0 1 52.28111 99.75866] CT
N
f1472890730
f
GR
GS
[1 0 0 1 81.84533 136.17915] CT
N
f1472890730
f
GR
GS
[1 0 0 1 125.2917 83.90673] CT
N
f1472890730
f
GR
GS
[1 0 0 1 35.64618 111.38857] CT
N
f1472890730
f
GR
GS
[1 0 0 1 84.88467 80.72946] CT
N
f1472890730
f
GR
GS
[1 0 0 1 138.97824 121.16618] CT
N
f1472890730
f
GR
GS
[1 0 0 1 128.23718 123.59011] CT
N
f1472890730
f
GR
GS
[1 0 0 1 124.01424 145.44363] CT
N
f1472890730
f
GR
GS
[1 0 0 1 188.2106 86.14873] CT
N
f1472890730
f
GR
GS
[1 0 0 1 129.79558 137.39125] CT
N
f1472890730
f
GR
GS
[1 0 0 1 42.06253 136.36723] CT
N
f1472890730
f
GR
GS
[1 0 0 1 70.39376 109.99773] CT
N
f1472890730
f
GR
GS
[1 0 0 1 78.80842 130.83717] CT
N
f1472890730
f
GR
GS
[1 0 0 1 98.68284 92.49495] CT
N
f1472890730
f
GR
GS
[1 0 0 1 104.41096 104.34791] CT
N
f1472890730
f
GR
GS
[1 0 0 1 97.38881 121.70822] CT
N
f1472890730
f
GR
GS
[1 0 0 1 140.37303 81.92278] CT
N
f1472890730
f
GR
GS
[1 0 0 1 139.42596 137.13788] CT
N
f1472890730
f
GR
GS
[1 0 0 1 76.67833 73.14026] CT
N
f1472890730
f
GR
%%Trailer
%%Pages: 1
%%EOF
