\relax 
\citation{Temizer2015a}
\citation{Stewart2014}
\citation{Temizer2015a}
\citation{Stewart2014}
\citation{Steward2014}
\@writefile{toc}{\contentsline {section}{\numberline {1}Introduction}{1}}
\newlabel{sec:introduction}{{1}{1}}
\@writefile{toc}{\contentsline {section}{\numberline {2}Experimental Dataset}{2}}
\@writefile{toc}{\contentsline {section}{\numberline {3}Prey Behavior Modeling}{2}}
\@writefile{toc}{\contentsline {paragraph}{Strategy 1 - Contralateral:}{2}}
\@writefile{lof}{\contentsline {figure}{\numberline {1}{\ignorespaces Positions and orientations of prey relative to predator before and after escape response. The orientation of the prey before escape is denoted $\mathbf  {p}_o$ and after $\mathbf  {p}$. The change of heading is denoted $\Delta \theta $. The displacement vector is denoted $\Delta \mathbf  {x}$ and the angle it makes with the original orientation is denoted $\delta $. \relax }}{3}}
\providecommand*\caption@xref[2]{\@setref\relax\@undefined{#1}}
\newlabel{fig:data_predatorframe}{{1}{3}}
\@writefile{lof}{\contentsline {figure}{\numberline {2}{\ignorespaces Positions and orientations of predator relative to prey at the moment of escape response. The distance and angular position of the predator is denoted $d$ and $\phi $, respectively. The heading of the predator is $\theta _p$ and its speed is $V$. The speed of the prey is denoted $U$. \relax }}{4}}
\newlabel{fig:data_preyframe}{{2}{4}}
\@writefile{lof}{\contentsline {figure}{\numberline {3}{\ignorespaces Scatterplot of all data. Accounted for $\theta _p$ and $\phi $ dependence on experimental setup. \relax }}{5}}
\newlabel{fig:scatterplots}{{3}{5}}
\@writefile{lof}{\contentsline {figure}{\numberline {4}{\ignorespaces The relationship between $\phi $ and $\theta _p$ is determined by experimental setup. The prey are only observed to escape when they are `ahead' of the predator, which can be translated into the bound $\phi -\theta _p \in [\pi /2,3\pi /2]$. \relax }}{6}}
\newlabel{fig:dataplot_phi_thp}{{4}{6}}
\@writefile{lof}{\contentsline {figure}{\numberline {5}{\ignorespaces Strategy 3\relax }}{6}}
\newlabel{fig:S3}{{5}{6}}
\@writefile{toc}{\contentsline {paragraph}{Strategy 2 - Antipodal:}{6}}
\@writefile{toc}{\contentsline {paragraph}{Strategy 3 - Orthogonal:}{6}}
\@writefile{lof}{\contentsline {figure}{\numberline {6}{\ignorespaces S4 \relax }}{7}}
\newlabel{S4}{{6}{7}}
\@writefile{toc}{\contentsline {paragraph}{Strategy 4 - Optimal:}{7}}
\newlabel{dSq}{{11}{7}}
\@writefile{lof}{\contentsline {figure}{\numberline {7}{\ignorespaces Scatterplot of all data. Predictions of strategies. \relax }}{8}}
\newlabel{fig:scatterplots_predictions}{{7}{8}}
\@writefile{toc}{\contentsline {paragraph}{Strategy 5 - Protean:}{8}}
\@writefile{toc}{\contentsline {paragraph}{Comparison with Data}{8}}
\@writefile{toc}{\contentsline {section}{\numberline {4}Bayesian framework for noisy sensory perception}{9}}
\newlabel{eq:sensory_noise}{{19}{9}}
\@writefile{toc}{\contentsline {section}{\numberline {5}Characterization of model response with sensory and response noise}{9}}
\newlabel{eq:mutual_information}{{26}{9}}
\@writefile{lof}{\contentsline {figure}{\numberline {8}{\ignorespaces Mutual information in dataset for $N_g = 11$.\relax }}{10}}
\newlabel{fig:MI_data}{{8}{10}}
\@writefile{lof}{\contentsline {figure}{\numberline {9}{\ignorespaces Responses for $\sigma _\phi \in \{ 0.01\pi , 0.02\pi , 0.05\pi , 0.1\pi , 0.2\pi , 0.5\pi \}$ and $\sigma _\Delta = 0.050\pi $.\relax }}{10}}
\newlabel{fig:sample_response}{{9}{10}}
\@writefile{lof}{\contentsline {figure}{\numberline {10}{\ignorespaces Mutual information variation with respect to $\sigma _\phi $ and $\sigma _\Delta $.\relax }}{11}}
\newlabel{fig:paramstudy}{{10}{11}}
\citation{PerezCruz2008}
\@writefile{toc}{\contentsline {section}{\numberline {6}Kullback-Leibler Divergece Estimation}{12}}
\newlabel{eq:kldiv}{{33}{12}}
\@writefile{lof}{\contentsline {figure}{\numberline {11}{\ignorespaces $k$-nearest-neighbor (KNN) estimation of KL divergence for two univariate normal distributions with zero mean and variance $\sigma _p^2$ and $\sigma _q^2$, respectively. Sample sizes $N= 500$ and $M = 2000$. Estimate depicted for $k = \{1,10,50,100\}$. \relax }}{13}}
\newlabel{fig:kldiv_test}{{11}{13}}
\@writefile{lof}{\contentsline {figure}{\numberline {12}{\ignorespaces $k$-nearest-neighbor (KNN) estimation of KL divergence for two bivariate normal distributions with zero mean and covariance $\bm  {\Sigma }_p$ and $\bm  {\Sigma }_q$, respectively, with parameter $\nu = 2$. Sample sizes $N= 2000$ and $M = 2000$. Estimate depicted for $k = \{1,10,100,500\}$. \relax }}{14}}
\newlabel{fig:kldiv_test_mv}{{12}{14}}
\newlabel{eq:dkl_mvnorm}{{44}{14}}
\@writefile{lof}{\contentsline {figure}{\numberline {13}{\ignorespaces $k$-nearest-neighbor (KNN) estimation of KL divergence for two Von Mises distributions with means $\mu _p$ and $\mu _q$, respectively, and concentration parameter $\kappa = 4$. Sample sizes $N= 500$ and $M = 500$. Estimate depicted for $k = \{1,10,50,100\}$. \relax }}{15}}
\newlabel{fig:kldiv_test_circ}{{13}{15}}
\@writefile{lof}{\contentsline {figure}{\numberline {14}{\ignorespaces Visual setup. \relax }}{16}}
\newlabel{fig:visual_setup}{{14}{16}}
\@writefile{toc}{\contentsline {section}{\numberline {7}Visual Sensing Model}{16}}
\bibstyle{neuron}
\bibdata{./References/ref}
\bibcite{Stewart2014}{{1}{2014}{{Stewart et~al.}}{{Stewart, Nair, Jiang, \& McHenry}}}
\bibcite{Temizer2015a}{{2}{2015}{{Temizer et~al.}}{{Temizer, Donovan, Baier, \& Semmelhack}}}
