%!PS-Adobe-3.0 EPSF-3.0
%%Creator: (MATLAB, The Mathworks, Inc. Version 9.3.0.713579 \(R2017b\). Operating System: Mac OS X)
%%Title: ./con_ips.eps
%%CreationDate: 2018-08-10T15:48:43
%%Pages: (atend)
%%BoundingBox:    81     0   784   212
%%LanguageLevel: 3
%%EndComments
%%BeginProlog
%%BeginResource: procset (Apache XML Graphics Std ProcSet) 1.2 0
%%Version: 1.2 0
%%Copyright: (Copyright 2001-2003,2010 The Apache Software Foundation. License terms: http://www.apache.org/licenses/LICENSE-2.0)
/bd{bind def}bind def
/ld{load def}bd
/GR/grestore ld
/GS/gsave ld
/RM/rmoveto ld
/C/curveto ld
/t/show ld
/L/lineto ld
/ML/setmiterlimit ld
/CT/concat ld
/f/fill ld
/N/newpath ld
/S/stroke ld
/CC/setcmykcolor ld
/A/ashow ld
/cp/closepath ld
/RC/setrgbcolor ld
/LJ/setlinejoin ld
/GC/setgray ld
/LW/setlinewidth ld
/M/moveto ld
/re {4 2 roll M
1 index 0 rlineto
0 exch rlineto
neg 0 rlineto
cp } bd
/_ctm matrix def
/_tm matrix def
/BT { _ctm currentmatrix pop matrix _tm copy pop 0 0 moveto } bd
/ET { _ctm setmatrix } bd
/iTm { _ctm setmatrix _tm concat } bd
/Tm { _tm astore pop iTm 0 0 moveto } bd
/ux 0.0 def
/uy 0.0 def
/F {
  /Tp exch def
  /Tf exch def
  Tf findfont Tp scalefont setfont
  /cf Tf def  /cs Tp def
} bd
/ULS {currentpoint /uy exch def /ux exch def} bd
/ULE {
  /Tcx currentpoint pop def
  gsave
  newpath
  cf findfont cs scalefont dup
  /FontMatrix get 0 get /Ts exch def /FontInfo get dup
  /UnderlinePosition get Ts mul /To exch def
  /UnderlineThickness get Ts mul /Tt exch def
  ux uy To add moveto  Tcx uy To add lineto
  Tt setlinewidth stroke
  grestore
} bd
/OLE {
  /Tcx currentpoint pop def
  gsave
  newpath
  cf findfont cs scalefont dup
  /FontMatrix get 0 get /Ts exch def /FontInfo get dup
  /UnderlinePosition get Ts mul /To exch def
  /UnderlineThickness get Ts mul /Tt exch def
  ux uy To add cs add moveto Tcx uy To add cs add lineto
  Tt setlinewidth stroke
  grestore
} bd
/SOE {
  /Tcx currentpoint pop def
  gsave
  newpath
  cf findfont cs scalefont dup
  /FontMatrix get 0 get /Ts exch def /FontInfo get dup
  /UnderlinePosition get Ts mul /To exch def
  /UnderlineThickness get Ts mul /Tt exch def
  ux uy To add cs 10 mul 26 idiv add moveto Tcx uy To add cs 10 mul 26 idiv add lineto
  Tt setlinewidth stroke
  grestore
} bd
/QT {
/Y22 exch store
/X22 exch store
/Y21 exch store
/X21 exch store
currentpoint
/Y21 load 2 mul add 3 div exch
/X21 load 2 mul add 3 div exch
/X21 load 2 mul /X22 load add 3 div
/Y21 load 2 mul /Y22 load add 3 div
/X22 load /Y22 load curveto
} bd
/SSPD {
dup length /d exch dict def
{
/v exch def
/k exch def
currentpagedevice k known {
/cpdv currentpagedevice k get def
v cpdv ne {
/upd false def
/nullv v type /nulltype eq def
/nullcpdv cpdv type /nulltype eq def
nullv nullcpdv or
{
/upd true def
} {
/sametype v type cpdv type eq def
sametype {
v type /arraytype eq {
/vlen v length def
/cpdvlen cpdv length def
vlen cpdvlen eq {
0 1 vlen 1 sub {
/i exch def
/obj v i get def
/cpdobj cpdv i get def
obj cpdobj ne {
/upd true def
exit
} if
} for
} {
/upd true def
} ifelse
} {
v type /dicttype eq {
v {
/dv exch def
/dk exch def
/cpddv cpdv dk get def
dv cpddv ne {
/upd true def
exit
} if
} forall
} {
/upd true def
} ifelse
} ifelse
} if
} ifelse
upd true eq {
d k v put
} if
} if
} if
} forall
d length 0 gt {
d setpagedevice
} if
} bd
/RE { % /NewFontName [NewEncodingArray] /FontName RE -
  findfont dup length dict begin
  {
    1 index /FID ne
    {def} {pop pop} ifelse
  } forall
  /Encoding exch def
  /FontName 1 index def
  currentdict definefont pop
  end
} bind def
%%EndResource
%%BeginResource: procset (Apache XML Graphics EPS ProcSet) 1.0 0
%%Version: 1.0 0
%%Copyright: (Copyright 2002-2003 The Apache Software Foundation. License terms: http://www.apache.org/licenses/LICENSE-2.0)
/BeginEPSF { %def
/b4_Inc_state save def         % Save state for cleanup
/dict_count countdictstack def % Count objects on dict stack
/op_count count 1 sub def      % Count objects on operand stack
userdict begin                 % Push userdict on dict stack
/showpage { } def              % Redefine showpage, { } = null proc
0 setgray 0 setlinecap         % Prepare graphics state
1 setlinewidth 0 setlinejoin
10 setmiterlimit [ ] 0 setdash newpath
/languagelevel where           % If level not equal to 1 then
{pop languagelevel             % set strokeadjust and
1 ne                           % overprint to their defaults.
{false setstrokeadjust false setoverprint
} if
} if
} bd
/EndEPSF { %def
count op_count sub {pop} repeat            % Clean up stacks
countdictstack dict_count sub {end} repeat
b4_Inc_state restore
} bd
%%EndResource
%FOPBeginFontDict
%%IncludeResource: font Courier-Oblique
%%IncludeResource: font Courier-BoldOblique
%%IncludeResource: font Courier-Bold
%%IncludeResource: font ZapfDingbats
%%IncludeResource: font Symbol
%%IncludeResource: font Helvetica
%%IncludeResource: font Helvetica-Oblique
%%IncludeResource: font Helvetica-Bold
%%IncludeResource: font Helvetica-BoldOblique
%%IncludeResource: font Times-Roman
%%IncludeResource: font Times-Italic
%%IncludeResource: font Times-Bold
%%IncludeResource: font Times-BoldItalic
%%IncludeResource: font Courier
%FOPEndFontDict
%%BeginResource: encoding WinAnsiEncoding
/WinAnsiEncoding [
/.notdef /.notdef /.notdef /.notdef /.notdef
/.notdef /.notdef /.notdef /.notdef /.notdef
/.notdef /.notdef /.notdef /.notdef /.notdef
/.notdef /.notdef /.notdef /.notdef /.notdef
/.notdef /.notdef /.notdef /.notdef /.notdef
/.notdef /.notdef /.notdef /.notdef /.notdef
/.notdef /.notdef /space /exclam /quotedbl
/numbersign /dollar /percent /ampersand /quotesingle
/parenleft /parenright /asterisk /plus /comma
/hyphen /period /slash /zero /one
/two /three /four /five /six
/seven /eight /nine /colon /semicolon
/less /equal /greater /question /at
/A /B /C /D /E
/F /G /H /I /J
/K /L /M /N /O
/P /Q /R /S /T
/U /V /W /X /Y
/Z /bracketleft /backslash /bracketright /asciicircum
/underscore /quoteleft /a /b /c
/d /e /f /g /h
/i /j /k /l /m
/n /o /p /q /r
/s /t /u /v /w
/x /y /z /braceleft /bar
/braceright /asciitilde /bullet /Euro /bullet
/quotesinglbase /florin /quotedblbase /ellipsis /dagger
/daggerdbl /circumflex /perthousand /Scaron /guilsinglleft
/OE /bullet /Zcaron /bullet /bullet
/quoteleft /quoteright /quotedblleft /quotedblright /bullet
/endash /emdash /asciitilde /trademark /scaron
/guilsinglright /oe /bullet /zcaron /Ydieresis
/space /exclamdown /cent /sterling /currency
/yen /brokenbar /section /dieresis /copyright
/ordfeminine /guillemotleft /logicalnot /sfthyphen /registered
/macron /degree /plusminus /twosuperior /threesuperior
/acute /mu /paragraph /middot /cedilla
/onesuperior /ordmasculine /guillemotright /onequarter /onehalf
/threequarters /questiondown /Agrave /Aacute /Acircumflex
/Atilde /Adieresis /Aring /AE /Ccedilla
/Egrave /Eacute /Ecircumflex /Edieresis /Igrave
/Iacute /Icircumflex /Idieresis /Eth /Ntilde
/Ograve /Oacute /Ocircumflex /Otilde /Odieresis
/multiply /Oslash /Ugrave /Uacute /Ucircumflex
/Udieresis /Yacute /Thorn /germandbls /agrave
/aacute /acircumflex /atilde /adieresis /aring
/ae /ccedilla /egrave /eacute /ecircumflex
/edieresis /igrave /iacute /icircumflex /idieresis
/eth /ntilde /ograve /oacute /ocircumflex
/otilde /odieresis /divide /oslash /ugrave
/uacute /ucircumflex /udieresis /yacute /thorn
/ydieresis
] def
%%EndResource
%FOPBeginFontReencode
/Courier-Oblique findfont
dup length dict begin
  {1 index /FID ne {def} {pop pop} ifelse} forall
  /Encoding WinAnsiEncoding def
  currentdict
end
/Courier-Oblique exch definefont pop
/Courier-BoldOblique findfont
dup length dict begin
  {1 index /FID ne {def} {pop pop} ifelse} forall
  /Encoding WinAnsiEncoding def
  currentdict
end
/Courier-BoldOblique exch definefont pop
/Courier-Bold findfont
dup length dict begin
  {1 index /FID ne {def} {pop pop} ifelse} forall
  /Encoding WinAnsiEncoding def
  currentdict
end
/Courier-Bold exch definefont pop
/Helvetica findfont
dup length dict begin
  {1 index /FID ne {def} {pop pop} ifelse} forall
  /Encoding WinAnsiEncoding def
  currentdict
end
/Helvetica exch definefont pop
/Helvetica-Oblique findfont
dup length dict begin
  {1 index /FID ne {def} {pop pop} ifelse} forall
  /Encoding WinAnsiEncoding def
  currentdict
end
/Helvetica-Oblique exch definefont pop
/Helvetica-Bold findfont
dup length dict begin
  {1 index /FID ne {def} {pop pop} ifelse} forall
  /Encoding WinAnsiEncoding def
  currentdict
end
/Helvetica-Bold exch definefont pop
/Helvetica-BoldOblique findfont
dup length dict begin
  {1 index /FID ne {def} {pop pop} ifelse} forall
  /Encoding WinAnsiEncoding def
  currentdict
end
/Helvetica-BoldOblique exch definefont pop
/Times-Roman findfont
dup length dict begin
  {1 index /FID ne {def} {pop pop} ifelse} forall
  /Encoding WinAnsiEncoding def
  currentdict
end
/Times-Roman exch definefont pop
/Times-Italic findfont
dup length dict begin
  {1 index /FID ne {def} {pop pop} ifelse} forall
  /Encoding WinAnsiEncoding def
  currentdict
end
/Times-Italic exch definefont pop
/Times-Bold findfont
dup length dict begin
  {1 index /FID ne {def} {pop pop} ifelse} forall
  /Encoding WinAnsiEncoding def
  currentdict
end
/Times-Bold exch definefont pop
/Times-BoldItalic findfont
dup length dict begin
  {1 index /FID ne {def} {pop pop} ifelse} forall
  /Encoding WinAnsiEncoding def
  currentdict
end
/Times-BoldItalic exch definefont pop
/Courier findfont
dup length dict begin
  {1 index /FID ne {def} {pop pop} ifelse} forall
  /Encoding WinAnsiEncoding def
  currentdict
end
/Courier exch definefont pop
%FOPEndFontReencode
%%EndProlog
%%Page: 1 1
%%PageBoundingBox: 0 0 864 216
%%BeginPageSetup
[1 0 0 -1 0 216] CT
%%EndPageSetup
GS
1 GC
N
0 0 864 216 re
f
GR
GS
1 GC
N
0 0 864 216 re
f
GR
GS
1 GC
N
112.5 185.5 M
296.5 185.5 L
296.5 16.5 L
112.5 16.5 L
cp
f
GR
GS
0.149 GC
2 setlinecap
1 LJ
0.5 LW
N
112.5 185.5 M
296.5 185.5 L
S
GR
GS
0.149 GC
2 setlinecap
1 LJ
0.5 LW
N
112.5 16.5 M
296.5 16.5 L
S
GR
GS
0.149 GC
2 setlinecap
1 LJ
0.5 LW
N
112.5 185.5 M
112.5 183.66 L
S
GR
GS
0.149 GC
2 setlinecap
1 LJ
0.5 LW
N
171.069 185.5 M
171.069 183.66 L
S
GR
GS
0.149 GC
2 setlinecap
1 LJ
0.5 LW
N
229.638 185.5 M
229.638 183.66 L
S
GR
GS
0.149 GC
2 setlinecap
1 LJ
0.5 LW
N
288.207 185.5 M
288.207 183.66 L
S
GR
GS
0.149 GC
2 setlinecap
1 LJ
0.5 LW
N
112.5 16.5 M
112.5 18.34 L
S
GR
GS
0.149 GC
2 setlinecap
1 LJ
0.5 LW
N
171.069 16.5 M
171.069 18.34 L
S
GR
GS
0.149 GC
2 setlinecap
1 LJ
0.5 LW
N
229.638 16.5 M
229.638 18.34 L
S
GR
GS
0.149 GC
2 setlinecap
1 LJ
0.5 LW
N
288.207 16.5 M
288.207 18.34 L
S
GR
GS
[1 0 0 1 112.5 189.5] CT
0.149 GC
/Helvetica 10 F
GS
[1 0 0 1 0 0] CT
-3 10 moveto 
1 -1 scale
(0) t 
GR
GR
GS
[1 0 0 1 171.06902 189.5] CT
0.149 GC
/Helvetica 10 F
GS
[1 0 0 1 0 0] CT
-3 10 moveto 
1 -1 scale
(2) t 
GR
GR
GS
[1 0 0 1 229.63803 189.5] CT
0.149 GC
/Helvetica 10 F
GS
[1 0 0 1 0 0] CT
-3 10 moveto 
1 -1 scale
(4) t 
GR
GR
GS
[1 0 0 1 288.20706 189.5] CT
0.149 GC
/Helvetica 10 F
GS
[1 0 0 1 0 0] CT
-3 10 moveto 
1 -1 scale
(6) t 
GR
GR
GS
[1 0 0 1 201 214] CT
0.149 GC
N
2.125 2.141 M
2.625 0.156 L
2.063 0.156 1.578 -0.102 QT
1.094 -0.359 0.805 -0.828 QT
0.516 -1.297 0.516 -1.844 QT
0.516 -2.438 0.813 -2.984 QT
1.109 -3.531 1.617 -3.977 QT
2.125 -4.422 2.719 -4.656 QT
3.313 -4.891 3.891 -4.891 QT
4.563 -7.563 L
4.578 -7.625 4.641 -7.625 QT
4.781 -7.625 L
4.813 -7.625 4.844 -7.594 QT
4.875 -7.563 4.875 -7.531 QT
4.219 -4.891 L
4.625 -4.891 5.008 -4.742 QT
5.391 -4.594 5.695 -4.32 QT
6 -4.047 6.164 -3.68 QT
6.328 -3.313 6.328 -2.891 QT
6.328 -2.297 6.031 -1.758 QT
5.734 -1.219 5.234 -0.781 QT
4.734 -0.344 4.117 -0.094 QT
3.5 0.156 2.953 0.156 QT
2.438 2.188 L
2.422 2.25 2.359 2.25 QT
2.219 2.25 L
2.188 2.25 2.156 2.211 QT
2.125 2.172 2.125 2.141 QT
cp
2.703 -0.141 M
3.813 -4.609 L
3.547 -4.609 3.234 -4.5 QT
2.922 -4.391 2.656 -4.219 QT
2.391 -4.047 2.172 -3.813 QT
1.891 -3.547 1.688 -3.18 QT
1.484 -2.813 1.383 -2.414 QT
1.281 -2.016 1.281 -1.609 QT
1.281 -1.203 1.461 -0.867 QT
1.641 -0.531 1.961 -0.336 QT
2.281 -0.141 2.703 -0.141 QT
cp
3.031 -0.141 M
3.438 -0.141 3.906 -0.375 QT
4.375 -0.609 4.672 -0.922 QT
5.094 -1.328 5.328 -1.922 QT
5.563 -2.516 5.563 -3.125 QT
5.563 -3.531 5.383 -3.875 QT
5.203 -4.219 4.883 -4.414 QT
4.563 -4.609 4.141 -4.609 QT
3.031 -0.141 L
cp
f
GR
GS
0.149 GC
2 setlinecap
1 LJ
0.5 LW
N
112.5 185.5 M
112.5 16.5 L
S
GR
GS
0.149 GC
2 setlinecap
1 LJ
0.5 LW
N
296.5 185.5 M
296.5 16.5 L
S
GR
GS
0.149 GC
2 setlinecap
1 LJ
0.5 LW
N
112.5 181.692 M
114.34 181.692 L
S
GR
GS
0.149 GC
2 setlinecap
1 LJ
0.5 LW
N
112.5 154.794 M
114.34 154.794 L
S
GR
GS
0.149 GC
2 setlinecap
1 LJ
0.5 LW
N
112.5 127.897 M
114.34 127.897 L
S
GR
GS
0.149 GC
2 setlinecap
1 LJ
0.5 LW
N
112.5 101 M
114.34 101 L
S
GR
GS
0.149 GC
2 setlinecap
1 LJ
0.5 LW
N
112.5 74.103 M
114.34 74.103 L
S
GR
GS
0.149 GC
2 setlinecap
1 LJ
0.5 LW
N
112.5 47.206 M
114.34 47.206 L
S
GR
GS
0.149 GC
2 setlinecap
1 LJ
0.5 LW
N
112.5 20.308 M
114.34 20.308 L
S
GR
GS
0.149 GC
2 setlinecap
1 LJ
0.5 LW
N
296.5 181.692 M
294.66 181.692 L
S
GR
GS
0.149 GC
2 setlinecap
1 LJ
0.5 LW
N
296.5 154.794 M
294.66 154.794 L
S
GR
GS
0.149 GC
2 setlinecap
1 LJ
0.5 LW
N
296.5 127.897 M
294.66 127.897 L
S
GR
GS
0.149 GC
2 setlinecap
1 LJ
0.5 LW
N
296.5 101 M
294.66 101 L
S
GR
GS
0.149 GC
2 setlinecap
1 LJ
0.5 LW
N
296.5 74.103 M
294.66 74.103 L
S
GR
GS
0.149 GC
2 setlinecap
1 LJ
0.5 LW
N
296.5 47.206 M
294.66 47.206 L
S
GR
GS
0.149 GC
2 setlinecap
1 LJ
0.5 LW
N
296.5 20.308 M
294.66 20.308 L
S
GR
GS
[1 0 0 1 108.5 181.69156] CT
0.149 GC
/Helvetica 10 F
GS
[1 0 0 1 0 0] CT
-10 3.5 moveto 
1 -1 scale
(-3) t 
GR
GR
GS
[1 0 0 1 108.5 154.79437] CT
0.149 GC
/Helvetica 10 F
GS
[1 0 0 1 0 0] CT
-10 3.5 moveto 
1 -1 scale
(-2) t 
GR
GR
GS
[1 0 0 1 108.5 127.89719] CT
0.149 GC
/Helvetica 10 F
GS
[1 0 0 1 0 0] CT
-10 3.5 moveto 
1 -1 scale
(-1) t 
GR
GR
GS
[1 0 0 1 108.5 101] CT
0.149 GC
/Helvetica 10 F
GS
[1 0 0 1 0 0] CT
-6 3.5 moveto 
1 -1 scale
(0) t 
GR
GR
GS
[1 0 0 1 108.5 74.10281] CT
0.149 GC
/Helvetica 10 F
GS
[1 0 0 1 0 0] CT
-6 3.5 moveto 
1 -1 scale
(1) t 
GR
GR
GS
[1 0 0 1 108.5 47.20563] CT
0.149 GC
/Helvetica 10 F
GS
[1 0 0 1 0 0] CT
-6 3.5 moveto 
1 -1 scale
(2) t 
GR
GR
GS
[1 0 0 1 108.5 20.30844] CT
0.149 GC
/Helvetica 10 F
GS
[1 0 0 1 0 0] CT
-6 3.5 moveto 
1 -1 scale
(3) t 
GR
GR
GS
[0 -1 1 0 89 107] CT
0.149 GC
N
2.203 0.172 M
1.828 0.172 1.5 0.023 QT
1.172 -0.125 0.922 -0.391 QT
0.672 -0.656 0.555 -0.984 QT
0.438 -1.313 0.438 -1.703 QT
0.438 -2.391 0.766 -3.039 QT
1.094 -3.688 1.656 -4.156 QT
2.219 -4.625 2.875 -4.797 QT
2.547 -5.391 2.383 -5.82 QT
2.219 -6.25 2.219 -6.703 QT
2.219 -7.047 2.375 -7.297 QT
2.531 -7.547 2.805 -7.695 QT
3.078 -7.844 3.406 -7.844 QT
3.734 -7.844 4.703 -7.625 QT
4.969 -7.563 4.969 -7.328 QT
4.969 -7.141 4.828 -6.992 QT
4.688 -6.844 4.516 -6.844 QT
4.375 -6.844 4.266 -6.906 QT
4.156 -6.969 3.93 -7.125 QT
3.703 -7.281 3.516 -7.359 QT
3.328 -7.438 3.141 -7.438 QT
2.906 -7.438 2.727 -7.305 QT
2.547 -7.172 2.547 -6.953 QT
2.547 -6.594 2.859 -6.141 QT
3.172 -5.688 3.734 -4.984 QT
4.391 -4.156 4.391 -3.156 QT
4.391 -2.672 4.25 -2.094 QT
4.109 -1.516 3.836 -1.008 QT
3.563 -0.5 3.141 -0.164 QT
2.719 0.172 2.203 0.172 QT
cp
2.219 -0.141 M
2.656 -0.141 2.961 -0.586 QT
3.266 -1.031 3.43 -1.641 QT
3.594 -2.25 3.594 -2.672 QT
3.594 -3.5 3.016 -4.516 QT
2.438 -4.359 2.016 -3.844 QT
1.594 -3.328 1.383 -2.656 QT
1.172 -1.984 1.172 -1.391 QT
1.172 -0.859 1.445 -0.5 QT
1.719 -0.141 2.219 -0.141 QT
cp
f
GR
GS
[0 -1 1 0 94 102] CT
0.149 GC
/Helvetica 8.8 F
GS
[1 0 0 1 0 0] CT
0 0 moveto 
1 -1 scale
(d) t 
GR
GR
GS
[1 0 0 1 204.5002 15.125] CT
/Helvetica-Bold 11 F
GS
[1 0 0 1 0 0] CT
-13 -3 moveto 
1 -1 scale
(V=20) t 
GR
GR
GS
[1 0 0 1 245.60509 56.88361] CT
0.459 0.745 0.894 RC
N
2 0 M
2 1.105 1.105 2 0 2 C
-1.105 2 -2 1.105 -2 0 C
-2 -1.105 -1.105 -2 0 -2 C
1.105 -2 2 -1.105 2 0 C
cp
f
GR
GS
[1 0 0 1 277.3822 58.82164] CT
0.459 0.745 0.894 RC
N
/f1241251886{2 0 M
2 1.105 1.105 2 0 2 C
-1.105 2 -2 1.105 -2 0 C
-2 -1.105 -1.105 -2 0 -2 C
1.105 -2 2 -1.105 2 0 C
cp}def
f1241251886
f
GR
GS
[1 0 0 1 223.44064 84.63636] CT
0.459 0.745 0.894 RC
N
f1241251886
f
GR
GS
[1 0 0 1 249.00188 64.09333] CT
0.459 0.745 0.894 RC
N
f1241251886
f
GR
GS
[1 0 0 1 152.11156 158.19971] CT
0.459 0.745 0.894 RC
N
f1241251886
f
GR
GS
[1 0 0 1 117.48915 157.12144] CT
0.459 0.745 0.894 RC
N
f1241251886
f
GR
GS
[1 0 0 1 173.45554 131.62148] CT
0.459 0.745 0.894 RC
N
f1241251886
f
GR
GS
[1 0 0 1 253.55403 71.1767] CT
0.459 0.745 0.894 RC
N
f1241251886
f
GR
GS
[1 0 0 1 185.99147 137.87483] CT
0.459 0.745 0.894 RC
N
f1241251886
f
GR
GS
[1 0 0 1 148.79364 157.65936] CT
0.459 0.745 0.894 RC
N
f1241251886
f
GR
GS
[1 0 0 1 281.47562 61.66413] CT
0.459 0.745 0.894 RC
N
f1241251886
f
GR
GS
[1 0 0 1 167.24089 147.6138] CT
0.459 0.745 0.894 RC
N
f1241251886
f
GR
GS
[1 0 0 1 161.62549 152.29079] CT
0.459 0.745 0.894 RC
N
f1241251886
f
GR
GS
[1 0 0 1 192.70215 145.65576] CT
0.459 0.745 0.894 RC
N
f1241251886
f
GR
GS
[1 0 0 1 140.30621 146.09656] CT
0.459 0.745 0.894 RC
N
f1241251886
f
GR
GS
[1 0 0 1 211.43794 68.65156] CT
0.459 0.745 0.894 RC
N
f1241251886
f
GR
GS
[1 0 0 1 241.70389 44.28918] CT
0.459 0.745 0.894 RC
N
f1241251886
f
GR
GS
[1 0 0 1 248.8008 51.37557] CT
0.459 0.745 0.894 RC
N
f1241251886
f
GR
GS
[1 0 0 1 141.66771 155.19861] CT
0.459 0.745 0.894 RC
N
f1241251886
f
GR
GS
[1 0 0 1 256.06006 74.00681] CT
0.459 0.745 0.894 RC
N
f1241251886
f
GR
GS
[1 0 0 1 215.78345 60.98496] CT
0.459 0.745 0.894 RC
N
f1241251886
f
GR
GS
[1 0 0 1 232.42049 52.83496] CT
0.459 0.745 0.894 RC
N
f1241251886
f
GR
GS
[1 0 0 1 166.11513 159.6468] CT
0.459 0.745 0.894 RC
N
f1241251886
f
GR
GS
[1 0 0 1 170.45364 123.73852] CT
0.459 0.745 0.894 RC
N
f1241251886
f
GR
GS
[1 0 0 1 189.50084 155.20609] CT
0.459 0.745 0.894 RC
N
f1241251886
f
GR
GS
[1 0 0 1 206.85156 55.89543] CT
0.459 0.745 0.894 RC
N
f1241251886
f
GR
GS
[1 0 0 1 230.6259 65.54057] CT
0.459 0.745 0.894 RC
N
f1241251886
f
GR
GS
[1 0 0 1 213.75327 64.05746] CT
0.459 0.745 0.894 RC
N
f1241251886
f
GR
GS
[1 0 0 1 126.47618 179.51492] CT
0.459 0.745 0.894 RC
N
f1241251886
f
GR
GS
[1 0 0 1 267.53976 29.90345] CT
0.459 0.745 0.894 RC
N
f1241251886
f
GR
GS
[1 0 0 1 219.34003 47.2845] CT
0.459 0.745 0.894 RC
N
f1241251886
f
GR
GS
[1 0 0 1 136.3029 155.20056] CT
0.459 0.745 0.894 RC
N
f1241251886
f
GR
GS
[1 0 0 1 145.95831 150.85861] CT
0.459 0.745 0.894 RC
N
f1241251886
f
GR
GS
[1 0 0 1 286.59937 31.69565] CT
0.459 0.745 0.894 RC
N
f1241251886
f
GR
GS
[1 0 0 1 241.00659 58.53971] CT
0.459 0.745 0.894 RC
N
f1241251886
f
GR
GS
[1 0 0 1 263.9761 68.35826] CT
0.459 0.745 0.894 RC
N
f1241251886
f
GR
GS
[1 0 0 1 266.96021 45.65289] CT
0.459 0.745 0.894 RC
N
f1241251886
f
GR
GS
[1 0 0 1 198.12665 128.25427] CT
0.459 0.745 0.894 RC
N
f1241251886
f
GR
GS
[1 0 0 1 203.53951 168.90742] CT
0.459 0.745 0.894 RC
N
f1241251886
f
GR
GS
[1 0 0 1 169.07437 111.62796] CT
0.459 0.745 0.894 RC
N
f1241251886
f
GR
GS
[1 0 0 1 153.90417 147.92659] CT
0.459 0.745 0.894 RC
N
f1241251886
f
GR
GS
[1 0 0 1 174.62466 168.2408] CT
0.459 0.745 0.894 RC
N
f1241251886
f
GR
GS
[1 0 0 1 267.76791 60.57755] CT
0.459 0.745 0.894 RC
N
f1241251886
f
GR
GS
[1 0 0 1 160.30385 146.22702] CT
0.459 0.745 0.894 RC
N
f1241251886
f
GR
GS
[1 0 0 1 248.26178 40.90209] CT
0.459 0.745 0.894 RC
N
f1241251886
f
GR
GS
[1 0 0 1 182.35556 118.54141] CT
0.459 0.745 0.894 RC
N
f1241251886
f
GR
GS
[1 0 0 1 257.08139 26.00534] CT
0.459 0.745 0.894 RC
N
f1241251886
f
GR
GS
[1 0 0 1 132.90195 156.74315] CT
0.459 0.745 0.894 RC
N
f1241251886
f
GR
GS
[1 0 0 1 194.91281 139.87158] CT
0.459 0.745 0.894 RC
N
f1241251886
f
GR
GS
[1 0 0 1 179.52678 157.85487] CT
0.459 0.745 0.894 RC
N
f1241251886
f
GR
GS
[1 0 0 1 138.74402 154.90749] CT
0.459 0.745 0.894 RC
N
f1241251886
f
GR
GS
[1 0 0 1 235.48849 81.90903] CT
0.459 0.745 0.894 RC
N
f1241251886
f
GR
GS
[1 0 0 1 187.93134 127.00892] CT
0.459 0.745 0.894 RC
N
f1241251886
f
GR
GS
[1 0 0 1 248.90808 62.36305] CT
0.459 0.745 0.894 RC
N
f1241251886
f
GR
GS
[1 0 0 1 280.96802 53.26844] CT
0.459 0.745 0.894 RC
N
f1241251886
f
GR
GS
[1 0 0 1 150.4725 156.3519] CT
0.459 0.745 0.894 RC
N
f1241251886
f
GR
GS
[1 0 0 1 134.53583 149.30721] CT
0.459 0.745 0.894 RC
N
f1241251886
f
GR
GS
[1 0 0 1 185.45758 143.83267] CT
0.459 0.745 0.894 RC
N
f1241251886
f
GR
GS
[1 0 0 1 262.08966 57.73457] CT
0.459 0.745 0.894 RC
N
f1241251886
f
GR
GS
[1 0 0 1 223.82925 60.12557] CT
0.459 0.745 0.894 RC
N
f1241251886
f
GR
GS
[1 0 0 1 186.59537 162.57457] CT
0.459 0.745 0.894 RC
N
f1241251886
f
GR
GS
[1 0 0 1 170.86713 137.43759] CT
0.459 0.745 0.894 RC
N
f1241251886
f
GR
GS
[1 0 0 1 177.37888 128.72122] CT
0.459 0.745 0.894 RC
N
f1241251886
f
GR
GS
[1 0 0 1 281.24078 43.60546] CT
0.459 0.745 0.894 RC
N
f1241251886
f
GR
GS
[1 0 0 1 140.08833 143.84706] CT
0.459 0.745 0.894 RC
N
f1241251886
f
GR
GS
[1 0 0 1 153.78264 151.7103] CT
0.459 0.745 0.894 RC
N
f1241251886
f
GR
GS
[1 0 0 1 248.91995 63.49755] CT
0.459 0.745 0.894 RC
N
f1241251886
f
GR
GS
[1 0 0 1 165.9808 165.54022] CT
0.459 0.745 0.894 RC
N
f1241251886
f
GR
GS
[1 0 0 1 139.04851 153.88043] CT
0.459 0.745 0.894 RC
N
f1241251886
f
GR
GS
[1 0 0 1 218.68253 59.8149] CT
0.459 0.745 0.894 RC
N
f1241251886
f
GR
GS
[1 0 0 1 120.98123 148.75468] CT
0.459 0.745 0.894 RC
N
f1241251886
f
GR
GS
[1 0 0 1 158.10451 156.86699] CT
0.459 0.745 0.894 RC
N
f1241251886
f
GR
GS
[1 0 0 1 146.8219 171.38416] CT
0.459 0.745 0.894 RC
N
f1241251886
f
GR
GS
[1 0 0 1 272.84195 56.27256] CT
0.459 0.745 0.894 RC
N
f1241251886
f
GR
GS
[1 0 0 1 175.83304 147.6525] CT
0.459 0.745 0.894 RC
N
f1241251886
f
GR
GS
[1 0 0 1 246.87314 80.38462] CT
0.459 0.745 0.894 RC
N
f1241251886
f
GR
GS
[1 0 0 1 158.80586 146.28766] CT
0.459 0.745 0.894 RC
N
f1241251886
f
GR
GS
[1 0 0 1 207.1226 64.11444] CT
0.459 0.745 0.894 RC
N
f1241251886
f
GR
GS
[1 0 0 1 185.16653 136.11823] CT
0.459 0.745 0.894 RC
N
f1241251886
f
GR
GS
[1 0 0 1 248.66629 39.94352] CT
0.459 0.745 0.894 RC
N
f1241251886
f
GR
GS
[1 0 0 1 128.75032 164.52657] CT
0.459 0.745 0.894 RC
N
f1241251886
f
GR
GS
[1 0 0 1 200.88818 144.33116] CT
0.459 0.745 0.894 RC
N
f1241251886
f
GR
GS
[1 0 0 1 242.13611 50.82461] CT
0.459 0.745 0.894 RC
N
f1241251886
f
GR
GS
[1 0 0 1 258.06845 57.30777] CT
0.459 0.745 0.894 RC
N
f1241251886
f
GR
GS
[1 0 0 1 204.29041 156.72404] CT
0.459 0.745 0.894 RC
N
f1241251886
f
GR
GS
[1 0 0 1 218.88541 72.7665] CT
0.459 0.745 0.894 RC
N
f1241251886
f
GR
GS
[1 0 0 1 248.48914 31.10139] CT
0.459 0.745 0.894 RC
N
f1241251886
f
GR
GS
[1 0 0 1 236.85342 35.55518] CT
0.459 0.745 0.894 RC
N
f1241251886
f
GR
GS
[1 0 0 1 236.89192 53.02719] CT
0.459 0.745 0.894 RC
N
f1241251886
f
GR
GS
[1 0 0 1 227.78116 66.76864] CT
0.459 0.745 0.894 RC
N
f1241251886
f
GR
GS
[1 0 0 1 269.75751 35.93129] CT
0.459 0.745 0.894 RC
N
f1241251886
f
GR
GS
[1 0 0 1 248.5041 47.56343] CT
0.459 0.745 0.894 RC
N
f1241251886
f
GR
GS
[1 0 0 1 257.68182 22.32973] CT
0.459 0.745 0.894 RC
N
f1241251886
f
GR
GS
[1 0 0 1 291.556 19.69097] CT
0.459 0.745 0.894 RC
N
f1241251886
f
GR
GS
[1 0 0 1 174.70389 158.87334] CT
0.459 0.745 0.894 RC
N
f1241251886
f
GR
GS
[1 0 0 1 234.61809 27.97795] CT
0.459 0.745 0.894 RC
N
f1241251886
f
GR
GS
[1 0 0 1 295.25629 44.33958] CT
0.459 0.745 0.894 RC
N
f1241251886
f
GR
GS
[1 0 0 1 141.29155 153.01357] CT
0.459 0.745 0.894 RC
N
f1241251886
f
GR
GS
[1 0 0 1 176.1198 160.77484] CT
0.459 0.745 0.894 RC
N
f1241251886
f
GR
GS
[1 0 0 1 233.88083 80.22013] CT
0.459 0.745 0.894 RC
N
f1241251886
f
GR
GS
[1 0 0 1 171.51335 146.53293] CT
0.459 0.745 0.894 RC
N
f1241251886
f
GR
GS
[1 0 0 1 235.93657 46.39004] CT
0.459 0.745 0.894 RC
N
f1241251886
f
GR
GS
[1 0 0 1 227.43617 60.72231] CT
0.459 0.745 0.894 RC
N
f1241251886
f
GR
GS
[1 0 0 1 139.67249 135.75012] CT
0.459 0.745 0.894 RC
N
f1241251886
f
GR
GS
[1 0 0 1 258.64993 73.08537] CT
0.459 0.745 0.894 RC
N
f1241251886
f
GR
GS
[1 0 0 1 200.14371 146.93178] CT
0.459 0.745 0.894 RC
N
f1241251886
f
GR
GS
[1 0 0 1 145.52858 159.13231] CT
0.459 0.745 0.894 RC
N
f1241251886
f
GR
GS
[1 0 0 1 202.65988 129.75044] CT
0.459 0.745 0.894 RC
N
f1241251886
f
GR
GS
[1 0 0 1 144.62938 163.30376] CT
0.459 0.745 0.894 RC
N
f1241251886
f
GR
GS
[1 0 0 1 155.26068 168.57867] CT
0.459 0.745 0.894 RC
N
f1241251886
f
GR
GS
[1 0 0 1 200.93102 149.95731] CT
0.459 0.745 0.894 RC
N
f1241251886
f
GR
GS
[1 0 0 1 287.75616 39.17264] CT
0.459 0.745 0.894 RC
N
f1241251886
f
GR
GS
[1 0 0 1 227.40314 51.54039] CT
0.459 0.745 0.894 RC
N
f1241251886
f
GR
GS
[1 0 0 1 260.61465 65.79921] CT
0.459 0.745 0.894 RC
N
f1241251886
f
GR
GS
[1 0 0 1 233.00299 70.36679] CT
0.459 0.745 0.894 RC
N
f1241251886
f
GR
GS
[1 0 0 1 139.73984 159.75497] CT
0.459 0.745 0.894 RC
N
f1241251886
f
GR
GS
[1 0 0 1 230.30652 50.82228] CT
0.459 0.745 0.894 RC
N
f1241251886
f
GR
GS
[1 0 0 1 162.71327 143.63483] CT
0.459 0.745 0.894 RC
N
f1241251886
f
GR
GS
[1 0 0 1 275.76205 44.28032] CT
0.459 0.745 0.894 RC
N
f1241251886
f
GR
GS
[1 0 0 1 216.25394 59.46559] CT
0.459 0.745 0.894 RC
N
f1241251886
f
GR
GS
[1 0 0 1 139.84486 155.03209] CT
0.459 0.745 0.894 RC
N
f1241251886
f
GR
GS
[1 0 0 1 208.5956 52.88955] CT
0.459 0.745 0.894 RC
N
f1241251886
f
GR
GS
[1 0 0 1 174.62953 132.07117] CT
0.459 0.745 0.894 RC
N
f1241251886
f
GR
GS
[1 0 0 1 182.24936 156.58748] CT
0.459 0.745 0.894 RC
N
f1241251886
f
GR
GS
[1 0 0 1 183.17908 121.06609] CT
0.459 0.745 0.894 RC
N
f1241251886
f
GR
GS
[1 0 0 1 184.72166 151.09035] CT
0.459 0.745 0.894 RC
N
f1241251886
f
GR
GS
[1 0 0 1 147.93167 157.17433] CT
0.459 0.745 0.894 RC
N
f1241251886
f
GR
GS
[1 0 0 1 165.63374 166.32776] CT
0.459 0.745 0.894 RC
N
f1241251886
f
GR
GS
[1 0 0 1 261.37204 37.39344] CT
0.459 0.745 0.894 RC
N
f1241251886
f
GR
GS
[1 0 0 1 159.04739 148.55563] CT
0.459 0.745 0.894 RC
N
f1241251886
f
GR
GS
[1 0 0 1 146.34355 144.92451] CT
0.459 0.745 0.894 RC
N
f1241251886
f
GR
GS
[1 0 0 1 250.2632 36.19296] CT
0.459 0.745 0.894 RC
N
f1241251886
f
GR
GS
[1 0 0 1 161.02258 162.55608] CT
0.459 0.745 0.894 RC
N
f1241251886
f
GR
GS
[1 0 0 1 200.37604 127.17778] CT
0.459 0.745 0.894 RC
N
f1241251886
f
GR
GS
[1 0 0 1 151.39883 171.12517] CT
0.459 0.745 0.894 RC
N
f1241251886
f
GR
GS
[1 0 0 1 256.67606 45.63506] CT
0.459 0.745 0.894 RC
N
f1241251886
f
GR
GS
[1 0 0 1 266.02225 31.12968] CT
0.459 0.745 0.894 RC
N
f1241251886
f
GR
GS
[1 0 0 1 239.1752 47.26896] CT
0.459 0.745 0.894 RC
N
f1241251886
f
GR
GS
[1 0 0 1 162.18097 154.79977] CT
0.459 0.745 0.894 RC
N
f1241251886
f
GR
GS
[1 0 0 1 260.67874 76.38174] CT
0.459 0.745 0.894 RC
N
f1241251886
f
GR
GS
[1 0 0 1 178.64951 157.17766] CT
0.459 0.745 0.894 RC
N
f1241251886
f
GR
GS
[1 0 0 1 293.13834 34.51826] CT
0.459 0.745 0.894 RC
N
f1241251886
f
GR
GS
[1 0 0 1 163.98837 162.64598] CT
0.459 0.745 0.894 RC
N
f1241251886
f
GR
GS
[1 0 0 1 169.81441 168.11331] CT
0.459 0.745 0.894 RC
N
f1241251886
f
GR
GS
[1 0 0 1 258.19894 59.95071] CT
0.459 0.745 0.894 RC
N
f1241251886
f
GR
GS
[1 0 0 1 229.92572 62.65002] CT
0.459 0.745 0.894 RC
N
f1241251886
f
GR
GS
[1 0 0 1 203.78197 133.53662] CT
0.459 0.745 0.894 RC
N
f1241251886
f
GR
GS
[1 0 0 1 168.24451 149.6673] CT
0.459 0.745 0.894 RC
N
f1241251886
f
GR
GS
[1 0 0 1 146.83957 161.37959] CT
0.459 0.745 0.894 RC
N
f1241251886
f
GR
GS
[1 0 0 1 220.166 62.17126] CT
0.459 0.745 0.894 RC
N
f1241251886
f
GR
GS
[1 0 0 1 286.11224 66.36171] CT
0.459 0.745 0.894 RC
N
f1241251886
f
GR
GS
[1 0 0 1 176.73222 139.62999] CT
0.459 0.745 0.894 RC
N
f1241251886
f
GR
GS
[1 0 0 1 166.63092 169.2274] CT
0.459 0.745 0.894 RC
N
f1241251886
f
GR
GS
[1 0 0 1 159.95137 151.74019] CT
0.459 0.745 0.894 RC
N
f1241251886
f
GR
GS
[1 0 0 1 182.54451 150.92711] CT
0.459 0.745 0.894 RC
N
f1241251886
f
GR
GS
[1 0 0 1 160.03308 170.78455] CT
0.459 0.745 0.894 RC
N
f1241251886
f
GR
GS
[1 0 0 1 209.77611 38.26622] CT
0.459 0.745 0.894 RC
N
f1241251886
f
GR
GS
[1 0 0 1 255.23666 47.68719] CT
0.459 0.745 0.894 RC
N
f1241251886
f
GR
GS
[1 0 0 1 235.4183 72.27718] CT
0.459 0.745 0.894 RC
N
f1241251886
f
GR
GS
[1 0 0 1 234.97868 66.73474] CT
0.459 0.745 0.894 RC
N
f1241251886
f
GR
GS
[1 0 0 1 221.62115 70.18607] CT
0.459 0.745 0.894 RC
N
f1241251886
f
GR
GS
[1 0 0 1 163.17183 168.30731] CT
0.459 0.745 0.894 RC
N
f1241251886
f
GR
GS
[1 0 0 1 166.72307 162.48895] CT
0.459 0.745 0.894 RC
N
f1241251886
f
GR
GS
[1 0 0 1 140.34769 163.95496] CT
0.459 0.745 0.894 RC
N
f1241251886
f
GR
GS
[1 0 0 1 197.19258 150.31702] CT
0.459 0.745 0.894 RC
N
f1241251886
f
GR
GS
[1 0 0 1 143.57451 158.72607] CT
0.459 0.745 0.894 RC
N
f1241251886
f
GR
GS
[1 0 0 1 228.15086 138.15829] CT
0.906 0.533 0.4 RC
N
f1241251886
f
GR
GS
[1 0 0 1 225.81439 129.56654] CT
0.906 0.533 0.4 RC
N
f1241251886
f
GR
GS
[1 0 0 1 203.3934 64.41862] CT
0.906 0.533 0.4 RC
N
f1241251886
f
GR
GS
[1 0 0 1 191.89107 55.90936] CT
0.906 0.533 0.4 RC
N
f1241251886
f
GR
GS
[1 0 0 1 222.70628 122.91942] CT
0.906 0.533 0.4 RC
N
f1241251886
f
GR
GS
[1 0 0 1 241.16371 166.60791] CT
0.906 0.533 0.4 RC
N
f1241251886
f
GR
GS
[1 0 0 1 209.08911 141.87367] CT
0.906 0.533 0.4 RC
N
f1241251886
f
GR
GS
[1 0 0 1 197.33812 57.74531] CT
0.906 0.533 0.4 RC
N
f1241251886
f
GR
GS
[1 0 0 1 267.49124 155.36359] CT
0.906 0.533 0.4 RC
N
f1241251886
f
GR
GS
[1 0 0 1 218.061 135.49173] CT
0.906 0.533 0.4 RC
N
f1241251886
f
GR
GS
[1 0 0 1 192.55618 67.66798] CT
0.906 0.533 0.4 RC
N
f1241251886
f
GR
GS
[1 0 0 1 207.46318 130.99519] CT
0.906 0.533 0.4 RC
N
f1241251886
f
GR
GS
[1 0 0 1 123.41975 32.10456] CT
0.906 0.533 0.4 RC
N
f1241251886
f
GR
GS
[1 0 0 1 295.40942 162.87708] CT
0.906 0.533 0.4 RC
N
f1241251886
f
GR
GS
[1 0 0 1 164.07344 19.59962] CT
0.906 0.533 0.4 RC
N
f1241251886
f
GR
GS
[1 0 0 1 291.03387 180.51761] CT
0.906 0.533 0.4 RC
N
f1241251886
f
GR
GS
[1 0 0 1 206.34399 148.44365] CT
0.906 0.533 0.4 RC
N
f1241251886
f
GR
GS
[1 0 0 1 169.76332 47.53218] CT
0.906 0.533 0.4 RC
N
f1241251886
f
GR
GS
[1 0 0 1 125.18382 32.77817] CT
0.906 0.533 0.4 RC
N
f1241251886
f
GR
GS
[1 0 0 1 176.56575 65.83925] CT
0.906 0.533 0.4 RC
N
f1241251886
f
GR
GS
[1 0 0 1 221.68872 116.35883] CT
0.906 0.533 0.4 RC
N
f1241251886
f
GR
GS
[1 0 0 1 186.96271 58.38106] CT
0.906 0.533 0.4 RC
N
f1241251886
f
GR
GS
[1 0 0 1 280.09344 161.14153] CT
0.906 0.533 0.4 RC
N
f1241251886
f
GR
GS
[1 0 0 1 210.43925 135.17535] CT
0.906 0.533 0.4 RC
N
f1241251886
f
GR
GS
[1 0 0 1 221.53239 108.13657] CT
0.906 0.533 0.4 RC
N
f1241251886
f
GR
GS
[1 0 0 1 176.96335 66.96206] CT
0.906 0.533 0.4 RC
N
f1241251886
f
GR
GS
[1 0 0 1 284.8313 161.64526] CT
0.906 0.533 0.4 RC
N
f1241251886
f
GR
GS
[1 0 0 1 186.27744 62.00278] CT
0.906 0.533 0.4 RC
N
f1241251886
f
GR
GS
[1 0 0 1 182.12373 67.04263] CT
0.906 0.533 0.4 RC
N
f1241251886
f
GR
GS
[1 0 0 1 126.47701 27.75712] CT
0.906 0.533 0.4 RC
N
f1241251886
f
GR
GS
[1 0 0 1 238.26575 152.22607] CT
0.906 0.533 0.4 RC
N
f1241251886
f
GR
GS
[1 0 0 1 121.61459 32.37291] CT
0.906 0.533 0.4 RC
N
f1241251886
f
GR
GS
[1 0 0 1 192.29056 75.60273] CT
0.906 0.533 0.4 RC
N
f1241251886
f
GR
GS
[1 0 0 1 194.91829 48.29412] CT
0.906 0.533 0.4 RC
N
f1241251886
f
GR
GS
[1 0 0 1 122.19939 24.41335] CT
0.906 0.533 0.4 RC
N
f1241251886
f
GR
GS
[1 0 0 1 156.35072 58.2642] CT
0.906 0.533 0.4 RC
N
f1241251886
f
GR
GS
[1 0 0 1 193.67882 56.37466] CT
0.906 0.533 0.4 RC
N
f1241251886
f
GR
GS
[1 0 0 1 258.31631 161.15462] CT
0.906 0.533 0.4 RC
N
f1241251886
f
GR
GS
[1 0 0 1 123.20873 39.81073] CT
0.906 0.533 0.4 RC
N
f1241251886
f
GR
GS
[1 0 0 1 135.25043 46.34165] CT
0.906 0.533 0.4 RC
N
f1241251886
f
GR
GS
[1 0 0 1 191.01836 77.36244] CT
0.906 0.533 0.4 RC
N
f1241251886
f
GR
GS
[1 0 0 1 134.66615 24.66512] CT
0.906 0.533 0.4 RC
N
f1241251886
f
GR
GS
[1 0 0 1 238.7114 145.23099] CT
0.906 0.533 0.4 RC
N
f1241251886
f
GR
GS
[1 0 0 1 166.21927 73.56739] CT
0.906 0.533 0.4 RC
N
f1241251886
f
GR
GS
[1 0 0 1 206.26306 143.39757] CT
0.906 0.533 0.4 RC
N
f1241251886
f
GR
GS
[1 0 0 1 116.80528 28.18843] CT
0.906 0.533 0.4 RC
N
f1241251886
f
GR
GS
[1 0 0 1 185.16153 53.54644] CT
0.906 0.533 0.4 RC
N
f1241251886
f
GR
GS
[1 0 0 1 253.9082 144.09743] CT
0.906 0.533 0.4 RC
N
f1241251886
f
GR
GS
[1 0 0 1 229.71442 134.42377] CT
0.906 0.533 0.4 RC
N
f1241251886
f
GR
GS
1 GC
N
355 185.5 M
539.5 185.5 L
539.5 16.5 L
355 16.5 L
cp
f
GR
GS
0.149 GC
2 setlinecap
1 LJ
0.5 LW
N
355 185.5 M
539.5 185.5 L
S
GR
GS
0.149 GC
2 setlinecap
1 LJ
0.5 LW
N
355 16.5 M
539.5 16.5 L
S
GR
GS
0.149 GC
2 setlinecap
1 LJ
0.5 LW
N
355 185.5 M
355 183.655 L
S
GR
GS
0.149 GC
2 setlinecap
1 LJ
0.5 LW
N
413.728 185.5 M
413.728 183.655 L
S
GR
GS
0.149 GC
2 setlinecap
1 LJ
0.5 LW
N
472.456 185.5 M
472.456 183.655 L
S
GR
GS
0.149 GC
2 setlinecap
1 LJ
0.5 LW
N
531.185 185.5 M
531.185 183.655 L
S
GR
GS
0.149 GC
2 setlinecap
1 LJ
0.5 LW
N
355 16.5 M
355 18.345 L
S
GR
GS
0.149 GC
2 setlinecap
1 LJ
0.5 LW
N
413.728 16.5 M
413.728 18.345 L
S
GR
GS
0.149 GC
2 setlinecap
1 LJ
0.5 LW
N
472.456 16.5 M
472.456 18.345 L
S
GR
GS
0.149 GC
2 setlinecap
1 LJ
0.5 LW
N
531.185 16.5 M
531.185 18.345 L
S
GR
GS
[1 0 0 1 355 189.5] CT
0.149 GC
/Helvetica 10 F
GS
[1 0 0 1 0 0] CT
-3 10 moveto 
1 -1 scale
(0) t 
GR
GR
GS
[1 0 0 1 413.72818 189.5] CT
0.149 GC
/Helvetica 10 F
GS
[1 0 0 1 0 0] CT
-3 10 moveto 
1 -1 scale
(2) t 
GR
GR
GS
[1 0 0 1 472.45636 189.5] CT
0.149 GC
/Helvetica 10 F
GS
[1 0 0 1 0 0] CT
-3 10 moveto 
1 -1 scale
(4) t 
GR
GR
GS
[1 0 0 1 531.18451 189.5] CT
0.149 GC
/Helvetica 10 F
GS
[1 0 0 1 0 0] CT
-3 10 moveto 
1 -1 scale
(6) t 
GR
GR
GS
[1 0 0 1 443 214] CT
0.149 GC
N
/f1382406663{2.125 2.141 M
2.625 0.156 L
2.063 0.156 1.578 -0.102 QT
1.094 -0.359 0.805 -0.828 QT
0.516 -1.297 0.516 -1.844 QT
0.516 -2.438 0.813 -2.984 QT
1.109 -3.531 1.617 -3.977 QT
2.125 -4.422 2.719 -4.656 QT
3.313 -4.891 3.891 -4.891 QT
4.563 -7.563 L
4.578 -7.625 4.641 -7.625 QT
4.781 -7.625 L
4.813 -7.625 4.844 -7.594 QT
4.875 -7.563 4.875 -7.531 QT
4.219 -4.891 L
4.625 -4.891 5.008 -4.742 QT
5.391 -4.594 5.695 -4.32 QT
6 -4.047 6.164 -3.68 QT
6.328 -3.313 6.328 -2.891 QT
6.328 -2.297 6.031 -1.758 QT
5.734 -1.219 5.234 -0.781 QT
4.734 -0.344 4.117 -0.094 QT
3.5 0.156 2.953 0.156 QT
2.438 2.188 L
2.422 2.25 2.359 2.25 QT
2.219 2.25 L
2.188 2.25 2.156 2.211 QT
2.125 2.172 2.125 2.141 QT
cp
2.703 -0.141 M
3.813 -4.609 L
3.547 -4.609 3.234 -4.5 QT
2.922 -4.391 2.656 -4.219 QT
2.391 -4.047 2.172 -3.813 QT
1.891 -3.547 1.688 -3.18 QT
1.484 -2.813 1.383 -2.414 QT
1.281 -2.016 1.281 -1.609 QT
1.281 -1.203 1.461 -0.867 QT
1.641 -0.531 1.961 -0.336 QT
2.281 -0.141 2.703 -0.141 QT
cp
3.031 -0.141 M
3.438 -0.141 3.906 -0.375 QT
4.375 -0.609 4.672 -0.922 QT
5.094 -1.328 5.328 -1.922 QT
5.563 -2.516 5.563 -3.125 QT
5.563 -3.531 5.383 -3.875 QT
5.203 -4.219 4.883 -4.414 QT
4.563 -4.609 4.141 -4.609 QT
3.031 -0.141 L
cp}def
f1382406663
f
GR
GS
0.149 GC
2 setlinecap
1 LJ
0.5 LW
N
355 185.5 M
355 16.5 L
S
GR
GS
0.149 GC
2 setlinecap
1 LJ
0.5 LW
N
539.5 185.5 M
539.5 16.5 L
S
GR
GS
0.149 GC
2 setlinecap
1 LJ
0.5 LW
N
355 181.692 M
356.845 181.692 L
S
GR
GS
0.149 GC
2 setlinecap
1 LJ
0.5 LW
N
355 154.794 M
356.845 154.794 L
S
GR
GS
0.149 GC
2 setlinecap
1 LJ
0.5 LW
N
355 127.897 M
356.845 127.897 L
S
GR
GS
0.149 GC
2 setlinecap
1 LJ
0.5 LW
N
355 101 M
356.845 101 L
S
GR
GS
0.149 GC
2 setlinecap
1 LJ
0.5 LW
N
355 74.103 M
356.845 74.103 L
S
GR
GS
0.149 GC
2 setlinecap
1 LJ
0.5 LW
N
355 47.206 M
356.845 47.206 L
S
GR
GS
0.149 GC
2 setlinecap
1 LJ
0.5 LW
N
355 20.308 M
356.845 20.308 L
S
GR
GS
0.149 GC
2 setlinecap
1 LJ
0.5 LW
N
539.5 181.692 M
537.655 181.692 L
S
GR
GS
0.149 GC
2 setlinecap
1 LJ
0.5 LW
N
539.5 154.794 M
537.655 154.794 L
S
GR
GS
0.149 GC
2 setlinecap
1 LJ
0.5 LW
N
539.5 127.897 M
537.655 127.897 L
S
GR
GS
0.149 GC
2 setlinecap
1 LJ
0.5 LW
N
539.5 101 M
537.655 101 L
S
GR
GS
0.149 GC
2 setlinecap
1 LJ
0.5 LW
N
539.5 74.103 M
537.655 74.103 L
S
GR
GS
0.149 GC
2 setlinecap
1 LJ
0.5 LW
N
539.5 47.206 M
537.655 47.206 L
S
GR
GS
0.149 GC
2 setlinecap
1 LJ
0.5 LW
N
539.5 20.308 M
537.655 20.308 L
S
GR
GS
[1 0 0 1 351 181.69156] CT
0.149 GC
/Helvetica 10 F
GS
[1 0 0 1 0 0] CT
-10 3.5 moveto 
1 -1 scale
(-3) t 
GR
GR
GS
[1 0 0 1 351 154.79437] CT
0.149 GC
/Helvetica 10 F
GS
[1 0 0 1 0 0] CT
-10 3.5 moveto 
1 -1 scale
(-2) t 
GR
GR
GS
[1 0 0 1 351 127.89719] CT
0.149 GC
/Helvetica 10 F
GS
[1 0 0 1 0 0] CT
-10 3.5 moveto 
1 -1 scale
(-1) t 
GR
GR
GS
[1 0 0 1 351 101] CT
0.149 GC
/Helvetica 10 F
GS
[1 0 0 1 0 0] CT
-6 3.5 moveto 
1 -1 scale
(0) t 
GR
GR
GS
[1 0 0 1 351 74.10281] CT
0.149 GC
/Helvetica 10 F
GS
[1 0 0 1 0 0] CT
-6 3.5 moveto 
1 -1 scale
(1) t 
GR
GR
GS
[1 0 0 1 351 47.20563] CT
0.149 GC
/Helvetica 10 F
GS
[1 0 0 1 0 0] CT
-6 3.5 moveto 
1 -1 scale
(2) t 
GR
GR
GS
[1 0 0 1 351 20.30844] CT
0.149 GC
/Helvetica 10 F
GS
[1 0 0 1 0 0] CT
-6 3.5 moveto 
1 -1 scale
(3) t 
GR
GR
GS
[0 -1 1 0 332 107] CT
0.149 GC
N
/f-1934038764{2.203 0.172 M
1.828 0.172 1.5 0.023 QT
1.172 -0.125 0.922 -0.391 QT
0.672 -0.656 0.555 -0.984 QT
0.438 -1.313 0.438 -1.703 QT
0.438 -2.391 0.766 -3.039 QT
1.094 -3.688 1.656 -4.156 QT
2.219 -4.625 2.875 -4.797 QT
2.547 -5.391 2.383 -5.82 QT
2.219 -6.25 2.219 -6.703 QT
2.219 -7.047 2.375 -7.297 QT
2.531 -7.547 2.805 -7.695 QT
3.078 -7.844 3.406 -7.844 QT
3.734 -7.844 4.703 -7.625 QT
4.969 -7.563 4.969 -7.328 QT
4.969 -7.141 4.828 -6.992 QT
4.688 -6.844 4.516 -6.844 QT
4.375 -6.844 4.266 -6.906 QT
4.156 -6.969 3.93 -7.125 QT
3.703 -7.281 3.516 -7.359 QT
3.328 -7.438 3.141 -7.438 QT
2.906 -7.438 2.727 -7.305 QT
2.547 -7.172 2.547 -6.953 QT
2.547 -6.594 2.859 -6.141 QT
3.172 -5.688 3.734 -4.984 QT
4.391 -4.156 4.391 -3.156 QT
4.391 -2.672 4.25 -2.094 QT
4.109 -1.516 3.836 -1.008 QT
3.563 -0.5 3.141 -0.164 QT
2.719 0.172 2.203 0.172 QT
cp
2.219 -0.141 M
2.656 -0.141 2.961 -0.586 QT
3.266 -1.031 3.43 -1.641 QT
3.594 -2.25 3.594 -2.672 QT
3.594 -3.5 3.016 -4.516 QT
2.438 -4.359 2.016 -3.844 QT
1.594 -3.328 1.383 -2.656 QT
1.172 -1.984 1.172 -1.391 QT
1.172 -0.859 1.445 -0.5 QT
1.719 -0.141 2.219 -0.141 QT
cp}def
f-1934038764
f
GR
GS
[0 -1 1 0 337 102] CT
0.149 GC
/Helvetica 8.8 F
GS
[1 0 0 1 0 0] CT
0 0 moveto 
1 -1 scale
(d) t 
GR
GR
GS
[1 0 0 1 447.25043 15.125] CT
/Helvetica-Bold 11 F
GS
[1 0 0 1 0 0] CT
-13 -3 moveto 
1 -1 scale
(V=11) t 
GR
GR
GS
[1 0 0 1 408.55481 151.09451] CT
0.459 0.745 0.894 RC
N
f1241251886
f
GR
GS
[1 0 0 1 374.45508 179.38579] CT
0.459 0.745 0.894 RC
N
f1241251886
f
GR
GS
[1 0 0 1 389.3902 154.97667] CT
0.459 0.745 0.894 RC
N
f1241251886
f
GR
GS
[1 0 0 1 366.6095 134.24696] CT
0.459 0.745 0.894 RC
N
f1241251886
f
GR
GS
[1 0 0 1 397.28403 162.86171] CT
0.459 0.745 0.894 RC
N
f1241251886
f
GR
GS
[1 0 0 1 436.45905 141.39447] CT
0.459 0.745 0.894 RC
N
f1241251886
f
GR
GS
[1 0 0 1 410.39127 156.66991] CT
0.459 0.745 0.894 RC
N
f1241251886
f
GR
GS
[1 0 0 1 425.40793 132.89226] CT
0.459 0.745 0.894 RC
N
f1241251886
f
GR
GS
[1 0 0 1 386.5112 132.34605] CT
0.459 0.745 0.894 RC
N
f1241251886
f
GR
GS
[1 0 0 1 445.00638 131.80624] CT
0.459 0.745 0.894 RC
N
f1241251886
f
GR
GS
[1 0 0 1 403.40332 151.31493] CT
0.459 0.745 0.894 RC
N
f1241251886
f
GR
GS
[1 0 0 1 436.40973 161.98499] CT
0.459 0.745 0.894 RC
N
f1241251886
f
GR
GS
[1 0 0 1 405.17545 126.60976] CT
0.459 0.745 0.894 RC
N
f1241251886
f
GR
GS
[1 0 0 1 405.73517 106.15486] CT
0.459 0.745 0.894 RC
N
f1241251886
f
GR
GS
[1 0 0 1 395.51535 129.10435] CT
0.459 0.745 0.894 RC
N
f1241251886
f
GR
GS
[1 0 0 1 399.44812 162.76529] CT
0.459 0.745 0.894 RC
N
f1241251886
f
GR
GS
[1 0 0 1 432.50342 127.37458] CT
0.459 0.745 0.894 RC
N
f1241251886
f
GR
GS
[1 0 0 1 396.08102 118.93932] CT
0.459 0.745 0.894 RC
N
f1241251886
f
GR
GS
[1 0 0 1 425.36121 164.71832] CT
0.459 0.745 0.894 RC
N
f1241251886
f
GR
GS
[1 0 0 1 371.43591 148.83372] CT
0.459 0.745 0.894 RC
N
f1241251886
f
GR
GS
[1 0 0 1 401.1955 150.96642] CT
0.459 0.745 0.894 RC
N
f1241251886
f
GR
GS
[1 0 0 1 436.82388 147.12537] CT
0.459 0.745 0.894 RC
N
f1241251886
f
GR
GS
[1 0 0 1 356.79541 157.06178] CT
0.459 0.745 0.894 RC
N
f1241251886
f
GR
GS
[1 0 0 1 417.30453 142.25999] CT
0.459 0.745 0.894 RC
N
f1241251886
f
GR
GS
[1 0 0 1 406.01718 150.92313] CT
0.459 0.745 0.894 RC
N
f1241251886
f
GR
GS
[1 0 0 1 438.85538 144.40894] CT
0.459 0.745 0.894 RC
N
f1241251886
f
GR
GS
[1 0 0 1 402.31079 163.99355] CT
0.459 0.745 0.894 RC
N
f1241251886
f
GR
GS
[1 0 0 1 410.93991 154.50679] CT
0.459 0.745 0.894 RC
N
f1241251886
f
GR
GS
[1 0 0 1 394.75897 152.53528] CT
0.459 0.745 0.894 RC
N
f1241251886
f
GR
GS
[1 0 0 1 429.25745 146.13757] CT
0.459 0.745 0.894 RC
N
f1241251886
f
GR
GS
[1 0 0 1 408.08817 155.92584] CT
0.459 0.745 0.894 RC
N
f1241251886
f
GR
GS
[1 0 0 1 391.8938 161.14886] CT
0.459 0.745 0.894 RC
N
f1241251886
f
GR
GS
[1 0 0 1 419.06277 152.15472] CT
0.459 0.745 0.894 RC
N
f1241251886
f
GR
GS
[1 0 0 1 408.0065 148.17889] CT
0.459 0.745 0.894 RC
N
f1241251886
f
GR
GS
[1 0 0 1 416.03522 147.50682] CT
0.459 0.745 0.894 RC
N
f1241251886
f
GR
GS
[1 0 0 1 411.94089 162.76724] CT
0.459 0.745 0.894 RC
N
f1241251886
f
GR
GS
[1 0 0 1 445.10025 109.79461] CT
0.459 0.745 0.894 RC
N
f1241251886
f
GR
GS
[1 0 0 1 390.64969 147.79659] CT
0.459 0.745 0.894 RC
N
f1241251886
f
GR
GS
[1 0 0 1 442.13577 139.38811] CT
0.459 0.745 0.894 RC
N
f1241251886
f
GR
GS
[1 0 0 1 405.69064 170.56593] CT
0.459 0.745 0.894 RC
N
f1241251886
f
GR
GS
[1 0 0 1 435.58426 175.28905] CT
0.459 0.745 0.894 RC
N
f1241251886
f
GR
GS
[1 0 0 1 369.56085 125.47175] CT
0.459 0.745 0.894 RC
N
f1241251886
f
GR
GS
[1 0 0 1 442.49405 145.18507] CT
0.459 0.745 0.894 RC
N
f1241251886
f
GR
GS
[1 0 0 1 383.65756 166.65363] CT
0.459 0.745 0.894 RC
N
f1241251886
f
GR
GS
[1 0 0 1 385.61838 159.85313] CT
0.459 0.745 0.894 RC
N
f1241251886
f
GR
GS
[1 0 0 1 405.85577 167.40282] CT
0.459 0.745 0.894 RC
N
f1241251886
f
GR
GS
[1 0 0 1 422.11334 151.73119] CT
0.459 0.745 0.894 RC
N
f1241251886
f
GR
GS
[1 0 0 1 377.45282 159.11778] CT
0.459 0.745 0.894 RC
N
f1241251886
f
GR
GS
[1 0 0 1 392.99805 139.25882] CT
0.459 0.745 0.894 RC
N
f1241251886
f
GR
GS
[1 0 0 1 446.10083 138.59862] CT
0.459 0.745 0.894 RC
N
f1241251886
f
GR
GS
[1 0 0 1 409.45584 156.25783] CT
0.459 0.745 0.894 RC
N
f1241251886
f
GR
GS
[1 0 0 1 404.23807 182.35162] CT
0.459 0.745 0.894 RC
N
f1241251886
f
GR
GS
[1 0 0 1 423.59708 136.93518] CT
0.459 0.745 0.894 RC
N
f1241251886
f
GR
GS
[1 0 0 1 408.25549 139.77013] CT
0.459 0.745 0.894 RC
N
f1241251886
f
GR
GS
[1 0 0 1 399.96674 143.52409] CT
0.459 0.745 0.894 RC
N
f1241251886
f
GR
GS
[1 0 0 1 427.98004 143.65106] CT
0.459 0.745 0.894 RC
N
f1241251886
f
GR
GS
[1 0 0 1 416.22879 152.02115] CT
0.459 0.745 0.894 RC
N
f1241251886
f
GR
GS
[1 0 0 1 432.11966 139.48827] CT
0.459 0.745 0.894 RC
N
f1241251886
f
GR
GS
[1 0 0 1 419.86346 150.37766] CT
0.459 0.745 0.894 RC
N
f1241251886
f
GR
GS
[1 0 0 1 407.41202 164.54683] CT
0.459 0.745 0.894 RC
N
f1241251886
f
GR
GS
[1 0 0 1 440.81271 150.73285] CT
0.459 0.745 0.894 RC
N
f1241251886
f
GR
GS
[1 0 0 1 426.21381 166.68649] CT
0.459 0.745 0.894 RC
N
f1241251886
f
GR
GS
[1 0 0 1 430.20264 145.83472] CT
0.459 0.745 0.894 RC
N
f1241251886
f
GR
GS
[1 0 0 1 432.68866 143.85721] CT
0.459 0.745 0.894 RC
N
f1241251886
f
GR
GS
[1 0 0 1 446.01547 107.53891] CT
0.459 0.745 0.894 RC
N
f1241251886
f
GR
GS
[1 0 0 1 396.26733 155.69444] CT
0.459 0.745 0.894 RC
N
f1241251886
f
GR
GS
[1 0 0 1 384.5137 163.17125] CT
0.459 0.745 0.894 RC
N
f1241251886
f
GR
GS
[1 0 0 1 418.88037 152.46284] CT
0.459 0.745 0.894 RC
N
f1241251886
f
GR
GS
[1 0 0 1 415.04898 141.26189] CT
0.459 0.745 0.894 RC
N
f1241251886
f
GR
GS
[1 0 0 1 387.94714 167.25797] CT
0.459 0.745 0.894 RC
N
f1241251886
f
GR
GS
[1 0 0 1 407.35583 158.04851] CT
0.459 0.745 0.894 RC
N
f1241251886
f
GR
GS
[1 0 0 1 436.61606 135.94891] CT
0.459 0.745 0.894 RC
N
f1241251886
f
GR
GS
[1 0 0 1 414.39374 113.75619] CT
0.459 0.745 0.894 RC
N
f1241251886
f
GR
GS
[1 0 0 1 417.24185 157.95154] CT
0.459 0.745 0.894 RC
N
f1241251886
f
GR
GS
[1 0 0 1 434.28287 122.77156] CT
0.459 0.745 0.894 RC
N
f1241251886
f
GR
GS
[1 0 0 1 400.46381 165.09373] CT
0.459 0.745 0.894 RC
N
f1241251886
f
GR
GS
[1 0 0 1 387.00537 163.85182] CT
0.459 0.745 0.894 RC
N
f1241251886
f
GR
GS
[1 0 0 1 483.46857 81.87779] CT
0.906 0.533 0.4 RC
N
f1241251886
f
GR
GS
[1 0 0 1 486.87589 41.1358] CT
0.906 0.533 0.4 RC
N
f1241251886
f
GR
GS
[1 0 0 1 511.75308 59.72299] CT
0.906 0.533 0.4 RC
N
f1241251886
f
GR
GS
[1 0 0 1 467.3746 145.19778] CT
0.906 0.533 0.4 RC
N
f1241251886
f
GR
GS
[1 0 0 1 475.10953 62.24244] CT
0.906 0.533 0.4 RC
N
f1241251886
f
GR
GS
[1 0 0 1 468.88309 59.64997] CT
0.906 0.533 0.4 RC
N
f1241251886
f
GR
GS
[1 0 0 1 479.96872 52.13394] CT
0.906 0.533 0.4 RC
N
f1241251886
f
GR
GS
[1 0 0 1 515.24976 48.96609] CT
0.906 0.533 0.4 RC
N
f1241251886
f
GR
GS
[1 0 0 1 414.84799 82.56843] CT
0.906 0.533 0.4 RC
N
f1241251886
f
GR
GS
[1 0 0 1 466.62643 117.07847] CT
0.906 0.533 0.4 RC
N
f1241251886
f
GR
GS
[1 0 0 1 459.56122 134.93626] CT
0.906 0.533 0.4 RC
N
f1241251886
f
GR
GS
[1 0 0 1 476.99841 138.49515] CT
0.906 0.533 0.4 RC
N
f1241251886
f
GR
GS
[1 0 0 1 458.85498 123.65284] CT
0.906 0.533 0.4 RC
N
f1241251886
f
GR
GS
[1 0 0 1 469.07419 75.20779] CT
0.906 0.533 0.4 RC
N
f1241251886
f
GR
GS
[1 0 0 1 496.7558 24.01666] CT
0.906 0.533 0.4 RC
N
f1241251886
f
GR
GS
[1 0 0 1 467.79214 146.78572] CT
0.906 0.533 0.4 RC
N
f1241251886
f
GR
GS
[1 0 0 1 485.50662 123.57957] CT
0.906 0.533 0.4 RC
N
f1241251886
f
GR
GS
[1 0 0 1 419.82858 61.2059] CT
0.906 0.533 0.4 RC
N
f1241251886
f
GR
GS
[1 0 0 1 439.00372 50.49544] CT
0.906 0.533 0.4 RC
N
f1241251886
f
GR
GS
[1 0 0 1 492.01321 79.17771] CT
0.906 0.533 0.4 RC
N
f1241251886
f
GR
GS
[1 0 0 1 459.52094 120.72264] CT
0.906 0.533 0.4 RC
N
f1241251886
f
GR
GS
[1 0 0 1 457.64468 68.92636] CT
0.906 0.533 0.4 RC
N
f1241251886
f
GR
GS
[1 0 0 1 444.63531 57.28164] CT
0.906 0.533 0.4 RC
N
f1241251886
f
GR
GS
[1 0 0 1 489.18298 55.31028] CT
0.906 0.533 0.4 RC
N
f1241251886
f
GR
GS
[1 0 0 1 357.49304 38.99303] CT
0.906 0.533 0.4 RC
N
f1241251886
f
GR
GS
[1 0 0 1 488.50403 90.14703] CT
0.906 0.533 0.4 RC
N
f1241251886
f
GR
GS
[1 0 0 1 507.30133 55.75612] CT
0.906 0.533 0.4 RC
N
f1241251886
f
GR
GS
[1 0 0 1 462.33499 130.26021] CT
0.906 0.533 0.4 RC
N
f1241251886
f
GR
GS
[1 0 0 1 449.95499 155.71806] CT
0.906 0.533 0.4 RC
N
f1241251886
f
GR
GS
[1 0 0 1 484.36511 47.77337] CT
0.906 0.533 0.4 RC
N
f1241251886
f
GR
GS
[1 0 0 1 407.7908 85.52168] CT
0.906 0.533 0.4 RC
N
f1241251886
f
GR
GS
[1 0 0 1 465.11533 124.03831] CT
0.906 0.533 0.4 RC
N
f1241251886
f
GR
GS
[1 0 0 1 453.2955 130.31624] CT
0.906 0.533 0.4 RC
N
f1241251886
f
GR
GS
[1 0 0 1 378.67291 80.19958] CT
0.906 0.533 0.4 RC
N
f1241251886
f
GR
GS
[1 0 0 1 447.68268 163.93416] CT
0.906 0.533 0.4 RC
N
f1241251886
f
GR
GS
[1 0 0 1 470.28427 129.91353] CT
0.906 0.533 0.4 RC
N
f1241251886
f
GR
GS
[1 0 0 1 366.88065 24.39396] CT
0.906 0.533 0.4 RC
N
f1241251886
f
GR
GS
[1 0 0 1 487.79184 67.04857] CT
0.906 0.533 0.4 RC
N
f1241251886
f
GR
GS
[1 0 0 1 441.14798 72.05437] CT
0.906 0.533 0.4 RC
N
f1241251886
f
GR
GS
[1 0 0 1 435.21393 99.10451] CT
0.906 0.533 0.4 RC
N
f1241251886
f
GR
GS
[1 0 0 1 448.28125 138.58438] CT
0.906 0.533 0.4 RC
N
f1241251886
f
GR
GS
[1 0 0 1 469.10568 136.26129] CT
0.906 0.533 0.4 RC
N
f1241251886
f
GR
GS
[1 0 0 1 478.56412 125.56906] CT
0.906 0.533 0.4 RC
N
f1241251886
f
GR
GS
[1 0 0 1 445.78333 71.87917] CT
0.906 0.533 0.4 RC
N
f1241251886
f
GR
GS
[1 0 0 1 458.37442 84.43355] CT
0.906 0.533 0.4 RC
N
f1241251886
f
GR
GS
[1 0 0 1 412.84177 58.84581] CT
0.906 0.533 0.4 RC
N
f1241251886
f
GR
GS
[1 0 0 1 527.34479 171.46541] CT
0.906 0.533 0.4 RC
N
f1241251886
f
GR
GS
[1 0 0 1 459.69815 149.85371] CT
0.906 0.533 0.4 RC
N
f1241251886
f
GR
GS
[1 0 0 1 460.40826 88.30586] CT
0.906 0.533 0.4 RC
N
f1241251886
f
GR
GS
[1 0 0 1 512.0459 64.79962] CT
0.906 0.533 0.4 RC
N
f1241251886
f
GR
GS
[1 0 0 1 487.6886 56.91689] CT
0.906 0.533 0.4 RC
N
f1241251886
f
GR
GS
[1 0 0 1 492.93741 42.18699] CT
0.906 0.533 0.4 RC
N
f1241251886
f
GR
GS
[1 0 0 1 501.51816 154.10701] CT
0.906 0.533 0.4 RC
N
f1241251886
f
GR
GS
[1 0 0 1 465.05743 54.11082] CT
0.906 0.533 0.4 RC
N
f1241251886
f
GR
GS
[1 0 0 1 482.3472 123.97301] CT
0.906 0.533 0.4 RC
N
f1241251886
f
GR
GS
[1 0 0 1 366.97314 50.66586] CT
0.906 0.533 0.4 RC
N
f1241251886
f
GR
GS
[1 0 0 1 483.78513 86.39548] CT
0.906 0.533 0.4 RC
N
f1241251886
f
GR
GS
[1 0 0 1 499.56659 41.95845] CT
0.906 0.533 0.4 RC
N
f1241251886
f
GR
GS
[1 0 0 1 498.79712 48.34959] CT
0.906 0.533 0.4 RC
N
f1241251886
f
GR
GS
[1 0 0 1 473.58356 89.7526] CT
0.906 0.533 0.4 RC
N
f1241251886
f
GR
GS
[1 0 0 1 459.44727 144.00093] CT
0.906 0.533 0.4 RC
N
f1241251886
f
GR
GS
[1 0 0 1 445.49472 82.10841] CT
0.906 0.533 0.4 RC
N
f1241251886
f
GR
GS
[1 0 0 1 475.81427 88.1804] CT
0.906 0.533 0.4 RC
N
f1241251886
f
GR
GS
[1 0 0 1 493.73312 178.24774] CT
0.906 0.533 0.4 RC
N
f1241251886
f
GR
GS
[1 0 0 1 487.85336 49.42398] CT
0.906 0.533 0.4 RC
N
f1241251886
f
GR
GS
[1 0 0 1 479.7659 55.28651] CT
0.906 0.533 0.4 RC
N
f1241251886
f
GR
GS
[1 0 0 1 411.13556 68.38723] CT
0.906 0.533 0.4 RC
N
f1241251886
f
GR
GS
[1 0 0 1 511.22757 60.36927] CT
0.906 0.533 0.4 RC
N
f1241251886
f
GR
GS
[1 0 0 1 477.09256 127.56585] CT
0.906 0.533 0.4 RC
N
f1241251886
f
GR
GS
[1 0 0 1 462.34808 117.86739] CT
0.906 0.533 0.4 RC
N
f1241251886
f
GR
GS
[1 0 0 1 469.0264 148.75465] CT
0.906 0.533 0.4 RC
N
f1241251886
f
GR
GS
[1 0 0 1 462.25977 51.56831] CT
0.906 0.533 0.4 RC
N
f1241251886
f
GR
GS
[1 0 0 1 503.9808 61.88784] CT
0.906 0.533 0.4 RC
N
f1241251886
f
GR
GS
[1 0 0 1 460.48358 73.8908] CT
0.906 0.533 0.4 RC
N
f1241251886
f
GR
GS
[1 0 0 1 393.39771 63.37907] CT
0.906 0.533 0.4 RC
N
f1241251886
f
GR
GS
[1 0 0 1 475.03372 90.62936] CT
0.906 0.533 0.4 RC
N
f1241251886
f
GR
GS
[1 0 0 1 464.44366 119.37157] CT
0.906 0.533 0.4 RC
N
f1241251886
f
GR
GS
[1 0 0 1 462.00897 50.82318] CT
0.906 0.533 0.4 RC
N
f1241251886
f
GR
GS
[1 0 0 1 458.72253 70.60027] CT
0.906 0.533 0.4 RC
N
f1241251886
f
GR
GS
[1 0 0 1 458.24503 142.26904] CT
0.906 0.533 0.4 RC
N
f1241251886
f
GR
GS
[1 0 0 1 471.77399 51.1558] CT
0.906 0.533 0.4 RC
N
f1241251886
f
GR
GS
[1 0 0 1 466.05759 61.23558] CT
0.906 0.533 0.4 RC
N
f1241251886
f
GR
GS
[1 0 0 1 488.19247 70.2537] CT
0.906 0.533 0.4 RC
N
f1241251886
f
GR
GS
[1 0 0 1 369.0307 46.44835] CT
0.906 0.533 0.4 RC
N
f1241251886
f
GR
GS
[1 0 0 1 366.87103 43.01111] CT
0.906 0.533 0.4 RC
N
f1241251886
f
GR
GS
[1 0 0 1 530.56158 54.91479] CT
0.906 0.533 0.4 RC
N
f1241251886
f
GR
GS
[1 0 0 1 462.5882 150.07092] CT
0.906 0.533 0.4 RC
N
f1241251886
f
GR
GS
[1 0 0 1 469.75882 61.18222] CT
0.906 0.533 0.4 RC
N
f1241251886
f
GR
GS
[1 0 0 1 472.82895 51.40567] CT
0.906 0.533 0.4 RC
N
f1241251886
f
GR
GS
[1 0 0 1 497.67749 38.66406] CT
0.906 0.533 0.4 RC
N
f1241251886
f
GR
GS
[1 0 0 1 506.45486 47.81526] CT
0.906 0.533 0.4 RC
N
f1241251886
f
GR
GS
[1 0 0 1 453.48795 167.01834] CT
0.906 0.533 0.4 RC
N
f1241251886
f
GR
GS
[1 0 0 1 509.34338 28.63013] CT
0.906 0.533 0.4 RC
N
f1241251886
f
GR
GS
[1 0 0 1 446.86517 79.74847] CT
0.906 0.533 0.4 RC
N
f1241251886
f
GR
GS
[1 0 0 1 516.05206 43.69963] CT
0.906 0.533 0.4 RC
N
f1241251886
f
GR
GS
[1 0 0 1 430.9718 59.28626] CT
0.906 0.533 0.4 RC
N
f1241251886
f
GR
GS
[1 0 0 1 512.11694 60.15265] CT
0.906 0.533 0.4 RC
N
f1241251886
f
GR
GS
[1 0 0 1 482.66556 141.24568] CT
0.906 0.533 0.4 RC
N
f1241251886
f
GR
GS
[1 0 0 1 480.11105 54.7077] CT
0.906 0.533 0.4 RC
N
f1241251886
f
GR
GS
[1 0 0 1 437.16434 54.5386] CT
0.906 0.533 0.4 RC
N
f1241251886
f
GR
GS
[1 0 0 1 482.37527 48.27207] CT
0.906 0.533 0.4 RC
N
f1241251886
f
GR
GS
[1 0 0 1 449.03946 52.65424] CT
0.906 0.533 0.4 RC
N
f1241251886
f
GR
GS
[1 0 0 1 506.96576 78.30762] CT
0.906 0.533 0.4 RC
N
f1241251886
f
GR
GS
[1 0 0 1 446.78244 71.11691] CT
0.906 0.533 0.4 RC
N
f1241251886
f
GR
GS
[1 0 0 1 434.7077 72.75133] CT
0.906 0.533 0.4 RC
N
f1241251886
f
GR
GS
[1 0 0 1 464.64758 139.07436] CT
0.906 0.533 0.4 RC
N
f1241251886
f
GR
GS
[1 0 0 1 449.86316 140.68932] CT
0.906 0.533 0.4 RC
N
f1241251886
f
GR
GS
[1 0 0 1 500.17746 47.04578] CT
0.906 0.533 0.4 RC
N
f1241251886
f
GR
GS
[1 0 0 1 471.63904 52.30571] CT
0.906 0.533 0.4 RC
N
f1241251886
f
GR
GS
[1 0 0 1 468.41806 52.28738] CT
0.906 0.533 0.4 RC
N
f1241251886
f
GR
GS
[1 0 0 1 481.03372 85.45107] CT
0.906 0.533 0.4 RC
N
f1241251886
f
GR
GS
[1 0 0 1 468.85181 149.51118] CT
0.906 0.533 0.4 RC
N
f1241251886
f
GR
GS
[1 0 0 1 447.92325 65.03705] CT
0.906 0.533 0.4 RC
N
f1241251886
f
GR
GS
[1 0 0 1 498.91324 42.40913] CT
0.906 0.533 0.4 RC
N
f1241251886
f
GR
GS
[1 0 0 1 477.59689 39.95754] CT
0.906 0.533 0.4 RC
N
f1241251886
f
GR
GS
[1 0 0 1 459.45529 126.01311] CT
0.906 0.533 0.4 RC
N
f1241251886
f
GR
GS
[1 0 0 1 510.66635 57.65099] CT
0.906 0.533 0.4 RC
N
f1241251886
f
GR
GS
[1 0 0 1 434.31967 90.11829] CT
0.906 0.533 0.4 RC
N
f1241251886
f
GR
GS
[1 0 0 1 472.08786 42.7017] CT
0.906 0.533 0.4 RC
N
f1241251886
f
GR
GS
[1 0 0 1 466.64526 75.43133] CT
0.906 0.533 0.4 RC
N
f1241251886
f
GR
GS
[1 0 0 1 472.55865 128.01691] CT
0.906 0.533 0.4 RC
N
f1241251886
f
GR
GS
[1 0 0 1 481.07214 54.22639] CT
0.906 0.533 0.4 RC
N
f1241251886
f
GR
GS
[1 0 0 1 498.76926 37.32862] CT
0.906 0.533 0.4 RC
N
f1241251886
f
GR
GS
[1 0 0 1 462.55023 156.09814] CT
0.906 0.533 0.4 RC
N
f1241251886
f
GR
GS
[1 0 0 1 455.88397 62.92345] CT
0.906 0.533 0.4 RC
N
f1241251886
f
GR
GS
[1 0 0 1 469.44684 68.47067] CT
0.906 0.533 0.4 RC
N
f1241251886
f
GR
GS
[1 0 0 1 468.93948 52.85233] CT
0.906 0.533 0.4 RC
N
f1241251886
f
GR
GS
[1 0 0 1 466.26407 43.38423] CT
0.906 0.533 0.4 RC
N
f1241251886
f
GR
GS
[1 0 0 1 468.31998 137.31139] CT
0.906 0.533 0.4 RC
N
f1241251886
f
GR
GS
[1 0 0 1 536.21967 141.83652] CT
0.906 0.533 0.4 RC
N
f1241251886
f
GR
GS
[1 0 0 1 481.19003 47.38459] CT
0.906 0.533 0.4 RC
N
f1241251886
f
GR
GS
[1 0 0 1 456.45154 142.55063] CT
0.906 0.533 0.4 RC
N
f1241251886
f
GR
GS
[1 0 0 1 434.90298 83.63295] CT
0.906 0.533 0.4 RC
N
f1241251886
f
GR
GS
[1 0 0 1 464.63129 91.89963] CT
0.906 0.533 0.4 RC
N
f1241251886
f
GR
GS
[1 0 0 1 480.43997 48.89089] CT
0.906 0.533 0.4 RC
N
f1241251886
f
GR
GS
[1 0 0 1 377.58478 34.46545] CT
0.906 0.533 0.4 RC
N
f1241251886
f
GR
GS
[1 0 0 1 488.48083 43.82249] CT
0.906 0.533 0.4 RC
N
f1241251886
f
GR
GS
[1 0 0 1 483.67996 70.92774] CT
0.906 0.533 0.4 RC
N
f1241251886
f
GR
GS
[1 0 0 1 481.01254 148.13121] CT
0.906 0.533 0.4 RC
N
f1241251886
f
GR
GS
[1 0 0 1 386.7265 57.78529] CT
0.906 0.533 0.4 RC
N
f1241251886
f
GR
GS
[1 0 0 1 513.23523 49.2652] CT
0.906 0.533 0.4 RC
N
f1241251886
f
GR
GS
[1 0 0 1 488.1553 45.32405] CT
0.906 0.533 0.4 RC
N
f1241251886
f
GR
GS
[1 0 0 1 464.03085 118.16016] CT
0.906 0.533 0.4 RC
N
f1241251886
f
GR
GS
[1 0 0 1 456.36649 119.84538] CT
0.906 0.533 0.4 RC
N
f1241251886
f
GR
GS
[1 0 0 1 452.3934 57.09573] CT
0.906 0.533 0.4 RC
N
f1241251886
f
GR
GS
[1 0 0 1 496.57645 51.29145] CT
0.906 0.533 0.4 RC
N
f1241251886
f
GR
GS
[1 0 0 1 484.26703 62.0298] CT
0.906 0.533 0.4 RC
N
f1241251886
f
GR
GS
[1 0 0 1 472.46005 42.36398] CT
0.906 0.533 0.4 RC
N
f1241251886
f
GR
GS
[1 0 0 1 467.0809 65.32465] CT
0.906 0.533 0.4 RC
N
f1241251886
f
GR
GS
[1 0 0 1 471.85452 58.10224] CT
0.906 0.533 0.4 RC
N
f1241251886
f
GR
GS
[1 0 0 1 455.5376 131.90704] CT
0.906 0.533 0.4 RC
N
f1241251886
f
GR
GS
[1 0 0 1 500.03857 59.45067] CT
0.906 0.533 0.4 RC
N
f1241251886
f
GR
GS
[1 0 0 1 462.66779 48.40173] CT
0.906 0.533 0.4 RC
N
f1241251886
f
GR
GS
[1 0 0 1 485.83951 44.08947] CT
0.906 0.533 0.4 RC
N
f1241251886
f
GR
GS
[1 0 0 1 452.65921 69.59698] CT
0.906 0.533 0.4 RC
N
f1241251886
f
GR
GS
[1 0 0 1 506.48563 51.48082] CT
0.906 0.533 0.4 RC
N
f1241251886
f
GR
GS
1 GC
N
597.5 185.5 M
782 185.5 L
782 16.5 L
597.5 16.5 L
cp
f
GR
GS
0.149 GC
2 setlinecap
1 LJ
0.5 LW
N
597.5 185.5 M
782 185.5 L
S
GR
GS
0.149 GC
2 setlinecap
1 LJ
0.5 LW
N
597.5 16.5 M
782 16.5 L
S
GR
GS
0.149 GC
2 setlinecap
1 LJ
0.5 LW
N
597.5 185.5 M
597.5 183.655 L
S
GR
GS
0.149 GC
2 setlinecap
1 LJ
0.5 LW
N
656.228 185.5 M
656.228 183.655 L
S
GR
GS
0.149 GC
2 setlinecap
1 LJ
0.5 LW
N
714.956 185.5 M
714.956 183.655 L
S
GR
GS
0.149 GC
2 setlinecap
1 LJ
0.5 LW
N
773.685 185.5 M
773.685 183.655 L
S
GR
GS
0.149 GC
2 setlinecap
1 LJ
0.5 LW
N
597.5 16.5 M
597.5 18.345 L
S
GR
GS
0.149 GC
2 setlinecap
1 LJ
0.5 LW
N
656.228 16.5 M
656.228 18.345 L
S
GR
GS
0.149 GC
2 setlinecap
1 LJ
0.5 LW
N
714.956 16.5 M
714.956 18.345 L
S
GR
GS
0.149 GC
2 setlinecap
1 LJ
0.5 LW
N
773.685 16.5 M
773.685 18.345 L
S
GR
GS
[1 0 0 1 597.5 189.5] CT
0.149 GC
/Helvetica 10 F
GS
[1 0 0 1 0 0] CT
-3 10 moveto 
1 -1 scale
(0) t 
GR
GR
GS
[1 0 0 1 656.22815 189.5] CT
0.149 GC
/Helvetica 10 F
GS
[1 0 0 1 0 0] CT
-3 10 moveto 
1 -1 scale
(2) t 
GR
GR
GS
[1 0 0 1 714.95636 189.5] CT
0.149 GC
/Helvetica 10 F
GS
[1 0 0 1 0 0] CT
-3 10 moveto 
1 -1 scale
(4) t 
GR
GR
GS
[1 0 0 1 773.68451 189.5] CT
0.149 GC
/Helvetica 10 F
GS
[1 0 0 1 0 0] CT
-3 10 moveto 
1 -1 scale
(6) t 
GR
GR
GS
[1 0 0 1 686 214] CT
0.149 GC
N
f1382406663
f
GR
GS
0.149 GC
2 setlinecap
1 LJ
0.5 LW
N
597.5 185.5 M
597.5 16.5 L
S
GR
GS
0.149 GC
2 setlinecap
1 LJ
0.5 LW
N
782 185.5 M
782 16.5 L
S
GR
GS
0.149 GC
2 setlinecap
1 LJ
0.5 LW
N
597.5 181.692 M
599.345 181.692 L
S
GR
GS
0.149 GC
2 setlinecap
1 LJ
0.5 LW
N
597.5 154.794 M
599.345 154.794 L
S
GR
GS
0.149 GC
2 setlinecap
1 LJ
0.5 LW
N
597.5 127.897 M
599.345 127.897 L
S
GR
GS
0.149 GC
2 setlinecap
1 LJ
0.5 LW
N
597.5 101 M
599.345 101 L
S
GR
GS
0.149 GC
2 setlinecap
1 LJ
0.5 LW
N
597.5 74.103 M
599.345 74.103 L
S
GR
GS
0.149 GC
2 setlinecap
1 LJ
0.5 LW
N
597.5 47.206 M
599.345 47.206 L
S
GR
GS
0.149 GC
2 setlinecap
1 LJ
0.5 LW
N
597.5 20.308 M
599.345 20.308 L
S
GR
GS
0.149 GC
2 setlinecap
1 LJ
0.5 LW
N
782 181.692 M
780.155 181.692 L
S
GR
GS
0.149 GC
2 setlinecap
1 LJ
0.5 LW
N
782 154.794 M
780.155 154.794 L
S
GR
GS
0.149 GC
2 setlinecap
1 LJ
0.5 LW
N
782 127.897 M
780.155 127.897 L
S
GR
GS
0.149 GC
2 setlinecap
1 LJ
0.5 LW
N
782 101 M
780.155 101 L
S
GR
GS
0.149 GC
2 setlinecap
1 LJ
0.5 LW
N
782 74.103 M
780.155 74.103 L
S
GR
GS
0.149 GC
2 setlinecap
1 LJ
0.5 LW
N
782 47.206 M
780.155 47.206 L
S
GR
GS
0.149 GC
2 setlinecap
1 LJ
0.5 LW
N
782 20.308 M
780.155 20.308 L
S
GR
GS
[1 0 0 1 593.5 181.69156] CT
0.149 GC
/Helvetica 10 F
GS
[1 0 0 1 0 0] CT
-10 3.5 moveto 
1 -1 scale
(-3) t 
GR
GR
GS
[1 0 0 1 593.5 154.79437] CT
0.149 GC
/Helvetica 10 F
GS
[1 0 0 1 0 0] CT
-10 3.5 moveto 
1 -1 scale
(-2) t 
GR
GR
GS
[1 0 0 1 593.5 127.89719] CT
0.149 GC
/Helvetica 10 F
GS
[1 0 0 1 0 0] CT
-10 3.5 moveto 
1 -1 scale
(-1) t 
GR
GR
GS
[1 0 0 1 593.5 101] CT
0.149 GC
/Helvetica 10 F
GS
[1 0 0 1 0 0] CT
-6 3.5 moveto 
1 -1 scale
(0) t 
GR
GR
GS
[1 0 0 1 593.5 74.10281] CT
0.149 GC
/Helvetica 10 F
GS
[1 0 0 1 0 0] CT
-6 3.5 moveto 
1 -1 scale
(1) t 
GR
GR
GS
[1 0 0 1 593.5 47.20563] CT
0.149 GC
/Helvetica 10 F
GS
[1 0 0 1 0 0] CT
-6 3.5 moveto 
1 -1 scale
(2) t 
GR
GR
GS
[1 0 0 1 593.5 20.30844] CT
0.149 GC
/Helvetica 10 F
GS
[1 0 0 1 0 0] CT
-6 3.5 moveto 
1 -1 scale
(3) t 
GR
GR
GS
[0 -1 1 0 574 107] CT
0.149 GC
N
f-1934038764
f
GR
GS
[0 -1 1 0 579 102] CT
0.149 GC
/Helvetica 8.8 F
GS
[1 0 0 1 0 0] CT
0 0 moveto 
1 -1 scale
(d) t 
GR
GR
GS
[1 0 0 1 689.75067 15.125] CT
/Helvetica-Bold 11 F
GS
[1 0 0 1 0 0] CT
-10 -3 moveto 
1 -1 scale
(V=2) t 
GR
GR
GS
[1 0 0 1 626.16284 166.11917] CT
0.459 0.745 0.894 RC
N
f1241251886
f
GR
GS
[1 0 0 1 619.45953 142.65388] CT
0.459 0.745 0.894 RC
N
f1241251886
f
GR
GS
[1 0 0 1 632.93207 135.67375] CT
0.459 0.745 0.894 RC
N
f1241251886
f
GR
GS
[1 0 0 1 652.26447 128.15825] CT
0.459 0.745 0.894 RC
N
f1241251886
f
GR
GS
[1 0 0 1 671.92023 123.85287] CT
0.459 0.745 0.894 RC
N
f1241251886
f
GR
GS
[1 0 0 1 670.27887 140.29185] CT
0.459 0.745 0.894 RC
N
f1241251886
f
GR
GS
[1 0 0 1 675.67505 169.66946] CT
0.459 0.745 0.894 RC
N
f1241251886
f
GR
GS
[1 0 0 1 638.69006 151.10751] CT
0.459 0.745 0.894 RC
N
f1241251886
f
GR
GS
[1 0 0 1 683.75336 112.9704] CT
0.459 0.745 0.894 RC
N
f1241251886
f
GR
GS
[1 0 0 1 656.03638 148.40192] CT
0.459 0.745 0.894 RC
N
f1241251886
f
GR
GS
[1 0 0 1 613.51178 133.28474] CT
0.459 0.745 0.894 RC
N
f1241251886
f
GR
GS
[1 0 0 1 679.86462 161.79097] CT
0.459 0.745 0.894 RC
N
f1241251886
f
GR
GS
[1 0 0 1 624.58075 157.42709] CT
0.459 0.745 0.894 RC
N
f1241251886
f
GR
GS
[1 0 0 1 654.71393 157.74664] CT
0.459 0.745 0.894 RC
N
f1241251886
f
GR
GS
[1 0 0 1 672.28729 156.27748] CT
0.459 0.745 0.894 RC
N
f1241251886
f
GR
GS
[1 0 0 1 644.53723 124.49361] CT
0.459 0.745 0.894 RC
N
f1241251886
f
GR
GS
[1 0 0 1 631.04358 165.34186] CT
0.459 0.745 0.894 RC
N
f1241251886
f
GR
GS
[1 0 0 1 668.73151 128.98892] CT
0.459 0.745 0.894 RC
N
f1241251886
f
GR
GS
[1 0 0 1 660.60803 117.0238] CT
0.459 0.745 0.894 RC
N
f1241251886
f
GR
GS
[1 0 0 1 676.07422 134.05405] CT
0.459 0.745 0.894 RC
N
f1241251886
f
GR
GS
[1 0 0 1 674.37469 138.55524] CT
0.459 0.745 0.894 RC
N
f1241251886
f
GR
GS
[1 0 0 1 625.19031 183.64867] CT
0.459 0.745 0.894 RC
N
f1241251886
f
GR
GS
[1 0 0 1 607.84503 145.97124] CT
0.459 0.745 0.894 RC
N
f1241251886
f
GR
GS
[1 0 0 1 645.60608 129.37384] CT
0.459 0.745 0.894 RC
N
f1241251886
f
GR
GS
[1 0 0 1 654.40686 132.17444] CT
0.459 0.745 0.894 RC
N
f1241251886
f
GR
GS
[1 0 0 1 646.58362 141.74069] CT
0.459 0.745 0.894 RC
N
f1241251886
f
GR
GS
[1 0 0 1 672.44751 122.70167] CT
0.459 0.745 0.894 RC
N
f1241251886
f
GR
GS
[1 0 0 1 672.57056 156.61349] CT
0.459 0.745 0.894 RC
N
f1241251886
f
GR
GS
[1 0 0 1 661.29559 138.08801] CT
0.459 0.745 0.894 RC
N
f1241251886
f
GR
GS
[1 0 0 1 647.40088 123.51321] CT
0.459 0.745 0.894 RC
N
f1241251886
f
GR
GS
[1 0 0 1 684.68677 138.717] CT
0.459 0.745 0.894 RC
N
f1241251886
f
GR
GS
[1 0 0 1 678.4483 169.21042] CT
0.459 0.745 0.894 RC
N
f1241251886
f
GR
GS
[1 0 0 1 673.37292 103.0145] CT
0.459 0.745 0.894 RC
N
f1241251886
f
GR
GS
[1 0 0 1 665.46069 139.28734] CT
0.459 0.745 0.894 RC
N
f1241251886
f
GR
GS
[1 0 0 1 658.32397 143.72609] CT
0.459 0.745 0.894 RC
N
f1241251886
f
GR
GS
[1 0 0 1 682.39484 140.35248] CT
0.459 0.745 0.894 RC
N
f1241251886
f
GR
GS
[1 0 0 1 671.63739 136.80858] CT
0.459 0.745 0.894 RC
N
f1241251886
f
GR
GS
[1 0 0 1 680.90405 127.15922] CT
0.459 0.745 0.894 RC
N
f1241251886
f
GR
GS
[1 0 0 1 661.48596 128.30717] CT
0.459 0.745 0.894 RC
N
f1241251886
f
GR
GS
[1 0 0 1 680.26154 108.70221] CT
0.459 0.745 0.894 RC
N
f1241251886
f
GR
GS
[1 0 0 1 647.84198 164.16827] CT
0.459 0.745 0.894 RC
N
f1241251886
f
GR
GS
[1 0 0 1 653.15802 109.96444] CT
0.459 0.745 0.894 RC
N
f1241251886
f
GR
GS
[1 0 0 1 647.22815 134.16513] CT
0.459 0.745 0.894 RC
N
f1241251886
f
GR
GS
[1 0 0 1 625.40045 155.81589] CT
0.459 0.745 0.894 RC
N
f1241251886
f
GR
GS
[1 0 0 1 676.1012 151.97021] CT
0.459 0.745 0.894 RC
N
f1241251886
f
GR
GS
[1 0 0 1 670.2146 142.60828] CT
0.459 0.745 0.894 RC
N
f1241251886
f
GR
GS
[1 0 0 1 642.51752 128.54001] CT
0.459 0.745 0.894 RC
N
f1241251886
f
GR
GS
[1 0 0 1 689.7196 109.62885] CT
0.459 0.745 0.894 RC
N
f1241251886
f
GR
GS
[1 0 0 1 624.70941 146.65591] CT
0.459 0.745 0.894 RC
N
f1241251886
f
GR
GS
[1 0 0 1 671.69885 141.79047] CT
0.459 0.745 0.894 RC
N
f1241251886
f
GR
GS
[1 0 0 1 666.17371 129.043] CT
0.459 0.745 0.894 RC
N
f1241251886
f
GR
GS
[1 0 0 1 660.46844 153.33786] CT
0.459 0.745 0.894 RC
N
f1241251886
f
GR
GS
[1 0 0 1 687.10919 126.31509] CT
0.459 0.745 0.894 RC
N
f1241251886
f
GR
GS
[1 0 0 1 665.40955 156.4313] CT
0.459 0.745 0.894 RC
N
f1241251886
f
GR
GS
[1 0 0 1 648.2334 138.95969] CT
0.459 0.745 0.894 RC
N
f1241251886
f
GR
GS
[1 0 0 1 665.91229 175.01224] CT
0.459 0.745 0.894 RC
N
f1241251886
f
GR
GS
[1 0 0 1 649.91425 159.17148] CT
0.459 0.745 0.894 RC
N
f1241251886
f
GR
GS
[1 0 0 1 625.50983 122.1068] CT
0.459 0.745 0.894 RC
N
f1241251886
f
GR
GS
[1 0 0 1 680.89197 141.74702] CT
0.459 0.745 0.894 RC
N
f1241251886
f
GR
GS
[1 0 0 1 668.19928 114.89783] CT
0.459 0.745 0.894 RC
N
f1241251886
f
GR
GS
[1 0 0 1 688.39099 150.19748] CT
0.459 0.745 0.894 RC
N
f1241251886
f
GR
GS
[1 0 0 1 648.84686 156.18378] CT
0.459 0.745 0.894 RC
N
f1241251886
f
GR
GS
[1 0 0 1 664.93066 150.44434] CT
0.459 0.745 0.894 RC
N
f1241251886
f
GR
GS
[1 0 0 1 663.12573 128.17233] CT
0.459 0.745 0.894 RC
N
f1241251886
f
GR
GS
[1 0 0 1 628.75128 112.58904] CT
0.459 0.745 0.894 RC
N
f1241251886
f
GR
GS
[1 0 0 1 622.29163 164.49898] CT
0.459 0.745 0.894 RC
N
f1241251886
f
GR
GS
[1 0 0 1 684.91467 129.58356] CT
0.459 0.745 0.894 RC
N
f1241251886
f
GR
GS
[1 0 0 1 678.21735 137.94652] CT
0.459 0.745 0.894 RC
N
f1241251886
f
GR
GS
[1 0 0 1 607.91699 155.22365] CT
0.459 0.745 0.894 RC
N
f1241251886
f
GR
GS
[1 0 0 1 599.28601 155.02319] CT
0.459 0.745 0.894 RC
N
f1241251886
f
GR
GS
[1 0 0 1 658.13263 156.2858] CT
0.459 0.745 0.894 RC
N
f1241251886
f
GR
GS
[1 0 0 1 683.802 146.24857] CT
0.459 0.745 0.894 RC
N
f1241251886
f
GR
GS
[1 0 0 1 646.11786 155.42249] CT
0.459 0.745 0.894 RC
N
f1241251886
f
GR
GS
[1 0 0 1 643.47699 136.58603] CT
0.459 0.745 0.894 RC
N
f1241251886
f
GR
GS
[1 0 0 1 649.99963 142.96855] CT
0.459 0.745 0.894 RC
N
f1241251886
f
GR
GS
[1 0 0 1 675.23364 153.81715] CT
0.459 0.745 0.894 RC
N
f1241251886
f
GR
GS
[1 0 0 1 651.4361 153.90852] CT
0.459 0.745 0.894 RC
N
f1241251886
f
GR
GS
[1 0 0 1 688.45471 120.91045] CT
0.459 0.745 0.894 RC
N
f1241251886
f
GR
GS
[1 0 0 1 686.0423 149.26884] CT
0.459 0.745 0.894 RC
N
f1241251886
f
GR
GS
[1 0 0 1 657.97424 157.90886] CT
0.459 0.745 0.894 RC
N
f1241251886
f
GR
GS
[1 0 0 1 613.36096 140.55644] CT
0.459 0.745 0.894 RC
N
f1241251886
f
GR
GS
[1 0 0 1 659.54858 110.22604] CT
0.459 0.745 0.894 RC
N
f1241251886
f
GR
GS
[1 0 0 1 662.88861 145.84734] CT
0.459 0.745 0.894 RC
N
f1241251886
f
GR
GS
[1 0 0 1 663.21271 133.75458] CT
0.459 0.745 0.894 RC
N
f1241251886
f
GR
GS
[1 0 0 1 685.37439 101.16634] CT
0.459 0.745 0.894 RC
N
f1241251886
f
GR
GS
[1 0 0 1 624.24548 142.69176] CT
0.459 0.745 0.894 RC
N
f1241251886
f
GR
GS
[1 0 0 1 605.92218 158.77797] CT
0.459 0.745 0.894 RC
N
f1241251886
f
GR
GS
[1 0 0 1 612.98975 167.02289] CT
0.459 0.745 0.894 RC
N
f1241251886
f
GR
GS
[1 0 0 1 644.19641 124.97388] CT
0.459 0.745 0.894 RC
N
f1241251886
f
GR
GS
[1 0 0 1 673.93127 132.22615] CT
0.459 0.745 0.894 RC
N
f1241251886
f
GR
GS
[1 0 0 1 651.11884 146.28645] CT
0.459 0.745 0.894 RC
N
f1241251886
f
GR
GS
[1 0 0 1 711.36719 151.26616] CT
0.906 0.533 0.4 RC
N
f1241251886
f
GR
GS
[1 0 0 1 723.17133 68.76692] CT
0.906 0.533 0.4 RC
N
f1241251886
f
GR
GS
[1 0 0 1 772.45111 145.22784] CT
0.906 0.533 0.4 RC
N
f1241251886
f
GR
GS
[1 0 0 1 697.93762 106.87833] CT
0.906 0.533 0.4 RC
N
f1241251886
f
GR
GS
[1 0 0 1 707.5799 71.82413] CT
0.906 0.533 0.4 RC
N
f1241251886
f
GR
GS
[1 0 0 1 709.06659 93.03152] CT
0.906 0.533 0.4 RC
N
f1241251886
f
GR
GS
[1 0 0 1 742.18762 49.49181] CT
0.906 0.533 0.4 RC
N
f1241251886
f
GR
GS
[1 0 0 1 606.38861 42.60596] CT
0.906 0.533 0.4 RC
N
f1241251886
f
GR
GS
[1 0 0 1 666.11456 91.77496] CT
0.906 0.533 0.4 RC
N
f1241251886
f
GR
GS
[1 0 0 1 690.13269 60.90707] CT
0.906 0.533 0.4 RC
N
f1241251886
f
GR
GS
[1 0 0 1 728.98279 56.85384] CT
0.906 0.533 0.4 RC
N
f1241251886
f
GR
GS
[1 0 0 1 762.56543 175.29483] CT
0.906 0.533 0.4 RC
N
f1241251886
f
GR
GS
[1 0 0 1 691.48993 132.01295] CT
0.906 0.533 0.4 RC
N
f1241251886
f
GR
GS
[1 0 0 1 727.4726 55.45148] CT
0.906 0.533 0.4 RC
N
f1241251886
f
GR
GS
[1 0 0 1 707.05017 117.26635] CT
0.906 0.533 0.4 RC
N
f1241251886
f
GR
GS
[1 0 0 1 724.33258 136.172] CT
0.906 0.533 0.4 RC
N
f1241251886
f
GR
GS
[1 0 0 1 693.50922 68.85963] CT
0.906 0.533 0.4 RC
N
f1241251886
f
GR
GS
[1 0 0 1 748.41071 162.83455] CT
0.906 0.533 0.4 RC
N
f1241251886
f
GR
GS
[1 0 0 1 728.72504 58.05873] CT
0.906 0.533 0.4 RC
N
f1241251886
f
GR
GS
[1 0 0 1 708.03485 129.73669] CT
0.906 0.533 0.4 RC
N
f1241251886
f
GR
GS
[1 0 0 1 710.66583 72.30534] CT
0.906 0.533 0.4 RC
N
f1241251886
f
GR
GS
[1 0 0 1 669.92621 50.10093] CT
0.906 0.533 0.4 RC
N
f1241251886
f
GR
GS
[1 0 0 1 736.13293 62.4754] CT
0.906 0.533 0.4 RC
N
f1241251886
f
GR
GS
[1 0 0 1 702.55731 115.55855] CT
0.906 0.533 0.4 RC
N
f1241251886
f
GR
GS
[1 0 0 1 723.84149 165.8062] CT
0.906 0.533 0.4 RC
N
f1241251886
f
GR
GS
[1 0 0 1 607.63623 49.70271] CT
0.906 0.533 0.4 RC
N
f1241251886
f
GR
GS
[1 0 0 1 718.08813 53.79663] CT
0.906 0.533 0.4 RC
N
f1241251886
f
GR
GS
[1 0 0 1 682.1228 88.09799] CT
0.906 0.533 0.4 RC
N
f1241251886
f
GR
GS
[1 0 0 1 692.50378 67.53059] CT
0.906 0.533 0.4 RC
N
f1241251886
f
GR
GS
[1 0 0 1 703.39606 55.65041] CT
0.906 0.533 0.4 RC
N
f1241251886
f
GR
GS
[1 0 0 1 694.18457 47.79439] CT
0.906 0.533 0.4 RC
N
f1241251886
f
GR
GS
[1 0 0 1 727.29584 49.12793] CT
0.906 0.533 0.4 RC
N
f1241251886
f
GR
GS
[1 0 0 1 703.59705 133.12445] CT
0.906 0.533 0.4 RC
N
f1241251886
f
GR
GS
[1 0 0 1 685.08533 28.02257] CT
0.906 0.533 0.4 RC
N
f1241251886
f
GR
GS
[1 0 0 1 718.27319 21.0194] CT
0.906 0.533 0.4 RC
N
f1241251886
f
GR
GS
[1 0 0 1 613.93329 38.29603] CT
0.906 0.533 0.4 RC
N
f1241251886
f
GR
GS
[1 0 0 1 708.80505 98.85082] CT
0.906 0.533 0.4 RC
N
f1241251886
f
GR
GS
[1 0 0 1 745.63196 87.71704] CT
0.906 0.533 0.4 RC
N
f1241251886
f
GR
GS
[1 0 0 1 669.64435 70.1965] CT
0.906 0.533 0.4 RC
N
f1241251886
f
GR
GS
[1 0 0 1 729.9187 49.09599] CT
0.906 0.533 0.4 RC
N
f1241251886
f
GR
GS
[1 0 0 1 611.97723 48.22177] CT
0.906 0.533 0.4 RC
N
f1241251886
f
GR
GS
[1 0 0 1 695.21863 63.63412] CT
0.906 0.533 0.4 RC
N
f1241251886
f
GR
GS
[1 0 0 1 690.98071 126.00337] CT
0.906 0.533 0.4 RC
N
f1241251886
f
GR
GS
[1 0 0 1 728.61017 78.80444] CT
0.906 0.533 0.4 RC
N
f1241251886
f
GR
GS
[1 0 0 1 781.27759 167.23785] CT
0.906 0.533 0.4 RC
N
f1241251886
f
GR
GS
[1 0 0 1 715.08325 52.61237] CT
0.906 0.533 0.4 RC
N
f1241251886
f
GR
GS
[1 0 0 1 725.21149 94.61691] CT
0.906 0.533 0.4 RC
N
f1241251886
f
GR
GS
[1 0 0 1 718.3244 106.85675] CT
0.906 0.533 0.4 RC
N
f1241251886
f
GR
GS
[1 0 0 1 729.89612 73.34634] CT
0.906 0.533 0.4 RC
N
f1241251886
f
GR
GS
[1 0 0 1 711.8183 135.68481] CT
0.906 0.533 0.4 RC
N
f1241251886
f
GR
GS
[1 0 0 1 703.67487 153.25526] CT
0.906 0.533 0.4 RC
N
f1241251886
f
GR
GS
[1 0 0 1 678.62604 74.33649] CT
0.906 0.533 0.4 RC
N
f1241251886
f
GR
GS
[1 0 0 1 660.46844 61.93601] CT
0.906 0.533 0.4 RC
N
f1241251886
f
GR
GS
[1 0 0 1 710.52808 122.86411] CT
0.906 0.533 0.4 RC
N
f1241251886
f
GR
GS
[1 0 0 1 739.74561 40.68508] CT
0.906 0.533 0.4 RC
N
f1241251886
f
GR
GS
[1 0 0 1 718.2724 89.25185] CT
0.906 0.533 0.4 RC
N
f1241251886
f
GR
GS
[1 0 0 1 699.43347 77.90232] CT
0.906 0.533 0.4 RC
N
f1241251886
f
GR
GS
[1 0 0 1 739.5556 56.73679] CT
0.906 0.533 0.4 RC
N
f1241251886
f
GR
GS
[1 0 0 1 749.07251 179.69244] CT
0.906 0.533 0.4 RC
N
f1241251886
f
GR
GS
[1 0 0 1 703.14703 101.33157] CT
0.906 0.533 0.4 RC
N
f1241251886
f
GR
GS
[1 0 0 1 707.90576 78.44344] CT
0.906 0.533 0.4 RC
N
f1241251886
f
GR
GS
[1 0 0 1 725.34985 47.63959] CT
0.906 0.533 0.4 RC
N
f1241251886
f
GR
GS
[1 0 0 1 719.31183 63.9233] CT
0.906 0.533 0.4 RC
N
f1241251886
f
GR
GS
[1 0 0 1 717.16266 107.28011] CT
0.906 0.533 0.4 RC
N
f1241251886
f
GR
GS
[1 0 0 1 681.4054 88.0568] CT
0.906 0.533 0.4 RC
N
f1241251886
f
GR
GS
[1 0 0 1 649.72864 66.71028] CT
0.906 0.533 0.4 RC
N
f1241251886
f
GR
GS
[1 0 0 1 701.03625 133.76924] CT
0.906 0.533 0.4 RC
N
f1241251886
f
GR
GS
[1 0 0 1 694.58417 132.61565] CT
0.906 0.533 0.4 RC
N
f1241251886
f
GR
GS
[1 0 0 1 662.62799 87.52648] CT
0.906 0.533 0.4 RC
N
f1241251886
f
GR
GS
[1 0 0 1 651.70679 39.79154] CT
0.906 0.533 0.4 RC
N
f1241251886
f
GR
GS
[1 0 0 1 771.2478 168.49292] CT
0.906 0.533 0.4 RC
N
f1241251886
f
GR
GS
[1 0 0 1 615.48578 39.06266] CT
0.906 0.533 0.4 RC
N
f1241251886
f
GR
GS
[1 0 0 1 716.58942 90.65852] CT
0.906 0.533 0.4 RC
N
f1241251886
f
GR
GS
[1 0 0 1 760.51923 162.5513] CT
0.906 0.533 0.4 RC
N
f1241251886
f
GR
GS
[1 0 0 1 702.30841 142.84233] CT
0.906 0.533 0.4 RC
N
f1241251886
f
GR
GS
[1 0 0 1 736.80133 147.52234] CT
0.906 0.533 0.4 RC
N
f1241251886
f
GR
GS
[1 0 0 1 740.40179 80.34776] CT
0.906 0.533 0.4 RC
N
f1241251886
f
GR
GS
[1 0 0 1 729.7984 65.34627] CT
0.906 0.533 0.4 RC
N
f1241251886
f
GR
GS
[1 0 0 1 742.1618 56.36149] CT
0.906 0.533 0.4 RC
N
f1241251886
f
GR
GS
[1 0 0 1 747.42084 40.22356] CT
0.906 0.533 0.4 RC
N
f1241251886
f
GR
GS
[1 0 0 1 670.52808 50.43635] CT
0.906 0.533 0.4 RC
N
f1241251886
f
GR
GS
[1 0 0 1 671.6991 89.54234] CT
0.906 0.533 0.4 RC
N
f1241251886
f
GR
GS
[1 0 0 1 727.01392 67.3426] CT
0.906 0.533 0.4 RC
N
f1241251886
f
GR
GS
[1 0 0 1 699.08545 133.32281] CT
0.906 0.533 0.4 RC
N
f1241251886
f
GR
GS
[1 0 0 1 733.68231 41.25985] CT
0.906 0.533 0.4 RC
N
f1241251886
f
GR
GS
[1 0 0 1 733.99701 70.55183] CT
0.906 0.533 0.4 RC
N
f1241251886
f
GR
GS
[1 0 0 1 694.39276 49.4315] CT
0.906 0.533 0.4 RC
N
f1241251886
f
GR
GS
[1 0 0 1 730.65796 51.35571] CT
0.906 0.533 0.4 RC
N
f1241251886
f
GR
GS
[1 0 0 1 700.9585 128.22658] CT
0.906 0.533 0.4 RC
N
f1241251886
f
GR
GS
[1 0 0 1 721.87366 66.16805] CT
0.906 0.533 0.4 RC
N
f1241251886
f
GR
GS
[1 0 0 1 708.12183 90.73402] CT
0.906 0.533 0.4 RC
N
f1241251886
f
GR
GS
[1 0 0 1 695.71741 106.11927] CT
0.906 0.533 0.4 RC
N
f1241251886
f
GR
GS
[1 0 0 1 716.71472 40.59953] CT
0.906 0.533 0.4 RC
N
f1241251886
f
GR
GS
[1 0 0 1 697.99249 131.89613] CT
0.906 0.533 0.4 RC
N
f1241251886
f
GR
GS
[1 0 0 1 698.66022 51.48494] CT
0.906 0.533 0.4 RC
N
f1241251886
f
GR
GS
[1 0 0 1 691.05951 120.97153] CT
0.906 0.533 0.4 RC
N
f1241251886
f
GR
GS
[1 0 0 1 692.02155 96.05482] CT
0.906 0.533 0.4 RC
N
f1241251886
f
GR
GS
[1 0 0 1 724.4762 37.6311] CT
0.906 0.533 0.4 RC
N
f1241251886
f
GR
GS
[1 0 0 1 689.89313 81.93765] CT
0.906 0.533 0.4 RC
N
f1241251886
f
GR
GS
[1 0 0 1 764.68536 158.56438] CT
0.906 0.533 0.4 RC
N
f1241251886
f
GR
GS
[1 0 0 1 682.61401 59.63803] CT
0.906 0.533 0.4 RC
N
f1241251886
f
GR
GS
[1 0 0 1 774.33453 152.0683] CT
0.906 0.533 0.4 RC
N
f1241251886
f
GR
GS
[1 0 0 1 719.57574 48.84353] CT
0.906 0.533 0.4 RC
N
f1241251886
f
GR
GS
[1 0 0 1 710.85779 54.39056] CT
0.906 0.533 0.4 RC
N
f1241251886
f
GR
GS
[1 0 0 1 697.61139 145.27119] CT
0.906 0.533 0.4 RC
N
f1241251886
f
GR
GS
[1 0 0 1 733.62042 48.71574] CT
0.906 0.533 0.4 RC
N
f1241251886
f
GR
GS
[1 0 0 1 752.60779 154.51099] CT
0.906 0.533 0.4 RC
N
f1241251886
f
GR
GS
[1 0 0 1 671.49701 62.19385] CT
0.906 0.533 0.4 RC
N
f1241251886
f
GR
GS
[1 0 0 1 734.08246 44.22763] CT
0.906 0.533 0.4 RC
N
f1241251886
f
GR
GS
[1 0 0 1 752.58752 68.0818] CT
0.906 0.533 0.4 RC
N
f1241251886
f
GR
GS
[1 0 0 1 736.32068 109.83437] CT
0.906 0.533 0.4 RC
N
f1241251886
f
GR
GS
[1 0 0 1 699.48279 149.91211] CT
0.906 0.533 0.4 RC
N
f1241251886
f
GR
GS
[1 0 0 1 711.01355 79.30386] CT
0.906 0.533 0.4 RC
N
f1241251886
f
GR
GS
[1 0 0 1 726.09735 60.27523] CT
0.906 0.533 0.4 RC
N
f1241251886
f
GR
GS
[1 0 0 1 707.08691 147.27493] CT
0.906 0.533 0.4 RC
N
f1241251886
f
GR
GS
[1 0 0 1 723.44019 113.63506] CT
0.906 0.533 0.4 RC
N
f1241251886
f
GR
GS
[1 0 0 1 709.0484 129.65727] CT
0.906 0.533 0.4 RC
N
f1241251886
f
GR
GS
[1 0 0 1 719.8916 82.1933] CT
0.906 0.533 0.4 RC
N
f1241251886
f
GR
GS
[1 0 0 1 698.48877 148.19395] CT
0.906 0.533 0.4 RC
N
f1241251886
f
GR
GS
[1 0 0 1 705.46869 125.12133] CT
0.906 0.533 0.4 RC
N
f1241251886
f
GR
GS
[1 0 0 1 708.21747 53.09247] CT
0.906 0.533 0.4 RC
N
f1241251886
f
GR
GS
[1 0 0 1 761.50323 169.26605] CT
0.906 0.533 0.4 RC
N
f1241251886
f
GR
GS
[1 0 0 1 706.75073 83.90855] CT
0.906 0.533 0.4 RC
N
f1241251886
f
GR
GS
[1 0 0 1 760.88544 49.41956] CT
0.906 0.533 0.4 RC
N
f1241251886
f
GR
GS
[1 0 0 1 700.76184 76.40006] CT
0.906 0.533 0.4 RC
N
f1241251886
f
GR
GS
[1 0 0 1 714.0647 74.05868] CT
0.906 0.533 0.4 RC
N
f1241251886
f
GR
GS
[1 0 0 1 610.97064 35.00452] CT
0.906 0.533 0.4 RC
N
f1241251886
f
GR
GS
[1 0 0 1 720.33179 38.69036] CT
0.906 0.533 0.4 RC
N
f1241251886
f
GR
GS
[1 0 0 1 666.75806 93.83588] CT
0.906 0.533 0.4 RC
N
f1241251886
f
GR
GS
[1 0 0 1 687.57379 73.79959] CT
0.906 0.533 0.4 RC
N
f1241251886
f
GR
GS
[1 0 0 1 658.87897 91.86178] CT
0.906 0.533 0.4 RC
N
f1241251886
f
GR
GS
[1 0 0 1 719.67798 72.08595] CT
0.906 0.533 0.4 RC
N
f1241251886
f
GR
GS
[1 0 0 1 721.98328 87.27878] CT
0.906 0.533 0.4 RC
N
f1241251886
f
GR
GS
[1 0 0 1 693.93604 113.26369] CT
0.906 0.533 0.4 RC
N
f1241251886
f
GR
GS
[1 0 0 1 695.10327 100.83928] CT
0.906 0.533 0.4 RC
N
f1241251886
f
GR
GS
[1 0 0 1 698.83539 58.73612] CT
0.906 0.533 0.4 RC
N
f1241251886
f
GR
GS
[1 0 0 1 704.97546 51.00928] CT
0.906 0.533 0.4 RC
N
f1241251886
f
GR
GS
[1 0 0 1 703.63922 33.84263] CT
0.906 0.533 0.4 RC
N
f1241251886
f
GR
GS
[1 0 0 1 700.27087 104.89269] CT
0.906 0.533 0.4 RC
N
f1241251886
f
GR
GS
[1 0 0 1 706.59296 56.29527] CT
0.906 0.533 0.4 RC
N
f1241251886
f
GR
GS
[1 0 0 1 754.94318 37.70125] CT
0.906 0.533 0.4 RC
N
f1241251886
f
GR
GS
[1 0 0 1 713.79736 40.34824] CT
0.906 0.533 0.4 RC
N
f1241251886
f
GR
GS
[1 0 0 1 696.52765 107.45247] CT
0.906 0.533 0.4 RC
N
f1241251886
f
GR
GS
[1 0 0 1 736.98956 53.68179] CT
0.906 0.533 0.4 RC
N
f1241251886
f
GR
GS
[1 0 0 1 684.39154 55.97475] CT
0.906 0.533 0.4 RC
N
f1241251886
f
GR
GS
[1 0 0 1 692.10846 144.55411] CT
0.906 0.533 0.4 RC
N
f1241251886
f
GR
GS
[1 0 0 1 681.29333 60.16458] CT
0.906 0.533 0.4 RC
N
f1241251886
f
GR
GS
[1 0 0 1 656.81024 71.62718] CT
0.906 0.533 0.4 RC
N
f1241251886
f
GR
GS
[1 0 0 1 704.66608 22.26348] CT
0.906 0.533 0.4 RC
N
f1241251886
f
GR
GS
[1 0 0 1 660.15802 59.29725] CT
0.906 0.533 0.4 RC
N
f1241251886
f
GR
GS
[1 0 0 1 719.7417 55.97416] CT
0.906 0.533 0.4 RC
N
f1241251886
f
GR
GS
[1 0 0 1 707.91052 63.16505] CT
0.906 0.533 0.4 RC
N
f1241251886
f
GR
GS
[1 0 0 1 703.25897 116.16283] CT
0.906 0.533 0.4 RC
N
f1241251886
f
GR
GS
[1 0 0 1 773.97076 158.74461] CT
0.906 0.533 0.4 RC
N
f1241251886
f
GR
GS
[1 0 0 1 709.62708 111.93697] CT
0.906 0.533 0.4 RC
N
f1241251886
f
GR
GS
[1 0 0 1 653.46509 77.11194] CT
0.906 0.533 0.4 RC
N
f1241251886
f
GR
GS
[1 0 0 1 675.35663 72.64535] CT
0.906 0.533 0.4 RC
N
f1241251886
f
GR
GS
[1 0 0 1 681.66608 60.98195] CT
0.906 0.533 0.4 RC
N
f1241251886
f
GR
GS
[1 0 0 1 721.27808 48.32763] CT
0.906 0.533 0.4 RC
N
f1241251886
f
GR
GS
[1 0 0 1 720.23486 41.8382] CT
0.906 0.533 0.4 RC
N
f1241251886
f
GR
%%Trailer
%%Pages: 1
%%EOF
