%!PS-Adobe-3.0 EPSF-3.0
%%Creator: (MATLAB, The Mathworks, Inc. Version 9.3.0.713579 \(R2017b\). Operating System: Mac OS X)
%%Title: ./dataFit_pres_01_0_2_0_1.eps
%%CreationDate: 2018-08-05T10:07:15
%%Pages: (atend)
%%BoundingBox:     1     2   280   281
%%LanguageLevel: 3
%%EndComments
%%BeginProlog
%%BeginResource: procset (Apache XML Graphics Std ProcSet) 1.2 0
%%Version: 1.2 0
%%Copyright: (Copyright 2001-2003,2010 The Apache Software Foundation. License terms: http://www.apache.org/licenses/LICENSE-2.0)
/bd{bind def}bind def
/ld{load def}bd
/GR/grestore ld
/GS/gsave ld
/RM/rmoveto ld
/C/curveto ld
/t/show ld
/L/lineto ld
/ML/setmiterlimit ld
/CT/concat ld
/f/fill ld
/N/newpath ld
/S/stroke ld
/CC/setcmykcolor ld
/A/ashow ld
/cp/closepath ld
/RC/setrgbcolor ld
/LJ/setlinejoin ld
/GC/setgray ld
/LW/setlinewidth ld
/M/moveto ld
/re {4 2 roll M
1 index 0 rlineto
0 exch rlineto
neg 0 rlineto
cp } bd
/_ctm matrix def
/_tm matrix def
/BT { _ctm currentmatrix pop matrix _tm copy pop 0 0 moveto } bd
/ET { _ctm setmatrix } bd
/iTm { _ctm setmatrix _tm concat } bd
/Tm { _tm astore pop iTm 0 0 moveto } bd
/ux 0.0 def
/uy 0.0 def
/F {
  /Tp exch def
  /Tf exch def
  Tf findfont Tp scalefont setfont
  /cf Tf def  /cs Tp def
} bd
/ULS {currentpoint /uy exch def /ux exch def} bd
/ULE {
  /Tcx currentpoint pop def
  gsave
  newpath
  cf findfont cs scalefont dup
  /FontMatrix get 0 get /Ts exch def /FontInfo get dup
  /UnderlinePosition get Ts mul /To exch def
  /UnderlineThickness get Ts mul /Tt exch def
  ux uy To add moveto  Tcx uy To add lineto
  Tt setlinewidth stroke
  grestore
} bd
/OLE {
  /Tcx currentpoint pop def
  gsave
  newpath
  cf findfont cs scalefont dup
  /FontMatrix get 0 get /Ts exch def /FontInfo get dup
  /UnderlinePosition get Ts mul /To exch def
  /UnderlineThickness get Ts mul /Tt exch def
  ux uy To add cs add moveto Tcx uy To add cs add lineto
  Tt setlinewidth stroke
  grestore
} bd
/SOE {
  /Tcx currentpoint pop def
  gsave
  newpath
  cf findfont cs scalefont dup
  /FontMatrix get 0 get /Ts exch def /FontInfo get dup
  /UnderlinePosition get Ts mul /To exch def
  /UnderlineThickness get Ts mul /Tt exch def
  ux uy To add cs 10 mul 26 idiv add moveto Tcx uy To add cs 10 mul 26 idiv add lineto
  Tt setlinewidth stroke
  grestore
} bd
/QT {
/Y22 exch store
/X22 exch store
/Y21 exch store
/X21 exch store
currentpoint
/Y21 load 2 mul add 3 div exch
/X21 load 2 mul add 3 div exch
/X21 load 2 mul /X22 load add 3 div
/Y21 load 2 mul /Y22 load add 3 div
/X22 load /Y22 load curveto
} bd
/SSPD {
dup length /d exch dict def
{
/v exch def
/k exch def
currentpagedevice k known {
/cpdv currentpagedevice k get def
v cpdv ne {
/upd false def
/nullv v type /nulltype eq def
/nullcpdv cpdv type /nulltype eq def
nullv nullcpdv or
{
/upd true def
} {
/sametype v type cpdv type eq def
sametype {
v type /arraytype eq {
/vlen v length def
/cpdvlen cpdv length def
vlen cpdvlen eq {
0 1 vlen 1 sub {
/i exch def
/obj v i get def
/cpdobj cpdv i get def
obj cpdobj ne {
/upd true def
exit
} if
} for
} {
/upd true def
} ifelse
} {
v type /dicttype eq {
v {
/dv exch def
/dk exch def
/cpddv cpdv dk get def
dv cpddv ne {
/upd true def
exit
} if
} forall
} {
/upd true def
} ifelse
} ifelse
} if
} ifelse
upd true eq {
d k v put
} if
} if
} if
} forall
d length 0 gt {
d setpagedevice
} if
} bd
/RE { % /NewFontName [NewEncodingArray] /FontName RE -
  findfont dup length dict begin
  {
    1 index /FID ne
    {def} {pop pop} ifelse
  } forall
  /Encoding exch def
  /FontName 1 index def
  currentdict definefont pop
  end
} bind def
%%EndResource
%%BeginResource: procset (Apache XML Graphics EPS ProcSet) 1.0 0
%%Version: 1.0 0
%%Copyright: (Copyright 2002-2003 The Apache Software Foundation. License terms: http://www.apache.org/licenses/LICENSE-2.0)
/BeginEPSF { %def
/b4_Inc_state save def         % Save state for cleanup
/dict_count countdictstack def % Count objects on dict stack
/op_count count 1 sub def      % Count objects on operand stack
userdict begin                 % Push userdict on dict stack
/showpage { } def              % Redefine showpage, { } = null proc
0 setgray 0 setlinecap         % Prepare graphics state
1 setlinewidth 0 setlinejoin
10 setmiterlimit [ ] 0 setdash newpath
/languagelevel where           % If level not equal to 1 then
{pop languagelevel             % set strokeadjust and
1 ne                           % overprint to their defaults.
{false setstrokeadjust false setoverprint
} if
} if
} bd
/EndEPSF { %def
count op_count sub {pop} repeat            % Clean up stacks
countdictstack dict_count sub {end} repeat
b4_Inc_state restore
} bd
%%EndResource
%FOPBeginFontDict
%%IncludeResource: font Courier-Oblique
%%IncludeResource: font Courier-BoldOblique
%%IncludeResource: font Courier-Bold
%%IncludeResource: font ZapfDingbats
%%IncludeResource: font Symbol
%%IncludeResource: font Helvetica
%%IncludeResource: font Helvetica-Oblique
%%IncludeResource: font Helvetica-Bold
%%IncludeResource: font Helvetica-BoldOblique
%%IncludeResource: font Times-Roman
%%IncludeResource: font Times-Italic
%%IncludeResource: font Times-Bold
%%IncludeResource: font Times-BoldItalic
%%IncludeResource: font Courier
%FOPEndFontDict
%%BeginResource: encoding WinAnsiEncoding
/WinAnsiEncoding [
/.notdef /.notdef /.notdef /.notdef /.notdef
/.notdef /.notdef /.notdef /.notdef /.notdef
/.notdef /.notdef /.notdef /.notdef /.notdef
/.notdef /.notdef /.notdef /.notdef /.notdef
/.notdef /.notdef /.notdef /.notdef /.notdef
/.notdef /.notdef /.notdef /.notdef /.notdef
/.notdef /.notdef /space /exclam /quotedbl
/numbersign /dollar /percent /ampersand /quotesingle
/parenleft /parenright /asterisk /plus /comma
/hyphen /period /slash /zero /one
/two /three /four /five /six
/seven /eight /nine /colon /semicolon
/less /equal /greater /question /at
/A /B /C /D /E
/F /G /H /I /J
/K /L /M /N /O
/P /Q /R /S /T
/U /V /W /X /Y
/Z /bracketleft /backslash /bracketright /asciicircum
/underscore /quoteleft /a /b /c
/d /e /f /g /h
/i /j /k /l /m
/n /o /p /q /r
/s /t /u /v /w
/x /y /z /braceleft /bar
/braceright /asciitilde /bullet /Euro /bullet
/quotesinglbase /florin /quotedblbase /ellipsis /dagger
/daggerdbl /circumflex /perthousand /Scaron /guilsinglleft
/OE /bullet /Zcaron /bullet /bullet
/quoteleft /quoteright /quotedblleft /quotedblright /bullet
/endash /emdash /asciitilde /trademark /scaron
/guilsinglright /oe /bullet /zcaron /Ydieresis
/space /exclamdown /cent /sterling /currency
/yen /brokenbar /section /dieresis /copyright
/ordfeminine /guillemotleft /logicalnot /sfthyphen /registered
/macron /degree /plusminus /twosuperior /threesuperior
/acute /mu /paragraph /middot /cedilla
/onesuperior /ordmasculine /guillemotright /onequarter /onehalf
/threequarters /questiondown /Agrave /Aacute /Acircumflex
/Atilde /Adieresis /Aring /AE /Ccedilla
/Egrave /Eacute /Ecircumflex /Edieresis /Igrave
/Iacute /Icircumflex /Idieresis /Eth /Ntilde
/Ograve /Oacute /Ocircumflex /Otilde /Odieresis
/multiply /Oslash /Ugrave /Uacute /Ucircumflex
/Udieresis /Yacute /Thorn /germandbls /agrave
/aacute /acircumflex /atilde /adieresis /aring
/ae /ccedilla /egrave /eacute /ecircumflex
/edieresis /igrave /iacute /icircumflex /idieresis
/eth /ntilde /ograve /oacute /ocircumflex
/otilde /odieresis /divide /oslash /ugrave
/uacute /ucircumflex /udieresis /yacute /thorn
/ydieresis
] def
%%EndResource
%FOPBeginFontReencode
/Courier-Oblique findfont
dup length dict begin
  {1 index /FID ne {def} {pop pop} ifelse} forall
  /Encoding WinAnsiEncoding def
  currentdict
end
/Courier-Oblique exch definefont pop
/Courier-BoldOblique findfont
dup length dict begin
  {1 index /FID ne {def} {pop pop} ifelse} forall
  /Encoding WinAnsiEncoding def
  currentdict
end
/Courier-BoldOblique exch definefont pop
/Courier-Bold findfont
dup length dict begin
  {1 index /FID ne {def} {pop pop} ifelse} forall
  /Encoding WinAnsiEncoding def
  currentdict
end
/Courier-Bold exch definefont pop
/Helvetica findfont
dup length dict begin
  {1 index /FID ne {def} {pop pop} ifelse} forall
  /Encoding WinAnsiEncoding def
  currentdict
end
/Helvetica exch definefont pop
/Helvetica-Oblique findfont
dup length dict begin
  {1 index /FID ne {def} {pop pop} ifelse} forall
  /Encoding WinAnsiEncoding def
  currentdict
end
/Helvetica-Oblique exch definefont pop
/Helvetica-Bold findfont
dup length dict begin
  {1 index /FID ne {def} {pop pop} ifelse} forall
  /Encoding WinAnsiEncoding def
  currentdict
end
/Helvetica-Bold exch definefont pop
/Helvetica-BoldOblique findfont
dup length dict begin
  {1 index /FID ne {def} {pop pop} ifelse} forall
  /Encoding WinAnsiEncoding def
  currentdict
end
/Helvetica-BoldOblique exch definefont pop
/Times-Roman findfont
dup length dict begin
  {1 index /FID ne {def} {pop pop} ifelse} forall
  /Encoding WinAnsiEncoding def
  currentdict
end
/Times-Roman exch definefont pop
/Times-Italic findfont
dup length dict begin
  {1 index /FID ne {def} {pop pop} ifelse} forall
  /Encoding WinAnsiEncoding def
  currentdict
end
/Times-Italic exch definefont pop
/Times-Bold findfont
dup length dict begin
  {1 index /FID ne {def} {pop pop} ifelse} forall
  /Encoding WinAnsiEncoding def
  currentdict
end
/Times-Bold exch definefont pop
/Times-BoldItalic findfont
dup length dict begin
  {1 index /FID ne {def} {pop pop} ifelse} forall
  /Encoding WinAnsiEncoding def
  currentdict
end
/Times-BoldItalic exch definefont pop
/Courier findfont
dup length dict begin
  {1 index /FID ne {def} {pop pop} ifelse} forall
  /Encoding WinAnsiEncoding def
  currentdict
end
/Courier exch definefont pop
%FOPEndFontReencode
%%EndProlog
%%Page: 1 1
%%PageBoundingBox: 0 0 300 300
%%BeginPageSetup
[1 0 0 -1 0 300] CT
%%EndPageSetup
GS
1 GC
N
0 0 300 300 re
f
GR
GS
1 GC
N
0 0 300 300 re
f
GR
GS
1 GC
N
51.5 253.5 M
271.5 253.5 L
271.5 22.5 L
51.5 22.5 L
cp
f
GR
GS
0.149 GC
2 setlinecap
1 LJ
0.5 LW
N
51.5 253.5 M
271.5 253.5 L
S
GR
GS
0.149 GC
2 setlinecap
1 LJ
0.5 LW
N
51.5 22.5 M
271.5 22.5 L
S
GR
GS
0.149 GC
2 setlinecap
1 LJ
0.5 LW
N
51.5 253.5 M
51.5 251.19 L
S
GR
GS
0.149 GC
2 setlinecap
1 LJ
0.5 LW
N
161.5 253.5 M
161.5 251.19 L
S
GR
GS
0.149 GC
2 setlinecap
1 LJ
0.5 LW
N
271.5 253.5 M
271.5 251.19 L
S
GR
GS
0.149 GC
2 setlinecap
1 LJ
0.5 LW
N
51.5 22.5 M
51.5 24.81 L
S
GR
GS
0.149 GC
2 setlinecap
1 LJ
0.5 LW
N
161.5 22.5 M
161.5 24.81 L
S
GR
GS
0.149 GC
2 setlinecap
1 LJ
0.5 LW
N
271.5 22.5 M
271.5 24.81 L
S
GR
GS
[1 0 0 1 51.5 258.70001] CT
0.149 GC
N
0 13.799 M
-1.953 13.799 -2.664 12.182 QT
-3.375 10.565 -3.375 8.331 QT
-3.375 6.94 -3.117 5.713 QT
-2.859 4.487 -2.109 3.635 QT
-1.359 2.784 0 2.784 QT
1.063 2.784 1.734 3.299 QT
2.406 3.815 2.758 4.627 QT
3.109 5.44 3.234 6.377 QT
3.359 7.315 3.359 8.331 QT
3.359 9.706 3.109 10.909 QT
2.859 12.112 2.117 12.956 QT
1.375 13.799 0 13.799 QT
cp
0 13.377 M
0.891 13.377 1.328 12.463 QT
1.766 11.549 1.867 10.44 QT
1.969 9.331 1.969 8.081 QT
1.969 6.877 1.867 5.862 QT
1.766 4.846 1.336 4.018 QT
0.906 3.19 0 3.19 QT
-0.906 3.19 -1.344 4.018 QT
-1.781 4.846 -1.883 5.862 QT
-1.984 6.877 -1.984 8.081 QT
-1.984 8.971 -1.938 9.76 QT
-1.891 10.549 -1.703 11.385 QT
-1.516 12.221 -1.102 12.799 QT
-0.688 13.377 0 13.377 QT
cp
f
GR
GS
[1 0 0 1 161.5 258.70001] CT
0.149 GC
N
-3.222 13.159 M
-3.222 13.081 -3.16 12.909 QT
-2.722 11.971 -2.332 11.081 QT
-1.941 10.19 -1.636 9.338 QT
-1.332 8.487 -1.066 7.534 QT
-2.097 7.534 L
-2.675 7.534 -3.183 7.901 QT
-3.691 8.268 -4.035 8.831 QT
-4.066 8.893 -4.128 8.893 QT
-4.316 8.893 L
-4.457 8.893 -4.457 8.737 QT
-4.457 8.706 -4.425 8.643 QT
-3.91 7.752 -3.308 7.143 QT
-2.707 6.534 -1.957 6.534 QT
3.84 6.534 L
4.012 6.534 4.129 6.643 QT
4.247 6.752 4.247 6.94 QT
4.247 7.174 4.075 7.354 QT
3.903 7.534 3.668 7.534 QT
1.637 7.534 L
1.372 8.784 1.356 9.987 QT
1.356 11.518 1.887 12.768 QT
1.934 12.862 1.934 12.956 QT
1.934 13.127 1.832 13.276 QT
1.731 13.424 1.575 13.526 QT
1.418 13.627 1.231 13.627 QT
0.809 13.627 0.653 12.932 QT
0.497 12.237 0.497 11.596 QT
0.497 10.674 0.653 9.831 QT
0.809 8.987 1.153 7.534 QT
-0.582 7.534 L
-1.847 12.659 -2.113 13.174 QT
-2.332 13.627 -2.738 13.627 QT
-2.925 13.627 -3.074 13.495 QT
-3.222 13.362 -3.222 13.159 QT
cp
f
GR
GS
[1 0 0 1 271.5 258.70001] CT
0.149 GC
N
-8.05 13.44 M
-8.05 13.002 L
-8.05 12.971 -8.019 12.924 QT
-5.535 10.174 L
-4.972 9.565 -4.621 9.151 QT
-4.269 8.737 -3.925 8.198 QT
-3.582 7.659 -3.378 7.096 QT
-3.175 6.534 -3.175 5.909 QT
-3.175 5.252 -3.418 4.659 QT
-3.66 4.065 -4.144 3.706 QT
-4.628 3.346 -5.3 3.346 QT
-6.003 3.346 -6.558 3.76 QT
-7.113 4.174 -7.332 4.846 QT
-7.269 4.831 -7.16 4.831 QT
-6.8 4.831 -6.55 5.073 QT
-6.3 5.315 -6.3 5.69 QT
-6.3 6.065 -6.55 6.315 QT
-6.8 6.565 -7.16 6.565 QT
-7.535 6.565 -7.793 6.307 QT
-8.05 6.049 -8.05 5.69 QT
-8.05 5.096 -7.824 4.565 QT
-7.597 4.034 -7.168 3.627 QT
-6.738 3.221 -6.207 3.002 QT
-5.675 2.784 -5.066 2.784 QT
-4.16 2.784 -3.371 3.167 QT
-2.582 3.549 -2.121 4.26 QT
-1.66 4.971 -1.66 5.909 QT
-1.66 6.612 -1.964 7.237 QT
-2.269 7.862 -2.746 8.37 QT
-3.222 8.877 -3.964 9.526 QT
-4.707 10.174 -4.941 10.393 QT
-6.753 12.143 L
-5.207 12.143 L
-4.082 12.143 -3.316 12.12 QT
-2.55 12.096 -2.503 12.065 QT
-2.316 11.862 -2.128 10.581 QT
-1.66 10.581 L
-2.113 13.44 L
-8.05 13.44 L
cp
f
GR
GS
[1 0 0 1 271.5 258.70001] CT
0.149 GC
N
0.778 13.159 M
0.778 13.081 0.84 12.909 QT
1.278 11.971 1.668 11.081 QT
2.059 10.19 2.364 9.338 QT
2.668 8.487 2.934 7.534 QT
1.903 7.534 L
1.325 7.534 0.817 7.901 QT
0.309 8.268 -0.035 8.831 QT
-0.066 8.893 -0.128 8.893 QT
-0.316 8.893 L
-0.457 8.893 -0.457 8.737 QT
-0.457 8.706 -0.425 8.643 QT
0.09 7.752 0.692 7.143 QT
1.293 6.534 2.043 6.534 QT
7.84 6.534 L
8.012 6.534 8.129 6.643 QT
8.247 6.752 8.247 6.94 QT
8.247 7.174 8.075 7.354 QT
7.903 7.534 7.668 7.534 QT
5.637 7.534 L
5.372 8.784 5.356 9.987 QT
5.356 11.518 5.887 12.768 QT
5.934 12.862 5.934 12.956 QT
5.934 13.127 5.832 13.276 QT
5.731 13.424 5.575 13.526 QT
5.418 13.627 5.231 13.627 QT
4.809 13.627 4.653 12.932 QT
4.497 12.237 4.497 11.596 QT
4.497 10.674 4.653 9.831 QT
4.809 8.987 5.153 7.534 QT
3.418 7.534 L
2.153 12.659 1.887 13.174 QT
1.668 13.627 1.262 13.627 QT
1.075 13.627 0.926 13.495 QT
0.778 13.362 0.778 13.159 QT
cp
f
GR
GS
[1 0 0 1 161.50011 278.88] CT
0.149 GC
N
-1.759 18.284 M
-0.946 15.034 L
-1.853 15.034 -2.65 14.612 QT
-3.446 14.19 -3.923 13.425 QT
-4.4 12.659 -4.4 11.753 QT
-4.4 10.784 -3.915 9.893 QT
-3.431 9.003 -2.595 8.284 QT
-1.759 7.565 -0.79 7.175 QT
0.179 6.784 1.132 6.784 QT
2.21 2.393 L
2.241 2.3 2.35 2.3 QT
2.569 2.3 L
2.647 2.3 2.686 2.362 QT
2.725 2.425 2.725 2.471 QT
1.647 6.784 L
2.319 6.784 2.952 7.026 QT
3.585 7.268 4.077 7.714 QT
4.569 8.159 4.843 8.76 QT
5.116 9.362 5.116 10.05 QT
5.116 11.018 4.632 11.909 QT
4.147 12.8 3.327 13.51 QT
2.507 14.221 1.499 14.628 QT
0.491 15.034 -0.415 15.034 QT
-1.243 18.378 L
-1.275 18.471 -1.4 18.471 QT
-1.603 18.471 L
-1.681 18.471 -1.72 18.409 QT
-1.759 18.346 -1.759 18.284 QT
cp
-0.837 14.565 M
1.007 7.237 L
0.554 7.237 0.054 7.425 QT
-0.446 7.612 -0.892 7.893 QT
-1.337 8.175 -1.696 8.534 QT
-2.134 8.971 -2.47 9.573 QT
-2.806 10.175 -2.978 10.839 QT
-3.15 11.503 -3.15 12.143 QT
-3.15 12.815 -2.861 13.37 QT
-2.571 13.925 -2.04 14.245 QT
-1.509 14.565 -0.837 14.565 QT
cp
-0.29 14.565 M
0.382 14.565 1.147 14.175 QT
1.913 13.784 2.397 13.268 QT
3.085 12.596 3.475 11.628 QT
3.866 10.659 3.866 9.675 QT
3.866 9.003 3.577 8.44 QT
3.288 7.878 2.757 7.557 QT
2.225 7.237 1.538 7.237 QT
-0.29 14.565 L
cp
f
GR
GS
0.149 GC
2 setlinecap
1 LJ
0.5 LW
N
51.5 253.5 M
51.5 22.5 L
S
GR
GS
0.149 GC
2 setlinecap
1 LJ
0.5 LW
N
271.5 253.5 M
271.5 22.5 L
S
GR
GS
0.149 GC
2 setlinecap
1 LJ
0.5 LW
N
51.5 253.5 M
53.81 253.5 L
S
GR
GS
0.149 GC
2 setlinecap
1 LJ
0.5 LW
N
51.5 138 M
53.81 138 L
S
GR
GS
0.149 GC
2 setlinecap
1 LJ
0.5 LW
N
51.5 22.5 M
53.81 22.5 L
S
GR
GS
0.149 GC
2 setlinecap
1 LJ
0.5 LW
N
271.5 253.5 M
269.19 253.5 L
S
GR
GS
0.149 GC
2 setlinecap
1 LJ
0.5 LW
N
271.5 138 M
269.19 138 L
S
GR
GS
0.149 GC
2 setlinecap
1 LJ
0.5 LW
N
271.5 22.5 M
269.19 22.5 L
S
GR
GS
[1 0 0 1 46.3 253.5] CT
0.149 GC
N
-20.498 0.152 M
-20.639 0.152 -20.725 0.051 QT
-20.811 -0.051 -20.811 -0.16 QT
-20.811 -0.285 -20.725 -0.387 QT
-20.639 -0.488 -20.498 -0.488 QT
-11.326 -0.488 L
-11.201 -0.488 -11.116 -0.387 QT
-11.03 -0.285 -11.03 -0.16 QT
-11.03 -0.051 -11.116 0.051 QT
-11.201 0.152 -11.326 0.152 QT
-20.498 0.152 L
cp
f
GR
GS
[1 0 0 1 46.3 253.5] CT
0.149 GC
N
-8.069 3.559 M
-8.069 3.481 -8.007 3.309 QT
-7.569 2.371 -7.179 1.481 QT
-6.788 0.59 -6.484 -0.262 QT
-6.179 -1.113 -5.913 -2.066 QT
-6.944 -2.066 L
-7.523 -2.066 -8.03 -1.699 QT
-8.538 -1.332 -8.882 -0.769 QT
-8.913 -0.707 -8.976 -0.707 QT
-9.163 -0.707 L
-9.304 -0.707 -9.304 -0.863 QT
-9.304 -0.894 -9.273 -0.957 QT
-8.757 -1.848 -8.155 -2.457 QT
-7.554 -3.066 -6.804 -3.066 QT
-1.007 -3.066 L
-0.835 -3.066 -0.718 -2.957 QT
-0.601 -2.848 -0.601 -2.66 QT
-0.601 -2.426 -0.773 -2.246 QT
-0.944 -2.066 -1.179 -2.066 QT
-3.21 -2.066 L
-3.476 -0.816 -3.491 0.387 QT
-3.491 1.918 -2.96 3.168 QT
-2.913 3.262 -2.913 3.356 QT
-2.913 3.527 -3.015 3.676 QT
-3.116 3.824 -3.273 3.926 QT
-3.429 4.027 -3.616 4.027 QT
-4.038 4.027 -4.194 3.332 QT
-4.351 2.637 -4.351 1.996 QT
-4.351 1.074 -4.194 0.231 QT
-4.038 -0.613 -3.694 -2.066 QT
-5.429 -2.066 L
-6.694 3.059 -6.96 3.574 QT
-7.179 4.027 -7.585 4.027 QT
-7.773 4.027 -7.921 3.895 QT
-8.069 3.762 -8.069 3.559 QT
cp
f
GR
GS
[1 0 0 1 46.3 138] CT
0.149 GC
N
-4 4.199 M
-5.953 4.199 -6.664 2.582 QT
-7.375 0.965 -7.375 -1.269 QT
-7.375 -2.66 -7.117 -3.887 QT
-6.859 -5.113 -6.109 -5.965 QT
-5.359 -6.816 -4 -6.816 QT
-2.938 -6.816 -2.266 -6.301 QT
-1.594 -5.785 -1.242 -4.973 QT
-0.891 -4.16 -0.766 -3.223 QT
-0.641 -2.285 -0.641 -1.269 QT
-0.641 0.106 -0.891 1.309 QT
-1.141 2.512 -1.883 3.356 QT
-2.625 4.199 -4 4.199 QT
cp
-4 3.777 M
-3.109 3.777 -2.672 2.863 QT
-2.234 1.949 -2.133 0.84 QT
-2.031 -0.269 -2.031 -1.519 QT
-2.031 -2.723 -2.133 -3.738 QT
-2.234 -4.754 -2.664 -5.582 QT
-3.094 -6.41 -4 -6.41 QT
-4.906 -6.41 -5.344 -5.582 QT
-5.781 -4.754 -5.883 -3.738 QT
-5.984 -2.723 -5.984 -1.519 QT
-5.984 -0.629 -5.938 0.16 QT
-5.891 0.949 -5.703 1.785 QT
-5.516 2.621 -5.102 3.199 QT
-4.688 3.777 -4 3.777 QT
cp
f
GR
GS
[1 0 0 1 46.3 22.5] CT
0.149 GC
N
/f-1802301508{-8.069 3.559 M
-8.069 3.481 -8.007 3.309 QT
-7.569 2.371 -7.179 1.481 QT
-6.788 0.59 -6.484 -0.262 QT
-6.179 -1.113 -5.913 -2.066 QT
-6.944 -2.066 L
-7.523 -2.066 -8.03 -1.699 QT
-8.538 -1.332 -8.882 -0.769 QT
-8.913 -0.707 -8.976 -0.707 QT
-9.163 -0.707 L
-9.304 -0.707 -9.304 -0.863 QT
-9.304 -0.894 -9.273 -0.957 QT
-8.757 -1.848 -8.155 -2.457 QT
-7.554 -3.066 -6.804 -3.066 QT
-1.007 -3.066 L
-0.835 -3.066 -0.718 -2.957 QT
-0.601 -2.848 -0.601 -2.66 QT
-0.601 -2.426 -0.773 -2.246 QT
-0.944 -2.066 -1.179 -2.066 QT
-3.21 -2.066 L
-3.476 -0.816 -3.491 0.387 QT
-3.491 1.918 -2.96 3.168 QT
-2.913 3.262 -2.913 3.356 QT
-2.913 3.527 -3.015 3.676 QT
-3.116 3.824 -3.273 3.926 QT
-3.429 4.027 -3.616 4.027 QT
-4.038 4.027 -4.194 3.332 QT
-4.351 2.637 -4.351 1.996 QT
-4.351 1.074 -4.194 0.231 QT
-4.038 -0.613 -3.694 -2.066 QT
-5.429 -2.066 L
-6.694 3.059 -6.96 3.574 QT
-7.179 4.027 -7.585 4.027 QT
-7.773 4.027 -7.921 3.895 QT
-8.069 3.762 -8.069 3.559 QT
cp}def
f-1802301508
f
GR
GS
[0 -1 1 0 21.12 137.99989] CT
0.149 GC
N
/f1226721168{-0.635 -6.07 M
-1.26 -6.07 -1.799 -6.297 QT
-2.338 -6.524 -2.736 -6.969 QT
-3.135 -7.414 -3.33 -7.953 QT
-3.525 -8.492 -3.525 -9.117 QT
-3.525 -10.242 -2.994 -11.305 QT
-2.463 -12.367 -1.541 -13.141 QT
-0.619 -13.914 0.459 -14.18 QT
-0.072 -15.164 -0.346 -15.867 QT
-0.619 -16.57 -0.619 -17.32 QT
-0.619 -17.852 -0.369 -18.274 QT
-0.119 -18.695 0.334 -18.93 QT
0.787 -19.164 1.334 -19.164 QT
1.881 -19.164 3.459 -18.805 QT
3.881 -18.711 3.881 -18.32 QT
3.881 -18.024 3.662 -17.781 QT
3.443 -17.539 3.146 -17.539 QT
2.912 -17.539 2.74 -17.641 QT
2.568 -17.742 2.193 -17.992 QT
1.818 -18.242 1.514 -18.383 QT
1.209 -18.524 0.896 -18.524 QT
0.521 -18.524 0.225 -18.297 QT
-0.072 -18.07 -0.072 -17.711 QT
-0.072 -17.133 0.436 -16.391 QT
0.943 -15.649 1.881 -14.492 QT
2.943 -13.133 2.943 -11.508 QT
2.943 -10.695 2.709 -9.758 QT
2.475 -8.82 2.029 -7.985 QT
1.584 -7.149 0.896 -6.61 QT
0.209 -6.07 -0.635 -6.07 QT
cp
-0.604 -6.555 M
0.1 -6.555 0.607 -7.281 QT
1.115 -8.008 1.373 -9.016 QT
1.631 -10.024 1.631 -10.711 QT
1.631 -12.055 0.693 -13.742 QT
-0.26 -13.477 -0.947 -12.633 QT
-1.635 -11.789 -1.986 -10.688 QT
-2.338 -9.586 -2.338 -8.602 QT
-2.338 -7.742 -1.893 -7.149 QT
-1.447 -6.555 -0.604 -6.555 QT
cp}def
f1226721168
f
GR
GS
N
51.474 252.315 M
51.474 253.528 L
52.524 253.528 L
57 253.528 L
63.524 253.528 L
68 253.528 L
74.524 253.528 L
79 253.528 L
85.524 253.528 L
90 253.528 L
96.524 253.528 L
101 253.528 L
107.524 253.528 L
112 253.528 L
118.524 253.528 L
123 253.528 L
129.524 253.528 L
134 253.528 L
140.524 253.528 L
145 253.528 L
151.524 253.528 L
156 253.528 L
162.524 253.528 L
167 253.528 L
173.524 253.528 L
178 253.528 L
184.524 253.528 L
189 253.528 L
195.524 253.528 L
200 253.528 L
206.524 253.528 L
211 253.528 L
217.524 253.528 L
222 253.528 L
228.524 253.528 L
233 253.528 L
239.524 253.528 L
244 253.528 L
250.524 253.528 L
255 253.528 L
261.524 253.528 L
266 253.528 L
271.526 253.528 L
271.526 252.375 L
271.526 245.992 L
271.526 239.67 L
271.526 233.288 L
271.526 230.913 L
271.526 221.612 L
266 228.516 L
255 223.461 L
249.077 220.583 L
244 219.48 L
233 215.379 L
222 210.204 L
211 210.722 L
200 214.218 L
189 219.663 L
184.408 220.583 L
178 223.632 L
167 228.064 L
156 229.982 L
145 231.162 L
134 231.514 L
123 231.656 L
112 231.688 L
101 231.887 L
90 231.357 L
79 231.244 L
68 230.962 L
57 230.022 L
51.474 222.793 L
51.474 223.557 L
51.474 226.905 L
51.474 233.288 L
51.474 239.61 L
51.474 245.992 L
cp
182.117 169.762 M
189 172.153 L
200 176.172 L
211 181.862 L
222 180.986 L
233 176.152 L
244 171.401 L
252.977 169.762 L
255 168.922 L
266 163.813 L
270.599 169.762 L
271.526 172.058 L
271.526 171.603 L
271.526 169.762 L
271.526 167.922 L
271.526 157.057 L
271.526 150.735 L
271.526 144.352 L
271.526 138.03 L
271.526 131.648 L
271.526 125.325 L
271.526 118.942 L
271.526 116.792 L
271.526 107.691 L
266 114.62 L
255 115.576 L
244 116.422 L
233 116.755 L
222 116.9 L
211 116.776 L
200 116.428 L
189 116.437 L
178 115.693 L
167 114.86 L
156 112.129 L
145 107.326 L
143.283 106.238 L
134 103.577 L
123 98.477 L
114.662 93.533 L
112 91.765 L
101 93.099 L
100.628 93.533 L
90 99.979 L
79 104.466 L
71.995 106.238 L
68 108.661 L
57 112.966 L
51.715 106.238 L
51.474 105.552 L
51.474 105.702 L
51.474 106.238 L
51.474 112.56 L
51.474 118.942 L
51.474 125.265 L
51.474 131.648 L
51.474 137.97 L
51.474 144.352 L
51.474 150.675 L
51.474 157.057 L
51.474 167.43 L
51.474 168.192 L
57 161.21 L
68 160.074 L
79 159.498 L
90 159.471 L
101 159.259 L
112 159.312 L
123 159.27 L
134 159.375 L
145 160.122 L
156 161.944 L
167 163.197 L
178 166.715 L
cp
72.297 55.417 M
79 56.919 L
90 60.867 L
101 66.27 L
112 66.155 L
123 61.406 L
134 56.79 L
141.893 55.417 L
145 54.014 L
156 48.107 L
167 45.937 L
178 45.078 L
189 44.657 L
200 44.361 L
211 44.241 L
222 44.396 L
233 44.35 L
244 44.435 L
255 45.151 L
266 46.047 L
271.526 52.959 L
271.526 52.084 L
271.526 42.712 L
271.526 36.39 L
271.526 30.007 L
271.526 23.685 L
271.526 22.472 L
270.476 22.472 L
266 22.472 L
259.476 22.472 L
255 22.472 L
248.476 22.472 L
244 22.472 L
237.476 22.472 L
233 22.472 L
226.476 22.472 L
222 22.472 L
215.476 22.472 L
211 22.472 L
204.476 22.472 L
200 22.472 L
193.476 22.472 L
189 22.472 L
182.476 22.472 L
178 22.472 L
171.476 22.472 L
167 22.472 L
160.476 22.472 L
156 22.472 L
149.476 22.472 L
145 22.472 L
138.476 22.472 L
134 22.472 L
127.476 22.472 L
123 22.472 L
116.476 22.472 L
112 22.472 L
105.476 22.472 L
101 22.472 L
94.476 22.472 L
90 22.472 L
83.476 22.472 L
79 22.472 L
72.476 22.472 L
68 22.472 L
61.476 22.472 L
57 22.472 L
51.474 22.472 L
51.474 23.625 L
51.474 30.007 L
51.474 36.33 L
51.474 42.712 L
51.474 55.156 L
51.474 55.272 L
57 48.364 L
68 53.105 L
cp
f
GR
GS
0.016 GC
N
51.474 220.583 M
51.474 222.793 L
57 230.022 L
68 230.962 L
79 231.244 L
90 231.357 L
101 231.887 L
112 231.688 L
123 231.656 L
134 231.514 L
145 231.162 L
156 229.982 L
167 228.064 L
178 223.632 L
184.408 220.583 L
189 219.663 L
200 214.218 L
211 210.722 L
222 210.204 L
233 215.379 L
244 219.48 L
249.077 220.583 L
255 223.461 L
266 228.516 L
271.526 221.612 L
271.526 220.858 L
271.526 220.583 L
271.526 213.749 L
267.7 220.583 L
266 222.707 L
262.377 220.583 L
255 218.713 L
244 214.442 L
233.765 207.878 L
233 206.691 L
223.581 195.173 L
233 185.556 L
235.628 182.467 L
244 177.024 L
255 172.274 L
266 170.277 L
271.526 178.239 L
271.526 178.061 L
271.526 172.813 L
271.526 172.058 L
270.599 169.762 L
266 163.813 L
255 168.922 L
252.977 169.762 L
244 171.401 L
233 176.152 L
222 180.986 L
211 181.862 L
200 176.172 L
189 172.153 L
182.117 169.762 L
178 166.715 L
167 163.197 L
156 161.944 L
145 160.122 L
134 159.375 L
123 159.27 L
112 159.312 L
101 159.259 L
90 159.471 L
79 159.498 L
68 160.074 L
57 161.21 L
51.474 168.192 L
51.474 169.174 L
51.474 169.762 L
51.474 175.348 L
54.462 169.762 L
57 166.555 L
68 164.162 L
79 163.107 L
90 162.845 L
101 162.683 L
112 162.7 L
123 162.513 L
134 162.774 L
145 164.338 L
156 167.813 L
164.617 169.762 L
167 169.923 L
178 171.734 L
189 177.008 L
198.049 182.467 L
200 185.109 L
207.342 195.173 L
200 204.776 L
198.121 207.878 L
189 214.849 L
178 218.599 L
169.289 220.583 L
167 221.791 L
156 225.325 L
145 227.507 L
134 228.494 L
123 228.824 L
112 228.99 L
101 229.305 L
90 228.549 L
79 228.121 L
68 227.497 L
57 225.072 L
53.568 220.583 L
51.474 216.223 L
51.474 216.69 L
cp
51.715 106.238 M
57 112.966 L
68 108.661 L
71.995 106.238 L
79 104.466 L
90 99.979 L
100.628 93.533 L
101 93.099 L
112 91.765 L
114.662 93.533 L
123 98.477 L
134 103.577 L
143.283 106.238 L
145 107.326 L
156 112.129 L
167 114.86 L
178 115.693 L
189 116.437 L
200 116.428 L
211 116.776 L
222 116.9 L
233 116.755 L
244 116.422 L
255 115.576 L
266 114.62 L
271.526 107.691 L
271.526 106.753 L
271.526 106.238 L
271.526 100.5 L
268.372 106.238 L
266 109.211 L
255 111.012 L
244 112.633 L
233 113.52 L
222 113.637 L
211 113.748 L
200 112.967 L
189 112.879 L
178 111.656 L
167 109.49 L
159.395 106.238 L
156 105.764 L
145 103.683 L
134 97.982 L
127.703 93.533 L
123 88.186 L
114.143 80.827 L
123 71.962 L
125.335 68.122 L
134 61.687 L
145 57.728 L
155.139 55.417 L
156 54.904 L
167 50.342 L
178 48.576 L
189 47.878 L
200 47.092 L
211 47.15 L
222 47.264 L
233 47.193 L
244 47.712 L
255 48.698 L
266 50.435 L
269.984 55.417 L
271.526 59 L
271.526 58.557 L
271.526 55.417 L
271.526 52.959 L
266 46.047 L
255 45.151 L
244 44.435 L
233 44.35 L
222 44.396 L
211 44.241 L
200 44.361 L
189 44.657 L
178 45.078 L
167 45.937 L
156 48.107 L
145 54.014 L
141.893 55.417 L
134 56.79 L
123 61.406 L
112 66.155 L
101 66.27 L
90 60.867 L
79 56.919 L
72.297 55.417 L
68 53.105 L
57 48.364 L
51.474 55.272 L
51.474 55.41 L
51.474 55.417 L
51.474 63.195 L
56.715 55.417 L
57 55.061 L
57.681 55.417 L
68 57.51 L
79 61.88 L
88.767 68.122 L
90 70.368 L
97.593 80.827 L
90 89.644 L
87.767 93.533 L
79 99.672 L
68 103.948 L
57 106.099 L
51.474 97.932 L
51.474 97.98 L
51.474 99.037 L
51.474 105.552 L
cp
f
GR
GS
0.047 GC
N
53.568 220.583 M
57 225.072 L
68 227.497 L
79 228.121 L
90 228.549 L
101 229.305 L
112 228.99 L
123 228.824 L
134 228.494 L
145 227.507 L
156 225.325 L
167 221.791 L
169.289 220.583 L
178 218.599 L
189 214.849 L
198.121 207.878 L
200 204.776 L
207.342 195.173 L
200 185.109 L
198.049 182.467 L
189 177.008 L
178 171.734 L
167 169.923 L
164.617 169.762 L
156 167.813 L
145 164.338 L
134 162.774 L
123 162.513 L
112 162.7 L
101 162.683 L
90 162.845 L
79 163.107 L
68 164.162 L
57 166.555 L
54.462 169.762 L
51.474 175.348 L
51.474 176.127 L
51.474 178.02 L
51.474 178.188 L
57 170.241 L
62.715 169.762 L
68 168.25 L
79 166.716 L
90 166.218 L
101 166.108 L
112 166.089 L
123 165.757 L
134 166.173 L
145 168.555 L
148.3 169.762 L
156 170.541 L
167 171.666 L
178 174.528 L
189 181.863 L
190.002 182.467 L
199.708 195.173 L
191.822 207.878 L
189 210.035 L
178 215.894 L
167 219.272 L
156.246 220.583 L
156 220.668 L
145 223.852 L
134 225.474 L
123 225.992 L
112 226.292 L
101 226.723 L
90 225.741 L
79 224.997 L
68 224.031 L
57.942 220.583 L
57 220.485 L
51.474 212.572 L
51.474 212.608 L
51.474 213.22 L
51.474 216.223 L
cp
262.377 220.583 M
266 222.707 L
267.7 220.583 L
271.526 213.749 L
271.526 212.507 L
271.526 211.19 L
266 219.535 L
255 216.202 L
244 209.404 L
241.62 207.878 L
233.281 195.173 L
244 182.66 L
244.124 182.467 L
255 174.963 L
266 172.106 L
271.526 180.068 L
271.526 179.645 L
271.526 178.239 L
266 170.277 L
255 172.274 L
244 177.024 L
235.628 182.467 L
233 185.556 L
223.581 195.173 L
233 206.691 L
233.765 207.878 L
244 214.442 L
255 218.713 L
cp
159.395 106.238 M
167 109.49 L
178 111.656 L
189 112.879 L
200 112.967 L
211 113.748 L
222 113.637 L
233 113.52 L
244 112.633 L
255 111.012 L
266 109.211 L
268.372 106.238 L
271.526 100.5 L
271.526 99.734 L
271.526 97.825 L
266 105.71 L
256.027 106.238 L
255 106.449 L
244 108.844 L
233 110.286 L
222 110.375 L
211 110.72 L
200 109.507 L
189 109.321 L
178 107.619 L
172.891 106.238 L
167 105.78 L
156 104.014 L
145 100.882 L
134.796 93.533 L
134 92.51 L
123.796 80.827 L
131.928 68.122 L
134 66.584 L
145 60.324 L
156 56.906 L
165.444 55.417 L
167 54.746 L
178 52.074 L
189 51.099 L
200 49.822 L
211 50.058 L
222 50.132 L
233 50.036 L
244 50.988 L
255 52.245 L
266 54.822 L
266.476 55.417 L
271.526 63.239 L
271.526 62.565 L
271.526 59 L
269.984 55.417 L
266 50.435 L
255 48.698 L
244 47.712 L
233 47.193 L
222 47.264 L
211 47.15 L
200 47.092 L
189 47.878 L
178 48.576 L
167 50.342 L
156 54.904 L
155.139 55.417 L
145 57.728 L
134 61.687 L
125.335 68.122 L
123 71.962 L
114.143 80.827 L
123 88.186 L
127.703 93.533 L
134 97.982 L
145 103.683 L
156 105.764 L
cp
51.474 96.526 M
51.474 97.932 L
57 106.099 L
68 103.948 L
79 99.672 L
87.767 93.533 L
90 89.644 L
97.593 80.827 L
90 70.368 L
88.767 68.122 L
79 61.88 L
68 57.51 L
57.681 55.417 L
57 55.061 L
56.715 55.417 L
51.474 63.195 L
51.474 64.314 L
51.474 64.454 L
51.474 64.879 L
57 56.891 L
68 60.107 L
79 66.841 L
81.005 68.122 L
89.014 80.827 L
80.921 93.533 L
79 94.878 L
68 101.047 L
57 104.254 L
51.474 96.086 L
cp
f
GR
GS
0.063 GC
N
57.942 220.583 M
68 224.031 L
79 224.997 L
90 225.741 L
101 226.723 L
112 226.292 L
123 225.992 L
134 225.474 L
145 223.852 L
156 220.668 L
156.246 220.583 L
167 219.272 L
178 215.894 L
189 210.035 L
191.822 207.878 L
199.708 195.173 L
190.002 182.467 L
189 181.863 L
178 174.528 L
167 171.666 L
156 170.541 L
148.3 169.762 L
145 168.555 L
134 166.173 L
123 165.757 L
112 166.089 L
101 166.108 L
90 166.218 L
79 166.716 L
68 168.25 L
62.715 169.762 L
57 170.241 L
51.474 178.188 L
51.474 178.607 L
51.474 179.385 L
57 171.439 L
68 170.377 L
79 169.893 L
87.301 169.762 L
90 169.592 L
101 169.532 L
112 169.477 L
123 169.001 L
134 169.571 L
134.803 169.762 L
145 170.424 L
156 171.707 L
167 173.41 L
178 177.322 L
185.456 182.467 L
189 186.621 L
195.887 195.173 L
189 204.899 L
186.587 207.878 L
178 213.19 L
167 217.649 L
156 219.537 L
145 220.494 L
143.399 220.583 L
134 222.454 L
123 223.159 L
112 223.594 L
101 224.142 L
90 222.934 L
79 221.874 L
68.135 220.583 L
68 220.578 L
57 219.437 L
51.474 211.524 L
51.474 211.854 L
51.474 212.572 L
57 220.485 L
cp
241.62 207.878 M
244 209.404 L
255 216.202 L
266 219.535 L
271.526 211.19 L
271.526 210.721 L
271.526 209.538 L
266 217.884 L
255 213.692 L
246.545 207.878 L
244 202.855 L
238.469 195.173 L
244 188.716 L
248.02 182.467 L
255 177.651 L
266 173.935 L
271.526 181.897 L
271.526 181.775 L
271.526 180.068 L
266 172.106 L
255 174.963 L
244.124 182.467 L
244 182.66 L
233.281 195.173 L
cp
172.891 106.238 M
178 107.619 L
189 109.321 L
200 109.507 L
211 110.72 L
222 110.375 L
233 110.286 L
244 108.844 L
255 106.449 L
256.027 106.238 L
266 105.71 L
271.526 97.825 L
271.526 97.411 L
271.526 96.652 L
266 104.537 L
255 105.346 L
244 105.981 L
237.909 106.238 L
233 107.051 L
222 107.113 L
211 107.692 L
201.137 106.238 L
200 106.196 L
189 106.127 L
178 105.6 L
167 104.622 L
156 102.264 L
145 98.081 L
138.685 93.533 L
134 87.516 L
128.157 80.827 L
134 72.425 L
136.805 68.122 L
145 62.921 L
156 58.517 L
167 56.381 L
178 55.456 L
179.263 55.417 L
189 54.32 L
200 52.552 L
211 52.966 L
222 53 L
233 52.878 L
244 54.264 L
252.462 55.417 L
255 55.509 L
266 56.408 L
271.526 64.596 L
271.526 64.298 L
271.526 64.053 L
271.526 63.239 L
266.476 55.417 L
266 54.822 L
255 52.245 L
244 50.988 L
233 50.036 L
222 50.132 L
211 50.058 L
200 49.822 L
189 51.099 L
178 52.074 L
167 54.746 L
165.444 55.417 L
156 56.906 L
145 60.324 L
134 66.584 L
131.928 68.122 L
123.796 80.827 L
134 92.51 L
134.796 93.533 L
145 100.882 L
156 104.014 L
167 105.78 L
cp
51.474 94.388 M
51.474 96.086 L
57 104.254 L
68 101.047 L
79 94.878 L
80.921 93.533 L
89.014 80.827 L
81.005 68.122 L
79 66.841 L
68 60.107 L
57 56.891 L
51.474 64.879 L
51.474 65.329 L
51.474 66.436 L
57 58.448 L
68 62.703 L
76.116 68.122 L
79 72.068 L
85.23 80.827 L
79 89.669 L
75.575 93.533 L
68 98.146 L
57 102.408 L
51.474 94.241 L
cp
f
GR
GS
0.094 GC
N
68.135 220.583 M
79 221.874 L
90 222.934 L
101 224.142 L
112 223.594 L
123 223.159 L
134 222.454 L
143.399 220.583 L
145 220.494 L
156 219.537 L
167 217.649 L
178 213.19 L
186.587 207.878 L
189 204.899 L
195.887 195.173 L
189 186.621 L
185.456 182.467 L
178 177.322 L
167 173.41 L
156 171.707 L
145 170.424 L
134.803 169.762 L
134 169.571 L
123 169.001 L
112 169.477 L
101 169.532 L
90 169.592 L
87.301 169.762 L
79 169.893 L
68 170.377 L
57 171.439 L
51.474 179.385 L
51.474 179.72 L
51.474 180.582 L
57 172.636 L
68 171.352 L
79 170.728 L
90 170.508 L
101 170.467 L
112 170.428 L
123 170.352 L
134 170.541 L
145 171.351 L
156 172.873 L
167 175.153 L
178 180.116 L
181.407 182.467 L
189 191.365 L
192.066 195.173 L
189 199.503 L
182.216 207.878 L
178 210.486 L
167 216.026 L
156 218.472 L
145 219.657 L
134 220.296 L
123 220.52 L
118.198 220.583 L
112 220.896 L
101 221.56 L
93.306 220.583 L
90 220.469 L
79 220.136 L
68 219.686 L
57 218.389 L
51.474 210.476 L
51.474 210.735 L
51.474 211.524 L
57 219.437 L
68 220.578 L
cp
246.545 207.878 M
255 213.692 L
266 217.884 L
271.526 209.538 L
271.526 209.264 L
271.526 207.887 L
266 216.232 L
255 211.181 L
250.196 207.878 L
244 195.649 L
243.657 195.173 L
244 194.772 L
251.916 182.467 L
255 180.34 L
266 175.765 L
270.652 182.467 L
271.526 186.182 L
271.526 185.5 L
271.526 182.467 L
271.526 181.897 L
266 173.935 L
255 177.651 L
248.02 182.467 L
244 188.716 L
238.469 195.173 L
244 202.855 L
cp
201.137 106.238 M
211 107.692 L
222 107.113 L
233 107.051 L
237.909 106.238 L
244 105.981 L
255 105.346 L
266 104.537 L
271.526 96.652 L
271.526 96.32 L
271.526 95.48 L
266 103.364 L
255 104.411 L
244 105.159 L
233 105.651 L
222 105.685 L
211 105.844 L
200 105.44 L
189 105.298 L
178 104.632 L
167 103.463 L
156 100.513 L
145 95.28 L
142.573 93.533 L
134 82.523 L
132.519 80.827 L
134 78.698 L
140.896 68.122 L
145 65.517 L
156 60.127 L
167 57.518 L
178 56.325 L
189 55.914 L
199.234 55.417 L
200 55.283 L
202.63 55.417 L
211 55.527 L
222 55.527 L
233 55.496 L
244 55.907 L
255 56.373 L
266 57.554 L
271.526 65.742 L
271.526 65.484 L
271.526 64.596 L
266 56.408 L
255 55.509 L
252.462 55.417 L
244 54.264 L
233 52.878 L
222 53 L
211 52.966 L
200 52.552 L
189 54.32 L
179.263 55.417 L
178 55.456 L
167 56.381 L
156 58.517 L
145 62.921 L
136.805 68.122 L
134 72.425 L
128.157 80.827 L
134 87.516 L
138.685 93.533 L
145 98.081 L
156 102.264 L
167 104.622 L
178 105.6 L
189 106.127 L
200 106.196 L
cp
51.474 93.533 M
51.474 94.241 L
57 102.408 L
68 98.146 L
75.575 93.533 L
79 89.669 L
85.23 80.827 L
79 72.068 L
76.116 68.122 L
68 62.703 L
57 58.448 L
51.474 66.436 L
51.474 66.707 L
51.474 67.992 L
57 60.004 L
68 65.3 L
72.227 68.122 L
79 77.389 L
81.446 80.827 L
79 84.299 L
70.812 93.533 L
68 95.246 L
57 100.563 L
52.243 93.533 L
51.474 90.121 L
51.474 90.772 L
cp
f
GR
GS
0.125 GC
N
93.306 220.583 M
101 221.56 L
112 220.896 L
118.198 220.583 L
123 220.52 L
134 220.296 L
145 219.657 L
156 218.472 L
167 216.026 L
178 210.486 L
182.216 207.878 L
189 199.503 L
192.066 195.173 L
189 191.365 L
181.407 182.467 L
178 180.116 L
167 175.153 L
156 172.873 L
145 171.351 L
134 170.541 L
123 170.352 L
112 170.428 L
101 170.467 L
90 170.508 L
79 170.728 L
68 171.352 L
57 172.636 L
51.474 180.582 L
51.474 180.812 L
51.474 181.78 L
57 173.833 L
68 172.327 L
79 171.564 L
90 171.294 L
101 171.223 L
112 171.155 L
123 171.123 L
134 171.365 L
145 172.278 L
156 174.039 L
167 176.897 L
177.48 182.467 L
178 182.99 L
188.442 195.173 L
178 207.756 L
177.903 207.878 L
167 214.403 L
156 217.407 L
145 218.82 L
134 219.544 L
123 219.833 L
112 219.98 L
101 220.155 L
90 219.773 L
79 219.375 L
68 218.793 L
57 217.341 L
51.474 209.428 L
51.474 209.6 L
51.474 210.476 L
57 218.389 L
68 219.686 L
79 220.136 L
90 220.469 L
cp
250.196 207.878 M
255 211.181 L
266 216.232 L
271.526 207.887 L
271.526 207.885 L
271.526 207.878 L
271.526 202.419 L
270.439 207.878 L
266 214.581 L
255 208.671 L
253.847 207.878 L
246.069 195.173 L
255 183.092 L
255.799 182.467 L
266 177.594 L
269.383 182.467 L
271.526 190.06 L
271.526 188.862 L
271.526 186.182 L
270.652 182.467 L
266 175.765 L
255 180.34 L
251.916 182.467 L
244 194.772 L
243.657 195.173 L
244 195.649 L
cp
52.243 93.533 M
57 100.563 L
68 95.246 L
70.812 93.533 L
79 84.299 L
81.446 80.827 L
79 77.389 L
72.227 68.122 L
68 65.3 L
57 60.004 L
51.474 67.992 L
51.474 68.017 L
51.474 68.122 L
51.474 73.332 L
52.461 68.122 L
57 61.561 L
68 67.896 L
68.339 68.122 L
78.023 80.827 L
68 92.245 L
66.601 93.533 L
57 98.718 L
53.492 93.533 L
51.474 86.075 L
51.474 87.3 L
51.474 90.121 L
cp
142.573 93.533 M
145 95.28 L
156 100.513 L
167 103.463 L
178 104.632 L
189 105.298 L
200 105.44 L
211 105.844 L
222 105.685 L
233 105.651 L
244 105.159 L
255 104.411 L
266 103.364 L
271.526 95.48 L
271.526 95.247 L
271.526 94.307 L
266 102.192 L
255 103.476 L
244 104.337 L
233 104.867 L
222 104.93 L
211 105.086 L
200 104.684 L
189 104.469 L
178 103.663 L
167 102.304 L
156 98.763 L
146.229 93.533 L
145 92.419 L
135.588 80.827 L
144.986 68.122 L
145 68.114 L
156 61.738 L
167 58.655 L
178 57.195 L
189 56.667 L
200 56.093 L
211 56.221 L
222 56.227 L
233 56.233 L
244 56.661 L
255 57.237 L
266 58.7 L
271.526 66.888 L
271.526 66.738 L
271.526 65.742 L
266 57.554 L
255 56.373 L
244 55.907 L
233 55.496 L
222 55.527 L
211 55.527 L
202.63 55.417 L
200 55.283 L
199.234 55.417 L
189 55.914 L
178 56.325 L
167 57.518 L
156 60.127 L
145 65.517 L
140.896 68.122 L
134 78.698 L
132.519 80.827 L
134 82.523 L
cp
f
GR
GS
0.141 GC
N
51.474 208.443 M
51.474 209.428 L
57 217.341 L
68 218.793 L
79 219.375 L
90 219.773 L
101 220.155 L
112 219.98 L
123 219.833 L
134 219.544 L
145 218.82 L
156 217.407 L
167 214.403 L
177.903 207.878 L
178 207.756 L
188.442 195.173 L
178 182.99 L
177.48 182.467 L
167 176.897 L
156 174.039 L
145 172.278 L
134 171.365 L
123 171.123 L
112 171.155 L
101 171.223 L
90 171.294 L
79 171.564 L
68 172.327 L
57 173.833 L
51.474 181.78 L
51.474 181.875 L
51.474 182.467 L
51.474 184.272 L
51.828 182.467 L
57 175.03 L
68 173.303 L
79 172.4 L
90 172.08 L
101 171.979 L
112 171.882 L
123 171.894 L
134 172.189 L
145 173.204 L
156 175.205 L
167 178.641 L
174.2 182.467 L
178 186.29 L
185.613 195.173 L
178 204.347 L
175.192 207.878 L
167 212.78 L
156 216.342 L
145 217.983 L
134 218.791 L
123 219.145 L
112 219.298 L
101 219.468 L
90 219.077 L
79 218.613 L
68 217.901 L
57 216.293 L
51.474 208.38 L
cp
253.847 207.878 M
255 208.671 L
266 214.581 L
270.439 207.878 L
271.526 202.419 L
271.526 200.447 L
271.526 198.493 L
269.346 207.878 L
266 212.93 L
257.01 207.878 L
255 205.538 L
248.284 195.173 L
255 186.089 L
259.627 182.467 L
266 179.423 L
268.113 182.467 L
271.526 192.83 L
271.526 191.396 L
271.526 190.06 L
269.383 182.467 L
266 177.594 L
255.799 182.467 L
255 183.092 L
246.069 195.173 L
cp
53.492 93.533 M
57 98.718 L
66.601 93.533 L
68 92.245 L
78.023 80.827 L
68.339 68.122 L
68 67.896 L
57 61.561 L
52.461 68.122 L
51.474 73.332 L
51.474 75.365 L
51.474 77.46 L
53.537 68.122 L
57 63.117 L
65.568 68.122 L
68 71.396 L
75.262 80.827 L
68 89.1 L
63.184 93.533 L
57 96.872 L
54.74 93.533 L
51.474 83.185 L
51.474 84.677 L
51.474 86.075 L
cp
146.229 93.533 M
156 98.763 L
167 102.304 L
178 103.663 L
189 104.469 L
200 104.684 L
211 105.086 L
222 104.93 L
233 104.867 L
244 104.337 L
255 103.476 L
266 102.192 L
271.526 94.307 L
271.526 94.202 L
271.526 93.533 L
271.526 92.128 L
271.247 93.533 L
266 101.019 L
255 102.542 L
244 103.515 L
233 104.084 L
222 104.174 L
211 104.329 L
200 103.928 L
189 103.64 L
178 102.694 L
167 101.145 L
156 97.013 L
149.499 93.533 L
145 89.458 L
137.992 80.827 L
145 71.36 L
147.767 68.122 L
156 63.348 L
167 59.792 L
178 58.064 L
189 57.419 L
200 56.803 L
211 56.916 L
222 56.927 L
233 56.971 L
244 57.416 L
255 58.101 L
266 59.846 L
271.526 68.034 L
271.526 68.022 L
271.526 66.888 L
266 58.7 L
255 57.237 L
244 56.661 L
233 56.233 L
222 56.227 L
211 56.221 L
200 56.093 L
189 56.667 L
178 57.195 L
167 58.655 L
156 61.738 L
145 68.114 L
144.986 68.122 L
135.588 80.827 L
145 92.419 L
cp
f
GR
GS
0.173 GC
N
51.474 207.878 M
51.474 208.38 L
57 216.293 L
68 217.901 L
79 218.613 L
90 219.077 L
101 219.468 L
112 219.298 L
123 219.145 L
134 218.791 L
145 217.983 L
156 216.342 L
167 212.78 L
175.192 207.878 L
178 204.347 L
185.613 195.173 L
178 186.29 L
174.2 182.467 L
167 178.641 L
156 175.205 L
145 173.204 L
134 172.189 L
123 171.894 L
112 171.882 L
101 171.979 L
90 172.08 L
79 172.4 L
68 173.303 L
57 175.03 L
51.828 182.467 L
51.474 184.272 L
51.474 184.698 L
51.474 187.757 L
52.661 182.467 L
57 176.228 L
68 174.278 L
79 173.235 L
90 172.866 L
101 172.735 L
112 172.61 L
123 172.665 L
134 173.014 L
145 174.131 L
156 176.371 L
167 180.384 L
170.92 182.467 L
178 189.591 L
182.784 195.173 L
178 200.938 L
172.48 207.878 L
167 211.157 L
156 215.277 L
145 217.145 L
134 218.039 L
123 218.457 L
112 218.616 L
101 218.781 L
90 218.381 L
79 217.852 L
68 217.009 L
57 215.245 L
51.855 207.878 L
51.474 205.511 L
51.474 205.958 L
cp
257.01 207.878 M
266 212.93 L
269.346 207.878 L
271.526 198.493 L
271.526 195.729 L
271.526 195.549 L
268.252 207.878 L
266 211.279 L
259.948 207.878 L
255 202.119 L
250.499 195.173 L
255 189.085 L
263.455 182.467 L
266 181.252 L
266.844 182.467 L
271.526 194.907 L
271.526 193.375 L
271.526 192.83 L
268.113 182.467 L
266 179.423 L
259.627 182.467 L
255 186.089 L
248.284 195.173 L
255 205.538 L
cp
54.74 93.533 M
57 96.872 L
63.184 93.533 L
68 89.1 L
75.262 80.827 L
68 71.396 L
65.568 68.122 L
57 63.117 L
53.537 68.122 L
51.474 77.46 L
51.474 80.419 L
51.474 80.556 L
54.614 68.122 L
57 64.674 L
62.904 68.122 L
68 74.982 L
72.501 80.827 L
68 85.954 L
59.767 93.533 L
57 95.027 L
55.989 93.533 L
51.474 81.018 L
51.474 82.625 L
51.474 83.185 L
cp
149.499 93.533 M
156 97.013 L
167 101.145 L
178 102.694 L
189 103.64 L
200 103.928 L
211 104.329 L
222 104.174 L
233 104.084 L
244 103.515 L
255 102.542 L
266 101.019 L
271.247 93.533 L
271.526 92.128 L
271.526 91.813 L
271.526 88.682 L
270.425 93.533 L
266 99.847 L
255 101.607 L
244 102.693 L
233 103.3 L
222 103.419 L
211 103.571 L
200 103.172 L
189 102.811 L
178 101.726 L
167 99.986 L
156 95.263 L
152.768 93.533 L
145 86.497 L
140.397 80.827 L
145 74.608 L
150.544 68.122 L
156 64.958 L
167 60.929 L
178 58.934 L
189 58.172 L
200 57.514 L
211 57.611 L
222 57.627 L
233 57.708 L
244 58.171 L
255 58.965 L
266 60.992 L
270.812 68.122 L
271.526 71.756 L
271.526 71.189 L
271.526 68.122 L
271.526 68.034 L
266 59.846 L
255 58.101 L
244 57.416 L
233 56.971 L
222 56.927 L
211 56.916 L
200 56.803 L
189 57.419 L
178 58.064 L
167 59.792 L
156 63.348 L
147.767 68.122 L
145 71.36 L
137.992 80.827 L
145 89.458 L
cp
f
GR
GS
0.204 GC
N
51.855 207.878 M
57 215.245 L
68 217.009 L
79 217.852 L
90 218.381 L
101 218.781 L
112 218.616 L
123 218.457 L
134 218.039 L
145 217.145 L
156 215.277 L
167 211.157 L
172.48 207.878 L
178 200.938 L
182.784 195.173 L
178 189.591 L
170.92 182.467 L
167 180.384 L
156 176.371 L
145 174.131 L
134 173.014 L
123 172.665 L
112 172.61 L
101 172.735 L
90 172.866 L
79 173.235 L
68 174.278 L
57 176.228 L
52.661 182.467 L
51.474 187.757 L
51.474 188.817 L
51.474 190.467 L
53.493 182.467 L
57 177.425 L
68 175.253 L
79 174.071 L
90 173.652 L
101 173.49 L
112 173.337 L
123 173.436 L
134 173.838 L
145 175.058 L
156 177.537 L
167 182.128 L
167.639 182.467 L
178 192.891 L
179.956 195.173 L
178 197.529 L
169.768 207.878 L
167 209.534 L
156 214.212 L
145 216.308 L
134 217.286 L
123 217.769 L
112 217.934 L
101 218.093 L
90 217.686 L
79 217.091 L
68 216.116 L
57 214.197 L
52.586 207.878 L
51.474 201.733 L
51.474 202.786 L
51.474 205.511 L
cp
259.948 207.878 M
266 211.279 L
268.252 207.878 L
271.526 195.549 L
271.526 195.173 L
271.526 194.907 L
266.844 182.467 L
266 181.252 L
263.455 182.467 L
255 189.085 L
250.499 195.173 L
255 202.119 L
cp
266 209.627 M
262.887 207.878 L
255 198.7 L
252.714 195.173 L
255 192.081 L
266 183.02 L
270.954 195.173 L
267.159 207.878 L
cp
55.989 93.533 M
57 95.027 L
59.767 93.533 L
68 85.954 L
72.501 80.827 L
68 74.982 L
62.904 68.122 L
57 64.674 L
54.614 68.122 L
51.474 80.556 L
51.474 80.827 L
51.474 80.983 L
51.474 81.018 L
cp
152.768 93.533 M
156 95.263 L
167 99.986 L
178 101.726 L
189 102.811 L
200 103.172 L
211 103.571 L
222 103.419 L
233 103.3 L
244 102.693 L
255 101.607 L
266 99.847 L
270.425 93.533 L
271.526 88.682 L
271.526 87.758 L
271.526 86.002 L
269.604 93.533 L
266 98.674 L
255 100.672 L
244 101.871 L
233 102.517 L
222 102.664 L
211 102.814 L
200 102.416 L
189 101.982 L
178 100.757 L
167 98.827 L
156.028 93.533 L
156 93.513 L
145 83.536 L
142.801 80.827 L
145 77.857 L
153.321 68.122 L
156 66.569 L
167 62.065 L
178 59.803 L
189 58.925 L
200 58.224 L
211 58.305 L
222 58.327 L
233 58.445 L
244 58.926 L
255 59.83 L
266 62.138 L
270.039 68.122 L
271.526 74.851 L
271.526 73.901 L
271.526 71.756 L
270.812 68.122 L
266 60.992 L
255 58.965 L
244 58.171 L
233 57.708 L
222 57.627 L
211 57.611 L
200 57.514 L
189 58.172 L
178 58.934 L
167 60.929 L
156 64.958 L
150.544 68.122 L
145 74.608 L
140.397 80.827 L
145 86.497 L
cp
57 93.209 M
52.081 80.827 L
55.691 68.122 L
57 66.23 L
60.239 68.122 L
68 78.568 L
69.74 80.827 L
68 82.809 L
cp
f
GR
GS
0.22 GC
N
52.586 207.878 M
57 214.197 L
68 216.116 L
79 217.091 L
90 217.686 L
101 218.093 L
112 217.934 L
123 217.769 L
134 217.286 L
145 216.308 L
156 214.212 L
167 209.534 L
169.768 207.878 L
178 197.529 L
179.956 195.173 L
178 192.891 L
167.639 182.467 L
167 182.128 L
156 177.537 L
145 175.058 L
134 173.838 L
123 173.436 L
112 173.337 L
101 173.49 L
90 173.652 L
79 174.071 L
68 175.253 L
57 177.425 L
53.493 182.467 L
51.474 190.467 L
51.474 191.862 L
51.474 192.635 L
54.326 182.467 L
57 178.622 L
68 176.228 L
79 174.907 L
90 174.437 L
101 174.246 L
112 174.064 L
123 174.207 L
134 174.663 L
145 175.985 L
156 178.703 L
164.804 182.467 L
167 183.89 L
177.493 195.173 L
167.056 207.878 L
167 207.911 L
156 213.147 L
145 215.471 L
134 216.534 L
123 217.081 L
112 217.252 L
101 217.406 L
90 216.99 L
79 216.329 L
68 215.224 L
57 213.149 L
53.318 207.878 L
51.474 198.71 L
51.474 200.149 L
51.474 201.733 L
cp
262.887 207.878 M
266 209.627 L
267.159 207.878 L
270.954 195.173 L
266 183.02 L
255 192.081 L
252.714 195.173 L
255 198.7 L
cp
266 207.976 M
265.825 207.878 L
255 195.281 L
254.93 195.173 L
255 195.077 L
266 184.668 L
270.283 195.173 L
266.065 207.878 L
cp
156.028 93.533 M
167 98.827 L
178 100.757 L
189 101.982 L
200 102.416 L
211 102.814 L
222 102.664 L
233 102.517 L
244 101.871 L
255 100.672 L
266 98.674 L
269.604 93.533 L
271.526 86.002 L
271.526 84.754 L
271.526 83.858 L
268.782 93.533 L
266 97.502 L
255 99.737 L
244 101.049 L
233 101.733 L
222 101.908 L
211 102.056 L
200 101.66 L
189 101.153 L
178 99.789 L
167 97.669 L
158.429 93.533 L
156 91.812 L
145.144 80.827 L
156 68.191 L
156.089 68.122 L
167 63.202 L
178 60.673 L
189 59.678 L
200 58.935 L
211 59 L
222 59.026 L
233 59.182 L
244 59.68 L
255 60.694 L
266 63.284 L
269.265 68.122 L
271.526 77.327 L
271.526 76.141 L
271.526 74.851 L
270.039 68.122 L
266 62.138 L
255 59.83 L
244 58.926 L
233 58.445 L
222 58.327 L
211 58.305 L
200 58.224 L
189 58.925 L
178 59.803 L
167 62.065 L
156 66.569 L
153.321 68.122 L
145 77.857 L
142.801 80.827 L
145 83.536 L
156 93.513 L
cp
52.081 80.827 M
57 93.209 L
68 82.809 L
69.74 80.827 L
68 78.568 L
60.239 68.122 L
57 66.23 L
55.691 68.122 L
cp
57 91.509 M
52.756 80.827 L
56.768 68.122 L
57 67.786 L
57.575 68.122 L
67.388 80.827 L
cp
f
GR
GS
0.251 GC
N
53.318 207.878 M
57 213.149 L
68 215.224 L
79 216.329 L
90 216.99 L
101 217.406 L
112 217.252 L
123 217.081 L
134 216.534 L
145 215.471 L
156 213.147 L
167 207.911 L
167.056 207.878 L
177.493 195.173 L
167 183.89 L
164.804 182.467 L
156 178.703 L
145 175.985 L
134 174.663 L
123 174.207 L
112 174.064 L
101 174.246 L
90 174.437 L
79 174.907 L
68 176.228 L
57 178.622 L
54.326 182.467 L
51.474 192.635 L
51.474 194.204 L
51.474 194.41 L
55.158 182.467 L
57 179.819 L
68 177.203 L
79 175.742 L
90 175.223 L
101 175.002 L
112 174.791 L
123 174.978 L
134 175.487 L
145 176.912 L
156 179.869 L
162.078 182.467 L
167 185.656 L
175.85 195.173 L
167 205.923 L
164.813 207.878 L
156 212.082 L
145 214.634 L
134 215.781 L
123 216.393 L
112 216.57 L
101 216.719 L
90 216.294 L
79 215.568 L
68 214.332 L
57 212.102 L
54.05 207.878 L
51.474 196.236 L
51.474 197.922 L
51.474 198.71 L
cp
265.825 207.878 M
266 207.976 L
266.065 207.878 L
270.283 195.173 L
266 184.668 L
255 195.077 L
254.93 195.173 L
255 195.281 L
cp
266 205.986 M
256.679 195.173 L
266 186.315 L
269.611 195.173 L
cp
158.429 93.533 M
167 97.669 L
178 99.789 L
189 101.153 L
200 101.66 L
211 102.056 L
222 101.908 L
233 101.733 L
244 101.049 L
255 99.737 L
266 97.502 L
268.782 93.533 L
271.526 83.858 L
271.526 82.438 L
271.526 82.104 L
267.96 93.533 L
266 96.329 L
255 98.803 L
244 100.227 L
233 100.949 L
222 101.153 L
211 101.299 L
200 100.904 L
189 100.324 L
178 98.82 L
167 96.51 L
160.831 93.533 L
156 90.112 L
146.824 80.827 L
156 70.148 L
158.61 68.122 L
167 64.339 L
178 61.542 L
189 60.43 L
200 59.645 L
211 59.695 L
222 59.726 L
233 59.919 L
244 60.435 L
255 61.558 L
266 64.43 L
268.492 68.122 L
271.526 79.353 L
271.526 78.022 L
271.526 77.327 L
269.265 68.122 L
266 63.284 L
255 60.694 L
244 59.68 L
233 59.182 L
222 59.026 L
211 59 L
200 58.935 L
189 59.678 L
178 60.673 L
167 63.202 L
156.089 68.122 L
156 68.191 L
145.144 80.827 L
156 91.812 L
cp
52.756 80.827 M
57 91.509 L
67.388 80.827 L
57.575 68.122 L
57 67.786 L
56.768 68.122 L
cp
57 89.808 M
53.432 80.827 L
57 69.765 L
65.734 80.827 L
cp
f
GR
GS
0.282 GC
N
54.05 207.878 M
57 212.102 L
68 214.332 L
79 215.568 L
90 216.294 L
101 216.719 L
112 216.57 L
123 216.393 L
134 215.781 L
145 214.634 L
156 212.082 L
164.813 207.878 L
167 205.923 L
175.85 195.173 L
167 185.656 L
162.078 182.467 L
156 179.869 L
145 176.912 L
134 175.487 L
123 174.978 L
112 174.791 L
101 175.002 L
90 175.223 L
79 175.742 L
68 177.203 L
57 179.819 L
55.158 182.467 L
51.474 194.41 L
51.474 195.173 L
51.474 196.016 L
51.474 196.236 L
cp
57 211.054 M
54.782 207.878 L
51.715 195.173 L
55.991 182.467 L
57 181.016 L
68 178.179 L
79 176.578 L
90 176.009 L
101 175.758 L
112 175.518 L
123 175.748 L
134 176.312 L
145 177.838 L
156 181.035 L
159.351 182.467 L
167 187.423 L
174.207 195.173 L
167 203.927 L
162.58 207.878 L
156 211.016 L
145 213.797 L
134 215.029 L
123 215.705 L
112 215.888 L
101 216.031 L
90 215.598 L
79 214.807 L
68 213.44 L
cp
256.679 195.173 M
266 205.986 L
269.611 195.173 L
266 186.315 L
cp
266 203.974 M
258.413 195.173 L
266 187.963 L
268.939 195.173 L
cp
160.831 93.533 M
167 96.51 L
178 98.82 L
189 100.324 L
200 100.904 L
211 101.299 L
222 101.153 L
233 100.949 L
244 100.227 L
255 98.803 L
266 96.329 L
267.96 93.533 L
271.526 82.104 L
271.526 80.827 L
271.526 79.624 L
271.526 79.353 L
268.492 68.122 L
266 64.43 L
255 61.558 L
244 60.435 L
233 59.919 L
222 59.726 L
211 59.695 L
200 59.645 L
189 60.43 L
178 61.542 L
167 64.339 L
158.61 68.122 L
156 70.148 L
146.824 80.827 L
156 90.112 L
cp
167 95.351 M
163.232 93.533 L
156 88.411 L
148.505 80.827 L
156 72.104 L
161.131 68.122 L
167 65.476 L
178 62.412 L
189 61.183 L
200 60.356 L
211 60.389 L
222 60.426 L
233 60.656 L
244 61.19 L
255 62.422 L
266 65.576 L
267.719 68.122 L
271.463 80.827 L
267.138 93.533 L
266 95.156 L
255 97.868 L
244 99.404 L
233 100.166 L
222 100.398 L
211 100.541 L
200 100.147 L
189 99.495 L
178 97.852 L
cp
53.432 80.827 M
57 89.808 L
65.734 80.827 L
57 69.765 L
cp
57 88.107 M
54.108 80.827 L
57 71.86 L
64.08 80.827 L
cp
f
GR
GS
0.298 GC
N
54.782 207.878 M
57 211.054 L
68 213.44 L
79 214.807 L
90 215.598 L
101 216.031 L
112 215.888 L
123 215.705 L
134 215.029 L
145 213.797 L
156 211.016 L
162.58 207.878 L
167 203.927 L
174.207 195.173 L
167 187.423 L
159.351 182.467 L
156 181.035 L
145 177.838 L
134 176.312 L
123 175.748 L
112 175.518 L
101 175.758 L
90 176.009 L
79 176.578 L
68 178.179 L
57 181.016 L
55.991 182.467 L
51.715 195.173 L
cp
57 210.006 M
55.514 207.878 L
52.191 195.173 L
56.823 182.467 L
57 182.214 L
68 179.154 L
79 177.413 L
90 176.795 L
101 176.513 L
112 176.245 L
123 176.519 L
134 177.136 L
145 178.765 L
156 182.201 L
156.624 182.467 L
167 189.19 L
172.564 195.173 L
167 201.931 L
160.348 207.878 L
156 209.951 L
145 212.96 L
134 214.276 L
123 215.017 L
112 215.206 L
101 215.344 L
90 214.902 L
79 214.045 L
68 212.547 L
cp
258.413 195.173 M
266 203.974 L
268.939 195.173 L
266 187.963 L
cp
266 201.963 M
260.147 195.173 L
266 189.611 L
268.267 195.173 L
cp
163.232 93.533 M
167 95.351 L
178 97.852 L
189 99.495 L
200 100.147 L
211 100.541 L
222 100.398 L
233 100.166 L
244 99.404 L
255 97.868 L
266 95.156 L
267.138 93.533 L
271.463 80.827 L
267.719 68.122 L
266 65.576 L
255 62.422 L
244 61.19 L
233 60.656 L
222 60.426 L
211 60.389 L
200 60.356 L
189 61.183 L
178 62.412 L
167 65.476 L
161.131 68.122 L
156 72.104 L
148.505 80.827 L
156 88.411 L
cp
167 94.192 M
165.633 93.533 L
156 86.71 L
150.186 80.827 L
156 74.06 L
163.652 68.122 L
167 66.613 L
178 63.281 L
189 61.936 L
200 61.066 L
211 61.084 L
222 61.126 L
233 61.394 L
244 61.945 L
255 63.286 L
266 66.722 L
266.945 68.122 L
271.002 80.827 L
266.316 93.533 L
266 93.984 L
255 96.933 L
244 98.582 L
233 99.382 L
222 99.643 L
211 99.784 L
200 99.391 L
189 98.666 L
178 96.883 L
cp
54.108 80.827 M
57 88.107 L
64.08 80.827 L
57 71.86 L
cp
57 86.407 M
54.783 80.827 L
57 73.955 L
62.426 80.827 L
cp
f
GR
GS
0.333 GC
N
55.514 207.878 M
57 210.006 L
68 212.547 L
79 214.045 L
90 214.902 L
101 215.344 L
112 215.206 L
123 215.017 L
134 214.276 L
145 212.96 L
156 209.951 L
160.348 207.878 L
167 201.931 L
172.564 195.173 L
167 189.19 L
156.624 182.467 L
156 182.201 L
145 178.765 L
134 177.136 L
123 176.519 L
112 176.245 L
101 176.513 L
90 176.795 L
79 177.413 L
68 179.154 L
57 182.214 L
56.823 182.467 L
52.191 195.173 L
cp
57 208.958 M
56.246 207.878 L
52.667 195.173 L
57 183.48 L
59.721 182.467 L
68 180.129 L
79 178.249 L
90 177.58 L
101 177.269 L
112 176.972 L
123 177.29 L
134 177.961 L
145 179.692 L
153.747 182.467 L
156 183.405 L
167 190.956 L
170.921 195.173 L
167 199.936 L
158.115 207.878 L
156 208.886 L
145 212.122 L
134 213.524 L
123 214.329 L
112 214.524 L
101 214.657 L
90 214.206 L
79 213.284 L
68 211.655 L
cp
260.147 195.173 M
266 201.963 L
268.267 195.173 L
266 189.611 L
cp
266 199.951 M
261.881 195.173 L
266 191.258 L
267.596 195.173 L
cp
165.633 93.533 M
167 94.192 L
178 96.883 L
189 98.666 L
200 99.391 L
211 99.784 L
222 99.643 L
233 99.382 L
244 98.582 L
255 96.933 L
266 93.984 L
266.316 93.533 L
271.002 80.827 L
266.945 68.122 L
266 66.722 L
255 63.286 L
244 61.945 L
233 61.394 L
222 61.126 L
211 61.084 L
200 61.066 L
189 61.936 L
178 63.281 L
167 66.613 L
163.652 68.122 L
156 74.06 L
150.186 80.827 L
156 86.71 L
cp
178 95.914 M
168.64 93.533 L
167 92.986 L
156 85.01 L
151.867 80.827 L
156 76.017 L
166.173 68.122 L
167 67.75 L
178 64.151 L
189 62.689 L
200 61.777 L
211 61.779 L
222 61.826 L
233 62.131 L
244 62.7 L
255 64.151 L
266 67.868 L
266.172 68.122 L
270.54 80.827 L
266 92.785 L
263.92 93.533 L
255 95.998 L
244 97.76 L
233 98.599 L
222 98.887 L
211 99.026 L
200 98.635 L
189 97.837 L
cp
54.783 80.827 M
57 86.407 L
62.426 80.827 L
57 73.955 L
cp
57 84.706 M
55.459 80.827 L
57 76.05 L
60.772 80.827 L
cp
f
GR
GS
0.349 GC
N
56.246 207.878 M
57 208.958 L
68 211.655 L
79 213.284 L
90 214.206 L
101 214.657 L
112 214.524 L
123 214.329 L
134 213.524 L
145 212.122 L
156 208.886 L
158.115 207.878 L
167 199.936 L
170.921 195.173 L
167 190.956 L
156 183.405 L
153.747 182.467 L
145 179.692 L
134 177.961 L
123 177.29 L
112 176.972 L
101 177.269 L
90 177.58 L
79 178.249 L
68 180.129 L
59.721 182.467 L
57 183.48 L
52.667 195.173 L
cp
57 207.91 M
56.977 207.878 L
53.143 195.173 L
57 184.765 L
63.174 182.467 L
68 181.104 L
79 179.085 L
90 178.366 L
101 178.025 L
112 177.699 L
123 178.061 L
134 178.785 L
145 180.619 L
150.827 182.467 L
156 184.62 L
167 192.723 L
169.278 195.173 L
167 197.94 L
156 207.801 L
155.859 207.878 L
145 211.285 L
134 212.771 L
123 213.641 L
112 213.842 L
101 213.969 L
90 213.51 L
79 212.523 L
68 210.763 L
cp
261.881 195.173 M
266 199.951 L
267.596 195.173 L
266 191.258 L
cp
266 197.94 M
263.615 195.173 L
266 192.906 L
266.924 195.173 L
cp
168.64 93.533 M
178 95.914 L
189 97.837 L
200 98.635 L
211 99.026 L
222 98.887 L
233 98.599 L
244 97.76 L
255 95.998 L
263.92 93.533 L
266 92.785 L
270.54 80.827 L
266.172 68.122 L
266 67.868 L
255 64.151 L
244 62.7 L
233 62.131 L
222 61.826 L
211 61.779 L
200 61.777 L
189 62.689 L
178 64.151 L
167 67.75 L
166.173 68.122 L
156 76.017 L
151.867 80.827 L
156 85.01 L
167 92.986 L
cp
178 94.946 M
172.446 93.533 L
167 91.717 L
156 83.309 L
153.547 80.827 L
156 77.973 L
167 69.045 L
168.744 68.122 L
178 65.02 L
189 63.441 L
200 62.487 L
211 62.473 L
222 62.525 L
233 62.868 L
244 63.454 L
255 65.015 L
264.043 68.122 L
266 69.15 L
270.079 80.827 L
266 91.57 L
260.538 93.533 L
255 95.063 L
244 96.938 L
233 97.815 L
222 98.132 L
211 98.269 L
200 97.879 L
189 97.008 L
cp
55.459 80.827 M
57 84.706 L
60.772 80.827 L
57 76.05 L
cp
57 83.005 M
56.135 80.827 L
57 78.145 L
59.118 80.827 L
cp
f
GR
GS
0.38 GC
N
56.977 207.878 M
57 207.91 L
68 210.763 L
79 212.523 L
90 213.51 L
101 213.969 L
112 213.842 L
123 213.641 L
134 212.771 L
145 211.285 L
155.859 207.878 L
156 207.801 L
167 197.94 L
169.278 195.173 L
167 192.723 L
156 184.62 L
150.827 182.467 L
145 180.619 L
134 178.785 L
123 178.061 L
112 177.699 L
101 178.025 L
90 178.366 L
79 179.085 L
68 181.104 L
63.174 182.467 L
57 184.765 L
53.143 195.173 L
cp
68 209.87 M
60.329 207.878 L
57 206.351 L
53.619 195.173 L
57 186.05 L
66.626 182.467 L
68 182.08 L
79 179.92 L
90 179.152 L
101 178.781 L
112 178.426 L
123 178.832 L
134 179.61 L
145 181.545 L
147.906 182.467 L
156 185.835 L
167 194.489 L
167.635 195.173 L
167 195.944 L
156 206.347 L
153.191 207.878 L
145 210.448 L
134 212.019 L
123 212.953 L
112 213.16 L
101 213.282 L
90 212.814 L
79 211.761 L
cp
263.615 195.173 M
266 197.94 L
266.924 195.173 L
266 192.906 L
cp
266 195.928 M
265.349 195.173 L
266 194.554 L
266.252 195.173 L
cp
172.446 93.533 M
178 94.946 L
189 97.008 L
200 97.879 L
211 98.269 L
222 98.132 L
233 97.815 L
244 96.938 L
255 95.063 L
260.538 93.533 L
266 91.57 L
270.079 80.827 L
266 69.15 L
264.043 68.122 L
255 65.015 L
244 63.454 L
233 62.868 L
222 62.525 L
211 62.473 L
200 62.487 L
189 63.441 L
178 65.02 L
168.744 68.122 L
167 69.045 L
156 77.973 L
153.547 80.827 L
156 83.309 L
167 91.717 L
cp
178 93.977 M
176.252 93.533 L
167 90.449 L
156 81.608 L
155.228 80.827 L
156 79.929 L
167 70.418 L
171.338 68.122 L
178 65.89 L
189 64.194 L
200 63.198 L
211 63.168 L
222 63.225 L
233 63.605 L
244 64.209 L
255 65.879 L
261.529 68.122 L
266 70.471 L
269.618 80.827 L
266 90.355 L
257.157 93.533 L
255 94.129 L
244 96.116 L
233 97.031 L
222 97.377 L
211 97.511 L
200 97.123 L
189 96.179 L
cp
56.135 80.827 M
57 83.005 L
59.118 80.827 L
57 78.145 L
cp
57 81.305 M
56.81 80.827 L
57 80.239 L
57.464 80.827 L
cp
f
GR
GS
0.412 GC
N
60.329 207.878 M
68 209.87 L
79 211.761 L
90 212.814 L
101 213.282 L
112 213.16 L
123 212.953 L
134 212.019 L
145 210.448 L
153.191 207.878 L
156 206.347 L
167 195.944 L
167.635 195.173 L
167 194.489 L
156 185.835 L
147.906 182.467 L
145 181.545 L
134 179.61 L
123 178.832 L
112 178.426 L
101 178.781 L
90 179.152 L
79 179.92 L
68 182.08 L
66.626 182.467 L
57 186.05 L
53.619 195.173 L
57 206.351 L
cp
68 208.978 M
63.763 207.878 L
57 204.777 L
54.096 195.173 L
57 187.335 L
68 183.039 L
70.499 182.467 L
79 180.756 L
90 179.938 L
101 179.537 L
112 179.153 L
123 179.603 L
134 180.434 L
144.977 182.467 L
145 182.473 L
156 187.05 L
166.076 195.173 L
156 204.893 L
150.523 207.878 L
145 209.611 L
134 211.266 L
123 212.265 L
112 212.478 L
101 212.595 L
90 212.118 L
79 211 L
cp
265.349 195.173 M
266 195.928 L
266.252 195.173 L
266 194.554 L
cp
176.252 93.533 M
178 93.977 L
189 96.179 L
200 97.123 L
211 97.511 L
222 97.377 L
233 97.031 L
244 96.116 L
255 94.129 L
257.157 93.533 L
266 90.355 L
269.618 80.827 L
266 70.471 L
261.529 68.122 L
255 65.879 L
244 64.209 L
233 63.605 L
222 63.225 L
211 63.168 L
200 63.198 L
189 64.194 L
178 65.89 L
171.338 68.122 L
167 70.418 L
156 79.929 L
155.228 80.827 L
156 81.608 L
167 90.449 L
cp
189 95.35 M
180.176 93.533 L
178 93.014 L
167 89.18 L
156.835 80.827 L
167 71.79 L
173.932 68.122 L
178 66.759 L
189 64.947 L
200 63.908 L
211 63.863 L
222 63.925 L
233 64.342 L
244 64.964 L
255 66.743 L
259.014 68.122 L
266 71.792 L
269.156 80.827 L
266 89.14 L
255 93.196 L
253.409 93.533 L
244 95.294 L
233 96.248 L
222 96.622 L
211 96.753 L
200 96.367 L
cp
56.81 80.827 M
57 81.305 L
57.464 80.827 L
57 80.239 L
cp
f
GR
GS
0.427 GC
N
63.763 207.878 M
68 208.978 L
79 211 L
90 212.118 L
101 212.595 L
112 212.478 L
123 212.265 L
134 211.266 L
145 209.611 L
150.523 207.878 L
156 204.893 L
166.076 195.173 L
156 187.05 L
145 182.473 L
144.977 182.467 L
134 180.434 L
123 179.603 L
112 179.153 L
101 179.537 L
90 179.938 L
79 180.756 L
70.499 182.467 L
68 183.039 L
57 187.335 L
54.096 195.173 L
57 204.777 L
cp
68 208.086 M
67.198 207.878 L
57 203.202 L
54.572 195.173 L
57 188.62 L
68 183.988 L
74.65 182.467 L
79 181.592 L
90 180.723 L
101 180.292 L
112 179.88 L
123 180.374 L
134 181.258 L
140.527 182.467 L
145 183.474 L
156 188.265 L
164.568 195.173 L
156 203.438 L
147.856 207.878 L
145 208.774 L
134 210.514 L
123 211.577 L
112 211.796 L
101 211.907 L
90 211.422 L
79 210.239 L
cp
180.176 93.533 M
189 95.35 L
200 96.367 L
211 96.753 L
222 96.622 L
233 96.248 L
244 95.294 L
253.409 93.533 L
255 93.196 L
266 89.14 L
269.156 80.827 L
266 71.792 L
259.014 68.122 L
255 66.743 L
244 64.964 L
233 64.342 L
222 63.925 L
211 63.863 L
200 63.908 L
189 64.947 L
178 66.759 L
173.932 68.122 L
167 71.79 L
156.835 80.827 L
167 89.18 L
178 93.014 L
cp
189 94.522 M
184.199 93.533 L
178 92.054 L
167 87.911 L
158.379 80.827 L
167 73.163 L
176.526 68.122 L
178 67.628 L
189 65.7 L
200 64.619 L
211 64.557 L
222 64.625 L
233 65.08 L
244 65.719 L
255 67.607 L
256.499 68.122 L
266 73.113 L
268.695 80.827 L
266 87.925 L
255 92.266 L
249.018 93.533 L
244 94.472 L
233 95.464 L
222 95.866 L
211 95.996 L
200 95.611 L
cp
f
GR
GS
0.459 GC
N
67.198 207.878 M
68 208.086 L
79 210.239 L
90 211.422 L
101 211.907 L
112 211.796 L
123 211.577 L
134 210.514 L
145 208.774 L
147.856 207.878 L
156 203.438 L
164.568 195.173 L
156 188.265 L
145 183.474 L
140.527 182.467 L
134 181.258 L
123 180.374 L
112 179.88 L
101 180.292 L
90 180.723 L
79 181.592 L
74.65 182.467 L
68 183.988 L
57 188.62 L
54.572 195.173 L
57 203.202 L
cp
79 209.477 M
70.94 207.878 L
68 207.034 L
57 201.627 L
55.048 195.173 L
57 189.905 L
68 184.937 L
78.8 182.467 L
79 182.427 L
90 181.509 L
101 181.048 L
112 180.607 L
123 181.144 L
134 182.083 L
136.076 182.467 L
145 184.475 L
156 189.48 L
163.061 195.173 L
156 201.984 L
145.188 207.878 L
145 207.936 L
134 209.761 L
123 210.889 L
112 211.114 L
101 211.22 L
90 210.726 L
cp
184.199 93.533 M
189 94.522 L
200 95.611 L
211 95.996 L
222 95.866 L
233 95.464 L
244 94.472 L
249.018 93.533 L
255 92.266 L
266 87.925 L
268.695 80.827 L
266 73.113 L
256.499 68.122 L
255 67.607 L
244 65.719 L
233 65.08 L
222 64.625 L
211 64.557 L
200 64.619 L
189 65.7 L
178 67.628 L
176.526 68.122 L
167 73.163 L
158.379 80.827 L
167 87.911 L
178 92.054 L
cp
189 93.693 M
188.223 93.533 L
178 91.094 L
167 86.643 L
159.923 80.827 L
167 74.535 L
178 68.615 L
179.792 68.122 L
189 66.453 L
200 65.329 L
211 65.252 L
222 65.325 L
233 65.817 L
244 66.473 L
253.284 68.122 L
255 68.561 L
266 74.434 L
268.234 80.827 L
266 86.71 L
255 91.337 L
244.628 93.533 L
244 93.65 L
233 94.681 L
222 95.111 L
211 95.238 L
200 94.855 L
cp
f
GR
GS
0.49 GC
N
70.94 207.878 M
79 209.477 L
90 210.726 L
101 211.22 L
112 211.114 L
123 210.889 L
134 209.761 L
145 207.936 L
145.188 207.878 L
156 201.984 L
163.061 195.173 L
156 189.48 L
145 184.475 L
136.076 182.467 L
134 182.083 L
123 181.144 L
112 180.607 L
101 181.048 L
90 181.509 L
79 182.427 L
78.8 182.467 L
68 184.937 L
57 189.905 L
55.048 195.173 L
57 201.627 L
68 207.034 L
cp
79 208.716 M
74.776 207.878 L
68 205.934 L
57 200.052 L
55.524 195.173 L
57 191.19 L
68 185.887 L
79 183.217 L
87.937 182.467 L
90 182.295 L
101 181.804 L
112 181.334 L
123 181.915 L
129.305 182.467 L
134 182.907 L
145 185.477 L
156 190.695 L
161.554 195.173 L
156 200.53 L
145 206.765 L
140.796 207.878 L
134 209.009 L
123 210.201 L
112 210.432 L
101 210.533 L
90 210.03 L
cp
188.223 93.533 M
189 93.693 L
200 94.855 L
211 95.238 L
222 95.111 L
233 94.681 L
244 93.65 L
244.628 93.533 L
255 91.337 L
266 86.71 L
268.234 80.827 L
266 74.434 L
255 68.561 L
253.284 68.122 L
244 66.473 L
233 65.817 L
222 65.325 L
211 65.252 L
200 65.329 L
189 66.453 L
179.792 68.122 L
178 68.615 L
167 74.535 L
159.923 80.827 L
167 86.643 L
178 91.094 L
cp
200 94.099 M
194.702 93.533 L
189 92.867 L
178 90.135 L
167 85.374 L
161.467 80.827 L
167 75.908 L
178 69.757 L
183.943 68.122 L
189 67.205 L
200 66.04 L
211 65.947 L
222 66.024 L
233 66.554 L
244 67.228 L
249.035 68.122 L
255 69.646 L
266 75.754 L
267.772 80.827 L
266 85.494 L
255 90.408 L
244 92.848 L
236.87 93.533 L
233 93.897 L
222 94.356 L
211 94.481 L
cp
f
GR
GS
0.506 GC
N
74.776 207.878 M
79 208.716 L
90 210.03 L
101 210.533 L
112 210.432 L
123 210.201 L
134 209.009 L
140.796 207.878 L
145 206.765 L
156 200.53 L
161.554 195.173 L
156 190.695 L
145 185.477 L
134 182.907 L
129.305 182.467 L
123 181.915 L
112 181.334 L
101 181.804 L
90 182.295 L
87.937 182.467 L
79 183.217 L
68 185.887 L
57 191.19 L
55.524 195.173 L
57 200.052 L
68 205.934 L
cp
79 207.955 M
78.611 207.878 L
68 204.834 L
57 198.478 L
56.001 195.173 L
57 192.476 L
68 186.836 L
79 184.004 L
90 183.045 L
101 182.554 L
102.97 182.467 L
112 182.061 L
119.296 182.467 L
123 182.694 L
134 183.731 L
145 186.478 L
156 191.91 L
160.046 195.173 L
156 199.076 L
145 205.567 L
136.275 207.878 L
134 208.256 L
123 209.513 L
112 209.75 L
101 209.845 L
90 209.334 L
cp
194.702 93.533 M
200 94.099 L
211 94.481 L
222 94.356 L
233 93.897 L
236.87 93.533 L
244 92.848 L
255 90.408 L
266 85.494 L
267.772 80.827 L
266 75.754 L
255 69.646 L
249.035 68.122 L
244 67.228 L
233 66.554 L
222 66.024 L
211 65.947 L
200 66.04 L
189 67.205 L
183.943 68.122 L
178 69.757 L
167 75.908 L
161.467 80.827 L
167 85.374 L
178 90.135 L
189 92.867 L
cp
211 93.723 M
205.481 93.533 L
200 93.348 L
189 92.042 L
178 89.175 L
167 84.106 L
163.01 80.827 L
167 77.281 L
178 70.898 L
188.093 68.122 L
189 67.958 L
200 66.75 L
211 66.641 L
222 66.724 L
233 67.291 L
244 67.983 L
244.786 68.122 L
255 70.73 L
266 77.075 L
267.311 80.827 L
266 84.279 L
255 89.478 L
244 92.049 L
233 93.138 L
223.587 93.533 L
222 93.601 L
cp
f
GR
GS
0.537 GC
N
78.611 207.878 M
79 207.955 L
90 209.334 L
101 209.845 L
112 209.75 L
123 209.513 L
134 208.256 L
136.275 207.878 L
145 205.567 L
156 199.076 L
160.046 195.173 L
156 191.91 L
145 186.478 L
134 183.731 L
123 182.694 L
119.296 182.467 L
112 182.061 L
102.97 182.467 L
101 182.554 L
90 183.045 L
79 184.004 L
68 186.836 L
57 192.476 L
56.001 195.173 L
57 198.478 L
68 204.834 L
cp
90 208.638 M
83.963 207.878 L
79 207.067 L
68 203.734 L
57 196.903 L
56.477 195.173 L
57 193.761 L
68 187.785 L
79 184.791 L
90 183.785 L
101 183.265 L
112 182.805 L
123 183.493 L
134 184.555 L
145 187.48 L
156 193.126 L
158.539 195.173 L
156 197.622 L
145 204.37 L
134 207.406 L
131.084 207.878 L
123 208.825 L
112 209.068 L
101 209.158 L
cp
205.481 93.533 M
211 93.723 L
222 93.601 L
223.587 93.533 L
233 93.138 L
244 92.049 L
255 89.478 L
266 84.279 L
267.311 80.827 L
266 77.075 L
255 70.73 L
244.786 68.122 L
244 67.983 L
233 67.291 L
222 66.724 L
211 66.641 L
200 66.75 L
189 67.958 L
188.093 68.122 L
178 70.898 L
167 77.281 L
163.01 80.827 L
167 84.106 L
178 89.175 L
189 92.042 L
200 93.348 L
cp
167 82.837 M
164.554 80.827 L
167 78.653 L
178 72.04 L
189 68.865 L
194.019 68.122 L
200 67.461 L
211 67.336 L
222 67.424 L
233 68.028 L
234.492 68.122 L
244 68.869 L
255 71.815 L
266 78.396 L
266.849 80.827 L
266 83.064 L
255 88.549 L
244 91.251 L
233 92.401 L
222 92.874 L
211 92.992 L
200 92.612 L
189 91.217 L
178 88.216 L
cp
f
GR
GS
0.569 GC
N
83.963 207.878 M
90 208.638 L
101 209.158 L
112 209.068 L
123 208.825 L
131.084 207.878 L
134 207.406 L
145 204.37 L
156 197.622 L
158.539 195.173 L
156 193.126 L
145 187.48 L
134 184.555 L
123 183.493 L
112 182.805 L
101 183.265 L
90 183.785 L
79 184.791 L
68 187.785 L
57 193.761 L
56.477 195.173 L
57 196.903 L
68 203.734 L
79 207.067 L
cp
90 207.942 M
89.486 207.878 L
79 206.165 L
68 202.634 L
57 195.328 L
56.953 195.173 L
57 195.046 L
68 188.734 L
79 185.578 L
90 184.525 L
101 183.975 L
112 183.568 L
123 184.292 L
134 185.379 L
145 188.481 L
156 194.341 L
157.032 195.173 L
156 196.168 L
145 203.173 L
134 206.457 L
125.216 207.878 L
123 208.137 L
112 208.386 L
101 208.471 L
cp
164.554 80.827 M
167 82.837 L
178 88.216 L
189 91.217 L
200 92.612 L
211 92.992 L
222 92.874 L
233 92.401 L
244 91.251 L
255 88.549 L
266 83.064 L
266.849 80.827 L
266 78.396 L
255 71.815 L
244 68.869 L
234.492 68.122 L
233 68.028 L
222 67.424 L
211 67.336 L
200 67.461 L
194.019 68.122 L
189 68.865 L
178 72.04 L
167 78.653 L
cp
167 81.569 M
166.098 80.827 L
167 80.026 L
178 73.181 L
189 69.815 L
200 68.18 L
203.761 68.122 L
211 68.031 L
221.859 68.122 L
222 68.124 L
233 68.834 L
244 69.786 L
255 72.9 L
266 79.717 L
266.388 80.827 L
266 81.849 L
255 87.619 L
244 90.452 L
233 91.665 L
222 92.151 L
211 92.27 L
200 91.876 L
189 90.392 L
178 87.256 L
cp
f
GR
GS
0.584 GC
N
89.486 207.878 M
90 207.942 L
101 208.471 L
112 208.386 L
123 208.137 L
125.216 207.878 L
134 206.457 L
145 203.173 L
156 196.168 L
157.032 195.173 L
156 194.341 L
145 188.481 L
134 185.379 L
123 184.292 L
112 183.568 L
101 183.975 L
90 184.525 L
79 185.578 L
68 188.734 L
57 195.046 L
56.953 195.173 L
57 195.328 L
68 202.634 L
79 206.165 L
cp
68 201.534 M
58.483 195.173 L
68 189.683 L
79 186.365 L
90 185.265 L
101 184.686 L
112 184.332 L
123 185.09 L
134 186.202 L
145 189.482 L
155.421 195.173 L
145 201.976 L
134 205.507 L
123 207.281 L
112 207.654 L
101 207.761 L
90 207.071 L
79 205.263 L
cp
166.098 80.827 M
167 81.569 L
178 87.256 L
189 90.392 L
200 91.876 L
211 92.27 L
222 92.151 L
233 91.665 L
244 90.452 L
255 87.619 L
266 81.849 L
266.388 80.827 L
266 79.717 L
255 72.9 L
244 69.786 L
233 68.834 L
222 68.124 L
221.859 68.122 L
211 68.031 L
203.761 68.122 L
200 68.18 L
189 69.815 L
178 73.181 L
167 80.026 L
cp
178 86.296 M
167.748 80.827 L
178 74.322 L
189 70.765 L
200 69.023 L
211 68.824 L
222 68.936 L
233 69.649 L
244 70.702 L
255 73.985 L
265.729 80.827 L
255 86.69 L
244 89.653 L
233 90.928 L
222 91.427 L
211 91.548 L
200 91.14 L
189 89.567 L
cp
f
GR
GS
0.616 GC
N
58.483 195.173 M
68 201.534 L
79 205.263 L
90 207.071 L
101 207.761 L
112 207.654 L
123 207.281 L
134 205.507 L
145 201.976 L
155.421 195.173 L
145 189.482 L
134 186.202 L
123 185.09 L
112 184.332 L
101 184.686 L
90 185.265 L
79 186.365 L
68 189.683 L
cp
68 200.434 M
60.129 195.173 L
68 190.633 L
79 187.152 L
90 186.005 L
101 185.396 L
112 185.096 L
123 185.889 L
134 187.026 L
145 190.484 L
153.587 195.173 L
145 200.778 L
134 204.558 L
123 206.321 L
112 206.774 L
101 206.908 L
90 206.183 L
79 204.362 L
cp
167.748 80.827 M
178 86.296 L
189 89.567 L
200 91.14 L
211 91.548 L
222 91.427 L
233 90.928 L
244 89.653 L
255 86.69 L
265.729 80.827 L
255 73.985 L
244 70.702 L
233 69.649 L
222 68.936 L
211 68.824 L
200 69.023 L
189 70.765 L
178 74.322 L
cp
178 85.337 M
169.547 80.827 L
178 75.464 L
189 71.715 L
200 69.865 L
211 69.632 L
222 69.748 L
233 70.465 L
244 71.618 L
255 75.07 L
264.028 80.827 L
255 85.76 L
244 88.854 L
233 90.191 L
222 90.703 L
211 90.826 L
200 90.404 L
189 88.742 L
cp
f
GR
GS
0.647 GC
N
60.129 195.173 M
68 200.434 L
79 204.362 L
90 206.183 L
101 206.908 L
112 206.774 L
123 206.321 L
134 204.558 L
145 200.778 L
153.587 195.173 L
145 190.484 L
134 187.026 L
123 185.889 L
112 185.096 L
101 185.396 L
90 186.005 L
79 187.152 L
68 190.633 L
cp
68 199.334 M
61.775 195.173 L
68 191.582 L
79 187.939 L
90 186.745 L
101 186.107 L
112 185.86 L
123 186.688 L
134 187.85 L
145 191.485 L
151.753 195.173 L
145 199.581 L
134 203.609 L
123 205.362 L
112 205.895 L
101 206.055 L
90 205.294 L
79 203.46 L
cp
169.547 80.827 M
178 85.337 L
189 88.742 L
200 90.404 L
211 90.826 L
222 90.703 L
233 90.191 L
244 88.854 L
255 85.76 L
264.028 80.827 L
255 75.07 L
244 71.618 L
233 70.465 L
222 69.748 L
211 69.632 L
200 69.865 L
189 71.715 L
178 75.464 L
cp
178 84.377 M
171.346 80.827 L
178 76.605 L
189 72.665 L
200 70.708 L
211 70.441 L
222 70.559 L
233 71.281 L
244 72.535 L
255 76.155 L
262.327 80.827 L
255 84.831 L
244 88.056 L
233 89.454 L
222 89.98 L
211 90.104 L
200 89.668 L
189 87.917 L
cp
f
GR
GS
0.667 GC
N
61.775 195.173 M
68 199.334 L
79 203.46 L
90 205.294 L
101 206.055 L
112 205.895 L
123 205.362 L
134 203.609 L
145 199.581 L
151.753 195.173 L
145 191.485 L
134 187.85 L
123 186.688 L
112 185.86 L
101 186.107 L
90 186.745 L
79 187.939 L
68 191.582 L
cp
68 198.234 M
63.42 195.173 L
68 192.531 L
79 188.727 L
90 187.485 L
101 186.817 L
112 186.624 L
123 187.486 L
134 188.674 L
145 192.486 L
149.92 195.173 L
145 198.384 L
134 202.66 L
123 204.403 L
112 205.015 L
101 205.202 L
90 204.405 L
79 202.558 L
cp
171.346 80.827 M
178 84.377 L
189 87.917 L
200 89.668 L
211 90.104 L
222 89.98 L
233 89.454 L
244 88.056 L
255 84.831 L
262.327 80.827 L
255 76.155 L
244 72.535 L
233 71.281 L
222 70.559 L
211 70.441 L
200 70.708 L
189 72.665 L
178 76.605 L
cp
178 83.418 M
173.145 80.827 L
178 77.747 L
189 73.615 L
200 71.55 L
211 71.249 L
222 71.371 L
233 72.096 L
244 73.451 L
255 77.24 L
260.626 80.827 L
255 83.901 L
244 87.257 L
233 88.717 L
222 89.256 L
211 89.383 L
200 88.932 L
189 87.091 L
cp
f
GR
GS
0.698 GC
N
63.42 195.173 M
68 198.234 L
79 202.558 L
90 204.405 L
101 205.202 L
112 205.015 L
123 204.403 L
134 202.66 L
145 198.384 L
149.92 195.173 L
145 192.486 L
134 188.674 L
123 187.486 L
112 186.624 L
101 186.817 L
90 187.485 L
79 188.727 L
68 192.531 L
cp
68 197.134 M
65.066 195.173 L
68 193.48 L
79 189.514 L
90 188.225 L
101 187.528 L
112 187.388 L
123 188.285 L
134 189.498 L
145 193.488 L
148.086 195.173 L
145 197.187 L
134 201.711 L
123 203.444 L
112 204.136 L
101 204.349 L
90 203.516 L
79 201.656 L
cp
173.145 80.827 M
178 83.418 L
189 87.091 L
200 88.932 L
211 89.383 L
222 89.256 L
233 88.717 L
244 87.257 L
255 83.901 L
260.626 80.827 L
255 77.24 L
244 73.451 L
233 72.096 L
222 71.371 L
211 71.249 L
200 71.55 L
189 73.615 L
178 77.747 L
cp
178 82.458 M
174.943 80.827 L
178 78.888 L
189 74.565 L
200 72.393 L
211 72.057 L
222 72.183 L
233 72.912 L
244 74.367 L
255 78.324 L
258.925 80.827 L
255 82.972 L
244 86.458 L
233 87.98 L
222 88.533 L
211 88.661 L
200 88.196 L
189 86.266 L
cp
f
GR
GS
0.714 GC
N
65.066 195.173 M
68 197.134 L
79 201.656 L
90 203.516 L
101 204.349 L
112 204.136 L
123 203.444 L
134 201.711 L
145 197.187 L
148.086 195.173 L
145 193.488 L
134 189.498 L
123 188.285 L
112 187.388 L
101 187.528 L
90 188.225 L
79 189.514 L
68 193.48 L
cp
68 196.034 M
66.712 195.173 L
68 194.429 L
79 190.301 L
90 188.965 L
101 188.238 L
112 188.152 L
123 189.084 L
134 190.322 L
145 194.489 L
146.252 195.173 L
145 195.989 L
134 200.761 L
123 202.485 L
112 203.256 L
101 203.496 L
90 202.627 L
79 200.754 L
cp
174.943 80.827 M
178 82.458 L
189 86.266 L
200 88.196 L
211 88.661 L
222 88.533 L
233 87.98 L
244 86.458 L
255 82.972 L
258.925 80.827 L
255 78.324 L
244 74.367 L
233 72.912 L
222 72.183 L
211 72.057 L
200 72.393 L
189 74.565 L
178 78.888 L
cp
178 81.498 M
176.742 80.827 L
178 80.029 L
189 75.515 L
200 73.235 L
211 72.866 L
222 72.995 L
233 73.727 L
244 75.284 L
255 79.409 L
257.224 80.827 L
255 82.043 L
244 85.66 L
233 87.243 L
222 87.809 L
211 87.939 L
200 87.46 L
189 85.441 L
cp
f
GR
GS
0.745 GC
N
66.712 195.173 M
68 196.034 L
79 200.754 L
90 202.627 L
101 203.496 L
112 203.256 L
123 202.485 L
134 200.761 L
145 195.989 L
146.252 195.173 L
145 194.489 L
134 190.322 L
123 189.084 L
112 188.152 L
101 188.238 L
90 188.965 L
79 190.301 L
68 194.429 L
cp
79 199.852 M
68.442 195.173 L
79 191.088 L
90 189.705 L
101 188.949 L
112 188.916 L
123 189.882 L
134 191.146 L
144.329 195.173 L
134 199.812 L
123 201.525 L
112 202.377 L
101 202.644 L
90 201.739 L
cp
176.742 80.827 M
178 81.498 L
189 85.441 L
200 87.46 L
211 87.939 L
222 87.809 L
233 87.243 L
244 85.66 L
255 82.043 L
257.224 80.827 L
255 79.409 L
244 75.284 L
233 73.727 L
222 72.995 L
211 72.866 L
200 73.235 L
189 75.515 L
178 80.029 L
cp
189 84.616 M
178.676 80.827 L
189 76.465 L
200 74.077 L
211 73.674 L
222 73.807 L
233 74.543 L
244 76.2 L
255 80.494 L
255.523 80.827 L
255 81.113 L
244 84.861 L
233 86.506 L
222 87.085 L
211 87.217 L
200 86.725 L
cp
f
GR
GS
0.776 GC
N
68.442 195.173 M
79 199.852 L
90 201.739 L
101 202.644 L
112 202.377 L
123 201.525 L
134 199.812 L
144.329 195.173 L
134 191.146 L
123 189.882 L
112 188.916 L
101 188.949 L
90 189.705 L
79 191.088 L
cp
79 198.951 M
70.476 195.173 L
79 191.875 L
90 190.445 L
101 189.659 L
112 189.679 L
123 190.681 L
134 191.969 L
142.216 195.173 L
134 198.863 L
123 200.566 L
112 201.497 L
101 201.791 L
90 200.85 L
cp
178.676 80.827 M
189 84.616 L
200 86.725 L
211 87.217 L
222 87.085 L
233 86.506 L
244 84.861 L
255 81.113 L
255.523 80.827 L
255 80.494 L
244 76.2 L
233 74.543 L
222 73.807 L
211 73.674 L
200 74.077 L
189 76.465 L
cp
189 83.791 M
180.924 80.827 L
189 77.415 L
200 74.92 L
211 74.482 L
222 74.618 L
233 75.358 L
244 77.116 L
253.393 80.827 L
244 84.062 L
233 85.769 L
222 86.362 L
211 86.495 L
200 85.989 L
cp
f
GR
GS
0.792 GC
N
70.476 195.173 M
79 198.951 L
90 200.85 L
101 201.791 L
112 201.497 L
123 200.566 L
134 198.863 L
142.216 195.173 L
134 191.969 L
123 190.681 L
112 189.679 L
101 189.659 L
90 190.445 L
79 191.875 L
cp
79 198.049 M
72.511 195.173 L
79 192.662 L
90 191.185 L
101 190.37 L
112 190.443 L
123 191.48 L
134 192.793 L
140.103 195.173 L
134 197.914 L
123 199.607 L
112 200.618 L
101 200.938 L
90 199.961 L
cp
180.924 80.827 M
189 83.791 L
200 85.989 L
211 86.495 L
222 86.362 L
233 85.769 L
244 84.062 L
253.393 80.827 L
244 77.116 L
233 75.358 L
222 74.618 L
211 74.482 L
200 74.92 L
189 77.415 L
cp
189 82.966 M
183.172 80.827 L
189 78.365 L
200 75.762 L
211 75.291 L
222 75.43 L
233 76.174 L
244 78.033 L
251.074 80.827 L
244 83.263 L
233 85.032 L
222 85.638 L
211 85.773 L
200 85.253 L
cp
f
GR
GS
0.824 GC
N
72.511 195.173 M
79 198.049 L
90 199.961 L
101 200.938 L
112 200.618 L
123 199.607 L
134 197.914 L
140.103 195.173 L
134 192.793 L
123 191.48 L
112 190.443 L
101 190.37 L
90 191.185 L
79 192.662 L
cp
79 197.147 M
74.546 195.173 L
79 193.449 L
90 191.926 L
101 191.08 L
112 191.207 L
123 192.279 L
134 193.617 L
137.99 195.173 L
134 196.965 L
123 198.648 L
112 199.738 L
101 200.085 L
90 199.072 L
cp
183.172 80.827 M
189 82.966 L
200 85.253 L
211 85.773 L
222 85.638 L
233 85.032 L
244 83.263 L
251.074 80.827 L
244 78.033 L
233 76.174 L
222 75.43 L
211 75.291 L
200 75.762 L
189 78.365 L
cp
189 82.141 M
185.42 80.827 L
189 79.315 L
200 76.605 L
211 76.099 L
222 76.242 L
233 76.99 L
244 78.949 L
248.754 80.827 L
244 82.465 L
233 84.295 L
222 84.915 L
211 85.051 L
200 84.517 L
cp
f
GR
GS
0.855 GC
N
74.546 195.173 M
79 197.147 L
90 199.072 L
101 200.085 L
112 199.738 L
123 198.648 L
134 196.965 L
137.99 195.173 L
134 193.617 L
123 192.279 L
112 191.207 L
101 191.08 L
90 191.926 L
79 193.449 L
cp
79 196.245 M
76.58 195.173 L
79 194.236 L
90 192.666 L
101 191.79 L
112 191.971 L
123 193.077 L
134 194.441 L
135.876 195.173 L
134 196.015 L
123 197.689 L
112 198.859 L
101 199.232 L
90 198.183 L
cp
185.42 80.827 M
189 82.141 L
200 84.517 L
211 85.051 L
222 84.915 L
233 84.295 L
244 82.465 L
248.754 80.827 L
244 78.949 L
233 76.99 L
222 76.242 L
211 76.099 L
200 76.605 L
189 79.315 L
cp
189 81.316 M
187.669 80.827 L
189 80.265 L
200 77.447 L
211 76.908 L
222 77.054 L
233 77.805 L
244 79.866 L
246.435 80.827 L
244 81.666 L
233 83.558 L
222 84.191 L
211 84.329 L
200 83.781 L
cp
f
GR
GS
0.871 GC
N
76.58 195.173 M
79 196.245 L
90 198.183 L
101 199.232 L
112 198.859 L
123 197.689 L
134 196.015 L
135.876 195.173 L
134 194.441 L
123 193.077 L
112 191.971 L
101 191.79 L
90 192.666 L
79 194.236 L
cp
79 195.343 M
78.615 195.173 L
79 195.024 L
90 193.406 L
101 192.501 L
112 192.735 L
123 193.876 L
133.29 195.173 L
123 196.729 L
112 197.979 L
101 198.379 L
90 197.295 L
cp
187.669 80.827 M
189 81.316 L
200 83.781 L
211 84.329 L
222 84.191 L
233 83.558 L
244 81.666 L
246.435 80.827 L
244 79.866 L
233 77.805 L
222 77.054 L
211 76.908 L
200 77.447 L
189 80.265 L
cp
200 83.045 M
190.311 80.827 L
200 78.29 L
211 77.716 L
222 77.866 L
233 78.621 L
244 80.782 L
244.115 80.827 L
244 80.867 L
233 82.821 L
222 83.468 L
211 83.607 L
cp
f
GR
GS
0.902 GC
N
78.615 195.173 M
79 195.343 L
90 197.295 L
101 198.379 L
112 197.979 L
123 196.729 L
133.29 195.173 L
123 193.876 L
112 192.735 L
101 192.501 L
90 193.406 L
79 195.024 L
cp
90 196.406 M
83.057 195.173 L
90 194.146 L
101 193.211 L
112 193.499 L
123 194.675 L
126.951 195.173 L
123 195.77 L
112 197.1 L
101 197.526 L
cp
190.311 80.827 M
200 83.045 L
211 83.607 L
222 83.468 L
233 82.821 L
244 80.867 L
244.115 80.827 L
244 80.782 L
233 78.621 L
222 77.866 L
211 77.716 L
200 78.29 L
cp
200 82.309 M
193.528 80.827 L
200 79.132 L
211 78.524 L
222 78.677 L
233 79.436 L
240.064 80.827 L
233 82.084 L
222 82.744 L
211 82.885 L
cp
f
GR
GS
0.933 GC
N
83.057 195.173 M
90 196.406 L
101 197.526 L
112 197.1 L
123 195.77 L
126.951 195.173 L
123 194.675 L
112 193.499 L
101 193.211 L
90 194.146 L
cp
90 195.517 M
88.061 195.173 L
90 194.886 L
101 193.922 L
112 194.263 L
120.356 195.173 L
112 196.22 L
101 196.674 L
cp
193.528 80.827 M
200 82.309 L
211 82.885 L
222 82.744 L
233 82.084 L
240.064 80.827 L
233 79.436 L
222 78.677 L
211 78.524 L
200 79.132 L
cp
200 81.573 M
196.744 80.827 L
200 79.975 L
211 79.333 L
222 79.489 L
233 80.252 L
235.922 80.827 L
233 81.347 L
222 82.02 L
211 82.163 L
cp
f
GR
GS
0.949 GC
N
88.061 195.173 M
90 195.517 L
101 196.674 L
112 196.22 L
120.356 195.173 L
112 194.263 L
101 193.922 L
90 194.886 L
cp
101 195.821 M
94.908 195.173 L
101 194.632 L
112 195.027 L
113.34 195.173 L
112 195.34 L
cp
196.744 80.827 M
200 81.573 L
211 82.163 L
222 82.02 L
233 81.347 L
235.922 80.827 L
233 80.252 L
222 79.489 L
211 79.333 L
200 79.975 L
cp
200 80.837 M
199.96 80.827 L
200 80.817 L
211 80.141 L
222 80.301 L
229.565 80.827 L
222 81.297 L
211 81.441 L
cp
f
GR
GS
0.98 GC
N
94.908 195.173 M
101 195.821 L
112 195.34 L
113.34 195.173 L
112 195.027 L
101 194.632 L
cp
199.96 80.827 M
200 80.837 L
211 81.441 L
222 81.297 L
229.565 80.827 L
222 80.301 L
211 80.141 L
200 80.817 L
cp
f
GR
%%Trailer
%%Pages: 1
%%EOF
