%!PS-Adobe-3.0 EPSF-3.0
%%Creator: (MATLAB, The Mathworks, Inc. Version 9.3.0.713579 \(R2017b\). Operating System: Mac OS X)
%%Title: ./dataFit_pres_01_0_35396_0_19894.eps
%%CreationDate: 2018-08-06T07:58:35
%%Pages: (atend)
%%BoundingBox:     1     2   280   281
%%LanguageLevel: 3
%%EndComments
%%BeginProlog
%%BeginResource: procset (Apache XML Graphics Std ProcSet) 1.2 0
%%Version: 1.2 0
%%Copyright: (Copyright 2001-2003,2010 The Apache Software Foundation. License terms: http://www.apache.org/licenses/LICENSE-2.0)
/bd{bind def}bind def
/ld{load def}bd
/GR/grestore ld
/GS/gsave ld
/RM/rmoveto ld
/C/curveto ld
/t/show ld
/L/lineto ld
/ML/setmiterlimit ld
/CT/concat ld
/f/fill ld
/N/newpath ld
/S/stroke ld
/CC/setcmykcolor ld
/A/ashow ld
/cp/closepath ld
/RC/setrgbcolor ld
/LJ/setlinejoin ld
/GC/setgray ld
/LW/setlinewidth ld
/M/moveto ld
/re {4 2 roll M
1 index 0 rlineto
0 exch rlineto
neg 0 rlineto
cp } bd
/_ctm matrix def
/_tm matrix def
/BT { _ctm currentmatrix pop matrix _tm copy pop 0 0 moveto } bd
/ET { _ctm setmatrix } bd
/iTm { _ctm setmatrix _tm concat } bd
/Tm { _tm astore pop iTm 0 0 moveto } bd
/ux 0.0 def
/uy 0.0 def
/F {
  /Tp exch def
  /Tf exch def
  Tf findfont Tp scalefont setfont
  /cf Tf def  /cs Tp def
} bd
/ULS {currentpoint /uy exch def /ux exch def} bd
/ULE {
  /Tcx currentpoint pop def
  gsave
  newpath
  cf findfont cs scalefont dup
  /FontMatrix get 0 get /Ts exch def /FontInfo get dup
  /UnderlinePosition get Ts mul /To exch def
  /UnderlineThickness get Ts mul /Tt exch def
  ux uy To add moveto  Tcx uy To add lineto
  Tt setlinewidth stroke
  grestore
} bd
/OLE {
  /Tcx currentpoint pop def
  gsave
  newpath
  cf findfont cs scalefont dup
  /FontMatrix get 0 get /Ts exch def /FontInfo get dup
  /UnderlinePosition get Ts mul /To exch def
  /UnderlineThickness get Ts mul /Tt exch def
  ux uy To add cs add moveto Tcx uy To add cs add lineto
  Tt setlinewidth stroke
  grestore
} bd
/SOE {
  /Tcx currentpoint pop def
  gsave
  newpath
  cf findfont cs scalefont dup
  /FontMatrix get 0 get /Ts exch def /FontInfo get dup
  /UnderlinePosition get Ts mul /To exch def
  /UnderlineThickness get Ts mul /Tt exch def
  ux uy To add cs 10 mul 26 idiv add moveto Tcx uy To add cs 10 mul 26 idiv add lineto
  Tt setlinewidth stroke
  grestore
} bd
/QT {
/Y22 exch store
/X22 exch store
/Y21 exch store
/X21 exch store
currentpoint
/Y21 load 2 mul add 3 div exch
/X21 load 2 mul add 3 div exch
/X21 load 2 mul /X22 load add 3 div
/Y21 load 2 mul /Y22 load add 3 div
/X22 load /Y22 load curveto
} bd
/SSPD {
dup length /d exch dict def
{
/v exch def
/k exch def
currentpagedevice k known {
/cpdv currentpagedevice k get def
v cpdv ne {
/upd false def
/nullv v type /nulltype eq def
/nullcpdv cpdv type /nulltype eq def
nullv nullcpdv or
{
/upd true def
} {
/sametype v type cpdv type eq def
sametype {
v type /arraytype eq {
/vlen v length def
/cpdvlen cpdv length def
vlen cpdvlen eq {
0 1 vlen 1 sub {
/i exch def
/obj v i get def
/cpdobj cpdv i get def
obj cpdobj ne {
/upd true def
exit
} if
} for
} {
/upd true def
} ifelse
} {
v type /dicttype eq {
v {
/dv exch def
/dk exch def
/cpddv cpdv dk get def
dv cpddv ne {
/upd true def
exit
} if
} forall
} {
/upd true def
} ifelse
} ifelse
} if
} ifelse
upd true eq {
d k v put
} if
} if
} if
} forall
d length 0 gt {
d setpagedevice
} if
} bd
/RE { % /NewFontName [NewEncodingArray] /FontName RE -
  findfont dup length dict begin
  {
    1 index /FID ne
    {def} {pop pop} ifelse
  } forall
  /Encoding exch def
  /FontName 1 index def
  currentdict definefont pop
  end
} bind def
%%EndResource
%%BeginResource: procset (Apache XML Graphics EPS ProcSet) 1.0 0
%%Version: 1.0 0
%%Copyright: (Copyright 2002-2003 The Apache Software Foundation. License terms: http://www.apache.org/licenses/LICENSE-2.0)
/BeginEPSF { %def
/b4_Inc_state save def         % Save state for cleanup
/dict_count countdictstack def % Count objects on dict stack
/op_count count 1 sub def      % Count objects on operand stack
userdict begin                 % Push userdict on dict stack
/showpage { } def              % Redefine showpage, { } = null proc
0 setgray 0 setlinecap         % Prepare graphics state
1 setlinewidth 0 setlinejoin
10 setmiterlimit [ ] 0 setdash newpath
/languagelevel where           % If level not equal to 1 then
{pop languagelevel             % set strokeadjust and
1 ne                           % overprint to their defaults.
{false setstrokeadjust false setoverprint
} if
} if
} bd
/EndEPSF { %def
count op_count sub {pop} repeat            % Clean up stacks
countdictstack dict_count sub {end} repeat
b4_Inc_state restore
} bd
%%EndResource
%FOPBeginFontDict
%%IncludeResource: font Courier-Oblique
%%IncludeResource: font Courier-BoldOblique
%%IncludeResource: font Courier-Bold
%%IncludeResource: font ZapfDingbats
%%IncludeResource: font Symbol
%%IncludeResource: font Helvetica
%%IncludeResource: font Helvetica-Oblique
%%IncludeResource: font Helvetica-Bold
%%IncludeResource: font Helvetica-BoldOblique
%%IncludeResource: font Times-Roman
%%IncludeResource: font Times-Italic
%%IncludeResource: font Times-Bold
%%IncludeResource: font Times-BoldItalic
%%IncludeResource: font Courier
%FOPEndFontDict
%%BeginResource: encoding WinAnsiEncoding
/WinAnsiEncoding [
/.notdef /.notdef /.notdef /.notdef /.notdef
/.notdef /.notdef /.notdef /.notdef /.notdef
/.notdef /.notdef /.notdef /.notdef /.notdef
/.notdef /.notdef /.notdef /.notdef /.notdef
/.notdef /.notdef /.notdef /.notdef /.notdef
/.notdef /.notdef /.notdef /.notdef /.notdef
/.notdef /.notdef /space /exclam /quotedbl
/numbersign /dollar /percent /ampersand /quotesingle
/parenleft /parenright /asterisk /plus /comma
/hyphen /period /slash /zero /one
/two /three /four /five /six
/seven /eight /nine /colon /semicolon
/less /equal /greater /question /at
/A /B /C /D /E
/F /G /H /I /J
/K /L /M /N /O
/P /Q /R /S /T
/U /V /W /X /Y
/Z /bracketleft /backslash /bracketright /asciicircum
/underscore /quoteleft /a /b /c
/d /e /f /g /h
/i /j /k /l /m
/n /o /p /q /r
/s /t /u /v /w
/x /y /z /braceleft /bar
/braceright /asciitilde /bullet /Euro /bullet
/quotesinglbase /florin /quotedblbase /ellipsis /dagger
/daggerdbl /circumflex /perthousand /Scaron /guilsinglleft
/OE /bullet /Zcaron /bullet /bullet
/quoteleft /quoteright /quotedblleft /quotedblright /bullet
/endash /emdash /asciitilde /trademark /scaron
/guilsinglright /oe /bullet /zcaron /Ydieresis
/space /exclamdown /cent /sterling /currency
/yen /brokenbar /section /dieresis /copyright
/ordfeminine /guillemotleft /logicalnot /sfthyphen /registered
/macron /degree /plusminus /twosuperior /threesuperior
/acute /mu /paragraph /middot /cedilla
/onesuperior /ordmasculine /guillemotright /onequarter /onehalf
/threequarters /questiondown /Agrave /Aacute /Acircumflex
/Atilde /Adieresis /Aring /AE /Ccedilla
/Egrave /Eacute /Ecircumflex /Edieresis /Igrave
/Iacute /Icircumflex /Idieresis /Eth /Ntilde
/Ograve /Oacute /Ocircumflex /Otilde /Odieresis
/multiply /Oslash /Ugrave /Uacute /Ucircumflex
/Udieresis /Yacute /Thorn /germandbls /agrave
/aacute /acircumflex /atilde /adieresis /aring
/ae /ccedilla /egrave /eacute /ecircumflex
/edieresis /igrave /iacute /icircumflex /idieresis
/eth /ntilde /ograve /oacute /ocircumflex
/otilde /odieresis /divide /oslash /ugrave
/uacute /ucircumflex /udieresis /yacute /thorn
/ydieresis
] def
%%EndResource
%FOPBeginFontReencode
/Courier-Oblique findfont
dup length dict begin
  {1 index /FID ne {def} {pop pop} ifelse} forall
  /Encoding WinAnsiEncoding def
  currentdict
end
/Courier-Oblique exch definefont pop
/Courier-BoldOblique findfont
dup length dict begin
  {1 index /FID ne {def} {pop pop} ifelse} forall
  /Encoding WinAnsiEncoding def
  currentdict
end
/Courier-BoldOblique exch definefont pop
/Courier-Bold findfont
dup length dict begin
  {1 index /FID ne {def} {pop pop} ifelse} forall
  /Encoding WinAnsiEncoding def
  currentdict
end
/Courier-Bold exch definefont pop
/Helvetica findfont
dup length dict begin
  {1 index /FID ne {def} {pop pop} ifelse} forall
  /Encoding WinAnsiEncoding def
  currentdict
end
/Helvetica exch definefont pop
/Helvetica-Oblique findfont
dup length dict begin
  {1 index /FID ne {def} {pop pop} ifelse} forall
  /Encoding WinAnsiEncoding def
  currentdict
end
/Helvetica-Oblique exch definefont pop
/Helvetica-Bold findfont
dup length dict begin
  {1 index /FID ne {def} {pop pop} ifelse} forall
  /Encoding WinAnsiEncoding def
  currentdict
end
/Helvetica-Bold exch definefont pop
/Helvetica-BoldOblique findfont
dup length dict begin
  {1 index /FID ne {def} {pop pop} ifelse} forall
  /Encoding WinAnsiEncoding def
  currentdict
end
/Helvetica-BoldOblique exch definefont pop
/Times-Roman findfont
dup length dict begin
  {1 index /FID ne {def} {pop pop} ifelse} forall
  /Encoding WinAnsiEncoding def
  currentdict
end
/Times-Roman exch definefont pop
/Times-Italic findfont
dup length dict begin
  {1 index /FID ne {def} {pop pop} ifelse} forall
  /Encoding WinAnsiEncoding def
  currentdict
end
/Times-Italic exch definefont pop
/Times-Bold findfont
dup length dict begin
  {1 index /FID ne {def} {pop pop} ifelse} forall
  /Encoding WinAnsiEncoding def
  currentdict
end
/Times-Bold exch definefont pop
/Times-BoldItalic findfont
dup length dict begin
  {1 index /FID ne {def} {pop pop} ifelse} forall
  /Encoding WinAnsiEncoding def
  currentdict
end
/Times-BoldItalic exch definefont pop
/Courier findfont
dup length dict begin
  {1 index /FID ne {def} {pop pop} ifelse} forall
  /Encoding WinAnsiEncoding def
  currentdict
end
/Courier exch definefont pop
%FOPEndFontReencode
%%EndProlog
%%Page: 1 1
%%PageBoundingBox: 0 0 300 300
%%BeginPageSetup
[1 0 0 -1 0 300] CT
%%EndPageSetup
GS
1 GC
N
0 0 300 300 re
f
GR
GS
1 GC
N
0 0 300 300 re
f
GR
GS
1 GC
N
51.5 253.5 M
271.5 253.5 L
271.5 22.5 L
51.5 22.5 L
cp
f
GR
GS
0.149 GC
2 setlinecap
1 LJ
0.5 LW
N
51.5 253.5 M
271.5 253.5 L
S
GR
GS
0.149 GC
2 setlinecap
1 LJ
0.5 LW
N
51.5 22.5 M
271.5 22.5 L
S
GR
GS
0.149 GC
2 setlinecap
1 LJ
0.5 LW
N
51.5 253.5 M
51.5 251.19 L
S
GR
GS
0.149 GC
2 setlinecap
1 LJ
0.5 LW
N
161.5 253.5 M
161.5 251.19 L
S
GR
GS
0.149 GC
2 setlinecap
1 LJ
0.5 LW
N
271.5 253.5 M
271.5 251.19 L
S
GR
GS
0.149 GC
2 setlinecap
1 LJ
0.5 LW
N
51.5 22.5 M
51.5 24.81 L
S
GR
GS
0.149 GC
2 setlinecap
1 LJ
0.5 LW
N
161.5 22.5 M
161.5 24.81 L
S
GR
GS
0.149 GC
2 setlinecap
1 LJ
0.5 LW
N
271.5 22.5 M
271.5 24.81 L
S
GR
GS
[1 0 0 1 51.5 258.70001] CT
0.149 GC
N
0 13.799 M
-1.953 13.799 -2.664 12.182 QT
-3.375 10.565 -3.375 8.331 QT
-3.375 6.94 -3.117 5.713 QT
-2.859 4.487 -2.109 3.635 QT
-1.359 2.784 0 2.784 QT
1.063 2.784 1.734 3.299 QT
2.406 3.815 2.758 4.627 QT
3.109 5.44 3.234 6.377 QT
3.359 7.315 3.359 8.331 QT
3.359 9.706 3.109 10.909 QT
2.859 12.112 2.117 12.956 QT
1.375 13.799 0 13.799 QT
cp
0 13.377 M
0.891 13.377 1.328 12.463 QT
1.766 11.549 1.867 10.44 QT
1.969 9.331 1.969 8.081 QT
1.969 6.877 1.867 5.862 QT
1.766 4.846 1.336 4.018 QT
0.906 3.19 0 3.19 QT
-0.906 3.19 -1.344 4.018 QT
-1.781 4.846 -1.883 5.862 QT
-1.984 6.877 -1.984 8.081 QT
-1.984 8.971 -1.938 9.76 QT
-1.891 10.549 -1.703 11.385 QT
-1.516 12.221 -1.102 12.799 QT
-0.688 13.377 0 13.377 QT
cp
f
GR
GS
[1 0 0 1 161.5 258.70001] CT
0.149 GC
N
-3.222 13.159 M
-3.222 13.081 -3.16 12.909 QT
-2.722 11.971 -2.332 11.081 QT
-1.941 10.19 -1.636 9.338 QT
-1.332 8.487 -1.066 7.534 QT
-2.097 7.534 L
-2.675 7.534 -3.183 7.901 QT
-3.691 8.268 -4.035 8.831 QT
-4.066 8.893 -4.128 8.893 QT
-4.316 8.893 L
-4.457 8.893 -4.457 8.737 QT
-4.457 8.706 -4.425 8.643 QT
-3.91 7.752 -3.308 7.143 QT
-2.707 6.534 -1.957 6.534 QT
3.84 6.534 L
4.012 6.534 4.129 6.643 QT
4.247 6.752 4.247 6.94 QT
4.247 7.174 4.075 7.354 QT
3.903 7.534 3.668 7.534 QT
1.637 7.534 L
1.372 8.784 1.356 9.987 QT
1.356 11.518 1.887 12.768 QT
1.934 12.862 1.934 12.956 QT
1.934 13.127 1.832 13.276 QT
1.731 13.424 1.575 13.526 QT
1.418 13.627 1.231 13.627 QT
0.809 13.627 0.653 12.932 QT
0.497 12.237 0.497 11.596 QT
0.497 10.674 0.653 9.831 QT
0.809 8.987 1.153 7.534 QT
-0.582 7.534 L
-1.847 12.659 -2.113 13.174 QT
-2.332 13.627 -2.738 13.627 QT
-2.925 13.627 -3.074 13.495 QT
-3.222 13.362 -3.222 13.159 QT
cp
f
GR
GS
[1 0 0 1 271.5 258.70001] CT
0.149 GC
N
-8.05 13.44 M
-8.05 13.002 L
-8.05 12.971 -8.019 12.924 QT
-5.535 10.174 L
-4.972 9.565 -4.621 9.151 QT
-4.269 8.737 -3.925 8.198 QT
-3.582 7.659 -3.378 7.096 QT
-3.175 6.534 -3.175 5.909 QT
-3.175 5.252 -3.418 4.659 QT
-3.66 4.065 -4.144 3.706 QT
-4.628 3.346 -5.3 3.346 QT
-6.003 3.346 -6.558 3.76 QT
-7.113 4.174 -7.332 4.846 QT
-7.269 4.831 -7.16 4.831 QT
-6.8 4.831 -6.55 5.073 QT
-6.3 5.315 -6.3 5.69 QT
-6.3 6.065 -6.55 6.315 QT
-6.8 6.565 -7.16 6.565 QT
-7.535 6.565 -7.793 6.307 QT
-8.05 6.049 -8.05 5.69 QT
-8.05 5.096 -7.824 4.565 QT
-7.597 4.034 -7.168 3.627 QT
-6.738 3.221 -6.207 3.002 QT
-5.675 2.784 -5.066 2.784 QT
-4.16 2.784 -3.371 3.167 QT
-2.582 3.549 -2.121 4.26 QT
-1.66 4.971 -1.66 5.909 QT
-1.66 6.612 -1.964 7.237 QT
-2.269 7.862 -2.746 8.37 QT
-3.222 8.877 -3.964 9.526 QT
-4.707 10.174 -4.941 10.393 QT
-6.753 12.143 L
-5.207 12.143 L
-4.082 12.143 -3.316 12.12 QT
-2.55 12.096 -2.503 12.065 QT
-2.316 11.862 -2.128 10.581 QT
-1.66 10.581 L
-2.113 13.44 L
-8.05 13.44 L
cp
f
GR
GS
[1 0 0 1 271.5 258.70001] CT
0.149 GC
N
0.778 13.159 M
0.778 13.081 0.84 12.909 QT
1.278 11.971 1.668 11.081 QT
2.059 10.19 2.364 9.338 QT
2.668 8.487 2.934 7.534 QT
1.903 7.534 L
1.325 7.534 0.817 7.901 QT
0.309 8.268 -0.035 8.831 QT
-0.066 8.893 -0.128 8.893 QT
-0.316 8.893 L
-0.457 8.893 -0.457 8.737 QT
-0.457 8.706 -0.425 8.643 QT
0.09 7.752 0.692 7.143 QT
1.293 6.534 2.043 6.534 QT
7.84 6.534 L
8.012 6.534 8.129 6.643 QT
8.247 6.752 8.247 6.94 QT
8.247 7.174 8.075 7.354 QT
7.903 7.534 7.668 7.534 QT
5.637 7.534 L
5.372 8.784 5.356 9.987 QT
5.356 11.518 5.887 12.768 QT
5.934 12.862 5.934 12.956 QT
5.934 13.127 5.832 13.276 QT
5.731 13.424 5.575 13.526 QT
5.418 13.627 5.231 13.627 QT
4.809 13.627 4.653 12.932 QT
4.497 12.237 4.497 11.596 QT
4.497 10.674 4.653 9.831 QT
4.809 8.987 5.153 7.534 QT
3.418 7.534 L
2.153 12.659 1.887 13.174 QT
1.668 13.627 1.262 13.627 QT
1.075 13.627 0.926 13.495 QT
0.778 13.362 0.778 13.159 QT
cp
f
GR
GS
[1 0 0 1 161.50011 278.88] CT
0.149 GC
N
-1.759 18.284 M
-0.946 15.034 L
-1.853 15.034 -2.65 14.612 QT
-3.446 14.19 -3.923 13.425 QT
-4.4 12.659 -4.4 11.753 QT
-4.4 10.784 -3.915 9.893 QT
-3.431 9.003 -2.595 8.284 QT
-1.759 7.565 -0.79 7.175 QT
0.179 6.784 1.132 6.784 QT
2.21 2.393 L
2.241 2.3 2.35 2.3 QT
2.569 2.3 L
2.647 2.3 2.686 2.362 QT
2.725 2.425 2.725 2.471 QT
1.647 6.784 L
2.319 6.784 2.952 7.026 QT
3.585 7.268 4.077 7.714 QT
4.569 8.159 4.843 8.76 QT
5.116 9.362 5.116 10.05 QT
5.116 11.018 4.632 11.909 QT
4.147 12.8 3.327 13.51 QT
2.507 14.221 1.499 14.628 QT
0.491 15.034 -0.415 15.034 QT
-1.243 18.378 L
-1.275 18.471 -1.4 18.471 QT
-1.603 18.471 L
-1.681 18.471 -1.72 18.409 QT
-1.759 18.346 -1.759 18.284 QT
cp
-0.837 14.565 M
1.007 7.237 L
0.554 7.237 0.054 7.425 QT
-0.446 7.612 -0.892 7.893 QT
-1.337 8.175 -1.696 8.534 QT
-2.134 8.971 -2.47 9.573 QT
-2.806 10.175 -2.978 10.839 QT
-3.15 11.503 -3.15 12.143 QT
-3.15 12.815 -2.861 13.37 QT
-2.571 13.925 -2.04 14.245 QT
-1.509 14.565 -0.837 14.565 QT
cp
-0.29 14.565 M
0.382 14.565 1.147 14.175 QT
1.913 13.784 2.397 13.268 QT
3.085 12.596 3.475 11.628 QT
3.866 10.659 3.866 9.675 QT
3.866 9.003 3.577 8.44 QT
3.288 7.878 2.757 7.557 QT
2.225 7.237 1.538 7.237 QT
-0.29 14.565 L
cp
f
GR
GS
0.149 GC
2 setlinecap
1 LJ
0.5 LW
N
51.5 253.5 M
51.5 22.5 L
S
GR
GS
0.149 GC
2 setlinecap
1 LJ
0.5 LW
N
271.5 253.5 M
271.5 22.5 L
S
GR
GS
0.149 GC
2 setlinecap
1 LJ
0.5 LW
N
51.5 253.5 M
53.81 253.5 L
S
GR
GS
0.149 GC
2 setlinecap
1 LJ
0.5 LW
N
51.5 138 M
53.81 138 L
S
GR
GS
0.149 GC
2 setlinecap
1 LJ
0.5 LW
N
51.5 22.5 M
53.81 22.5 L
S
GR
GS
0.149 GC
2 setlinecap
1 LJ
0.5 LW
N
271.5 253.5 M
269.19 253.5 L
S
GR
GS
0.149 GC
2 setlinecap
1 LJ
0.5 LW
N
271.5 138 M
269.19 138 L
S
GR
GS
0.149 GC
2 setlinecap
1 LJ
0.5 LW
N
271.5 22.5 M
269.19 22.5 L
S
GR
GS
[1 0 0 1 46.3 253.5] CT
0.149 GC
N
-20.498 0.152 M
-20.639 0.152 -20.725 0.051 QT
-20.811 -0.051 -20.811 -0.16 QT
-20.811 -0.285 -20.725 -0.387 QT
-20.639 -0.488 -20.498 -0.488 QT
-11.326 -0.488 L
-11.201 -0.488 -11.116 -0.387 QT
-11.03 -0.285 -11.03 -0.16 QT
-11.03 -0.051 -11.116 0.051 QT
-11.201 0.152 -11.326 0.152 QT
-20.498 0.152 L
cp
f
GR
GS
[1 0 0 1 46.3 253.5] CT
0.149 GC
N
-8.069 3.559 M
-8.069 3.481 -8.007 3.309 QT
-7.569 2.371 -7.179 1.481 QT
-6.788 0.59 -6.484 -0.262 QT
-6.179 -1.113 -5.913 -2.066 QT
-6.944 -2.066 L
-7.523 -2.066 -8.03 -1.699 QT
-8.538 -1.332 -8.882 -0.769 QT
-8.913 -0.707 -8.976 -0.707 QT
-9.163 -0.707 L
-9.304 -0.707 -9.304 -0.863 QT
-9.304 -0.894 -9.273 -0.957 QT
-8.757 -1.848 -8.155 -2.457 QT
-7.554 -3.066 -6.804 -3.066 QT
-1.007 -3.066 L
-0.835 -3.066 -0.718 -2.957 QT
-0.601 -2.848 -0.601 -2.66 QT
-0.601 -2.426 -0.773 -2.246 QT
-0.944 -2.066 -1.179 -2.066 QT
-3.21 -2.066 L
-3.476 -0.816 -3.491 0.387 QT
-3.491 1.918 -2.96 3.168 QT
-2.913 3.262 -2.913 3.356 QT
-2.913 3.527 -3.015 3.676 QT
-3.116 3.824 -3.273 3.926 QT
-3.429 4.027 -3.616 4.027 QT
-4.038 4.027 -4.194 3.332 QT
-4.351 2.637 -4.351 1.996 QT
-4.351 1.074 -4.194 0.231 QT
-4.038 -0.613 -3.694 -2.066 QT
-5.429 -2.066 L
-6.694 3.059 -6.96 3.574 QT
-7.179 4.027 -7.585 4.027 QT
-7.773 4.027 -7.921 3.895 QT
-8.069 3.762 -8.069 3.559 QT
cp
f
GR
GS
[1 0 0 1 46.3 138] CT
0.149 GC
N
-4 4.199 M
-5.953 4.199 -6.664 2.582 QT
-7.375 0.965 -7.375 -1.269 QT
-7.375 -2.66 -7.117 -3.887 QT
-6.859 -5.113 -6.109 -5.965 QT
-5.359 -6.816 -4 -6.816 QT
-2.938 -6.816 -2.266 -6.301 QT
-1.594 -5.785 -1.242 -4.973 QT
-0.891 -4.16 -0.766 -3.223 QT
-0.641 -2.285 -0.641 -1.269 QT
-0.641 0.106 -0.891 1.309 QT
-1.141 2.512 -1.883 3.356 QT
-2.625 4.199 -4 4.199 QT
cp
-4 3.777 M
-3.109 3.777 -2.672 2.863 QT
-2.234 1.949 -2.133 0.84 QT
-2.031 -0.269 -2.031 -1.519 QT
-2.031 -2.723 -2.133 -3.738 QT
-2.234 -4.754 -2.664 -5.582 QT
-3.094 -6.41 -4 -6.41 QT
-4.906 -6.41 -5.344 -5.582 QT
-5.781 -4.754 -5.883 -3.738 QT
-5.984 -2.723 -5.984 -1.519 QT
-5.984 -0.629 -5.938 0.16 QT
-5.891 0.949 -5.703 1.785 QT
-5.516 2.621 -5.102 3.199 QT
-4.688 3.777 -4 3.777 QT
cp
f
GR
GS
[1 0 0 1 46.3 22.5] CT
0.149 GC
N
/f-1802301508{-8.069 3.559 M
-8.069 3.481 -8.007 3.309 QT
-7.569 2.371 -7.179 1.481 QT
-6.788 0.59 -6.484 -0.262 QT
-6.179 -1.113 -5.913 -2.066 QT
-6.944 -2.066 L
-7.523 -2.066 -8.03 -1.699 QT
-8.538 -1.332 -8.882 -0.769 QT
-8.913 -0.707 -8.976 -0.707 QT
-9.163 -0.707 L
-9.304 -0.707 -9.304 -0.863 QT
-9.304 -0.894 -9.273 -0.957 QT
-8.757 -1.848 -8.155 -2.457 QT
-7.554 -3.066 -6.804 -3.066 QT
-1.007 -3.066 L
-0.835 -3.066 -0.718 -2.957 QT
-0.601 -2.848 -0.601 -2.66 QT
-0.601 -2.426 -0.773 -2.246 QT
-0.944 -2.066 -1.179 -2.066 QT
-3.21 -2.066 L
-3.476 -0.816 -3.491 0.387 QT
-3.491 1.918 -2.96 3.168 QT
-2.913 3.262 -2.913 3.356 QT
-2.913 3.527 -3.015 3.676 QT
-3.116 3.824 -3.273 3.926 QT
-3.429 4.027 -3.616 4.027 QT
-4.038 4.027 -4.194 3.332 QT
-4.351 2.637 -4.351 1.996 QT
-4.351 1.074 -4.194 0.231 QT
-4.038 -0.613 -3.694 -2.066 QT
-5.429 -2.066 L
-6.694 3.059 -6.96 3.574 QT
-7.179 4.027 -7.585 4.027 QT
-7.773 4.027 -7.921 3.895 QT
-8.069 3.762 -8.069 3.559 QT
cp}def
f-1802301508
f
GR
GS
[0 -1 1 0 21.12 137.99989] CT
0.149 GC
N
/f1226721168{-0.635 -6.07 M
-1.26 -6.07 -1.799 -6.297 QT
-2.338 -6.524 -2.736 -6.969 QT
-3.135 -7.414 -3.33 -7.953 QT
-3.525 -8.492 -3.525 -9.117 QT
-3.525 -10.242 -2.994 -11.305 QT
-2.463 -12.367 -1.541 -13.141 QT
-0.619 -13.914 0.459 -14.18 QT
-0.072 -15.164 -0.346 -15.867 QT
-0.619 -16.57 -0.619 -17.32 QT
-0.619 -17.852 -0.369 -18.274 QT
-0.119 -18.695 0.334 -18.93 QT
0.787 -19.164 1.334 -19.164 QT
1.881 -19.164 3.459 -18.805 QT
3.881 -18.711 3.881 -18.32 QT
3.881 -18.024 3.662 -17.781 QT
3.443 -17.539 3.146 -17.539 QT
2.912 -17.539 2.74 -17.641 QT
2.568 -17.742 2.193 -17.992 QT
1.818 -18.242 1.514 -18.383 QT
1.209 -18.524 0.896 -18.524 QT
0.521 -18.524 0.225 -18.297 QT
-0.072 -18.07 -0.072 -17.711 QT
-0.072 -17.133 0.436 -16.391 QT
0.943 -15.649 1.881 -14.492 QT
2.943 -13.133 2.943 -11.508 QT
2.943 -10.695 2.709 -9.758 QT
2.475 -8.82 2.029 -7.985 QT
1.584 -7.149 0.896 -6.61 QT
0.209 -6.07 -0.635 -6.07 QT
cp
-0.604 -6.555 M
0.1 -6.555 0.607 -7.281 QT
1.115 -8.008 1.373 -9.016 QT
1.631 -10.024 1.631 -10.711 QT
1.631 -12.055 0.693 -13.742 QT
-0.26 -13.477 -0.947 -12.633 QT
-1.635 -11.789 -1.986 -10.688 QT
-2.338 -9.586 -2.338 -8.602 QT
-2.338 -7.742 -1.893 -7.149 QT
-1.447 -6.555 -0.604 -6.555 QT
cp}def
f1226721168
f
GR
GS
N
51.474 253.528 M
52.45 253.528 L
51.474 250.776 L
cp
203.032 253.528 M
211 253.528 L
213.877 253.528 L
222 253.528 L
224.217 253.528 L
230.549 253.528 L
222 252.223 L
211 251.696 L
cp
271.526 253.528 M
271.526 247.952 L
268.643 253.528 L
cp
51.474 22.472 M
51.474 27.699 L
53.629 22.472 L
cp
98.798 22.472 M
96.001 22.472 L
101 23.767 L
112 24.719 L
117.599 22.472 L
112 22.472 L
108.668 22.472 L
101 22.472 L
cp
270.504 22.472 M
268.996 22.472 L
271.526 26.908 L
271.526 23.658 L
271.526 22.472 L
cp
f
GR
GS
0.016 GC
N
51.474 248.977 M
51.474 250.776 L
52.45 253.528 L
54.061 253.528 L
55.598 253.528 L
57 253.528 L
57.447 253.528 L
58.769 253.528 L
57 253.309 L
53.554 245.992 L
51.474 239.676 L
51.474 241.49 L
51.474 245.992 L
cp
147.131 253.528 M
155.943 253.528 L
156 253.528 L
158.689 253.528 L
167 253.528 L
172.379 253.528 L
178 253.528 L
186.842 253.528 L
188.524 253.528 L
189 253.528 L
199.069 253.528 L
200 253.528 L
203.032 253.528 L
211 251.696 L
222 252.223 L
230.549 253.528 L
232.48 253.528 L
233 253.528 L
241.805 253.528 L
244 253.528 L
251.598 253.528 L
255 253.528 L
261.554 253.528 L
263.456 253.528 L
266 253.528 L
268.643 253.528 L
271.526 247.952 L
271.526 246.615 L
271.526 245.992 L
271.526 237.166 L
268.079 245.992 L
266 250.013 L
259.706 245.992 L
255 244.539 L
244 244.665 L
233 244.017 L
222 242.015 L
211 241.648 L
200 243.677 L
189 244.921 L
185.154 245.992 L
178 249.17 L
167 250.078 L
156 251.874 L
cp
51.474 144.352 M
51.474 147.265 L
52.123 144.352 L
52.18 131.648 L
51.474 128.154 L
51.474 129.596 L
51.474 131.648 L
51.474 141.633 L
cp
270.877 144.352 M
271.526 148.095 L
271.526 146.333 L
271.526 144.352 L
271.526 135.567 L
271.526 131.648 L
271.526 127.565 L
270.45 131.648 L
cp
51.474 30.007 M
51.474 39.617 L
55.044 30.007 L
57 25.798 L
68 28.928 L
72.133 30.007 L
79 31.076 L
90 31.927 L
101 34.064 L
112 33.867 L
123 32.229 L
134 31.512 L
145 30.133 L
145.744 30.007 L
156 26.548 L
166.458 22.472 L
156 22.472 L
154.372 22.472 L
149.637 22.472 L
145.229 22.472 L
145 22.472 L
136.739 22.472 L
134 22.472 L
125.457 22.472 L
123 22.472 L
117.599 22.472 L
112 24.719 L
101 23.767 L
96.001 22.472 L
91.881 22.472 L
90 22.472 L
81.555 22.472 L
79 22.472 L
77.405 22.472 L
69.297 22.472 L
68 22.472 L
64.467 22.472 L
61.892 22.472 L
57 22.472 L
56.204 22.472 L
55.469 22.472 L
53.629 22.472 L
51.474 27.699 L
cp
269.588 30.007 M
271.526 36.18 L
271.526 34.327 L
271.526 30.007 L
271.526 26.908 L
268.996 22.472 L
267.488 22.472 L
267.46 22.472 L
266 22.472 L
263.829 22.472 L
259.072 22.472 L
266 23.744 L
cp
f
GR
GS
0.047 GC
N
53.554 245.992 M
57 253.309 L
58.769 253.528 L
66.552 253.528 L
66.789 253.528 L
68 253.528 L
74.392 253.528 L
79 253.528 L
84.508 253.528 L
90 253.528 L
96.108 253.528 L
101 253.528 L
105.941 253.528 L
112 253.528 L
116.224 253.528 L
123 253.528 L
127.94 253.528 L
134 253.528 L
143.461 253.528 L
145 253.528 L
147.131 253.528 L
156 251.874 L
167 250.078 L
178 249.17 L
185.154 245.992 L
189 244.921 L
200 243.677 L
211 241.648 L
222 242.015 L
233 244.017 L
244 244.665 L
255 244.539 L
259.706 245.992 L
266 250.013 L
268.079 245.992 L
271.526 237.166 L
271.526 233.288 L
271.526 231.262 L
271.062 233.288 L
266 243.798 L
255 240.369 L
244 238.477 L
233 237.961 L
222 235.894 L
211 235.392 L
200 234.345 L
189 239.927 L
178 242.979 L
167 243.919 L
156 245.571 L
150.571 245.992 L
145 246.94 L
134 251.084 L
123 250.879 L
112 251.815 L
101 250.545 L
90 249.885 L
79 250.837 L
68 248.678 L
58.798 245.992 L
57 245.685 L
51.474 234.16 L
51.474 234.182 L
51.474 236.79 L
51.474 239.676 L
cp
271.121 157.057 M
271.526 159.116 L
271.526 158.478 L
271.526 157.057 L
271.526 153.307 L
271.526 148.095 L
270.877 144.352 L
270.45 131.648 L
271.526 127.565 L
271.526 123.83 L
271.526 120.644 L
267.175 131.648 L
267.816 144.352 L
cp
52.123 144.352 M
51.474 147.265 L
51.474 151.307 L
51.474 155.452 L
55.184 144.352 L
55.271 131.648 L
51.474 119.132 L
51.474 123.124 L
51.474 128.154 L
52.18 131.648 L
cp
176.813 144.352 M
178 145.021 L
181.892 144.352 L
178 142.813 L
cp
197.077 144.352 M
200 146.08 L
211 144.848 L
222 144.572 L
233 147.476 L
244 145.376 L
255 145.001 L
257.005 144.352 L
255 142.602 L
244 142.905 L
233 141.763 L
222 144.149 L
211 143.976 L
200 143.412 L
cp
75.108 131.648 M
79 132.843 L
90 133.429 L
101 135.904 L
112 134.062 L
122.53 131.648 L
112 126.888 L
101 127.687 L
90 129.766 L
79 130.945 L
cp
51.474 42.712 M
51.474 46.542 L
52.485 42.712 L
57 32.722 L
68 34.001 L
79 36.975 L
90 38.745 L
101 40.645 L
112 39.705 L
123 39.82 L
134 36.462 L
145 35.194 L
156 32.533 L
165.519 30.007 L
167 29.29 L
178 27.606 L
189 25.704 L
200 26.11 L
211 24.844 L
222 25.762 L
233 25.006 L
244 25.696 L
255 27.534 L
265.236 30.007 L
266 30.124 L
271.526 41.984 L
271.526 41.977 L
271.526 40.818 L
271.526 36.18 L
269.588 30.007 L
266 23.744 L
259.072 22.472 L
255.923 22.472 L
255 22.472 L
247.832 22.472 L
244 22.472 L
238.544 22.472 L
233 22.472 L
227.901 22.472 L
222 22.472 L
216.246 22.472 L
211 22.472 L
206.197 22.472 L
200 22.472 L
193.043 22.472 L
189 22.472 L
180.575 22.472 L
178 22.472 L
167.434 22.472 L
167 22.472 L
166.96 22.472 L
166.458 22.472 L
156 26.548 L
145.744 30.007 L
145 30.133 L
134 31.512 L
123 32.229 L
112 33.867 L
101 34.064 L
90 31.927 L
79 31.076 L
72.133 30.007 L
68 28.928 L
57 25.798 L
55.044 30.007 L
51.474 39.617 L
cp
f
GR
GS
0.063 GC
N
58.798 245.992 M
68 248.678 L
79 250.837 L
90 249.885 L
101 250.545 L
112 251.815 L
123 250.879 L
134 251.084 L
145 246.94 L
150.571 245.992 L
156 245.571 L
167 243.919 L
178 242.979 L
189 239.927 L
200 234.345 L
211 235.392 L
222 235.894 L
233 237.961 L
244 238.477 L
255 240.369 L
266 243.798 L
271.062 233.288 L
271.526 231.262 L
271.526 230.192 L
271.526 225.297 L
269.082 233.288 L
266 239.688 L
255 236.198 L
246.066 233.288 L
244 232.753 L
233 232.191 L
222 230.407 L
211 230.359 L
200 230.386 L
191.981 233.288 L
189 234.933 L
178 237.963 L
167 239.952 L
156 242.382 L
145 243.52 L
134 245.659 L
123 245.733 L
117.183 245.992 L
112 246.444 L
109.038 245.992 L
101 245.362 L
90 245.004 L
79 245.347 L
68 244.347 L
57 242.171 L
52.74 233.288 L
51.474 227.997 L
51.474 229.23 L
51.474 233.288 L
51.474 234.16 L
57 245.685 L
cp
51.474 157.057 M
51.474 161.617 L
52.583 157.057 L
57 146.025 L
68 144.727 L
79 144.502 L
83.09 144.352 L
90 143.505 L
93.189 144.352 L
101 144.962 L
106.207 144.352 L
112 142.434 L
119.06 144.352 L
123 144.73 L
127.849 144.352 L
134 142.428 L
141.269 144.352 L
145 144.678 L
156 146.222 L
167 145.605 L
178 151.799 L
189 155.464 L
190.84 157.057 L
200 159.229 L
211 158.264 L
217.116 157.057 L
222 155.212 L
227.341 157.057 L
233 157.887 L
235.921 157.057 L
244 153.122 L
255 149.909 L
266 146.912 L
269.161 157.057 L
271.526 166.061 L
271.526 163.791 L
271.526 159.116 L
271.121 157.057 L
267.816 144.352 L
267.175 131.648 L
271.526 120.644 L
271.526 118.942 L
271.526 114.783 L
270.599 118.942 L
266 129.33 L
255 131.066 L
245.551 131.648 L
244 131.958 L
233 132.032 L
222 134.248 L
211 132.116 L
209.054 131.648 L
200 131.107 L
189 131.201 L
178 130.649 L
167 130.363 L
156 128.967 L
145 125.519 L
134 123.747 L
123 121.613 L
119.301 118.942 L
112 116.543 L
101 118.261 L
91.41 118.942 L
90 119.125 L
79 123.829 L
68 126.221 L
57 129.439 L
53.222 118.942 L
51.474 111.084 L
51.474 113.284 L
51.474 118.942 L
51.474 119.073 L
51.474 119.132 L
55.271 131.648 L
55.184 144.352 L
51.474 155.452 L
cp
178 145.021 M
176.813 144.352 L
178 142.813 L
181.892 144.352 L
cp
200 146.08 M
197.077 144.352 L
200 143.412 L
211 143.976 L
222 144.149 L
233 141.763 L
244 142.905 L
255 142.602 L
257.005 144.352 L
255 145.001 L
244 145.376 L
233 147.476 L
222 144.572 L
211 144.848 L
cp
79 132.843 M
75.108 131.648 L
79 130.945 L
90 129.766 L
101 127.687 L
112 126.888 L
122.53 131.648 L
112 134.062 L
101 135.904 L
90 133.429 L
cp
52.485 42.712 M
51.474 46.542 L
51.474 48.269 L
51.474 51.723 L
54.647 42.712 L
57 37.506 L
68 38.484 L
78.689 42.712 L
79 42.818 L
90 44.509 L
101 45.594 L
112 45.393 L
123 44.874 L
130.723 42.712 L
134 41.412 L
145 40.254 L
156 36.38 L
167 33.545 L
178 31.99 L
189 30.582 L
200 31.031 L
211 30.098 L
222 30.894 L
233 30.344 L
244 30.845 L
255 31.701 L
266 33.797 L
270.154 42.712 L
271.526 48.289 L
271.526 47.01 L
271.526 42.712 L
271.526 41.984 L
266 30.124 L
265.236 30.007 L
255 27.534 L
244 25.696 L
233 25.006 L
222 25.762 L
211 24.844 L
200 26.11 L
189 25.704 L
178 27.606 L
167 29.29 L
165.519 30.007 L
156 32.533 L
145 35.194 L
134 36.462 L
123 39.82 L
112 39.705 L
101 40.645 L
90 38.745 L
79 36.975 L
68 34.001 L
57 32.722 L
cp
f
GR
GS
0.094 GC
N
109.038 245.992 M
112 246.444 L
117.183 245.992 L
123 245.733 L
134 245.659 L
145 243.52 L
156 242.382 L
167 239.952 L
178 237.963 L
189 234.933 L
191.981 233.288 L
200 230.386 L
211 230.359 L
222 230.407 L
233 232.191 L
244 232.753 L
246.066 233.288 L
255 236.198 L
266 239.688 L
269.082 233.288 L
271.526 225.297 L
271.526 222.499 L
271.526 221.718 L
267.103 233.288 L
266 235.577 L
258.868 233.288 L
255 232.463 L
244 229.444 L
233 227.387 L
222 225.392 L
211 225.946 L
200 227.115 L
189 230.522 L
178 233.085 L
177.002 233.288 L
167 235.984 L
156 239.192 L
145 240.659 L
134 242.496 L
123 242.983 L
112 243.468 L
101 242.598 L
90 242.434 L
79 242.374 L
68 241.367 L
57 238.657 L
54.425 233.288 L
51.474 223.423 L
51.474 225.353 L
51.474 227.997 L
52.74 233.288 L
57 242.171 L
68 244.347 L
79 245.347 L
90 245.004 L
101 245.362 L
cp
271.373 169.762 M
271.526 170.692 L
271.526 170.457 L
271.526 169.762 L
271.526 167.43 L
271.526 166.061 L
269.161 157.057 L
266 146.912 L
255 149.909 L
244 153.122 L
235.921 157.057 L
233 157.887 L
227.341 157.057 L
222 155.212 L
217.116 157.057 L
211 158.264 L
200 159.229 L
190.84 157.057 L
189 155.464 L
178 151.799 L
167 145.605 L
156 146.222 L
145 144.678 L
141.269 144.352 L
134 142.428 L
127.849 144.352 L
123 144.73 L
119.06 144.352 L
112 142.434 L
106.207 144.352 L
101 144.962 L
93.189 144.352 L
90 143.505 L
83.09 144.352 L
79 144.502 L
68 144.727 L
57 146.025 L
52.583 157.057 L
51.474 161.617 L
51.474 163.413 L
51.474 166.118 L
54.228 157.057 L
57 150.135 L
68 148.274 L
79 147.506 L
90 147.561 L
101 147.919 L
112 146.384 L
123 147.679 L
134 147.564 L
145 148.591 L
156 150.946 L
167 152.423 L
175.274 157.057 L
178 157.799 L
189 159.978 L
200 162.937 L
211 163.818 L
222 162.94 L
233 162.406 L
244 159.043 L
249.704 157.057 L
255 154.816 L
266 153.202 L
267.201 157.057 L
cp
209.054 131.648 M
211 132.116 L
222 134.248 L
233 132.032 L
244 131.958 L
245.551 131.648 L
255 131.066 L
266 129.33 L
270.599 118.942 L
271.526 114.783 L
271.526 112.871 L
271.526 109.873 L
268.999 118.942 L
266 125.715 L
255 127.698 L
244 128.557 L
233 128.8 L
222 129.5 L
211 128.836 L
200 128.165 L
189 127.381 L
178 127.135 L
167 125.658 L
156 123.907 L
146.61 118.942 L
145 118.409 L
134 116.617 L
123 115.445 L
112 111.915 L
101 112.422 L
90 114.622 L
79 117.554 L
70.653 118.942 L
68 119.602 L
57 124.423 L
55.027 118.942 L
51.495 106.238 L
51.474 106.106 L
51.474 106.139 L
51.474 106.238 L
51.474 109.195 L
51.474 111.084 L
53.222 118.942 L
57 129.439 L
68 126.221 L
79 123.829 L
90 119.125 L
91.41 118.942 L
101 118.261 L
112 116.543 L
119.301 118.942 L
123 121.613 L
134 123.747 L
145 125.519 L
156 128.967 L
167 130.363 L
178 130.649 L
189 131.201 L
200 131.107 L
cp
54.647 42.712 M
51.474 51.723 L
51.474 54.462 L
51.474 54.831 L
56.809 42.712 L
57 42.29 L
63.704 42.712 L
68 42.889 L
79 46.665 L
90 48.805 L
101 49.795 L
112 50.92 L
123 48.366 L
134 45.833 L
145 44.172 L
149.874 42.712 L
156 40.226 L
167 37.484 L
178 35.252 L
189 33.532 L
200 33.48 L
211 32.431 L
222 33.684 L
233 32.767 L
244 33.914 L
255 34.651 L
266 37.47 L
268.443 42.712 L
271.526 52.738 L
271.526 50.811 L
271.526 48.289 L
270.154 42.712 L
266 33.797 L
255 31.701 L
244 30.845 L
233 30.344 L
222 30.894 L
211 30.098 L
200 31.031 L
189 30.582 L
178 31.99 L
167 33.545 L
156 36.38 L
145 40.254 L
134 41.412 L
130.723 42.712 L
123 44.874 L
112 45.393 L
101 45.594 L
90 44.509 L
79 42.818 L
78.689 42.712 L
68 38.484 L
57 37.506 L
cp
f
GR
GS
0.125 GC
N
54.425 233.288 M
57 238.657 L
68 241.367 L
79 242.374 L
90 242.434 L
101 242.598 L
112 243.468 L
123 242.983 L
134 242.496 L
145 240.659 L
156 239.192 L
167 235.984 L
177.002 233.288 L
178 233.085 L
189 230.522 L
200 227.115 L
211 225.946 L
222 225.392 L
233 227.387 L
244 229.444 L
255 232.463 L
258.868 233.288 L
266 235.577 L
267.103 233.288 L
271.526 221.718 L
271.526 220.583 L
271.526 216.473 L
270.952 220.583 L
266 232.237 L
255 229.732 L
244 226.134 L
233 222.582 L
222.991 220.583 L
222 220.421 L
220.234 220.583 L
211 221.533 L
200 223.843 L
189 226.397 L
178 230.096 L
167 232.507 L
163.994 233.288 L
156 236.003 L
145 237.798 L
134 239.333 L
123 240.233 L
112 240.711 L
101 239.835 L
90 239.864 L
79 239.401 L
68 238.386 L
57 235.143 L
56.11 233.288 L
51.548 220.583 L
51.474 220.065 L
51.474 220.196 L
51.474 220.583 L
51.474 222.551 L
51.474 223.423 L
cp
217.938 169.762 M
222 169.932 L
222.677 169.762 L
233 166.924 L
244 163.081 L
255 158.915 L
266 158.239 L
270.248 169.762 L
271.526 176.242 L
271.526 174.815 L
271.526 170.692 L
271.373 169.762 L
267.201 157.057 L
266 153.202 L
255 154.816 L
249.704 157.057 L
244 159.043 L
233 162.406 L
222 162.94 L
211 163.818 L
200 162.937 L
189 159.978 L
178 157.799 L
175.274 157.057 L
167 152.423 L
156 150.946 L
145 148.591 L
134 147.564 L
123 147.679 L
112 146.384 L
101 147.919 L
90 147.561 L
79 147.506 L
68 148.274 L
57 150.135 L
54.228 157.057 L
51.474 166.118 L
51.474 168.764 L
51.474 169.118 L
55.874 157.057 L
57 154.246 L
68 151.821 L
79 150.51 L
90 151.064 L
101 150.876 L
112 149.02 L
123 150.629 L
134 151.398 L
145 152.503 L
156 155.671 L
161.262 157.057 L
167 157.877 L
178 161.109 L
189 163.288 L
200 166.646 L
211 169.372 L
cp
55.027 118.942 M
57 124.423 L
68 119.602 L
70.653 118.942 L
79 117.554 L
90 114.622 L
101 112.422 L
112 111.915 L
123 115.445 L
134 116.617 L
145 118.409 L
146.61 118.942 L
156 123.907 L
167 125.658 L
178 127.135 L
189 127.381 L
200 128.165 L
211 128.836 L
222 129.5 L
233 128.8 L
244 128.557 L
255 127.698 L
266 125.715 L
268.999 118.942 L
271.526 109.873 L
271.526 106.819 L
271.526 106.6 L
267.398 118.942 L
266 122.101 L
255 124.329 L
244 125.377 L
233 125.835 L
222 126.588 L
211 125.909 L
200 125.223 L
189 123.56 L
178 123.621 L
167 120.954 L
156.465 118.942 L
156 118.883 L
145 115.237 L
134 111.419 L
123 110.701 L
112 107.286 L
101 106.583 L
90 110.226 L
79 113.124 L
68 115.32 L
58.027 118.942 L
57 119.407 L
56.833 118.942 L
52.594 106.238 L
51.474 100.399 L
51.474 101.691 L
51.474 106.106 L
51.495 106.238 L
cp
51.474 55.417 M
51.474 60.091 L
52.259 55.417 L
57 44.835 L
68 46.009 L
79 50.511 L
90 53.101 L
101 53.997 L
108.093 55.417 L
112 56.02 L
113.7 55.417 L
123 51.859 L
134 50.066 L
145 47.012 L
156 43.642 L
161.715 42.712 L
167 41.424 L
178 38.515 L
189 36.482 L
200 35.928 L
211 34.764 L
222 36.475 L
233 35.189 L
244 36.983 L
255 37.601 L
266 41.143 L
266.732 42.712 L
271.42 55.417 L
271.526 56.046 L
271.526 55.913 L
271.526 55.417 L
271.526 53.554 L
271.526 52.738 L
268.443 42.712 L
266 37.47 L
255 34.651 L
244 33.914 L
233 32.767 L
222 33.684 L
211 32.431 L
200 33.48 L
189 33.532 L
178 35.252 L
167 37.484 L
156 40.226 L
149.874 42.712 L
145 44.172 L
134 45.833 L
123 48.366 L
112 50.92 L
101 49.795 L
90 48.805 L
79 46.665 L
68 42.889 L
63.704 42.712 L
57 42.29 L
56.809 42.712 L
51.474 54.831 L
cp
f
GR
GS
0.141 GC
N
56.11 233.288 M
57 235.143 L
68 238.386 L
79 239.401 L
90 239.864 L
101 239.835 L
112 240.711 L
123 240.233 L
134 239.333 L
145 237.798 L
156 236.003 L
163.994 233.288 L
167 232.507 L
178 230.096 L
189 226.397 L
200 223.843 L
211 221.533 L
220.234 220.583 L
222 220.421 L
222.991 220.583 L
233 222.582 L
244 226.134 L
255 229.732 L
266 232.237 L
270.952 220.583 L
271.526 216.473 L
271.526 213.716 L
271.526 210.873 L
269.944 220.583 L
266 229.865 L
255 227.002 L
244 222.824 L
238.092 220.583 L
233 218.563 L
222 216.495 L
211 217.682 L
200 220.567 L
199.909 220.583 L
189 222.272 L
178 227.108 L
167 230.069 L
156 232.947 L
153.748 233.288 L
145 234.938 L
134 236.171 L
123 237.482 L
112 237.954 L
101 237.071 L
90 237.294 L
79 236.429 L
68 235.406 L
61.39 233.288 L
57 232.17 L
52.473 220.583 L
51.474 214.646 L
51.474 215.979 L
51.474 220.065 L
51.548 220.583 L
cp
51.474 169.762 M
51.474 174.152 L
52.112 169.762 L
57 157.736 L
61.386 157.057 L
68 155.368 L
79 153.514 L
90 154.568 L
101 153.834 L
112 151.655 L
123 153.579 L
134 155.231 L
145 156.416 L
147.072 157.057 L
156 158.673 L
167 160.435 L
178 164.419 L
189 166.598 L
198.426 169.762 L
200 170.407 L
211 173.123 L
222 174.058 L
233 171.145 L
236.982 169.762 L
244 167.118 L
255 162.334 L
266 161.292 L
269.123 169.762 L
271.526 180.207 L
271.526 178.172 L
271.526 176.242 L
270.248 169.762 L
266 158.239 L
255 158.915 L
244 163.081 L
233 166.924 L
222.677 169.762 L
222 169.932 L
217.938 169.762 L
211 169.372 L
200 166.646 L
189 163.288 L
178 161.109 L
167 157.877 L
161.262 157.057 L
156 155.671 L
145 152.503 L
134 151.398 L
123 150.629 L
112 149.02 L
101 150.876 L
90 151.064 L
79 150.51 L
68 151.821 L
57 154.246 L
55.874 157.057 L
51.474 169.118 L
cp
56.833 118.942 M
57 119.407 L
58.027 118.942 L
68 115.32 L
79 113.124 L
90 110.226 L
101 106.583 L
112 107.286 L
123 110.701 L
134 111.419 L
145 115.237 L
156 118.883 L
156.465 118.942 L
167 120.954 L
178 123.621 L
189 123.56 L
200 125.223 L
211 125.909 L
222 126.588 L
233 125.835 L
244 125.377 L
255 124.329 L
266 122.101 L
267.398 118.942 L
271.526 106.6 L
271.526 106.238 L
271.526 101.342 L
270.755 106.238 L
266 118.649 L
264.086 118.942 L
255 120.961 L
244 122.197 L
233 122.87 L
222 123.677 L
211 122.982 L
200 122.281 L
189 119.739 L
178 120.107 L
173.968 118.942 L
167 117.607 L
156 115.756 L
145 112.066 L
134.021 106.238 L
134 106.227 L
123 105.934 L
112 102.729 L
101 102.88 L
90 105.895 L
88.424 106.238 L
79 108.694 L
68 111.297 L
57 115.999 L
53.693 106.238 L
51.474 96.323 L
51.474 98.265 L
51.474 100.399 L
52.594 106.238 L
cp
52.259 55.417 M
51.474 60.091 L
51.474 62.311 L
51.474 64.746 L
53.302 55.417 L
57 47.163 L
68 49.128 L
79 54.358 L
83.115 55.417 L
90 57.078 L
101 58.384 L
112 59.255 L
122.828 55.417 L
123 55.352 L
134 54.299 L
145 49.851 L
156 46.272 L
167 44.091 L
174.714 42.712 L
178 41.777 L
189 39.431 L
200 38.377 L
211 37.097 L
222 39.266 L
233 37.612 L
244 40.052 L
255 40.55 L
261.176 42.712 L
266 44.059 L
270.49 55.417 L
271.526 60.677 L
271.526 59.698 L
271.526 56.046 L
271.42 55.417 L
266.732 42.712 L
266 41.143 L
255 37.601 L
244 36.983 L
233 35.189 L
222 36.475 L
211 34.764 L
200 35.928 L
189 36.482 L
178 38.515 L
167 41.424 L
161.715 42.712 L
156 43.642 L
145 47.012 L
134 50.066 L
123 51.859 L
113.7 55.417 L
112 56.02 L
108.093 55.417 L
101 53.997 L
90 53.101 L
79 50.511 L
68 46.009 L
57 44.835 L
cp
f
GR
GS
0.173 GC
N
61.39 233.288 M
68 235.406 L
79 236.429 L
90 237.294 L
101 237.071 L
112 237.954 L
123 237.482 L
134 236.171 L
145 234.938 L
153.748 233.288 L
156 232.947 L
167 230.069 L
178 227.108 L
189 222.272 L
199.909 220.583 L
200 220.567 L
211 217.682 L
222 216.495 L
233 218.563 L
238.092 220.583 L
244 222.824 L
255 227.002 L
266 229.865 L
269.944 220.583 L
271.526 210.873 L
271.526 207.878 L
271.526 204.432 L
271.302 207.878 L
268.936 220.583 L
266 227.493 L
255 224.271 L
246.121 220.583 L
244 219.615 L
233 215.102 L
222 212.569 L
211 213.986 L
200 216.067 L
189 218.678 L
185.339 220.583 L
178 224.12 L
167 227.631 L
156 230.656 L
145 232.43 L
134 233.144 L
132.415 233.288 L
123 234.732 L
112 235.197 L
101 234.308 L
90 234.724 L
79 233.456 L
77.199 233.288 L
68 232.664 L
57 229.803 L
53.398 220.583 L
51.474 210.581 L
51.474 212.603 L
51.474 214.646 L
52.473 220.583 L
57 232.17 L
cp
271.339 182.467 M
271.526 185.482 L
271.526 184.17 L
271.526 182.467 L
271.526 180.835 L
271.526 180.207 L
269.123 169.762 L
266 161.292 L
255 162.334 L
244 167.118 L
236.982 169.762 L
233 171.145 L
222 174.058 L
211 173.123 L
200 170.407 L
198.426 169.762 L
189 166.598 L
178 164.419 L
167 160.435 L
156 158.673 L
147.072 157.057 L
145 156.416 L
134 155.231 L
123 153.579 L
112 151.655 L
101 153.834 L
90 154.568 L
79 153.514 L
68 155.368 L
61.386 157.057 L
57 157.736 L
52.112 169.762 L
51.474 174.152 L
51.474 176.312 L
51.474 178.858 L
52.985 169.762 L
57 159.884 L
68 158.085 L
76.193 157.057 L
79 156.519 L
83.211 157.057 L
90 157.52 L
98.387 157.057 L
101 156.791 L
112 154.291 L
123 156.528 L
125.807 157.057 L
134 158.011 L
145 158.909 L
156 160.959 L
167 162.994 L
178 167.728 L
188.269 169.762 L
189 169.94 L
200 174.445 L
211 176.737 L
222 178.183 L
233 174.866 L
244 170.928 L
246.501 169.762 L
255 165.753 L
266 164.344 L
267.998 169.762 L
cp
173.968 118.942 M
178 120.107 L
189 119.739 L
200 122.281 L
211 122.982 L
222 123.677 L
233 122.87 L
244 122.197 L
255 120.961 L
264.086 118.942 L
266 118.649 L
270.755 106.238 L
271.526 101.342 L
271.526 99.215 L
271.526 96.998 L
269.863 106.238 L
266 116.32 L
255 118.066 L
244.601 118.942 L
244 119.016 L
233 119.905 L
222 120.765 L
211 120.055 L
200 119.339 L
198.399 118.942 L
189 117.757 L
178 117.607 L
167 115.274 L
156 112.628 L
145 108.894 L
139.995 106.238 L
134 103.166 L
123 100.805 L
112 98.193 L
101 99.311 L
90 102.198 L
79 104.784 L
72.029 106.238 L
68 107.274 L
57 112.756 L
54.792 106.238 L
51.542 93.533 L
51.474 92.602 L
51.474 92.958 L
51.474 93.533 L
51.474 95.545 L
51.474 96.323 L
53.693 106.238 L
57 115.999 L
68 111.297 L
79 108.694 L
88.424 106.238 L
90 105.895 L
101 102.88 L
112 102.729 L
123 105.934 L
134 106.227 L
134.021 106.238 L
145 112.066 L
156 115.756 L
167 117.607 L
cp
51.474 68.122 M
51.474 68.489 L
51.499 68.122 L
54.345 55.417 L
57 49.492 L
68 52.247 L
74.422 55.417 L
79 57.516 L
90 60.681 L
101 62.867 L
112 62.489 L
123 59.056 L
134 57.948 L
138.771 55.417 L
145 52.69 L
156 48.901 L
167 46.138 L
178 43.989 L
187.502 42.712 L
189 42.381 L
200 40.825 L
211 39.43 L
222 42.056 L
233 40.034 L
242.818 42.712 L
244 42.943 L
255 43.24 L
266 46.412 L
269.56 55.417 L
271.526 64.151 L
271.526 62.694 L
271.526 60.677 L
270.49 55.417 L
266 44.059 L
261.176 42.712 L
255 40.55 L
244 40.052 L
233 37.612 L
222 39.266 L
211 37.097 L
200 38.377 L
189 39.431 L
178 41.777 L
174.714 42.712 L
167 44.091 L
156 46.272 L
145 49.851 L
134 54.299 L
123 55.352 L
122.828 55.417 L
112 59.255 L
101 58.384 L
90 57.078 L
83.115 55.417 L
79 54.358 L
68 49.128 L
57 47.163 L
53.302 55.417 L
51.474 64.746 L
cp
f
GR
GS
0.204 GC
N
77.199 233.288 M
79 233.456 L
90 234.724 L
101 234.308 L
112 235.197 L
123 234.732 L
132.415 233.288 L
134 233.144 L
145 232.43 L
156 230.656 L
167 227.631 L
178 224.12 L
185.339 220.583 L
189 218.678 L
200 216.067 L
211 213.986 L
222 212.569 L
233 215.102 L
244 219.615 L
246.121 220.583 L
255 224.271 L
266 227.493 L
268.936 220.583 L
271.302 207.878 L
271.526 204.432 L
271.526 195.173 L
271.526 190.06 L
271.526 185.482 L
271.339 182.467 L
267.998 169.762 L
266 164.344 L
255 165.753 L
246.501 169.762 L
244 170.928 L
233 174.866 L
222 178.183 L
211 176.737 L
200 174.445 L
189 169.94 L
188.269 169.762 L
178 167.728 L
167 162.994 L
156 160.959 L
145 158.909 L
134 158.011 L
125.807 157.057 L
123 156.528 L
112 154.291 L
101 156.791 L
98.387 157.057 L
90 157.52 L
83.211 157.057 L
79 156.519 L
76.193 157.057 L
68 158.085 L
57 159.884 L
52.985 169.762 L
51.474 178.858 L
51.474 182.467 L
51.474 182.608 L
51.483 182.467 L
53.858 169.762 L
57 162.033 L
68 160.048 L
79 158.548 L
90 159.119 L
101 158.604 L
111.429 157.057 L
112 156.926 L
112.629 157.057 L
123 158.477 L
134 159.833 L
145 161.125 L
156 163.245 L
167 165.552 L
175.913 169.762 L
178 170.815 L
189 173.992 L
200 178.482 L
211 180.352 L
222 182.308 L
233 178.587 L
244 174.307 L
253.749 169.762 L
255 169.173 L
266 167.397 L
266.872 169.762 L
270.631 182.467 L
271.52 195.173 L
270.59 207.878 L
267.928 220.583 L
266 225.121 L
255 221.541 L
252.693 220.583 L
244 216.619 L
233 211.641 L
222 208.643 L
211 210.289 L
200 211.567 L
189 215.452 L
179.139 220.583 L
178 221.131 L
167 225.193 L
156 228.366 L
145 230.404 L
134 231.517 L
123 232.513 L
112 232.795 L
101 232.385 L
90 232.539 L
79 231.758 L
68 230.507 L
57 227.436 L
54.323 220.583 L
51.573 207.878 L
51.474 206.549 L
51.474 207.016 L
51.474 207.878 L
51.474 209.839 L
51.474 210.581 L
53.398 220.583 L
57 229.803 L
68 232.664 L
cp
198.399 118.942 M
200 119.339 L
211 120.055 L
222 120.765 L
233 119.905 L
244 119.016 L
244.601 118.942 L
255 118.066 L
266 116.32 L
269.863 106.238 L
271.526 96.998 L
271.526 93.665 L
271.526 93.619 L
268.971 106.238 L
266 113.992 L
255 115.881 L
244 117.169 L
233 117.743 L
222 118.273 L
211 117.947 L
200 117.468 L
189 116.259 L
178 115.609 L
167 112.94 L
156 109.5 L
146.481 106.238 L
145 105.788 L
134 100.106 L
123 95.676 L
112 93.657 L
101 95.741 L
90 98.502 L
79 101.522 L
68 104.064 L
63.338 106.238 L
57 109.512 L
55.891 106.238 L
52.235 93.533 L
51.474 84.294 L
51.474 87.576 L
51.474 92.602 L
51.542 93.533 L
54.792 106.238 L
57 112.756 L
68 107.274 L
72.029 106.238 L
79 104.784 L
90 102.198 L
101 99.311 L
112 98.193 L
123 100.805 L
134 103.166 L
139.995 106.238 L
145 108.894 L
156 112.628 L
167 115.274 L
178 117.607 L
189 117.757 L
cp
51.499 68.122 M
51.474 68.489 L
51.474 69.169 L
51.474 77.195 L
52.187 68.122 L
55.388 55.417 L
57 51.82 L
68 55.367 L
68.103 55.417 L
79 60.413 L
90 64.284 L
101 67.349 L
112 65.724 L
123 62.765 L
134 61.388 L
145 55.526 L
145.286 55.417 L
156 51.531 L
167 48.186 L
178 45.78 L
189 44.291 L
200 43.082 L
203.964 42.712 L
211 41.763 L
214.82 42.712 L
222 43.808 L
231.666 42.712 L
233 42.457 L
233.938 42.712 L
244 44.673 L
255 45.217 L
266 48.764 L
268.63 55.417 L
271.526 66.852 L
271.526 65.125 L
271.526 64.151 L
269.56 55.417 L
266 46.412 L
255 43.24 L
244 42.943 L
242.818 42.712 L
233 40.034 L
222 42.056 L
211 39.43 L
200 40.825 L
189 42.381 L
187.502 42.712 L
178 43.989 L
167 46.138 L
156 48.901 L
145 52.69 L
138.771 55.417 L
134 57.948 L
123 59.056 L
112 62.489 L
101 62.867 L
90 60.681 L
79 57.516 L
74.422 55.417 L
68 52.247 L
57 49.492 L
54.345 55.417 L
cp
f
GR
GS
0.22 GC
N
54.323 220.583 M
57 227.436 L
68 230.507 L
79 231.758 L
90 232.539 L
101 232.385 L
112 232.795 L
123 232.513 L
134 231.517 L
145 230.404 L
156 228.366 L
167 225.193 L
178 221.131 L
179.139 220.583 L
189 215.452 L
200 211.567 L
211 210.289 L
222 208.643 L
233 211.641 L
244 216.619 L
252.693 220.583 L
255 221.541 L
266 225.121 L
267.928 220.583 L
270.59 207.878 L
271.52 195.173 L
270.631 182.467 L
266.872 169.762 L
266 167.397 L
255 169.173 L
253.749 169.762 L
244 174.307 L
233 178.587 L
222 182.308 L
211 180.352 L
200 178.482 L
189 173.992 L
178 170.815 L
175.913 169.762 L
167 165.552 L
156 163.245 L
145 161.125 L
134 159.833 L
123 158.477 L
112.629 157.057 L
112 156.926 L
111.429 157.057 L
101 158.604 L
90 159.119 L
79 158.548 L
68 160.048 L
57 162.033 L
53.858 169.762 L
51.483 182.467 L
51.474 182.608 L
51.474 182.818 L
51.474 190.717 L
52.093 182.467 L
54.731 169.762 L
57 164.181 L
68 162.011 L
79 160.364 L
90 160.718 L
101 160.303 L
112 158.942 L
123 160.208 L
134 161.655 L
145 163.34 L
156 165.531 L
167 168.111 L
170.496 169.762 L
178 173.545 L
189 178.044 L
199.872 182.467 L
200 182.565 L
211 187.334 L
222 194.237 L
232.53 182.467 L
233 182.308 L
244 177.685 L
255 172.409 L
266 170.258 L
269.923 182.467 L
270.911 195.173 L
269.877 207.878 L
266.921 220.583 L
266 222.749 L
259.569 220.583 L
255 218.591 L
244 213.623 L
233 208.18 L
231.921 207.878 L
222 196.274 L
211 203.528 L
200 206.634 L
198.703 207.878 L
189 212.227 L
178 217.964 L
172.741 220.583 L
167 222.755 L
156 226.075 L
145 228.378 L
134 229.891 L
123 230.882 L
112 231.194 L
101 230.955 L
90 230.842 L
79 230.136 L
68 228.351 L
57 225.069 L
55.247 220.583 L
52.192 207.878 L
51.474 199.207 L
51.474 202.052 L
51.474 206.549 L
51.573 207.878 L
cp
55.891 106.238 M
57 109.512 L
63.338 106.238 L
68 104.064 L
79 101.522 L
90 98.502 L
101 95.741 L
112 93.657 L
123 95.676 L
134 100.106 L
145 105.788 L
146.481 106.238 L
156 109.5 L
167 112.94 L
178 115.609 L
189 116.259 L
200 117.468 L
211 117.947 L
222 118.273 L
233 117.743 L
244 117.169 L
255 115.881 L
266 113.992 L
268.971 106.238 L
271.526 93.619 L
271.526 93.533 L
271.526 84.923 L
270.937 93.533 L
268.079 106.238 L
266 111.664 L
255 113.696 L
244 115.353 L
233 115.966 L
222 116.482 L
211 116.341 L
200 115.763 L
189 114.761 L
178 113.612 L
167 110.607 L
156 106.372 L
155.608 106.238 L
145 103.018 L
134 97.045 L
126.701 93.533 L
123 89.851 L
112 86.342 L
101 90.142 L
95.22 93.533 L
90 94.805 L
79 98.259 L
68 101.137 L
57.059 106.238 L
57 106.268 L
56.99 106.238 L
52.927 93.533 L
51.765 80.827 L
52.874 68.122 L
56.431 55.417 L
57 54.148 L
60.922 55.417 L
68 58.327 L
79 63.311 L
90 67.887 L
90.804 68.122 L
101 73.73 L
112 71.391 L
116.043 68.122 L
123 66.473 L
134 64.827 L
145 58.269 L
152.535 55.417 L
156 54.16 L
167 50.234 L
178 47.57 L
189 46.07 L
200 44.692 L
211 43.809 L
222 45.24 L
233 44.324 L
244 46.403 L
255 47.194 L
266 51.117 L
267.7 55.417 L
271.275 68.122 L
271.526 74.125 L
271.526 71.156 L
271.526 68.122 L
271.526 67.137 L
271.526 66.852 L
268.63 55.417 L
266 48.764 L
255 45.217 L
244 44.673 L
233.938 42.712 L
233 42.457 L
231.666 42.712 L
222 43.808 L
214.82 42.712 L
211 41.763 L
203.964 42.712 L
200 43.082 L
189 44.291 L
178 45.78 L
167 48.186 L
156 51.531 L
145.286 55.417 L
145 55.526 L
134 61.388 L
123 62.765 L
112 65.724 L
101 67.349 L
90 64.284 L
79 60.413 L
68.103 55.417 L
68 55.367 L
57 51.82 L
55.388 55.417 L
52.187 68.122 L
51.474 77.195 L
51.474 80.827 L
51.474 82.913 L
51.474 84.294 L
52.235 93.533 L
cp
f
GR
GS
0.251 GC
N
55.247 220.583 M
57 225.069 L
68 228.351 L
79 230.136 L
90 230.842 L
101 230.955 L
112 231.194 L
123 230.882 L
134 229.891 L
145 228.378 L
156 226.075 L
167 222.755 L
172.741 220.583 L
178 217.964 L
189 212.227 L
198.703 207.878 L
200 206.634 L
211 203.528 L
222 196.274 L
231.921 207.878 L
233 208.18 L
244 213.623 L
255 218.591 L
259.569 220.583 L
266 222.749 L
266.921 220.583 L
269.877 207.878 L
270.911 195.173 L
269.923 182.467 L
266 170.258 L
255 172.409 L
244 177.685 L
233 182.308 L
232.53 182.467 L
222 194.237 L
211 187.334 L
200 182.565 L
199.872 182.467 L
189 178.044 L
178 173.545 L
170.496 169.762 L
167 168.111 L
156 165.531 L
145 163.34 L
134 161.655 L
123 160.208 L
112 158.942 L
101 160.303 L
90 160.718 L
79 160.364 L
68 162.011 L
57 164.181 L
54.731 169.762 L
52.093 182.467 L
51.474 190.717 L
51.474 195.173 L
51.474 197.713 L
51.474 199.207 L
52.192 207.878 L
cp
57 222.702 M
56.172 220.583 L
52.811 207.878 L
51.654 195.173 L
52.702 182.467 L
55.604 169.762 L
57 166.329 L
68 163.974 L
79 162.179 L
90 162.317 L
101 162.002 L
112 160.926 L
123 161.938 L
134 163.476 L
145 165.555 L
156 167.818 L
163.764 169.762 L
167 170.634 L
178 176.276 L
189 182.095 L
189.915 182.467 L
200 190.156 L
207.321 195.173 L
200 199.733 L
191.508 207.878 L
189 209.002 L
178 214.757 L
167 220.319 L
166.204 220.583 L
156 223.784 L
145 226.352 L
134 228.264 L
123 229.251 L
112 229.593 L
101 229.524 L
90 229.145 L
79 228.514 L
68 226.195 L
cp
244 210.627 M
238.485 207.878 L
233 197.167 L
231.29 195.173 L
233 193.257 L
240.67 182.467 L
244 181.064 L
255 175.607 L
266 172.46 L
269.216 182.467 L
270.302 195.173 L
269.165 207.878 L
266 220.339 L
255 215.522 L
cp
56.99 106.238 M
57 106.268 L
57.059 106.238 L
68 101.137 L
79 98.259 L
90 94.805 L
95.22 93.533 L
101 90.142 L
112 86.342 L
123 89.851 L
126.701 93.533 L
134 97.045 L
145 103.018 L
155.608 106.238 L
156 106.372 L
167 110.607 L
178 113.612 L
189 114.761 L
200 115.763 L
211 116.341 L
222 116.482 L
233 115.966 L
244 115.353 L
255 113.696 L
266 111.664 L
268.079 106.238 L
270.937 93.533 L
271.526 84.923 L
271.526 80.827 L
271.526 77.603 L
271.526 74.125 L
271.275 68.122 L
267.7 55.417 L
266 51.117 L
255 47.194 L
244 46.403 L
233 44.324 L
222 45.24 L
211 43.809 L
200 44.692 L
189 46.07 L
178 47.57 L
167 50.234 L
156 54.16 L
152.535 55.417 L
145 58.269 L
134 64.827 L
123 66.473 L
116.043 68.122 L
112 71.391 L
101 73.73 L
90.804 68.122 L
90 67.887 L
79 63.311 L
68 58.327 L
60.922 55.417 L
57 54.148 L
56.431 55.417 L
52.874 68.122 L
51.765 80.827 L
52.927 93.533 L
cp
167 108.274 M
161.753 106.238 L
156 104.023 L
145 100.248 L
134 93.984 L
133.061 93.533 L
123 83.526 L
116.106 80.827 L
123 75.308 L
134 68.403 L
134.176 68.122 L
145 61.013 L
156 56.467 L
158.796 55.417 L
167 52.282 L
178 49.36 L
189 47.849 L
200 46.302 L
211 45.657 L
222 46.672 L
233 46.125 L
244 48.134 L
255 49.17 L
266 53.469 L
266.77 55.417 L
270.703 68.122 L
271.287 80.827 L
270.331 93.533 L
267.187 106.238 L
266 109.335 L
255 111.51 L
244 113.537 L
233 114.19 L
222 114.692 L
211 114.736 L
200 114.059 L
189 113.263 L
178 111.614 L
cp
57 104.093 M
53.62 93.533 L
52.341 80.827 L
53.562 68.122 L
57 56.477 L
68 61.284 L
79 66.208 L
83.556 68.122 L
90 78.983 L
101 80.508 L
102.724 80.827 L
101 81.247 L
90 83.304 L
83.47 93.533 L
79 94.997 L
68 98.211 L
cp
f
GR
GS
0.282 GC
N
56.172 220.583 M
57 222.702 L
68 226.195 L
79 228.514 L
90 229.145 L
101 229.524 L
112 229.593 L
123 229.251 L
134 228.264 L
145 226.352 L
156 223.784 L
166.204 220.583 L
167 220.319 L
178 214.757 L
189 209.002 L
191.508 207.878 L
200 199.733 L
207.321 195.173 L
200 190.156 L
189.915 182.467 L
189 182.095 L
178 176.276 L
167 170.634 L
163.764 169.762 L
156 167.818 L
145 165.555 L
134 163.476 L
123 161.938 L
112 160.926 L
101 162.002 L
90 162.317 L
79 162.179 L
68 163.974 L
57 166.329 L
55.604 169.762 L
52.702 182.467 L
51.654 195.173 L
52.811 207.878 L
cp
68 224.038 M
57.675 220.583 L
57 220.356 L
53.43 207.878 L
52.167 195.173 L
53.311 182.467 L
56.478 169.762 L
57 168.477 L
68 165.938 L
79 163.995 L
90 163.917 L
101 163.702 L
112 162.909 L
123 163.668 L
134 165.298 L
145 167.77 L
154.434 169.762 L
156 170.057 L
167 173.093 L
178 179.006 L
184.409 182.467 L
189 188.622 L
197.143 195.173 L
189 202.762 L
185.011 207.878 L
178 211.55 L
167 217.902 L
158.902 220.583 L
156 221.493 L
145 224.327 L
134 226.638 L
123 227.62 L
112 227.991 L
101 228.094 L
90 227.448 L
79 226.892 L
cp
238.485 207.878 M
244 210.627 L
255 215.522 L
266 220.339 L
269.165 207.878 L
270.302 195.173 L
269.216 182.467 L
266 172.46 L
255 175.607 L
244 181.064 L
240.67 182.467 L
233 193.257 L
231.29 195.173 L
233 197.167 L
cp
255 212.453 M
244.576 207.878 L
244 207.378 L
236.209 195.173 L
244 185.324 L
247.718 182.467 L
255 178.805 L
266 174.662 L
268.508 182.467 L
269.694 195.173 L
268.453 207.878 L
266 217.535 L
cp
161.753 106.238 M
167 108.274 L
178 111.614 L
189 113.263 L
200 114.059 L
211 114.736 L
222 114.692 L
233 114.19 L
244 113.537 L
255 111.51 L
266 109.335 L
267.187 106.238 L
270.331 93.533 L
271.287 80.827 L
270.703 68.122 L
266.77 55.417 L
266 53.469 L
255 49.17 L
244 48.134 L
233 46.125 L
222 46.672 L
211 45.657 L
200 46.302 L
189 47.849 L
178 49.36 L
167 52.282 L
158.796 55.417 L
156 56.467 L
145 61.013 L
134.176 68.122 L
134 68.403 L
123 75.308 L
116.106 80.827 L
123 83.526 L
133.061 93.533 L
134 93.984 L
145 100.248 L
156 104.023 L
cp
178 109.617 M
167.768 106.238 L
167 106.013 L
156 101.709 L
145 97.477 L
138.119 93.533 L
134 87.231 L
127.382 80.827 L
134 75.061 L
138.353 68.122 L
145 63.756 L
156 58.479 L
164.153 55.417 L
167 54.329 L
178 51.15 L
189 49.628 L
200 47.913 L
211 47.505 L
222 48.104 L
233 47.927 L
244 49.864 L
255 51.147 L
265.19 55.417 L
266 55.713 L
270.131 68.122 L
270.768 80.827 L
269.725 93.533 L
266.295 106.238 L
266 107.007 L
255 109.325 L
244 111.721 L
233 112.414 L
222 112.902 L
211 113.13 L
200 112.354 L
189 111.764 L
cp
53.62 93.533 M
57 104.093 L
68 98.211 L
79 94.997 L
83.47 93.533 L
90 83.304 L
101 81.247 L
102.724 80.827 L
101 80.508 L
90 78.983 L
83.556 68.122 L
79 66.208 L
68 61.284 L
57 56.477 L
53.562 68.122 L
52.341 80.827 L
cp
57 101.929 M
54.313 93.533 L
52.918 80.827 L
54.249 68.122 L
57 58.805 L
68 64.241 L
76.742 68.122 L
79 71.569 L
84.718 80.827 L
79 88.743 L
73.726 93.533 L
68 95.284 L
cp
f
GR
GS
0.298 GC
N
57.675 220.583 M
68 224.038 L
79 226.892 L
90 227.448 L
101 228.094 L
112 227.991 L
123 227.62 L
134 226.638 L
145 224.327 L
156 221.493 L
158.902 220.583 L
167 217.902 L
178 211.55 L
185.011 207.878 L
189 202.762 L
197.143 195.173 L
189 188.622 L
184.409 182.467 L
178 179.006 L
167 173.093 L
156 170.057 L
154.434 169.762 L
145 167.77 L
134 165.298 L
123 163.668 L
112 162.909 L
101 163.702 L
90 163.917 L
79 163.995 L
68 165.938 L
57 168.477 L
56.478 169.762 L
53.311 182.467 L
52.167 195.173 L
53.43 207.878 L
57 220.356 L
cp
68 221.882 M
64.118 220.583 L
57 218.191 L
54.05 207.878 L
52.681 195.173 L
53.92 182.467 L
57 170.698 L
60.273 169.762 L
68 167.901 L
79 165.811 L
90 165.516 L
101 165.401 L
112 164.893 L
123 165.399 L
134 167.12 L
144.288 169.762 L
145 169.908 L
156 172.027 L
167 175.552 L
178 181.736 L
179.354 182.467 L
188.844 195.173 L
178.888 207.878 L
178 208.343 L
167 215.484 L
156 219.429 L
151.431 220.583 L
145 222.301 L
134 225.011 L
123 225.988 L
112 226.39 L
101 226.664 L
90 225.752 L
79 225.27 L
cp
244.576 207.878 M
255 212.453 L
266 217.535 L
268.453 207.878 L
269.694 195.173 L
268.508 182.467 L
266 174.662 L
255 178.805 L
247.718 182.467 L
244 185.324 L
236.209 195.173 L
244 207.378 L
cp
255 209.384 M
251.567 207.878 L
244 201.322 L
240.075 195.173 L
244 190.21 L
254.077 182.467 L
255 182.004 L
266 176.865 L
267.8 182.467 L
269.085 195.173 L
267.741 207.878 L
266 214.731 L
cp
167.768 106.238 M
178 109.617 L
189 111.764 L
200 112.354 L
211 113.13 L
222 112.902 L
233 112.414 L
244 111.721 L
255 109.325 L
266 107.007 L
266.295 106.238 L
269.725 93.533 L
270.768 80.827 L
270.131 68.122 L
266 55.713 L
265.19 55.417 L
255 51.147 L
244 49.864 L
233 47.927 L
222 48.104 L
211 47.505 L
200 47.913 L
189 49.628 L
178 51.15 L
167 54.329 L
164.153 55.417 L
156 58.479 L
145 63.756 L
138.353 68.122 L
134 75.061 L
127.382 80.827 L
134 87.231 L
138.119 93.533 L
145 97.477 L
156 101.709 L
167 106.013 L
cp
178 107.619 M
173.816 106.238 L
167 104.248 L
156 99.394 L
145 94.707 L
142.951 93.533 L
134.51 80.827 L
142.53 68.122 L
145 66.5 L
156 60.491 L
167 56.421 L
169.783 55.417 L
178 52.94 L
189 51.407 L
200 49.523 L
211 49.354 L
222 49.536 L
233 49.728 L
244 51.594 L
255 53.124 L
260.474 55.417 L
266 57.433 L
269.558 68.122 L
270.248 80.827 L
269.119 93.533 L
266 104.774 L
259.196 106.238 L
255 107.14 L
244 109.905 L
233 110.638 L
222 111.112 L
211 111.524 L
200 110.65 L
189 110.266 L
cp
54.313 93.533 M
57 101.929 L
68 95.284 L
73.726 93.533 L
79 88.743 L
84.718 80.827 L
79 71.569 L
76.742 68.122 L
68 64.241 L
57 58.805 L
54.249 68.122 L
52.918 80.827 L
cp
57 99.764 M
55.006 93.533 L
53.494 80.827 L
54.937 68.122 L
57 61.133 L
68 67.199 L
70.081 68.122 L
78.687 80.827 L
68 92.052 L
66.653 93.533 L
cp
f
GR
GS
0.333 GC
N
64.118 220.583 M
68 221.882 L
79 225.27 L
90 225.752 L
101 226.664 L
112 226.39 L
123 225.988 L
134 225.011 L
145 222.301 L
151.431 220.583 L
156 219.429 L
167 215.484 L
178 208.343 L
178.888 207.878 L
188.844 195.173 L
179.354 182.467 L
178 181.736 L
167 175.552 L
156 172.027 L
145 169.908 L
144.288 169.762 L
134 167.12 L
123 165.399 L
112 164.893 L
101 165.401 L
90 165.516 L
79 165.811 L
68 167.901 L
60.273 169.762 L
57 170.698 L
53.92 182.467 L
52.681 195.173 L
54.05 207.878 L
57 218.191 L
cp
79 223.648 M
69.911 220.583 L
68 219.92 L
57 216.027 L
54.669 207.878 L
53.195 195.173 L
54.53 182.467 L
57 173.026 L
68 169.863 L
68.462 169.762 L
79 167.627 L
90 167.115 L
101 167.1 L
112 166.877 L
123 167.129 L
134 168.942 L
137.196 169.762 L
145 171.359 L
156 173.996 L
167 178.012 L
174.834 182.467 L
178 186.998 L
184.172 195.173 L
178 202.886 L
174.867 207.878 L
167 213.067 L
156 217.516 L
145 220.303 L
144.109 220.583 L
134 223.385 L
123 224.357 L
112 224.789 L
101 225.233 L
90 224.055 L
cp
251.567 207.878 M
255 209.384 L
266 214.731 L
267.741 207.878 L
269.085 195.173 L
267.8 182.467 L
266 176.865 L
255 182.004 L
254.077 182.467 L
244 190.21 L
240.075 195.173 L
244 201.322 L
cp
266 211.926 M
257.867 207.878 L
255 205.578 L
244 195.266 L
243.94 195.173 L
244 195.097 L
255 185.907 L
258.92 182.467 L
266 179.067 L
267.093 182.467 L
268.476 195.173 L
267.028 207.878 L
cp
173.816 106.238 M
178 107.619 L
189 110.266 L
200 110.65 L
211 111.524 L
222 111.112 L
233 110.638 L
244 109.905 L
255 107.14 L
259.196 106.238 L
266 104.774 L
269.119 93.533 L
270.248 80.827 L
269.558 68.122 L
266 57.433 L
260.474 55.417 L
255 53.124 L
244 51.594 L
233 49.728 L
222 49.536 L
211 49.354 L
200 49.523 L
189 51.407 L
178 52.94 L
169.783 55.417 L
167 56.421 L
156 60.491 L
145 66.5 L
142.53 68.122 L
134.51 80.827 L
142.951 93.533 L
145 94.707 L
156 99.394 L
167 104.248 L
cp
189 108.768 M
179.697 106.238 L
178 105.624 L
167 102.483 L
156 97.08 L
148.004 93.533 L
145 90.395 L
138.316 80.827 L
145 70.52 L
146.403 68.122 L
156 62.502 L
167 58.561 L
175.721 55.417 L
178 54.731 L
189 53.186 L
200 51.134 L
211 51.202 L
222 50.969 L
233 51.53 L
244 53.325 L
255 55.1 L
255.757 55.417 L
266 59.153 L
268.986 68.122 L
269.729 80.827 L
268.512 93.533 L
266 102.589 L
255 105.254 L
250.981 106.238 L
244 108.089 L
233 108.861 L
222 109.322 L
211 109.918 L
200 108.946 L
cp
55.006 93.533 M
57 99.764 L
66.653 93.533 L
68 92.052 L
78.687 80.827 L
70.081 68.122 L
68 67.199 L
57 61.133 L
54.937 68.122 L
53.494 80.827 L
cp
57 97.6 M
55.698 93.533 L
54.071 80.827 L
55.624 68.122 L
57 63.462 L
65.188 68.122 L
68 71.318 L
75.179 80.827 L
68 88.368 L
63.3 93.533 L
cp
f
GR
GS
0.349 GC
N
69.911 220.583 M
79 223.648 L
90 224.055 L
101 225.233 L
112 224.789 L
123 224.357 L
134 223.385 L
144.109 220.583 L
145 220.303 L
156 217.516 L
167 213.067 L
174.867 207.878 L
178 202.886 L
184.172 195.173 L
178 186.998 L
174.834 182.467 L
167 178.012 L
156 173.996 L
145 171.359 L
137.196 169.762 L
134 168.942 L
123 167.129 L
112 166.877 L
101 167.1 L
90 167.115 L
79 167.627 L
68.462 169.762 L
68 169.863 L
57 173.026 L
54.53 182.467 L
53.195 195.173 L
54.669 207.878 L
57 216.027 L
68 219.92 L
cp
79 222.026 M
74.72 220.583 L
68 218.253 L
57 213.862 L
55.288 207.878 L
53.709 195.173 L
55.139 182.467 L
57 175.355 L
68 171.813 L
77.423 169.762 L
79 169.443 L
90 168.714 L
101 168.8 L
112 168.86 L
123 168.859 L
128.359 169.762 L
134 170.635 L
145 172.809 L
156 175.966 L
167 180.471 L
170.511 182.467 L
178 193.186 L
179.5 195.173 L
178 197.047 L
171.202 207.878 L
167 210.65 L
156 215.602 L
145 218.46 L
138.241 220.583 L
134 221.758 L
123 222.726 L
112 223.187 L
101 223.803 L
90 222.358 L
cp
257.867 207.878 M
266 211.926 L
267.028 207.878 L
268.476 195.173 L
267.093 182.467 L
266 179.067 L
258.92 182.467 L
255 185.907 L
244 195.097 L
243.94 195.173 L
244 195.266 L
255 205.578 L
cp
266 209.122 M
263.5 207.878 L
255 201.06 L
248.734 195.173 L
255 189.93 L
263.505 182.467 L
266 181.269 L
266.385 182.467 L
267.867 195.173 L
266.316 207.878 L
cp
179.697 106.238 M
189 108.768 L
200 108.946 L
211 109.918 L
222 109.322 L
233 108.861 L
244 108.089 L
250.981 106.238 L
255 105.254 L
266 102.589 L
268.512 93.533 L
269.729 80.827 L
268.986 68.122 L
266 59.153 L
255.757 55.417 L
255 55.1 L
244 53.325 L
233 51.53 L
222 50.969 L
211 51.202 L
200 51.134 L
189 53.186 L
178 54.731 L
175.721 55.417 L
167 58.561 L
156 62.502 L
146.403 68.122 L
145 70.52 L
138.316 80.827 L
145 90.395 L
148.004 93.533 L
156 97.08 L
167 102.483 L
178 105.624 L
cp
189 107.27 M
185.204 106.238 L
178 103.634 L
167 100.718 L
156 94.766 L
153.22 93.533 L
145 84.947 L
142.122 80.827 L
145 76.389 L
149.838 68.122 L
156 64.514 L
167 60.701 L
178 56.757 L
185.789 55.417 L
189 54.965 L
200 52.744 L
211 53.05 L
222 52.401 L
233 53.331 L
244 55.055 L
246.196 55.417 L
255 56.916 L
266 60.872 L
268.413 68.122 L
269.209 80.827 L
267.906 93.533 L
266 100.404 L
255 103.58 L
244.135 106.238 L
244 106.273 L
233 107.085 L
222 107.531 L
211 108.312 L
200 107.241 L
cp
55.698 93.533 M
57 97.6 L
63.3 93.533 L
68 88.368 L
75.179 80.827 L
68 71.318 L
65.188 68.122 L
57 63.462 L
55.624 68.122 L
54.071 80.827 L
cp
57 95.435 M
56.391 93.533 L
54.647 80.827 L
56.311 68.122 L
57 65.79 L
61.097 68.122 L
68 75.965 L
71.671 80.827 L
68 84.683 L
59.947 93.533 L
cp
f
GR
GS
0.38 GC
N
74.72 220.583 M
79 222.026 L
90 222.358 L
101 223.803 L
112 223.187 L
123 222.726 L
134 221.758 L
138.241 220.583 L
145 218.46 L
156 215.602 L
167 210.65 L
171.202 207.878 L
178 197.047 L
179.5 195.173 L
178 193.186 L
170.511 182.467 L
167 180.471 L
156 175.966 L
145 172.809 L
134 170.635 L
128.359 169.762 L
123 168.859 L
112 168.86 L
101 168.8 L
90 168.714 L
79 169.443 L
77.423 169.762 L
68 171.813 L
57 175.355 L
55.139 182.467 L
53.709 195.173 L
55.288 207.878 L
57 213.862 L
68 218.253 L
cp
90 220.661 M
86.736 220.583 L
79 220.397 L
68 216.586 L
57 211.698 L
55.907 207.878 L
54.223 195.173 L
55.748 182.467 L
57 177.683 L
68 173.762 L
79 171.101 L
90 170.242 L
101 170.351 L
112 170.533 L
123 170.482 L
134 172.223 L
145 174.259 L
156 177.936 L
166.169 182.467 L
167 183.297 L
175.784 195.173 L
167.538 207.878 L
167 208.232 L
156 213.689 L
145 216.618 L
134 220.155 L
128.843 220.583 L
123 221.095 L
112 221.586 L
101 222.373 L
cp
263.5 207.878 M
266 209.122 L
266.316 207.878 L
267.867 195.173 L
266.385 182.467 L
266 181.269 L
263.505 182.467 L
255 189.93 L
248.734 195.173 L
255 201.06 L
cp
255 196.542 M
253.543 195.173 L
255 193.953 L
266 184.764 L
267.258 195.173 L
266 205.183 L
cp
185.204 106.238 M
189 107.27 L
200 107.241 L
211 108.312 L
222 107.531 L
233 107.085 L
244 106.273 L
244.135 106.238 L
255 103.58 L
266 100.404 L
267.906 93.533 L
269.209 80.827 L
268.413 68.122 L
266 60.872 L
255 56.916 L
246.196 55.417 L
244 55.055 L
233 53.331 L
222 52.401 L
211 53.05 L
200 52.744 L
189 54.965 L
185.789 55.417 L
178 56.757 L
167 60.701 L
156 64.514 L
149.838 68.122 L
145 76.389 L
142.122 80.827 L
145 84.947 L
153.22 93.533 L
156 94.766 L
167 100.718 L
178 103.634 L
cp
211 106.706 M
206.433 106.238 L
200 105.627 L
189 105.689 L
178 101.643 L
167 98.952 L
157.452 93.533 L
156 91.881 L
145.796 80.827 L
153.273 68.122 L
156 66.525 L
167 62.841 L
178 58.929 L
189 56.612 L
194.836 55.417 L
200 54.354 L
211 54.899 L
222 53.833 L
233 55.133 L
234.832 55.417 L
244 56.64 L
255 58.7 L
266 62.592 L
267.841 68.122 L
268.69 80.827 L
267.3 93.533 L
266 98.218 L
255 101.906 L
244 104.729 L
233 105.469 L
222 105.859 L
216.641 106.238 L
cp
56.391 93.533 M
57 95.435 L
59.947 93.533 L
68 84.683 L
71.671 80.827 L
68 75.965 L
61.097 68.122 L
57 65.79 L
56.311 68.122 L
54.647 80.827 L
cp
57 93.052 M
55.224 80.827 L
56.999 68.122 L
57 68.118 L
57.007 68.122 L
68 80.612 L
68.163 80.827 L
68 80.998 L
cp
f
GR
GS
0.412 GC
N
86.736 220.583 M
90 220.661 L
101 222.373 L
112 221.586 L
123 221.095 L
128.843 220.583 L
134 220.155 L
145 216.618 L
156 213.689 L
167 208.232 L
167.538 207.878 L
175.784 195.173 L
167 183.297 L
166.169 182.467 L
156 177.936 L
145 174.259 L
134 172.223 L
123 170.482 L
112 170.533 L
101 170.351 L
90 170.242 L
79 171.101 L
68 173.762 L
57 177.683 L
55.748 182.467 L
54.223 195.173 L
55.907 207.878 L
57 211.698 L
68 216.586 L
79 220.397 L
cp
101 220.942 M
98.704 220.583 L
90 219.161 L
79 218.708 L
68 214.919 L
57 209.533 L
56.526 207.878 L
54.737 195.173 L
56.357 182.467 L
57 180.011 L
68 175.712 L
79 172.725 L
90 171.636 L
101 171.708 L
112 171.948 L
123 171.986 L
134 173.811 L
145 175.71 L
156 179.906 L
161.749 182.467 L
167 187.71 L
172.52 195.173 L
167 203.617 L
163.753 207.878 L
156 211.775 L
145 214.776 L
134 218.615 L
123 219.574 L
112 220.041 L
105.427 220.583 L
cp
253.543 195.173 M
255 196.542 L
266 205.183 L
267.258 195.173 L
266 184.764 L
255 193.953 L
cp
266 200.338 M
259.349 195.173 L
266 189.802 L
266.649 195.173 L
cp
206.433 106.238 M
211 106.706 L
216.641 106.238 L
222 105.859 L
233 105.469 L
244 104.729 L
255 101.906 L
266 98.218 L
267.3 93.533 L
268.69 80.827 L
267.841 68.122 L
266 62.592 L
255 58.7 L
244 56.64 L
234.832 55.417 L
233 55.133 L
222 53.833 L
211 54.899 L
200 54.354 L
194.836 55.417 L
189 56.612 L
178 58.929 L
167 62.841 L
156 66.525 L
153.273 68.122 L
145.796 80.827 L
156 91.881 L
157.452 93.533 L
167 98.952 L
178 101.643 L
189 105.689 L
200 105.627 L
cp
167 97.187 M
160.562 93.533 L
156 88.345 L
149.06 80.827 L
156 69.245 L
157.354 68.122 L
167 64.981 L
178 61.102 L
189 58.213 L
200 55.898 L
211 56.32 L
220.582 55.417 L
222 55.265 L
223.234 55.417 L
233 56.563 L
244 58.187 L
255 60.485 L
266 64.312 L
267.268 68.122 L
268.171 80.827 L
266.694 93.533 L
266 96.033 L
255 100.231 L
244 103.191 L
233 103.998 L
222 104.492 L
211 105.179 L
200 104.143 L
189 103.924 L
178 99.653 L
cp
55.224 80.827 M
57 93.052 L
68 80.998 L
68.163 80.827 L
68 80.612 L
57.007 68.122 L
57 68.118 L
56.999 68.122 L
cp
57 89.085 M
55.8 80.827 L
57 72.241 L
64.544 80.827 L
cp
f
GR
GS
0.427 GC
N
98.704 220.583 M
101 220.942 L
105.427 220.583 L
112 220.041 L
123 219.574 L
134 218.615 L
145 214.776 L
156 211.775 L
163.753 207.878 L
167 203.617 L
172.52 195.173 L
167 187.71 L
161.749 182.467 L
156 179.906 L
145 175.71 L
134 173.811 L
123 171.986 L
112 171.948 L
101 171.708 L
90 171.636 L
79 172.725 L
68 175.712 L
57 180.011 L
56.357 182.467 L
54.737 195.173 L
56.526 207.878 L
57 209.533 L
68 214.919 L
79 218.708 L
90 219.161 L
cp
68 213.252 M
57.748 207.878 L
57 207.056 L
55.251 195.173 L
56.967 182.467 L
57 182.34 L
68 177.661 L
79 174.349 L
90 173.029 L
101 173.065 L
112 173.362 L
123 173.49 L
134 175.399 L
145 177.16 L
156 181.876 L
157.328 182.467 L
167 192.123 L
169.255 195.173 L
167 198.623 L
159.947 207.878 L
156 209.862 L
145 212.933 L
134 217.074 L
123 218.103 L
112 218.591 L
101 219.316 L
90 217.671 L
79 217.018 L
cp
259.349 195.173 M
266 200.338 L
266.649 195.173 L
266 189.802 L
cp
266 195.493 M
265.588 195.173 L
266 194.84 L
266.04 195.173 L
cp
160.562 93.533 M
167 97.187 L
178 99.653 L
189 103.924 L
200 104.143 L
211 105.179 L
222 104.492 L
233 103.998 L
244 103.191 L
255 100.231 L
266 96.033 L
266.694 93.533 L
268.171 80.827 L
267.268 68.122 L
266 64.312 L
255 60.485 L
244 58.187 L
233 56.563 L
223.234 55.417 L
222 55.265 L
220.582 55.417 L
211 56.32 L
200 55.898 L
189 58.213 L
178 61.102 L
167 64.981 L
157.354 68.122 L
156 69.245 L
149.06 80.827 L
156 88.345 L
cp
167 95.422 M
163.671 93.533 L
156 84.81 L
152.324 80.827 L
156 74.692 L
163.926 68.122 L
167 67.121 L
178 63.275 L
189 59.815 L
200 57.313 L
211 57.576 L
222 56.76 L
233 57.923 L
244 59.734 L
255 62.269 L
266 66.032 L
266.696 68.122 L
267.651 80.827 L
266.087 93.533 L
266 93.848 L
255 98.557 L
244 101.652 L
233 102.527 L
222 103.125 L
211 103.685 L
200 102.658 L
189 102.159 L
178 97.662 L
cp
55.8 80.827 M
57 89.085 L
64.544 80.827 L
57 72.241 L
cp
57 85.118 M
56.377 80.827 L
57 76.366 L
60.92 80.827 L
cp
f
GR
GS
0.459 GC
N
57.748 207.878 M
68 213.252 L
79 217.018 L
90 217.671 L
101 219.316 L
112 218.591 L
123 218.103 L
134 217.074 L
145 212.933 L
156 209.862 L
159.947 207.878 L
167 198.623 L
169.255 195.173 L
167 192.123 L
157.328 182.467 L
156 181.876 L
145 177.16 L
134 175.399 L
123 173.49 L
112 173.362 L
101 173.065 L
90 173.029 L
79 174.349 L
68 177.661 L
57 182.34 L
56.967 182.467 L
55.251 195.173 L
57 207.056 L
cp
68 211.585 M
60.928 207.878 L
57 203.564 L
55.765 195.173 L
57 186.054 L
61.313 182.467 L
68 179.611 L
79 175.973 L
90 174.423 L
101 174.422 L
112 174.777 L
123 174.994 L
134 176.987 L
145 178.611 L
153.709 182.467 L
156 185.654 L
165.583 195.173 L
156.14 207.878 L
156 207.948 L
145 211.091 L
134 215.533 L
123 216.632 L
112 217.14 L
101 217.624 L
90 216.181 L
79 215.329 L
cp
265.588 195.173 M
266 195.493 L
266.04 195.173 L
266 194.84 L
cp
163.671 93.533 M
167 95.422 L
178 97.662 L
189 102.159 L
200 102.658 L
211 103.685 L
222 103.125 L
233 102.527 L
244 101.652 L
255 98.557 L
266 93.848 L
266.087 93.533 L
267.651 80.827 L
266.696 68.122 L
266 66.032 L
255 62.269 L
244 59.734 L
233 57.923 L
222 56.76 L
211 57.576 L
200 57.313 L
189 59.815 L
178 63.275 L
167 67.121 L
163.926 68.122 L
156 74.692 L
152.324 80.827 L
156 84.81 L
cp
167 93.657 M
166.781 93.533 L
156 81.274 L
155.588 80.827 L
156 80.14 L
167 70.09 L
170.32 68.122 L
178 65.448 L
189 61.416 L
200 58.727 L
211 58.831 L
222 58.262 L
233 59.284 L
244 61.281 L
255 64.054 L
266 67.752 L
266.123 68.122 L
267.132 80.827 L
266 89.95 L
262.705 93.533 L
255 96.883 L
244 100.113 L
233 101.055 L
222 101.758 L
211 102.191 L
200 101.174 L
189 100.393 L
178 95.672 L
cp
56.377 80.827 M
57 85.118 L
60.92 80.827 L
57 76.366 L
cp
57 81.151 M
56.953 80.827 L
57 80.491 L
57.296 80.827 L
cp
f
GR
GS
0.49 GC
N
60.928 207.878 M
68 211.585 L
79 215.329 L
90 216.181 L
101 217.624 L
112 217.14 L
123 216.632 L
134 215.533 L
145 211.091 L
156 207.948 L
156.14 207.878 L
165.583 195.173 L
156 185.654 L
153.709 182.467 L
145 178.611 L
134 176.987 L
123 174.994 L
112 174.777 L
101 174.422 L
90 174.423 L
79 175.973 L
68 179.611 L
61.313 182.467 L
57 186.054 L
55.765 195.173 L
57 203.564 L
cp
68 209.918 M
64.108 207.878 L
57 200.071 L
56.279 195.173 L
57 189.849 L
65.877 182.467 L
68 181.56 L
79 177.598 L
90 175.817 L
101 175.779 L
112 176.191 L
123 176.498 L
134 178.575 L
145 180.061 L
150.434 182.467 L
156 190.208 L
160.998 195.173 L
156 201.918 L
149.795 207.878 L
145 209.249 L
134 213.993 L
123 215.161 L
112 215.69 L
101 215.933 L
90 214.691 L
79 213.64 L
cp
166.781 93.533 M
167 93.657 L
178 95.672 L
189 100.393 L
200 101.174 L
211 102.191 L
222 101.758 L
233 101.055 L
244 100.113 L
255 96.883 L
262.705 93.533 L
266 89.95 L
267.132 80.827 L
266.123 68.122 L
266 67.752 L
255 64.054 L
244 61.281 L
233 59.284 L
222 58.262 L
211 58.831 L
200 58.727 L
189 61.416 L
178 65.448 L
170.32 68.122 L
167 70.09 L
156 80.14 L
155.588 80.827 L
156 81.274 L
cp
178 93.681 M
177.182 93.533 L
167 89.365 L
159.459 80.827 L
167 73.786 L
176.559 68.122 L
178 67.621 L
189 63.017 L
200 60.141 L
211 60.086 L
222 59.764 L
233 60.644 L
244 62.828 L
255 65.839 L
261.82 68.122 L
266 73.198 L
266.613 80.827 L
266 85.764 L
258.854 93.533 L
255 95.208 L
244 98.575 L
233 99.584 L
222 100.391 L
211 100.697 L
200 99.689 L
189 98.628 L
cp
56.953 80.827 M
57 81.151 L
57.296 80.827 L
57 80.491 L
cp
f
GR
GS
0.506 GC
N
64.108 207.878 M
68 209.918 L
79 213.64 L
90 214.691 L
101 215.933 L
112 215.69 L
123 215.161 L
134 213.993 L
145 209.249 L
149.795 207.878 L
156 201.918 L
160.998 195.173 L
156 190.208 L
150.434 182.467 L
145 180.061 L
134 178.575 L
123 176.498 L
112 176.191 L
101 175.779 L
90 175.817 L
79 177.598 L
68 181.56 L
65.877 182.467 L
57 189.849 L
56.279 195.173 L
57 200.071 L
cp
68 208.251 M
67.288 207.878 L
57 196.579 L
56.793 195.173 L
57 193.645 L
68 184.538 L
70.322 182.467 L
79 179.222 L
90 177.21 L
101 177.136 L
112 177.605 L
123 178.002 L
134 180.163 L
145 181.511 L
147.159 182.467 L
156 194.762 L
156.413 195.173 L
156 195.73 L
145 206.932 L
144.128 207.878 L
134 212.452 L
123 213.69 L
112 214.239 L
101 214.241 L
90 213.2 L
79 211.951 L
cp
177.182 93.533 M
178 93.681 L
189 98.628 L
200 99.689 L
211 100.697 L
222 100.391 L
233 99.584 L
244 98.575 L
255 95.208 L
258.854 93.533 L
266 85.764 L
266.613 80.827 L
266 73.198 L
261.82 68.122 L
255 65.839 L
244 62.828 L
233 60.644 L
222 59.764 L
211 60.086 L
200 60.141 L
189 63.017 L
178 67.621 L
176.559 68.122 L
167 73.786 L
159.459 80.827 L
167 89.365 L
cp
189 96.863 M
181.62 93.533 L
178 90.662 L
167 84.883 L
163.418 80.827 L
167 77.483 L
178 70.603 L
180.861 68.122 L
189 64.619 L
200 61.556 L
211 61.342 L
222 61.266 L
233 62.004 L
244 64.375 L
255 67.623 L
256.491 68.122 L
266 79.667 L
266.093 80.827 L
266 81.578 L
255.003 93.533 L
255 93.534 L
244 97.036 L
233 98.113 L
222 99.024 L
211 99.203 L
200 98.205 L
cp
f
GR
GS
0.537 GC
N
67.288 207.878 M
68 208.251 L
79 211.951 L
90 213.2 L
101 214.241 L
112 214.239 L
123 213.69 L
134 212.452 L
144.128 207.878 L
145 206.932 L
156 195.73 L
156.413 195.173 L
156 194.762 L
147.159 182.467 L
145 181.511 L
134 180.163 L
123 178.002 L
112 177.605 L
101 177.136 L
90 177.21 L
79 179.222 L
70.322 182.467 L
68 184.538 L
57 193.645 L
56.793 195.173 L
57 196.579 L
cp
79 210.261 M
71.903 207.878 L
68 203.968 L
59.804 195.173 L
68 188.411 L
74.665 182.467 L
79 180.846 L
90 178.604 L
101 178.493 L
112 179.02 L
123 179.506 L
134 181.751 L
140.269 182.467 L
145 184.184 L
152.762 195.173 L
145 203.235 L
140.717 207.878 L
134 210.911 L
123 212.219 L
112 212.789 L
101 212.549 L
90 211.71 L
cp
181.62 93.533 M
189 96.863 L
200 98.205 L
211 99.203 L
222 99.024 L
233 98.113 L
244 97.036 L
255 93.534 L
255.003 93.533 L
266 81.578 L
266.093 80.827 L
266 79.667 L
256.491 68.122 L
255 67.623 L
244 64.375 L
233 62.004 L
222 61.266 L
211 61.342 L
200 61.556 L
189 64.619 L
180.861 68.122 L
178 70.603 L
167 77.483 L
163.418 80.827 L
167 84.883 L
178 90.662 L
cp
189 95.098 M
185.531 93.533 L
178 87.559 L
167.463 80.827 L
178 73.829 L
184.581 68.122 L
189 66.22 L
200 62.97 L
211 62.597 L
222 62.768 L
233 63.364 L
244 65.922 L
251.302 68.122 L
255 70.622 L
263.6 80.827 L
255 90.31 L
250.172 93.533 L
244 95.498 L
233 96.642 L
222 97.658 L
211 97.709 L
200 96.721 L
cp
f
GR
GS
0.569 GC
N
71.903 207.878 M
79 210.261 L
90 211.71 L
101 212.549 L
112 212.789 L
123 212.219 L
134 210.911 L
140.717 207.878 L
145 203.235 L
152.762 195.173 L
145 184.184 L
140.269 182.467 L
134 181.751 L
123 179.506 L
112 179.02 L
101 178.493 L
90 178.604 L
79 180.846 L
74.665 182.467 L
68 188.411 L
59.804 195.173 L
68 203.968 L
cp
79 208.572 M
76.932 207.878 L
68 198.93 L
64.499 195.173 L
68 192.284 L
79 182.473 L
79.011 182.467 L
90 179.997 L
101 179.85 L
112 180.434 L
123 181.01 L
130.024 182.467 L
134 183.972 L
145 189.222 L
149.203 195.173 L
145 199.539 L
137.306 207.878 L
134 209.371 L
123 210.748 L
112 211.339 L
101 210.857 L
90 210.22 L
cp
185.531 93.533 M
189 95.098 L
200 96.721 L
211 97.709 L
222 97.658 L
233 96.642 L
244 95.498 L
250.172 93.533 L
255 90.31 L
263.6 80.827 L
255 70.622 L
251.302 68.122 L
244 65.922 L
233 63.364 L
222 62.768 L
211 62.597 L
200 62.97 L
189 66.22 L
184.581 68.122 L
178 73.829 L
167.463 80.827 L
178 87.559 L
cp
200 95.236 M
189.988 93.533 L
189 93.063 L
178 84.457 L
172.319 80.827 L
178 77.054 L
188.301 68.122 L
189 67.821 L
200 64.384 L
211 63.852 L
222 64.27 L
233 64.725 L
244 67.469 L
246.168 68.122 L
255 74.094 L
260.674 80.827 L
255 87.084 L
245.34 93.533 L
244 93.959 L
233 95.171 L
222 96.291 L
211 96.214 L
cp
f
GR
GS
0.584 GC
N
76.932 207.878 M
79 208.572 L
90 210.22 L
101 210.857 L
112 211.339 L
123 210.748 L
134 209.371 L
137.306 207.878 L
145 199.539 L
149.203 195.173 L
145 189.222 L
134 183.972 L
130.024 182.467 L
123 181.01 L
112 180.434 L
101 179.85 L
90 179.997 L
79.011 182.467 L
79 182.473 L
68 192.284 L
64.499 195.173 L
68 198.93 L
cp
90 208.729 M
84.581 207.878 L
79 205.597 L
68.949 195.173 L
79 185.913 L
85.21 182.467 L
90 181.391 L
101 181.207 L
112 181.848 L
122.275 182.467 L
123 182.556 L
134 186.716 L
145 194.26 L
145.645 195.173 L
145 195.842 L
134 207.751 L
133.654 207.878 L
123 209.277 L
112 209.888 L
101 209.166 L
cp
189.988 93.533 M
200 95.236 L
211 96.214 L
222 96.291 L
233 95.171 L
244 93.959 L
245.34 93.533 L
255 87.084 L
260.674 80.827 L
255 74.094 L
246.168 68.122 L
244 67.469 L
233 64.725 L
222 64.27 L
211 63.852 L
200 64.384 L
189 67.821 L
188.301 68.122 L
178 77.054 L
172.319 80.827 L
178 84.457 L
189 93.063 L
cp
200 93.752 M
198.712 93.533 L
189 88.923 L
178 81.355 L
177.175 80.827 L
178 80.279 L
189 71.85 L
192.638 68.122 L
200 65.799 L
211 65.108 L
222 65.772 L
233 66.085 L
240.938 68.122 L
244 70.352 L
255 77.565 L
257.749 80.827 L
255 83.859 L
244 90.861 L
234.501 93.533 L
233 93.7 L
222 94.924 L
211 94.72 L
cp
f
GR
GS
0.616 GC
N
84.581 207.878 M
90 208.729 L
101 209.166 L
112 209.888 L
123 209.277 L
133.654 207.878 L
134 207.751 L
145 195.842 L
145.645 195.173 L
145 194.26 L
134 186.716 L
123 182.556 L
122.275 182.467 L
112 181.848 L
101 181.207 L
90 181.391 L
85.21 182.467 L
79 185.913 L
68.949 195.173 L
79 205.597 L
cp
112 208.438 M
105.201 207.878 L
101 207.202 L
90 206.46 L
79 201.724 L
72.683 195.173 L
79 189.353 L
90 183.262 L
101 182.677 L
112 183.963 L
123 185.424 L
134 189.459 L
141.895 195.173 L
134 203.671 L
123 207.697 L
121.763 207.878 L
cp
198.712 93.533 M
200 93.752 L
211 94.72 L
222 94.924 L
233 93.7 L
234.501 93.533 L
244 90.861 L
255 83.859 L
257.749 80.827 L
255 77.565 L
244 70.352 L
240.938 68.122 L
233 66.085 L
222 65.772 L
211 65.108 L
200 65.799 L
192.638 68.122 L
189 71.85 L
178 80.279 L
177.175 80.827 L
178 81.355 L
189 88.923 L
cp
222 93.557 M
221.112 93.533 L
211 92.875 L
200 90.519 L
189 84.783 L
183.114 80.827 L
189 76.441 L
197.119 68.122 L
200 67.213 L
211 66.363 L
222 67.274 L
233 67.445 L
235.639 68.122 L
244 74.212 L
254.627 80.827 L
244 87.164 L
233 90.799 L
222.219 93.533 L
cp
f
GR
GS
0.647 GC
N
105.201 207.878 M
112 208.438 L
121.763 207.878 L
123 207.697 L
134 203.671 L
141.895 195.173 L
134 189.459 L
123 185.424 L
112 183.963 L
101 182.677 L
90 183.262 L
79 189.353 L
72.683 195.173 L
79 201.724 L
90 206.46 L
101 207.202 L
cp
79 197.852 M
76.417 195.173 L
79 192.793 L
90 186.754 L
101 185.619 L
112 186.623 L
123 188.292 L
134 192.203 L
138.104 195.173 L
134 199.59 L
123 204.013 L
112 205.84 L
101 204.369 L
90 203.15 L
cp
221.112 93.533 M
222 93.557 L
222.219 93.533 L
233 90.799 L
244 87.164 L
254.627 80.827 L
244 74.212 L
235.639 68.122 L
233 67.445 L
222 67.274 L
211 66.363 L
200 67.213 L
197.119 68.122 L
189 76.441 L
183.114 80.827 L
189 84.783 L
200 90.519 L
211 92.875 L
cp
200 86.983 M
189.275 80.827 L
200 70.285 L
205.176 68.122 L
211 67.618 L
216.28 68.122 L
222 69.898 L
233 70.456 L
244 78.071 L
248.428 80.827 L
244 83.467 L
233 87.714 L
222 90.124 L
211 89.667 L
cp
f
GR
GS
0.667 GC
N
76.417 195.173 M
79 197.852 L
90 203.15 L
101 204.369 L
112 205.84 L
123 204.013 L
134 199.59 L
138.104 195.173 L
134 192.203 L
123 188.292 L
112 186.623 L
101 185.619 L
90 186.754 L
79 192.793 L
cp
90 199.84 M
80.973 195.173 L
90 190.247 L
101 188.561 L
112 189.284 L
123 191.16 L
134 194.946 L
134.312 195.173 L
134 195.509 L
123 200.328 L
112 202.521 L
101 201.537 L
cp
189.275 80.827 M
200 86.983 L
211 89.667 L
222 90.124 L
233 87.714 L
244 83.467 L
248.428 80.827 L
244 78.071 L
233 70.456 L
222 69.898 L
216.28 68.122 L
211 67.618 L
205.176 68.122 L
200 70.285 L
cp
200 83.447 M
195.436 80.827 L
200 76.341 L
211 71.351 L
222 73.979 L
233 75.103 L
241.928 80.827 L
233 84.628 L
222 86.653 L
211 86.46 L
cp
f
GR
GS
0.698 GC
N
80.973 195.173 M
90 199.84 L
101 201.537 L
112 202.521 L
123 200.328 L
134 195.509 L
134.312 195.173 L
134 194.946 L
123 191.16 L
112 189.284 L
101 188.561 L
90 190.247 L
cp
90 196.531 M
87.374 195.173 L
90 193.74 L
101 191.503 L
112 191.944 L
123 194.028 L
126.334 195.173 L
123 196.643 L
112 199.201 L
101 198.705 L
cp
195.436 80.827 M
200 83.447 L
211 86.46 L
222 86.653 L
233 84.628 L
241.928 80.827 L
233 75.103 L
222 73.979 L
211 71.351 L
200 76.341 L
cp
211 83.253 M
202.808 80.827 L
211 76.747 L
222 78.06 L
233 79.75 L
234.68 80.827 L
233 81.543 L
222 83.181 L
cp
f
GR
GS
0.714 GC
N
87.374 195.173 M
90 196.531 L
101 198.705 L
112 199.201 L
123 196.643 L
126.334 195.173 L
123 194.028 L
112 191.944 L
101 191.503 L
90 193.74 L
cp
101 195.873 M
97.751 195.173 L
101 194.445 L
112 194.604 L
114.886 195.173 L
112 195.882 L
cp
202.808 80.827 M
211 83.253 L
222 83.181 L
233 81.543 L
234.68 80.827 L
233 79.75 L
222 78.06 L
211 76.747 L
cp
f
GR
GS
0.745 GC
N
97.751 195.173 M
101 195.873 L
112 195.882 L
114.886 195.173 L
112 194.604 L
101 194.445 L
cp
f
GR
%%Trailer
%%Pages: 1
%%EOF
