%!PS-Adobe-3.0 EPSF-3.0
%%Creator: (MATLAB, The Mathworks, Inc. Version 9.3.0.713579 \(R2017b\). Operating System: Mac OS X)
%%Title: ./dataFit_pres_02_0_19894_0_25051.eps
%%CreationDate: 2018-08-06T07:59:12
%%Pages: (atend)
%%BoundingBox:     1     2   280   281
%%LanguageLevel: 3
%%EndComments
%%BeginProlog
%%BeginResource: procset (Apache XML Graphics Std ProcSet) 1.2 0
%%Version: 1.2 0
%%Copyright: (Copyright 2001-2003,2010 The Apache Software Foundation. License terms: http://www.apache.org/licenses/LICENSE-2.0)
/bd{bind def}bind def
/ld{load def}bd
/GR/grestore ld
/GS/gsave ld
/RM/rmoveto ld
/C/curveto ld
/t/show ld
/L/lineto ld
/ML/setmiterlimit ld
/CT/concat ld
/f/fill ld
/N/newpath ld
/S/stroke ld
/CC/setcmykcolor ld
/A/ashow ld
/cp/closepath ld
/RC/setrgbcolor ld
/LJ/setlinejoin ld
/GC/setgray ld
/LW/setlinewidth ld
/M/moveto ld
/re {4 2 roll M
1 index 0 rlineto
0 exch rlineto
neg 0 rlineto
cp } bd
/_ctm matrix def
/_tm matrix def
/BT { _ctm currentmatrix pop matrix _tm copy pop 0 0 moveto } bd
/ET { _ctm setmatrix } bd
/iTm { _ctm setmatrix _tm concat } bd
/Tm { _tm astore pop iTm 0 0 moveto } bd
/ux 0.0 def
/uy 0.0 def
/F {
  /Tp exch def
  /Tf exch def
  Tf findfont Tp scalefont setfont
  /cf Tf def  /cs Tp def
} bd
/ULS {currentpoint /uy exch def /ux exch def} bd
/ULE {
  /Tcx currentpoint pop def
  gsave
  newpath
  cf findfont cs scalefont dup
  /FontMatrix get 0 get /Ts exch def /FontInfo get dup
  /UnderlinePosition get Ts mul /To exch def
  /UnderlineThickness get Ts mul /Tt exch def
  ux uy To add moveto  Tcx uy To add lineto
  Tt setlinewidth stroke
  grestore
} bd
/OLE {
  /Tcx currentpoint pop def
  gsave
  newpath
  cf findfont cs scalefont dup
  /FontMatrix get 0 get /Ts exch def /FontInfo get dup
  /UnderlinePosition get Ts mul /To exch def
  /UnderlineThickness get Ts mul /Tt exch def
  ux uy To add cs add moveto Tcx uy To add cs add lineto
  Tt setlinewidth stroke
  grestore
} bd
/SOE {
  /Tcx currentpoint pop def
  gsave
  newpath
  cf findfont cs scalefont dup
  /FontMatrix get 0 get /Ts exch def /FontInfo get dup
  /UnderlinePosition get Ts mul /To exch def
  /UnderlineThickness get Ts mul /Tt exch def
  ux uy To add cs 10 mul 26 idiv add moveto Tcx uy To add cs 10 mul 26 idiv add lineto
  Tt setlinewidth stroke
  grestore
} bd
/QT {
/Y22 exch store
/X22 exch store
/Y21 exch store
/X21 exch store
currentpoint
/Y21 load 2 mul add 3 div exch
/X21 load 2 mul add 3 div exch
/X21 load 2 mul /X22 load add 3 div
/Y21 load 2 mul /Y22 load add 3 div
/X22 load /Y22 load curveto
} bd
/SSPD {
dup length /d exch dict def
{
/v exch def
/k exch def
currentpagedevice k known {
/cpdv currentpagedevice k get def
v cpdv ne {
/upd false def
/nullv v type /nulltype eq def
/nullcpdv cpdv type /nulltype eq def
nullv nullcpdv or
{
/upd true def
} {
/sametype v type cpdv type eq def
sametype {
v type /arraytype eq {
/vlen v length def
/cpdvlen cpdv length def
vlen cpdvlen eq {
0 1 vlen 1 sub {
/i exch def
/obj v i get def
/cpdobj cpdv i get def
obj cpdobj ne {
/upd true def
exit
} if
} for
} {
/upd true def
} ifelse
} {
v type /dicttype eq {
v {
/dv exch def
/dk exch def
/cpddv cpdv dk get def
dv cpddv ne {
/upd true def
exit
} if
} forall
} {
/upd true def
} ifelse
} ifelse
} if
} ifelse
upd true eq {
d k v put
} if
} if
} if
} forall
d length 0 gt {
d setpagedevice
} if
} bd
/RE { % /NewFontName [NewEncodingArray] /FontName RE -
  findfont dup length dict begin
  {
    1 index /FID ne
    {def} {pop pop} ifelse
  } forall
  /Encoding exch def
  /FontName 1 index def
  currentdict definefont pop
  end
} bind def
%%EndResource
%%BeginResource: procset (Apache XML Graphics EPS ProcSet) 1.0 0
%%Version: 1.0 0
%%Copyright: (Copyright 2002-2003 The Apache Software Foundation. License terms: http://www.apache.org/licenses/LICENSE-2.0)
/BeginEPSF { %def
/b4_Inc_state save def         % Save state for cleanup
/dict_count countdictstack def % Count objects on dict stack
/op_count count 1 sub def      % Count objects on operand stack
userdict begin                 % Push userdict on dict stack
/showpage { } def              % Redefine showpage, { } = null proc
0 setgray 0 setlinecap         % Prepare graphics state
1 setlinewidth 0 setlinejoin
10 setmiterlimit [ ] 0 setdash newpath
/languagelevel where           % If level not equal to 1 then
{pop languagelevel             % set strokeadjust and
1 ne                           % overprint to their defaults.
{false setstrokeadjust false setoverprint
} if
} if
} bd
/EndEPSF { %def
count op_count sub {pop} repeat            % Clean up stacks
countdictstack dict_count sub {end} repeat
b4_Inc_state restore
} bd
%%EndResource
%FOPBeginFontDict
%%IncludeResource: font Courier-Oblique
%%IncludeResource: font Courier-BoldOblique
%%IncludeResource: font Courier-Bold
%%IncludeResource: font ZapfDingbats
%%IncludeResource: font Symbol
%%IncludeResource: font Helvetica
%%IncludeResource: font Helvetica-Oblique
%%IncludeResource: font Helvetica-Bold
%%IncludeResource: font Helvetica-BoldOblique
%%IncludeResource: font Times-Roman
%%IncludeResource: font Times-Italic
%%IncludeResource: font Times-Bold
%%IncludeResource: font Times-BoldItalic
%%IncludeResource: font Courier
%FOPEndFontDict
%%BeginResource: encoding WinAnsiEncoding
/WinAnsiEncoding [
/.notdef /.notdef /.notdef /.notdef /.notdef
/.notdef /.notdef /.notdef /.notdef /.notdef
/.notdef /.notdef /.notdef /.notdef /.notdef
/.notdef /.notdef /.notdef /.notdef /.notdef
/.notdef /.notdef /.notdef /.notdef /.notdef
/.notdef /.notdef /.notdef /.notdef /.notdef
/.notdef /.notdef /space /exclam /quotedbl
/numbersign /dollar /percent /ampersand /quotesingle
/parenleft /parenright /asterisk /plus /comma
/hyphen /period /slash /zero /one
/two /three /four /five /six
/seven /eight /nine /colon /semicolon
/less /equal /greater /question /at
/A /B /C /D /E
/F /G /H /I /J
/K /L /M /N /O
/P /Q /R /S /T
/U /V /W /X /Y
/Z /bracketleft /backslash /bracketright /asciicircum
/underscore /quoteleft /a /b /c
/d /e /f /g /h
/i /j /k /l /m
/n /o /p /q /r
/s /t /u /v /w
/x /y /z /braceleft /bar
/braceright /asciitilde /bullet /Euro /bullet
/quotesinglbase /florin /quotedblbase /ellipsis /dagger
/daggerdbl /circumflex /perthousand /Scaron /guilsinglleft
/OE /bullet /Zcaron /bullet /bullet
/quoteleft /quoteright /quotedblleft /quotedblright /bullet
/endash /emdash /asciitilde /trademark /scaron
/guilsinglright /oe /bullet /zcaron /Ydieresis
/space /exclamdown /cent /sterling /currency
/yen /brokenbar /section /dieresis /copyright
/ordfeminine /guillemotleft /logicalnot /sfthyphen /registered
/macron /degree /plusminus /twosuperior /threesuperior
/acute /mu /paragraph /middot /cedilla
/onesuperior /ordmasculine /guillemotright /onequarter /onehalf
/threequarters /questiondown /Agrave /Aacute /Acircumflex
/Atilde /Adieresis /Aring /AE /Ccedilla
/Egrave /Eacute /Ecircumflex /Edieresis /Igrave
/Iacute /Icircumflex /Idieresis /Eth /Ntilde
/Ograve /Oacute /Ocircumflex /Otilde /Odieresis
/multiply /Oslash /Ugrave /Uacute /Ucircumflex
/Udieresis /Yacute /Thorn /germandbls /agrave
/aacute /acircumflex /atilde /adieresis /aring
/ae /ccedilla /egrave /eacute /ecircumflex
/edieresis /igrave /iacute /icircumflex /idieresis
/eth /ntilde /ograve /oacute /ocircumflex
/otilde /odieresis /divide /oslash /ugrave
/uacute /ucircumflex /udieresis /yacute /thorn
/ydieresis
] def
%%EndResource
%FOPBeginFontReencode
/Courier-Oblique findfont
dup length dict begin
  {1 index /FID ne {def} {pop pop} ifelse} forall
  /Encoding WinAnsiEncoding def
  currentdict
end
/Courier-Oblique exch definefont pop
/Courier-BoldOblique findfont
dup length dict begin
  {1 index /FID ne {def} {pop pop} ifelse} forall
  /Encoding WinAnsiEncoding def
  currentdict
end
/Courier-BoldOblique exch definefont pop
/Courier-Bold findfont
dup length dict begin
  {1 index /FID ne {def} {pop pop} ifelse} forall
  /Encoding WinAnsiEncoding def
  currentdict
end
/Courier-Bold exch definefont pop
/Helvetica findfont
dup length dict begin
  {1 index /FID ne {def} {pop pop} ifelse} forall
  /Encoding WinAnsiEncoding def
  currentdict
end
/Helvetica exch definefont pop
/Helvetica-Oblique findfont
dup length dict begin
  {1 index /FID ne {def} {pop pop} ifelse} forall
  /Encoding WinAnsiEncoding def
  currentdict
end
/Helvetica-Oblique exch definefont pop
/Helvetica-Bold findfont
dup length dict begin
  {1 index /FID ne {def} {pop pop} ifelse} forall
  /Encoding WinAnsiEncoding def
  currentdict
end
/Helvetica-Bold exch definefont pop
/Helvetica-BoldOblique findfont
dup length dict begin
  {1 index /FID ne {def} {pop pop} ifelse} forall
  /Encoding WinAnsiEncoding def
  currentdict
end
/Helvetica-BoldOblique exch definefont pop
/Times-Roman findfont
dup length dict begin
  {1 index /FID ne {def} {pop pop} ifelse} forall
  /Encoding WinAnsiEncoding def
  currentdict
end
/Times-Roman exch definefont pop
/Times-Italic findfont
dup length dict begin
  {1 index /FID ne {def} {pop pop} ifelse} forall
  /Encoding WinAnsiEncoding def
  currentdict
end
/Times-Italic exch definefont pop
/Times-Bold findfont
dup length dict begin
  {1 index /FID ne {def} {pop pop} ifelse} forall
  /Encoding WinAnsiEncoding def
  currentdict
end
/Times-Bold exch definefont pop
/Times-BoldItalic findfont
dup length dict begin
  {1 index /FID ne {def} {pop pop} ifelse} forall
  /Encoding WinAnsiEncoding def
  currentdict
end
/Times-BoldItalic exch definefont pop
/Courier findfont
dup length dict begin
  {1 index /FID ne {def} {pop pop} ifelse} forall
  /Encoding WinAnsiEncoding def
  currentdict
end
/Courier exch definefont pop
%FOPEndFontReencode
%%EndProlog
%%Page: 1 1
%%PageBoundingBox: 0 0 300 300
%%BeginPageSetup
[1 0 0 -1 0 300] CT
%%EndPageSetup
GS
1 GC
N
0 0 300 300 re
f
GR
GS
1 GC
N
0 0 300 300 re
f
GR
GS
1 GC
N
51.5 253.5 M
271.5 253.5 L
271.5 22.5 L
51.5 22.5 L
cp
f
GR
GS
0.149 GC
2 setlinecap
1 LJ
0.5 LW
N
51.5 253.5 M
271.5 253.5 L
S
GR
GS
0.149 GC
2 setlinecap
1 LJ
0.5 LW
N
51.5 22.5 M
271.5 22.5 L
S
GR
GS
0.149 GC
2 setlinecap
1 LJ
0.5 LW
N
51.5 253.5 M
51.5 251.19 L
S
GR
GS
0.149 GC
2 setlinecap
1 LJ
0.5 LW
N
161.5 253.5 M
161.5 251.19 L
S
GR
GS
0.149 GC
2 setlinecap
1 LJ
0.5 LW
N
271.5 253.5 M
271.5 251.19 L
S
GR
GS
0.149 GC
2 setlinecap
1 LJ
0.5 LW
N
51.5 22.5 M
51.5 24.81 L
S
GR
GS
0.149 GC
2 setlinecap
1 LJ
0.5 LW
N
161.5 22.5 M
161.5 24.81 L
S
GR
GS
0.149 GC
2 setlinecap
1 LJ
0.5 LW
N
271.5 22.5 M
271.5 24.81 L
S
GR
GS
[1 0 0 1 51.5 258.70001] CT
0.149 GC
N
0 13.799 M
-1.953 13.799 -2.664 12.182 QT
-3.375 10.565 -3.375 8.331 QT
-3.375 6.94 -3.117 5.713 QT
-2.859 4.487 -2.109 3.635 QT
-1.359 2.784 0 2.784 QT
1.063 2.784 1.734 3.299 QT
2.406 3.815 2.758 4.627 QT
3.109 5.44 3.234 6.377 QT
3.359 7.315 3.359 8.331 QT
3.359 9.706 3.109 10.909 QT
2.859 12.112 2.117 12.956 QT
1.375 13.799 0 13.799 QT
cp
0 13.377 M
0.891 13.377 1.328 12.463 QT
1.766 11.549 1.867 10.44 QT
1.969 9.331 1.969 8.081 QT
1.969 6.877 1.867 5.862 QT
1.766 4.846 1.336 4.018 QT
0.906 3.19 0 3.19 QT
-0.906 3.19 -1.344 4.018 QT
-1.781 4.846 -1.883 5.862 QT
-1.984 6.877 -1.984 8.081 QT
-1.984 8.971 -1.938 9.76 QT
-1.891 10.549 -1.703 11.385 QT
-1.516 12.221 -1.102 12.799 QT
-0.688 13.377 0 13.377 QT
cp
f
GR
GS
[1 0 0 1 161.5 258.70001] CT
0.149 GC
N
-3.222 13.159 M
-3.222 13.081 -3.16 12.909 QT
-2.722 11.971 -2.332 11.081 QT
-1.941 10.19 -1.636 9.338 QT
-1.332 8.487 -1.066 7.534 QT
-2.097 7.534 L
-2.675 7.534 -3.183 7.901 QT
-3.691 8.268 -4.035 8.831 QT
-4.066 8.893 -4.128 8.893 QT
-4.316 8.893 L
-4.457 8.893 -4.457 8.737 QT
-4.457 8.706 -4.425 8.643 QT
-3.91 7.752 -3.308 7.143 QT
-2.707 6.534 -1.957 6.534 QT
3.84 6.534 L
4.012 6.534 4.129 6.643 QT
4.247 6.752 4.247 6.94 QT
4.247 7.174 4.075 7.354 QT
3.903 7.534 3.668 7.534 QT
1.637 7.534 L
1.372 8.784 1.356 9.987 QT
1.356 11.518 1.887 12.768 QT
1.934 12.862 1.934 12.956 QT
1.934 13.127 1.832 13.276 QT
1.731 13.424 1.575 13.526 QT
1.418 13.627 1.231 13.627 QT
0.809 13.627 0.653 12.932 QT
0.497 12.237 0.497 11.596 QT
0.497 10.674 0.653 9.831 QT
0.809 8.987 1.153 7.534 QT
-0.582 7.534 L
-1.847 12.659 -2.113 13.174 QT
-2.332 13.627 -2.738 13.627 QT
-2.925 13.627 -3.074 13.495 QT
-3.222 13.362 -3.222 13.159 QT
cp
f
GR
GS
[1 0 0 1 271.5 258.70001] CT
0.149 GC
N
-8.05 13.44 M
-8.05 13.002 L
-8.05 12.971 -8.019 12.924 QT
-5.535 10.174 L
-4.972 9.565 -4.621 9.151 QT
-4.269 8.737 -3.925 8.198 QT
-3.582 7.659 -3.378 7.096 QT
-3.175 6.534 -3.175 5.909 QT
-3.175 5.252 -3.418 4.659 QT
-3.66 4.065 -4.144 3.706 QT
-4.628 3.346 -5.3 3.346 QT
-6.003 3.346 -6.558 3.76 QT
-7.113 4.174 -7.332 4.846 QT
-7.269 4.831 -7.16 4.831 QT
-6.8 4.831 -6.55 5.073 QT
-6.3 5.315 -6.3 5.69 QT
-6.3 6.065 -6.55 6.315 QT
-6.8 6.565 -7.16 6.565 QT
-7.535 6.565 -7.793 6.307 QT
-8.05 6.049 -8.05 5.69 QT
-8.05 5.096 -7.824 4.565 QT
-7.597 4.034 -7.168 3.627 QT
-6.738 3.221 -6.207 3.002 QT
-5.675 2.784 -5.066 2.784 QT
-4.16 2.784 -3.371 3.167 QT
-2.582 3.549 -2.121 4.26 QT
-1.66 4.971 -1.66 5.909 QT
-1.66 6.612 -1.964 7.237 QT
-2.269 7.862 -2.746 8.37 QT
-3.222 8.877 -3.964 9.526 QT
-4.707 10.174 -4.941 10.393 QT
-6.753 12.143 L
-5.207 12.143 L
-4.082 12.143 -3.316 12.12 QT
-2.55 12.096 -2.503 12.065 QT
-2.316 11.862 -2.128 10.581 QT
-1.66 10.581 L
-2.113 13.44 L
-8.05 13.44 L
cp
f
GR
GS
[1 0 0 1 271.5 258.70001] CT
0.149 GC
N
0.778 13.159 M
0.778 13.081 0.84 12.909 QT
1.278 11.971 1.668 11.081 QT
2.059 10.19 2.364 9.338 QT
2.668 8.487 2.934 7.534 QT
1.903 7.534 L
1.325 7.534 0.817 7.901 QT
0.309 8.268 -0.035 8.831 QT
-0.066 8.893 -0.128 8.893 QT
-0.316 8.893 L
-0.457 8.893 -0.457 8.737 QT
-0.457 8.706 -0.425 8.643 QT
0.09 7.752 0.692 7.143 QT
1.293 6.534 2.043 6.534 QT
7.84 6.534 L
8.012 6.534 8.129 6.643 QT
8.247 6.752 8.247 6.94 QT
8.247 7.174 8.075 7.354 QT
7.903 7.534 7.668 7.534 QT
5.637 7.534 L
5.372 8.784 5.356 9.987 QT
5.356 11.518 5.887 12.768 QT
5.934 12.862 5.934 12.956 QT
5.934 13.127 5.832 13.276 QT
5.731 13.424 5.575 13.526 QT
5.418 13.627 5.231 13.627 QT
4.809 13.627 4.653 12.932 QT
4.497 12.237 4.497 11.596 QT
4.497 10.674 4.653 9.831 QT
4.809 8.987 5.153 7.534 QT
3.418 7.534 L
2.153 12.659 1.887 13.174 QT
1.668 13.627 1.262 13.627 QT
1.075 13.627 0.926 13.495 QT
0.778 13.362 0.778 13.159 QT
cp
f
GR
GS
[1 0 0 1 161.50011 278.88] CT
0.149 GC
N
-1.759 18.284 M
-0.946 15.034 L
-1.853 15.034 -2.65 14.612 QT
-3.446 14.19 -3.923 13.425 QT
-4.4 12.659 -4.4 11.753 QT
-4.4 10.784 -3.915 9.893 QT
-3.431 9.003 -2.595 8.284 QT
-1.759 7.565 -0.79 7.175 QT
0.179 6.784 1.132 6.784 QT
2.21 2.393 L
2.241 2.3 2.35 2.3 QT
2.569 2.3 L
2.647 2.3 2.686 2.362 QT
2.725 2.425 2.725 2.471 QT
1.647 6.784 L
2.319 6.784 2.952 7.026 QT
3.585 7.268 4.077 7.714 QT
4.569 8.159 4.843 8.76 QT
5.116 9.362 5.116 10.05 QT
5.116 11.018 4.632 11.909 QT
4.147 12.8 3.327 13.51 QT
2.507 14.221 1.499 14.628 QT
0.491 15.034 -0.415 15.034 QT
-1.243 18.378 L
-1.275 18.471 -1.4 18.471 QT
-1.603 18.471 L
-1.681 18.471 -1.72 18.409 QT
-1.759 18.346 -1.759 18.284 QT
cp
-0.837 14.565 M
1.007 7.237 L
0.554 7.237 0.054 7.425 QT
-0.446 7.612 -0.892 7.893 QT
-1.337 8.175 -1.696 8.534 QT
-2.134 8.971 -2.47 9.573 QT
-2.806 10.175 -2.978 10.839 QT
-3.15 11.503 -3.15 12.143 QT
-3.15 12.815 -2.861 13.37 QT
-2.571 13.925 -2.04 14.245 QT
-1.509 14.565 -0.837 14.565 QT
cp
-0.29 14.565 M
0.382 14.565 1.147 14.175 QT
1.913 13.784 2.397 13.268 QT
3.085 12.596 3.475 11.628 QT
3.866 10.659 3.866 9.675 QT
3.866 9.003 3.577 8.44 QT
3.288 7.878 2.757 7.557 QT
2.225 7.237 1.538 7.237 QT
-0.29 14.565 L
cp
f
GR
GS
0.149 GC
2 setlinecap
1 LJ
0.5 LW
N
51.5 253.5 M
51.5 22.5 L
S
GR
GS
0.149 GC
2 setlinecap
1 LJ
0.5 LW
N
271.5 253.5 M
271.5 22.5 L
S
GR
GS
0.149 GC
2 setlinecap
1 LJ
0.5 LW
N
51.5 253.5 M
53.81 253.5 L
S
GR
GS
0.149 GC
2 setlinecap
1 LJ
0.5 LW
N
51.5 138 M
53.81 138 L
S
GR
GS
0.149 GC
2 setlinecap
1 LJ
0.5 LW
N
51.5 22.5 M
53.81 22.5 L
S
GR
GS
0.149 GC
2 setlinecap
1 LJ
0.5 LW
N
271.5 253.5 M
269.19 253.5 L
S
GR
GS
0.149 GC
2 setlinecap
1 LJ
0.5 LW
N
271.5 138 M
269.19 138 L
S
GR
GS
0.149 GC
2 setlinecap
1 LJ
0.5 LW
N
271.5 22.5 M
269.19 22.5 L
S
GR
GS
[1 0 0 1 46.3 253.5] CT
0.149 GC
N
-20.498 0.152 M
-20.639 0.152 -20.725 0.051 QT
-20.811 -0.051 -20.811 -0.16 QT
-20.811 -0.285 -20.725 -0.387 QT
-20.639 -0.488 -20.498 -0.488 QT
-11.326 -0.488 L
-11.201 -0.488 -11.116 -0.387 QT
-11.03 -0.285 -11.03 -0.16 QT
-11.03 -0.051 -11.116 0.051 QT
-11.201 0.152 -11.326 0.152 QT
-20.498 0.152 L
cp
f
GR
GS
[1 0 0 1 46.3 253.5] CT
0.149 GC
N
-8.069 3.559 M
-8.069 3.481 -8.007 3.309 QT
-7.569 2.371 -7.179 1.481 QT
-6.788 0.59 -6.484 -0.262 QT
-6.179 -1.113 -5.913 -2.066 QT
-6.944 -2.066 L
-7.523 -2.066 -8.03 -1.699 QT
-8.538 -1.332 -8.882 -0.769 QT
-8.913 -0.707 -8.976 -0.707 QT
-9.163 -0.707 L
-9.304 -0.707 -9.304 -0.863 QT
-9.304 -0.894 -9.273 -0.957 QT
-8.757 -1.848 -8.155 -2.457 QT
-7.554 -3.066 -6.804 -3.066 QT
-1.007 -3.066 L
-0.835 -3.066 -0.718 -2.957 QT
-0.601 -2.848 -0.601 -2.66 QT
-0.601 -2.426 -0.773 -2.246 QT
-0.944 -2.066 -1.179 -2.066 QT
-3.21 -2.066 L
-3.476 -0.816 -3.491 0.387 QT
-3.491 1.918 -2.96 3.168 QT
-2.913 3.262 -2.913 3.356 QT
-2.913 3.527 -3.015 3.676 QT
-3.116 3.824 -3.273 3.926 QT
-3.429 4.027 -3.616 4.027 QT
-4.038 4.027 -4.194 3.332 QT
-4.351 2.637 -4.351 1.996 QT
-4.351 1.074 -4.194 0.231 QT
-4.038 -0.613 -3.694 -2.066 QT
-5.429 -2.066 L
-6.694 3.059 -6.96 3.574 QT
-7.179 4.027 -7.585 4.027 QT
-7.773 4.027 -7.921 3.895 QT
-8.069 3.762 -8.069 3.559 QT
cp
f
GR
GS
[1 0 0 1 46.3 138] CT
0.149 GC
N
-4 4.199 M
-5.953 4.199 -6.664 2.582 QT
-7.375 0.965 -7.375 -1.269 QT
-7.375 -2.66 -7.117 -3.887 QT
-6.859 -5.113 -6.109 -5.965 QT
-5.359 -6.816 -4 -6.816 QT
-2.938 -6.816 -2.266 -6.301 QT
-1.594 -5.785 -1.242 -4.973 QT
-0.891 -4.16 -0.766 -3.223 QT
-0.641 -2.285 -0.641 -1.269 QT
-0.641 0.106 -0.891 1.309 QT
-1.141 2.512 -1.883 3.356 QT
-2.625 4.199 -4 4.199 QT
cp
-4 3.777 M
-3.109 3.777 -2.672 2.863 QT
-2.234 1.949 -2.133 0.84 QT
-2.031 -0.269 -2.031 -1.519 QT
-2.031 -2.723 -2.133 -3.738 QT
-2.234 -4.754 -2.664 -5.582 QT
-3.094 -6.41 -4 -6.41 QT
-4.906 -6.41 -5.344 -5.582 QT
-5.781 -4.754 -5.883 -3.738 QT
-5.984 -2.723 -5.984 -1.519 QT
-5.984 -0.629 -5.938 0.16 QT
-5.891 0.949 -5.703 1.785 QT
-5.516 2.621 -5.102 3.199 QT
-4.688 3.777 -4 3.777 QT
cp
f
GR
GS
[1 0 0 1 46.3 22.5] CT
0.149 GC
N
/f-1802301508{-8.069 3.559 M
-8.069 3.481 -8.007 3.309 QT
-7.569 2.371 -7.179 1.481 QT
-6.788 0.59 -6.484 -0.262 QT
-6.179 -1.113 -5.913 -2.066 QT
-6.944 -2.066 L
-7.523 -2.066 -8.03 -1.699 QT
-8.538 -1.332 -8.882 -0.769 QT
-8.913 -0.707 -8.976 -0.707 QT
-9.163 -0.707 L
-9.304 -0.707 -9.304 -0.863 QT
-9.304 -0.894 -9.273 -0.957 QT
-8.757 -1.848 -8.155 -2.457 QT
-7.554 -3.066 -6.804 -3.066 QT
-1.007 -3.066 L
-0.835 -3.066 -0.718 -2.957 QT
-0.601 -2.848 -0.601 -2.66 QT
-0.601 -2.426 -0.773 -2.246 QT
-0.944 -2.066 -1.179 -2.066 QT
-3.21 -2.066 L
-3.476 -0.816 -3.491 0.387 QT
-3.491 1.918 -2.96 3.168 QT
-2.913 3.262 -2.913 3.356 QT
-2.913 3.527 -3.015 3.676 QT
-3.116 3.824 -3.273 3.926 QT
-3.429 4.027 -3.616 4.027 QT
-4.038 4.027 -4.194 3.332 QT
-4.351 2.637 -4.351 1.996 QT
-4.351 1.074 -4.194 0.231 QT
-4.038 -0.613 -3.694 -2.066 QT
-5.429 -2.066 L
-6.694 3.059 -6.96 3.574 QT
-7.179 4.027 -7.585 4.027 QT
-7.773 4.027 -7.921 3.895 QT
-8.069 3.762 -8.069 3.559 QT
cp}def
f-1802301508
f
GR
GS
[0 -1 1 0 21.12 137.99989] CT
0.149 GC
N
/f1226721168{-0.635 -6.07 M
-1.26 -6.07 -1.799 -6.297 QT
-2.338 -6.524 -2.736 -6.969 QT
-3.135 -7.414 -3.33 -7.953 QT
-3.525 -8.492 -3.525 -9.117 QT
-3.525 -10.242 -2.994 -11.305 QT
-2.463 -12.367 -1.541 -13.141 QT
-0.619 -13.914 0.459 -14.18 QT
-0.072 -15.164 -0.346 -15.867 QT
-0.619 -16.57 -0.619 -17.32 QT
-0.619 -17.852 -0.369 -18.274 QT
-0.119 -18.695 0.334 -18.93 QT
0.787 -19.164 1.334 -19.164 QT
1.881 -19.164 3.459 -18.805 QT
3.881 -18.711 3.881 -18.32 QT
3.881 -18.024 3.662 -17.781 QT
3.443 -17.539 3.146 -17.539 QT
2.912 -17.539 2.74 -17.641 QT
2.568 -17.742 2.193 -17.992 QT
1.818 -18.242 1.514 -18.383 QT
1.209 -18.524 0.896 -18.524 QT
0.521 -18.524 0.225 -18.297 QT
-0.072 -18.07 -0.072 -17.711 QT
-0.072 -17.133 0.436 -16.391 QT
0.943 -15.649 1.881 -14.492 QT
2.943 -13.133 2.943 -11.508 QT
2.943 -10.695 2.709 -9.758 QT
2.475 -8.82 2.029 -7.985 QT
1.584 -7.149 0.896 -6.61 QT
0.209 -6.07 -0.635 -6.07 QT
cp
-0.604 -6.555 M
0.1 -6.555 0.607 -7.281 QT
1.115 -8.008 1.373 -9.016 QT
1.631 -10.024 1.631 -10.711 QT
1.631 -12.055 0.693 -13.742 QT
-0.26 -13.477 -0.947 -12.633 QT
-1.635 -11.789 -1.986 -10.688 QT
-2.338 -9.586 -2.338 -8.602 QT
-2.338 -7.742 -1.893 -7.149 QT
-1.447 -6.555 -0.604 -6.555 QT
cp}def
f1226721168
f
GR
GS
N
155.625 22.472 M
152.274 22.472 L
156 22.655 L
157.824 22.472 L
156 22.472 L
cp
f
GR
GS
0.016 GC
N
51.474 252.013 M
51.474 253.528 L
52.726 253.528 L
52.928 253.528 L
52.945 253.528 L
51.474 251.665 L
51.474 251.682 L
cp
132.618 253.528 M
134 253.528 L
135.836 253.528 L
145 253.528 L
153.178 253.528 L
156 253.528 L
166.329 253.528 L
167 253.528 L
176.785 253.528 L
178 253.528 L
186.025 253.528 L
189 253.528 L
194.92 253.528 L
200 253.528 L
201.948 253.528 L
203.745 253.528 L
200 252.599 L
189 250.37 L
178 247.893 L
167 247.684 L
156 249.244 L
145 250.522 L
134 253.214 L
cp
271.526 252.03 M
270.425 253.528 L
271.526 253.528 L
cp
269.959 169.762 M
271.526 178.052 L
271.526 173.98 L
271.526 169.762 L
271.526 164.553 L
271.526 157.057 L
271.526 154.198 L
271.526 144.352 L
271.526 142.961 L
271.526 131.648 L
271.526 127.36 L
271.526 118.942 L
271.526 109.538 L
269.698 118.942 L
267.915 131.648 L
266.941 144.352 L
268.716 157.057 L
cp
51.474 157.057 M
51.474 164.408 L
52.752 157.057 L
55.809 144.352 L
56.322 131.648 L
54.319 118.942 L
52.339 106.238 L
51.474 100.565 L
51.474 103.581 L
51.474 106.238 L
51.474 111.923 L
51.474 118.942 L
51.474 121.652 L
51.474 131.648 L
51.474 132.502 L
51.474 144.352 L
51.474 148.268 L
cp
254.95 157.057 M
255 157.149 L
255.043 157.057 L
255 156.974 L
cp
132.569 42.712 M
134 47.892 L
136.925 42.712 L
134 41.204 L
cp
51.474 22.472 M
51.474 23.681 L
52.323 22.472 L
cp
122.171 22.472 M
121.31 22.472 L
123 22.824 L
134 25.162 L
145 28.141 L
156 29.352 L
167 27.277 L
178 24.823 L
186.796 22.472 L
178 22.472 L
170.087 22.472 L
167 22.472 L
157.824 22.472 L
156 22.655 L
152.274 22.472 L
145.541 22.472 L
145 22.472 L
136.968 22.472 L
134 22.472 L
128.936 22.472 L
123 22.472 L
cp
270.095 22.472 M
270.088 22.472 L
271.526 24.286 L
271.526 24.279 L
271.526 22.472 L
cp
f
GR
GS
0.047 GC
N
51.474 251.301 M
51.474 251.665 L
52.945 253.528 L
53.146 253.528 L
53.441 253.528 L
51.474 251.037 L
cp
127.708 253.528 M
132.618 253.528 L
134 253.214 L
145 250.522 L
156 249.244 L
167 247.684 L
178 247.893 L
189 250.37 L
200 252.599 L
203.745 253.528 L
207.892 253.528 L
211 253.528 L
212.867 253.528 L
214.081 253.528 L
211 252.812 L
200 248.962 L
190.856 245.992 L
200 236.509 L
202.377 233.288 L
211 225.164 L
214.911 220.583 L
222 210.129 L
227.198 207.878 L
233 203.186 L
237.841 195.173 L
244 185.305 L
247.462 182.467 L
255 178.114 L
264.222 169.762 L
266 166.388 L
266.438 169.762 L
270.042 182.467 L
271.526 189.861 L
271.526 187.159 L
271.526 182.467 L
271.526 180.677 L
271.526 178.052 L
269.959 169.762 L
268.716 157.057 L
266.941 144.352 L
267.915 131.648 L
269.698 118.942 L
271.526 109.538 L
271.526 106.238 L
271.526 98.265 L
269.752 106.238 L
266.047 118.942 L
266 119.219 L
255.439 131.648 L
255 132.128 L
244.227 144.352 L
244 144.719 L
233 156.027 L
231.771 157.057 L
222 167.932 L
219.996 169.762 L
211 177.692 L
207.483 182.467 L
200 192.716 L
196.879 195.173 L
189 203.615 L
185.842 207.878 L
178 216.935 L
174.073 220.583 L
167 227.019 L
159.432 233.288 L
156 238.225 L
145 245.928 L
144.918 245.992 L
134 250.006 L
123.688 253.528 L
cp
271.526 251.023 M
269.574 253.528 L
270.214 253.528 L
270.425 253.528 L
271.526 252.03 L
271.526 251.639 L
cp
51.474 169.762 M
51.474 178.124 L
52.814 169.762 L
56.128 157.057 L
57 153.825 L
64.694 144.352 L
68 140.095 L
79 131.892 L
79.22 131.648 L
85.985 118.942 L
90 116.785 L
101 107.967 L
102.104 106.238 L
112 95.361 L
114.283 93.533 L
123 84.959 L
127.949 80.827 L
134 73.839 L
139.313 68.122 L
145 61.919 L
149.768 55.417 L
156 48.839 L
161.67 42.712 L
167 36.695 L
174.691 30.007 L
178 29.056 L
189 24.73 L
200 22.699 L
201.193 22.472 L
200 22.472 L
196.944 22.472 L
189 22.472 L
186.796 22.472 L
178 24.823 L
167 27.277 L
156 29.352 L
145 28.141 L
134 25.162 L
123 22.824 L
121.31 22.472 L
115.676 22.472 L
112 22.472 L
110.765 22.472 L
109.862 22.472 L
112 22.91 L
123 26.327 L
134 29.946 L
134.201 30.007 L
134 30.15 L
123 41.735 L
121.921 42.712 L
112 50.105 L
107.509 55.417 L
101 64.871 L
96.558 68.122 L
90 74.673 L
85.132 80.827 L
79 87.577 L
73.719 93.533 L
68 100.653 L
63.101 106.238 L
57 113.475 L
55.509 106.238 L
52.601 93.533 L
51.474 86.3 L
51.474 89.464 L
51.474 93.533 L
51.474 96.201 L
51.474 100.565 L
52.339 106.238 L
54.319 118.942 L
56.322 131.648 L
55.809 144.352 L
52.752 157.057 L
51.474 164.408 L
cp
255 157.149 M
254.95 157.057 L
255 156.974 L
255.043 157.057 L
cp
134 47.892 M
132.569 42.712 L
134 41.204 L
136.925 42.712 L
cp
52.532 22.472 M
52.323 22.472 L
51.474 23.681 L
51.474 24.07 L
51.474 24.725 L
51.474 24.942 L
53.391 22.472 L
53.151 22.472 L
cp
269.898 22.472 M
269.62 22.472 L
271.526 24.877 L
271.526 24.626 L
271.526 24.286 L
270.088 22.472 L
cp
f
GR
GS
0.063 GC
N
51.474 250.653 M
51.474 251.037 L
53.441 253.528 L
53.627 253.528 L
53.937 253.528 L
51.474 250.409 L
cp
111.04 253.528 M
112 253.528 L
116.776 253.528 L
123 253.528 L
123.688 253.528 L
134 250.006 L
144.918 245.992 L
145 245.928 L
156 238.225 L
159.432 233.288 L
167 227.019 L
174.073 220.583 L
178 216.935 L
185.842 207.878 L
189 203.615 L
196.879 195.173 L
200 192.716 L
207.483 182.467 L
211 177.692 L
219.996 169.762 L
222 167.932 L
231.771 157.057 L
233 156.027 L
244 144.719 L
244.227 144.352 L
255 132.128 L
255.439 131.648 L
266 119.219 L
266.047 118.942 L
269.752 106.238 L
271.526 98.265 L
271.526 93.533 L
271.526 90.323 L
271.106 93.533 L
267.336 106.238 L
266 110.798 L
259.88 118.942 L
255 124.615 L
247.303 131.648 L
244 135.433 L
236.684 144.352 L
233 148.228 L
222.471 157.057 L
222 157.582 L
211 168.541 L
209.628 169.762 L
200.126 182.467 L
200 182.64 L
189 192.627 L
186.858 195.173 L
178 206.283 L
175.151 207.878 L
167 215.467 L
163.442 220.583 L
156 227.574 L
150.811 233.288 L
145 239.069 L
136.194 245.992 L
134 246.799 L
123 251.813 L
112 253.347 L
cp
190.856 245.992 M
200 248.962 L
211 252.812 L
214.081 253.528 L
218.008 253.528 L
221.421 253.528 L
211 250.299 L
201.065 245.992 L
210.948 233.288 L
211 233.239 L
221.805 220.583 L
222 220.295 L
233 213.516 L
237.314 207.878 L
244 198.781 L
247.189 195.173 L
255 187.16 L
260.191 182.467 L
266 176.637 L
267.722 182.467 L
271.124 195.173 L
271.526 198.023 L
271.526 196.99 L
271.526 195.173 L
271.526 192.391 L
271.526 189.861 L
270.042 182.467 L
266.438 169.762 L
266 166.388 L
264.222 169.762 L
255 178.114 L
247.462 182.467 L
244 185.305 L
237.841 195.173 L
233 203.186 L
227.198 207.878 L
222 210.129 L
214.911 220.583 L
211 225.164 L
202.377 233.288 L
200 236.509 L
cp
269.234 253.528 M
269.574 253.528 L
271.526 251.023 L
271.526 250.748 L
271.526 250.36 L
269.057 253.528 L
cp
51.474 182.467 M
51.474 187.713 L
52.37 182.467 L
55.085 169.762 L
57 163.004 L
63.586 157.057 L
68 151.668 L
73.733 144.352 L
79 139.585 L
86.163 131.648 L
90 126.489 L
101 120.043 L
101.941 118.942 L
110.458 106.238 L
112 104.543 L
123 95.387 L
124.414 93.533 L
134 84.05 L
136.72 80.827 L
145 71.498 L
149.31 68.122 L
156 59.598 L
160.344 55.417 L
167 48.145 L
173.869 42.712 L
178 39.013 L
183.233 30.007 L
189 27.576 L
200 24.859 L
209.393 22.472 L
203.926 22.472 L
201.193 22.472 L
200 22.699 L
189 24.73 L
178 29.056 L
174.691 30.007 L
167 36.695 L
161.67 42.712 L
156 48.839 L
149.768 55.417 L
145 61.919 L
139.313 68.122 L
134 73.839 L
127.949 80.827 L
123 84.959 L
114.283 93.533 L
112 95.361 L
102.104 106.238 L
101 107.967 L
90 116.785 L
85.985 118.942 L
79.22 131.648 L
79 131.892 L
68 140.095 L
64.694 144.352 L
57 153.825 L
56.128 157.057 L
52.814 169.762 L
51.474 178.124 L
cp
55.509 106.238 M
57 113.475 L
63.101 106.238 L
68 100.653 L
73.719 93.533 L
79 87.577 L
85.132 80.827 L
90 74.673 L
96.558 68.122 L
101 64.871 L
107.509 55.417 L
112 50.105 L
121.921 42.712 L
123 41.735 L
134 30.15 L
134.201 30.007 L
134 29.946 L
123 26.327 L
112 22.91 L
109.862 22.472 L
105.314 22.472 L
101.619 22.472 L
112 25.282 L
123 29.83 L
123.537 30.007 L
123 30.573 L
112 41.581 L
111.081 42.712 L
101 54.526 L
99.872 55.417 L
90 64.449 L
86.226 68.122 L
79 76.877 L
75.179 80.827 L
68 88.992 L
64.242 93.533 L
57 101.836 L
54.802 93.533 L
52.161 80.827 L
51.474 77.017 L
51.474 78.148 L
51.474 80.827 L
51.474 83.42 L
51.474 86.3 L
52.601 93.533 L
cp
51.474 25.217 M
51.474 25.603 L
53.905 22.472 L
53.727 22.472 L
53.391 22.472 L
51.474 24.942 L
cp
269.443 22.472 M
269.152 22.472 L
271.526 25.467 L
271.526 25.234 L
271.526 24.877 L
269.62 22.472 L
cp
f
GR
GS
0.094 GC
N
51.474 250.002 M
51.474 250.409 L
53.937 253.528 L
54.106 253.528 L
54.433 253.528 L
51.474 249.781 L
cp
109.998 253.528 M
111.04 253.528 L
112 253.347 L
123 251.813 L
134 246.799 L
136.194 245.992 L
145 239.069 L
150.811 233.288 L
156 227.574 L
163.442 220.583 L
167 215.467 L
175.151 207.878 L
178 206.283 L
186.858 195.173 L
189 192.627 L
200 182.64 L
200.126 182.467 L
209.628 169.762 L
211 168.541 L
222 157.582 L
222.471 157.057 L
233 148.228 L
236.684 144.352 L
244 135.433 L
247.303 131.648 L
255 124.615 L
259.88 118.942 L
266 110.798 L
267.336 106.238 L
271.106 93.533 L
271.526 90.323 L
271.526 84.716 L
271.526 81.96 L
269.633 93.533 L
266 104.287 L
263.655 106.238 L
255 117.491 L
253.828 118.942 L
244 128.527 L
241.348 131.648 L
233 141.612 L
229.407 144.352 L
222 150.985 L
216.462 157.057 L
211 162.611 L
202.967 169.762 L
200 173.725 L
192.876 182.467 L
189 186.007 L
181.289 195.173 L
178 199.298 L
167 206.431 L
165.035 207.878 L
156 219.983 L
155.59 220.583 L
145 232.38 L
143.925 233.288 L
134 241.667 L
130.988 245.992 L
123 249.863 L
112 251.73 L
104.417 253.528 L
cp
201.065 245.992 M
211 250.299 L
221.421 253.528 L
221.667 253.528 L
222 253.528 L
226.97 253.528 L
230.107 253.528 L
222 252.047 L
211 247.785 L
206.864 245.992 L
211 240.684 L
217.666 233.288 L
222 228.212 L
233 220.803 L
233.221 220.583 L
243.046 207.878 L
244 206.579 L
254.083 195.173 L
255 194.232 L
266 183.659 L
269.654 195.173 L
271.526 205.774 L
271.526 202.459 L
271.526 198.023 L
271.124 195.173 L
267.722 182.467 L
266 176.637 L
260.191 182.467 L
255 187.16 L
247.189 195.173 L
244 198.781 L
237.314 207.878 L
233 213.516 L
222 220.295 L
221.805 220.583 L
211 233.239 L
210.948 233.288 L
cp
268.696 253.528 M
269.057 253.528 L
271.526 250.36 L
271.526 250.107 L
271.526 249.696 L
268.54 253.528 L
cp
52.37 182.467 M
51.474 187.713 L
51.474 192.626 L
51.474 194.12 L
53.963 182.467 L
57 170.729 L
57.933 169.762 L
68 159.965 L
71.517 157.057 L
79 147.683 L
80.785 144.352 L
90 134.005 L
94.28 131.648 L
101 126.86 L
107.774 118.942 L
112 112.965 L
119.375 106.238 L
123 103.133 L
130.316 93.533 L
134 89.889 L
141.649 80.827 L
145 77.052 L
156 68.448 L
156.245 68.122 L
167 56.748 L
168.166 55.417 L
178 45.474 L
180.709 42.712 L
189 30.838 L
190.05 30.007 L
200 27.02 L
211 23.518 L
217.741 22.472 L
211 22.472 L
209.393 22.472 L
200 24.859 L
189 27.576 L
183.233 30.007 L
178 39.013 L
173.869 42.712 L
167 48.145 L
160.344 55.417 L
156 59.598 L
149.31 68.122 L
145 71.498 L
136.72 80.827 L
134 84.05 L
124.414 93.533 L
123 95.387 L
112 104.543 L
110.458 106.238 L
101.941 118.942 L
101 120.043 L
90 126.489 L
86.163 131.648 L
79 139.585 L
73.733 144.352 L
68 151.668 L
63.586 157.057 L
57 163.004 L
55.085 169.762 L
cp
54.802 93.533 M
57 101.836 L
64.242 93.533 L
68 88.992 L
75.179 80.827 L
79 76.877 L
86.226 68.122 L
90 64.449 L
99.872 55.417 L
101 54.526 L
111.081 42.712 L
112 41.581 L
123 30.573 L
123.537 30.007 L
123 29.83 L
112 25.282 L
101.619 22.472 L
101.345 22.472 L
101 22.472 L
95.893 22.472 L
92.523 22.472 L
101 23.95 L
112 27.654 L
117.622 30.007 L
112 35.772 L
106.364 42.712 L
101 48.999 L
92.881 55.417 L
90 58.053 L
79.654 68.122 L
79 68.915 L
68 80.516 L
67.662 80.827 L
57 93.527 L
53.701 80.827 L
51.474 70.947 L
51.474 73.442 L
51.474 77.017 L
52.161 80.827 L
cp
51.474 25.856 M
51.474 26.264 L
54.418 22.472 L
54.261 22.472 L
53.905 22.472 L
51.474 25.603 L
cp
268.99 22.472 M
268.683 22.472 L
271.526 26.058 L
271.526 25.844 L
271.526 25.467 L
269.152 22.472 L
cp
f
GR
GS
0.125 GC
N
51.474 249.349 M
51.474 249.781 L
54.433 253.528 L
54.583 253.528 L
54.929 253.528 L
51.474 249.153 L
cp
98.939 253.528 M
101 253.528 L
104.417 253.528 L
112 251.73 L
123 249.863 L
130.988 245.992 L
134 241.667 L
143.925 233.288 L
145 232.38 L
155.59 220.583 L
156 219.983 L
165.035 207.878 L
167 206.431 L
178 199.298 L
181.289 195.173 L
189 186.007 L
192.876 182.467 L
200 173.725 L
202.967 169.762 L
211 162.611 L
216.462 157.057 L
222 150.985 L
229.407 144.352 L
233 141.612 L
241.348 131.648 L
244 128.527 L
253.828 118.942 L
255 117.491 L
263.655 106.238 L
266 104.287 L
269.633 93.533 L
271.526 81.96 L
271.526 80.827 L
271.526 73.914 L
270.654 80.827 L
268.159 93.533 L
266 99.924 L
258.412 106.238 L
255 110.673 L
248.321 118.942 L
244 123.156 L
236.784 131.648 L
233 136.165 L
222.264 144.352 L
222 144.589 L
211 156.755 L
210.674 157.057 L
200 167.087 L
197.409 169.762 L
189 179.858 L
187.12 182.467 L
178 193.222 L
175.864 195.173 L
167 202.261 L
159.37 207.878 L
156 212.393 L
150.402 220.583 L
145 226.6 L
137.079 233.288 L
134 235.887 L
126.965 245.992 L
123 247.914 L
112 250.113 L
101 253.261 L
cp
206.864 245.992 M
211 247.785 L
222 252.047 L
230.107 253.528 L
231.416 253.528 L
233 253.528 L
235.827 253.528 L
237.107 253.528 L
233 252.788 L
222 250.388 L
212.075 245.992 L
222 234.784 L
223.522 233.288 L
233 224.703 L
237.117 220.583 L
244 211.95 L
248.862 207.878 L
255 200.911 L
259.05 195.173 L
266 188.288 L
268.185 195.173 L
270.877 207.878 L
271.526 212.337 L
271.526 211.097 L
271.526 207.878 L
271.526 206.606 L
271.526 205.774 L
269.654 195.173 L
266 183.659 L
255 194.232 L
254.083 195.173 L
244 206.579 L
243.046 207.878 L
233.221 220.583 L
233 220.803 L
222 228.212 L
217.666 233.288 L
211 240.684 L
cp
268.155 253.528 M
268.54 253.528 L
271.526 249.696 L
271.526 249.468 L
271.526 249.032 L
268.022 253.528 L
cp
51.474 195.173 M
51.474 201.393 L
52.299 195.173 L
55.555 182.467 L
57 176.884 L
63.871 169.762 L
68 165.744 L
78.508 157.057 L
79 156.441 L
85.479 144.352 L
90 139.276 L
101 132.741 L
101.963 131.648 L
112 119.978 L
113.017 118.942 L
123 108.542 L
125.14 106.238 L
134 95.205 L
135.591 93.533 L
145 82.426 L
147.391 80.827 L
156 74.199 L
160.568 68.122 L
167 61.321 L
172.173 55.417 L
178 49.526 L
184.684 42.712 L
189 36.531 L
197.245 30.007 L
200 29.18 L
211 24.972 L
222 22.925 L
224.848 22.472 L
222 22.472 L
217.741 22.472 L
211 23.518 L
200 27.02 L
190.05 30.007 L
189 30.838 L
180.709 42.712 L
178 45.474 L
168.166 55.417 L
167 56.748 L
156.245 68.122 L
156 68.448 L
145 77.052 L
141.649 80.827 L
134 89.889 L
130.316 93.533 L
123 103.133 L
119.375 106.238 L
112 112.965 L
107.774 118.942 L
101 126.86 L
94.28 131.648 L
90 134.005 L
80.785 144.352 L
79 147.683 L
71.517 157.057 L
68 159.965 L
57.933 169.762 L
57 170.729 L
53.963 182.467 L
51.474 194.12 L
cp
53.701 80.827 M
57 93.527 L
67.662 80.827 L
68 80.516 L
79 68.915 L
79.654 68.122 L
90 58.053 L
92.881 55.417 L
101 48.999 L
106.364 42.712 L
112 35.772 L
117.622 30.007 L
112 27.654 L
101 23.95 L
92.523 22.472 L
91.358 22.472 L
90 22.472 L
86.829 22.472 L
85.282 22.472 L
90 23.298 L
101 25.595 L
111.968 30.007 L
101.648 42.712 L
101 43.472 L
90 52.853 L
86.466 55.417 L
79 62.783 L
75.19 68.122 L
68 75.925 L
62.684 80.827 L
57 87.597 L
55.242 80.827 L
51.804 68.122 L
51.474 64.563 L
51.474 65.969 L
51.474 68.122 L
51.474 69.959 L
51.474 70.947 L
cp
51.474 26.492 M
51.474 26.925 L
54.932 22.472 L
54.798 22.472 L
54.418 22.472 L
51.474 26.264 L
cp
268.538 22.472 M
268.215 22.472 L
271.526 26.648 L
271.526 26.456 L
271.526 26.058 L
268.683 22.472 L
cp
f
GR
GS
0.141 GC
N
51.474 248.692 M
51.474 249.153 L
54.929 253.528 L
55.057 253.528 L
55.425 253.528 L
51.474 248.525 L
cp
95.818 253.528 M
98.939 253.528 L
101 253.261 L
112 250.113 L
123 247.914 L
126.965 245.992 L
134 235.887 L
137.079 233.288 L
145 226.6 L
150.402 220.583 L
156 212.393 L
159.37 207.878 L
167 202.261 L
175.864 195.173 L
178 193.222 L
187.12 182.467 L
189 179.858 L
197.409 169.762 L
200 167.087 L
210.674 157.057 L
211 156.755 L
222 144.589 L
222.264 144.352 L
233 136.165 L
236.784 131.648 L
244 123.156 L
248.321 118.942 L
255 110.673 L
258.412 106.238 L
266 99.924 L
268.159 93.533 L
270.654 80.827 L
271.526 73.914 L
271.526 68.122 L
271.526 67.486 L
271.466 68.122 L
269.596 80.827 L
266.686 93.533 L
266 95.562 L
255 105.002 L
253.808 106.238 L
244 118.057 L
243.154 118.942 L
233 130.86 L
232.217 131.648 L
222 140.518 L
217.872 144.352 L
211 151.991 L
205.54 157.057 L
200 162.263 L
192.738 169.762 L
189 174.249 L
183.08 182.467 L
178 188.458 L
170.649 195.173 L
167 198.09 L
156 206.571 L
154.756 207.878 L
145.214 220.583 L
145 220.821 L
134 230.959 L
132.155 233.288 L
123 245.925 L
122.897 245.992 L
112 248.495 L
101 252.185 L
92.003 253.528 L
cp
212.075 245.992 M
222 250.388 L
233 252.788 L
237.107 253.528 L
239.797 253.528 L
242.387 253.528 L
233 251.52 L
222 248.728 L
215.823 245.992 L
222 239.017 L
227.827 233.288 L
233 228.602 L
241.013 220.583 L
244 216.837 L
254.695 207.878 L
255 207.531 L
263.722 195.173 L
266 192.916 L
266.716 195.173 L
269.857 207.878 L
271.526 217.709 L
271.526 215.269 L
271.526 212.337 L
270.877 207.878 L
268.185 195.173 L
266 188.288 L
259.05 195.173 L
255 200.911 L
248.862 207.878 L
244 211.95 L
237.117 220.583 L
233 224.703 L
223.522 233.288 L
222 234.784 L
cp
267.61 253.528 M
268.022 253.528 L
271.526 249.032 L
271.526 248.833 L
271.526 248.368 L
267.505 253.528 L
cp
52.299 195.173 M
51.474 201.393 L
51.474 206.612 L
51.474 207.288 L
53.349 195.173 L
57 182.797 L
57.281 182.467 L
68 170.771 L
69.134 169.762 L
79 160.355 L
81.864 157.057 L
90 144.528 L
90.185 144.352 L
101 136.414 L
105.195 131.648 L
112 123.735 L
116.709 118.942 L
123 112.389 L
128.712 106.238 L
134 99.652 L
139.821 93.533 L
145 87.42 L
154.859 80.827 L
156 79.949 L
164.892 68.122 L
167 65.893 L
176.18 55.417 L
178 53.578 L
188.659 42.712 L
189 42.224 L
200 32.7 L
202.204 30.007 L
211 26.427 L
222 24.038 L
230.559 22.472 L
227.535 22.472 L
224.848 22.472 L
222 22.925 L
211 24.972 L
200 29.18 L
197.245 30.007 L
189 36.531 L
184.684 42.712 L
178 49.526 L
172.173 55.417 L
167 61.321 L
160.568 68.122 L
156 74.199 L
147.391 80.827 L
145 82.426 L
135.591 93.533 L
134 95.205 L
125.14 106.238 L
123 108.542 L
113.017 118.942 L
112 119.978 L
101.963 131.648 L
101 132.741 L
90 139.276 L
85.479 144.352 L
79 156.441 L
78.508 157.057 L
68 165.744 L
63.871 169.762 L
57 176.884 L
55.555 182.467 L
cp
55.242 80.827 M
57 87.597 L
62.684 80.827 L
68 75.925 L
75.19 68.122 L
79 62.783 L
86.466 55.417 L
90 52.853 L
101 43.472 L
101.648 42.712 L
111.968 30.007 L
101 25.595 L
90 23.298 L
85.282 22.472 L
82.79 22.472 L
79.783 22.472 L
90 24.563 L
101 27.241 L
107.878 30.007 L
101 38.405 L
96.661 42.712 L
90 48.49 L
80.455 55.417 L
79 56.853 L
70.96 68.122 L
68 71.334 L
57.705 80.827 L
57 81.667 L
56.782 80.827 L
52.772 68.122 L
51.474 56.143 L
51.474 60.443 L
51.474 64.563 L
51.804 68.122 L
cp
51.474 27.125 M
51.474 27.587 L
55.445 22.472 L
55.337 22.472 L
54.932 22.472 L
51.474 26.925 L
cp
268.088 22.472 M
267.747 22.472 L
271.526 27.239 L
271.526 27.071 L
271.526 26.648 L
268.215 22.472 L
cp
f
GR
GS
0.173 GC
N
51.474 248.032 M
51.474 248.525 L
55.425 253.528 L
55.529 253.528 L
55.921 253.528 L
51.474 247.897 L
cp
85.738 253.528 M
90 253.528 L
92.003 253.528 L
101 252.185 L
112 248.495 L
122.897 245.992 L
123 245.925 L
132.155 233.288 L
134 230.959 L
145 220.821 L
145.214 220.583 L
154.756 207.878 L
156 206.571 L
167 198.09 L
170.649 195.173 L
178 188.458 L
183.08 182.467 L
189 174.249 L
192.738 169.762 L
200 162.263 L
205.54 157.057 L
211 151.991 L
217.872 144.352 L
222 140.518 L
232.217 131.648 L
233 130.86 L
243.154 118.942 L
244 118.057 L
253.808 106.238 L
255 105.002 L
266 95.562 L
266.686 93.533 L
269.596 80.827 L
271.466 68.122 L
271.526 67.486 L
271.526 66.798 L
271.526 60.204 L
270.676 68.122 L
268.538 80.827 L
266 91.217 L
263.883 93.533 L
255 101.466 L
250.397 106.238 L
244 113.947 L
239.226 118.942 L
233 126.251 L
227.632 131.648 L
222 136.537 L
213.586 144.352 L
211 147.227 L
200.405 157.057 L
200 157.438 L
189 169.183 L
188.422 169.762 L
179.04 182.467 L
178 183.694 L
167 194.076 L
165.834 195.173 L
156 203.345 L
151.685 207.878 L
145 216.698 L
140.624 220.583 L
134 226.726 L
128.802 233.288 L
123 241.297 L
115.856 245.992 L
112 246.878 L
101 251.109 L
90 252.971 L
cp
215.823 245.992 M
222 248.728 L
233 251.52 L
242.387 253.528 L
242.952 253.528 L
244 253.528 L
247.577 253.528 L
250.419 253.528 L
244 252.976 L
233 250.252 L
222 247.068 L
219.571 245.992 L
222 243.249 L
232.132 233.288 L
233 232.501 L
244 221.408 L
244.669 220.583 L
255 210.522 L
257.797 207.878 L
266 197.15 L
268.836 207.878 L
271.302 220.583 L
271.526 223.618 L
271.526 222.441 L
271.526 220.583 L
271.526 218.632 L
271.526 217.709 L
269.857 207.878 L
266.716 195.173 L
266 192.916 L
263.722 195.173 L
255 207.531 L
254.695 207.878 L
244 216.837 L
241.013 220.583 L
233 228.602 L
227.827 233.288 L
222 239.017 L
cp
267.062 253.528 M
267.505 253.528 L
271.526 248.368 L
271.526 248.201 L
271.526 247.704 L
266.987 253.528 L
cp
51.474 207.878 M
51.474 214.303 L
52.151 207.878 L
54.398 195.173 L
57 186.355 L
60.314 182.467 L
68 174.081 L
72.853 169.762 L
79 163.902 L
84.944 157.057 L
90 149.272 L
95.189 144.352 L
101 140.087 L
108.427 131.648 L
112 127.493 L
120.401 118.942 L
123 116.235 L
132.283 106.238 L
134 104.1 L
144.052 93.533 L
145 92.414 L
156 83.796 L
158.91 80.827 L
167 70.393 L
168.997 68.122 L
178 57.846 L
179.986 55.417 L
189 46.136 L
193.551 42.712 L
200 37.062 L
205.776 30.007 L
211 27.881 L
222 25.151 L
233 22.874 L
237.762 22.472 L
233 22.472 L
230.559 22.472 L
222 24.038 L
211 26.427 L
202.204 30.007 L
200 32.7 L
189 42.224 L
188.659 42.712 L
178 53.578 L
176.18 55.417 L
167 65.893 L
164.892 68.122 L
156 79.949 L
154.859 80.827 L
145 87.42 L
139.821 93.533 L
134 99.652 L
128.712 106.238 L
123 112.389 L
116.709 118.942 L
112 123.735 L
105.195 131.648 L
101 136.414 L
90.185 144.352 L
90 144.528 L
81.864 157.057 L
79 160.355 L
69.134 169.762 L
68 170.771 L
57.281 182.467 L
57 182.797 L
53.349 195.173 L
51.474 207.288 L
cp
56.782 80.827 M
57 81.667 L
57.705 80.827 L
68 71.334 L
70.96 68.122 L
79 56.853 L
80.455 55.417 L
90 48.49 L
96.661 42.712 L
101 38.405 L
107.878 30.007 L
101 27.241 L
90 24.563 L
79.783 22.472 L
79.501 22.472 L
79 22.472 L
74.569 22.472 L
71.537 22.472 L
79 23.251 L
90 25.828 L
101 28.886 L
103.788 30.007 L
101 33.411 L
91.632 42.712 L
90 44.128 L
79 53.176 L
76.783 55.417 L
68 66.967 L
67.1 68.122 L
57 78.249 L
53.739 68.122 L
52.166 55.417 L
51.474 49.628 L
51.474 51.23 L
51.474 55.417 L
51.474 55.844 L
51.474 56.143 L
52.772 68.122 L
cp
51.474 27.754 M
51.474 28.248 L
55.958 22.472 L
55.881 22.472 L
55.445 22.472 L
51.474 27.587 L
cp
267.641 22.472 M
267.278 22.472 L
271.526 27.829 L
271.526 27.689 L
271.526 27.239 L
267.747 22.472 L
cp
f
GR
GS
0.204 GC
N
51.474 247.366 M
51.474 247.897 L
55.921 253.528 L
55.998 253.528 L
56.418 253.528 L
51.474 247.269 L
cp
81.9 253.528 M
85.738 253.528 L
90 252.971 L
101 251.109 L
112 246.878 L
115.856 245.992 L
123 241.297 L
128.802 233.288 L
134 226.726 L
140.624 220.583 L
145 216.698 L
151.685 207.878 L
156 203.345 L
165.834 195.173 L
167 194.076 L
178 183.694 L
179.04 182.467 L
188.422 169.762 L
189 169.183 L
200 157.438 L
200.405 157.057 L
211 147.227 L
213.586 144.352 L
222 136.537 L
227.632 131.648 L
233 126.251 L
239.226 118.942 L
244 113.947 L
250.397 106.238 L
255 101.466 L
263.883 93.533 L
266 91.217 L
268.538 80.827 L
270.676 68.122 L
271.526 60.204 L
271.526 55.417 L
271.526 54.043 L
271.42 55.417 L
269.885 68.122 L
267.481 80.827 L
266 86.888 L
259.924 93.533 L
255 97.93 L
246.986 106.238 L
244 109.836 L
235.299 118.942 L
233 121.641 L
223.047 131.648 L
222 132.556 L
211 143.088 L
209.552 144.352 L
200 153.749 L
197.533 157.057 L
189 166.286 L
185.531 169.762 L
178 179.65 L
175.206 182.467 L
167 190.427 L
161.953 195.173 L
156 200.12 L
148.614 207.878 L
145 212.646 L
136.061 220.583 L
134 222.494 L
125.449 233.288 L
123 236.668 L
112 244.682 L
110.817 245.992 L
101 250.033 L
90 252.116 L
80.361 253.528 L
cp
219.571 245.992 M
222 247.068 L
233 250.252 L
244 252.976 L
250.419 253.528 L
252.649 253.528 L
255 253.528 L
257.421 253.528 L
259.095 253.528 L
255 253.17 L
244 252.08 L
233 248.984 L
223.428 245.992 L
233 236.499 L
235.781 233.288 L
244 224.944 L
247.535 220.583 L
255 213.313 L
260.748 207.878 L
266 201.01 L
267.816 207.878 L
270.59 220.583 L
271.526 231.849 L
271.526 227.79 L
271.526 223.618 L
271.302 220.583 L
268.836 207.878 L
266 197.15 L
257.797 207.878 L
255 210.522 L
244.669 220.583 L
244 221.408 L
233 232.501 L
232.132 233.288 L
222 243.249 L
cp
266.508 253.528 M
266.987 253.528 L
271.526 247.704 L
271.526 247.575 L
271.526 247.04 L
266.47 253.528 L
cp
52.151 207.878 M
51.474 214.303 L
51.474 219.537 L
51.474 220.07 L
52.92 207.878 L
55.448 195.173 L
57 189.913 L
63.347 182.467 L
68 177.391 L
76.573 169.762 L
79 167.449 L
88.025 157.057 L
90 154.016 L
100.193 144.352 L
101 143.76 L
111.659 131.648 L
112 131.251 L
123 120.074 L
124.131 118.942 L
134 108.364 L
136.073 106.238 L
145 96.805 L
148.34 93.533 L
156 87.299 L
162.345 80.827 L
167 74.823 L
172.893 68.122 L
178 62.293 L
183.623 55.417 L
189 49.882 L
198.53 42.712 L
200 41.424 L
209.348 30.007 L
211 29.335 L
222 26.264 L
233 23.722 L
244 22.667 L
246.702 22.472 L
244 22.472 L
237.762 22.472 L
233 22.874 L
222 25.151 L
211 27.881 L
205.776 30.007 L
200 37.062 L
193.551 42.712 L
189 46.136 L
179.986 55.417 L
178 57.846 L
168.997 68.122 L
167 70.393 L
158.91 80.827 L
156 83.796 L
145 92.414 L
144.052 93.533 L
134 104.1 L
132.283 106.238 L
123 116.235 L
120.401 118.942 L
112 127.493 L
108.427 131.648 L
101 140.087 L
95.189 144.352 L
90 149.272 L
84.944 157.057 L
79 163.902 L
72.853 169.762 L
68 174.081 L
60.314 182.467 L
57 186.355 L
54.398 195.173 L
cp
53.739 68.122 M
57 78.249 L
67.1 68.122 L
68 66.967 L
76.783 55.417 L
79 53.176 L
90 44.128 L
91.632 42.712 L
101 33.411 L
103.788 30.007 L
101 28.886 L
90 25.828 L
79 23.251 L
71.537 22.472 L
69.946 22.472 L
68 22.472 L
65.395 22.472 L
63.824 22.472 L
68 22.889 L
79 24.19 L
90 27.093 L
99.664 30.007 L
90 39.832 L
87.688 42.712 L
79 50.219 L
73.858 55.417 L
68 63.12 L
64.104 68.122 L
57 75.245 L
54.707 68.122 L
52.937 55.417 L
51.474 44.54 L
51.474 47.3 L
51.474 49.628 L
52.166 55.417 L
cp
51.474 28.379 M
51.474 28.909 L
56.472 22.472 L
56.429 22.472 L
55.958 22.472 L
51.474 28.248 L
cp
267.196 22.472 M
266.81 22.472 L
271.526 28.42 L
271.526 28.31 L
271.526 27.829 L
267.278 22.472 L
cp
f
GR
GS
0.22 GC
N
51.474 246.695 M
51.474 247.269 L
56.418 253.528 L
56.462 253.528 L
56.914 253.528 L
51.474 246.641 L
cp
72.165 253.528 M
79 253.528 L
80.361 253.528 L
90 252.116 L
101 250.033 L
110.817 245.992 L
112 244.682 L
123 236.668 L
125.449 233.288 L
134 222.494 L
136.061 220.583 L
145 212.646 L
148.614 207.878 L
156 200.12 L
161.953 195.173 L
167 190.427 L
175.206 182.467 L
178 179.65 L
185.531 169.762 L
189 166.286 L
197.533 157.057 L
200 153.749 L
209.552 144.352 L
211 143.088 L
222 132.556 L
223.047 131.648 L
233 121.641 L
235.299 118.942 L
244 109.836 L
246.986 106.238 L
255 97.93 L
259.924 93.533 L
266 86.888 L
267.481 80.827 L
269.885 68.122 L
271.42 55.417 L
271.526 54.043 L
271.526 52.548 L
271.526 46.951 L
270.8 55.417 L
269.095 68.122 L
266.423 80.827 L
266 82.559 L
255.965 93.533 L
255 94.394 L
244 105.878 L
243.6 106.238 L
233 117.525 L
231.345 118.942 L
222 128.498 L
219.473 131.648 L
211 139.898 L
205.901 144.352 L
200 150.158 L
194.854 157.057 L
189 163.389 L
182.64 169.762 L
178 175.854 L
171.444 182.467 L
167 186.778 L
158.072 195.173 L
156 196.895 L
145.543 207.878 L
145 208.594 L
134 219.153 L
132.606 220.583 L
123 232.442 L
122.074 233.288 L
112 241.785 L
108.202 245.992 L
101 248.957 L
90 251.26 L
79 253.046 L
cp
223.428 245.992 M
233 248.984 L
244 252.08 L
255 253.17 L
259.095 253.528 L
262.126 253.528 L
266 253.528 L
266.47 253.528 L
271.526 247.04 L
271.526 246.955 L
271.526 246.376 L
266 253.466 L
255 252.419 L
244 251.183 L
233 247.716 L
227.484 245.992 L
233 240.522 L
239.264 233.288 L
244 228.48 L
250.4 220.583 L
255 216.103 L
263.7 207.878 L
266 204.869 L
266.795 207.878 L
269.877 220.583 L
271.051 233.288 L
271.526 241.085 L
271.526 237.962 L
271.526 233.288 L
271.526 232.429 L
271.526 231.849 L
270.59 220.583 L
267.816 207.878 L
266 201.01 L
260.748 207.878 L
255 213.313 L
247.535 220.583 L
244 224.944 L
235.781 233.288 L
233 236.499 L
cp
51.474 220.583 M
51.474 227.965 L
52.014 220.583 L
53.689 207.878 L
56.498 195.173 L
57 193.471 L
66.381 182.467 L
68 180.7 L
79 170.992 L
80.12 169.762 L
90 158.388 L
91.195 157.057 L
101 147.169 L
103.802 144.352 L
112 135.042 L
115.365 131.648 L
123 123.895 L
127.952 118.942 L
134 112.46 L
140.064 106.238 L
145 101.022 L
152.645 93.533 L
156 90.802 L
165.779 80.827 L
167 79.253 L
176.789 68.122 L
178 66.741 L
187.261 55.417 L
189 53.627 L
200 44.786 L
202.092 42.712 L
211 31.937 L
213.037 30.007 L
222 27.377 L
233 24.569 L
244 23.387 L
255 22.521 L
256.115 22.472 L
255 22.472 L
246.702 22.472 L
244 22.667 L
233 23.722 L
222 26.264 L
211 29.335 L
209.348 30.007 L
200 41.424 L
198.53 42.712 L
189 49.882 L
183.623 55.417 L
178 62.293 L
172.893 68.122 L
167 74.823 L
162.345 80.827 L
156 87.299 L
148.34 93.533 L
145 96.805 L
136.073 106.238 L
134 108.364 L
124.131 118.942 L
123 120.074 L
112 131.251 L
111.659 131.648 L
101 143.76 L
100.193 144.352 L
90 154.016 L
88.025 157.057 L
79 167.449 L
76.573 169.762 L
68 177.391 L
63.347 182.467 L
57 189.913 L
55.448 195.173 L
52.92 207.878 L
51.474 220.07 L
cp
54.707 68.122 M
57 75.245 L
64.104 68.122 L
68 63.12 L
73.858 55.417 L
79 50.219 L
87.688 42.712 L
90 39.832 L
99.664 30.007 L
90 27.093 L
79 24.19 L
68 22.889 L
63.824 22.472 L
60.976 22.472 L
57.171 22.472 L
68 23.674 L
79 25.128 L
90 28.358 L
95.469 30.007 L
90 35.568 L
84.265 42.712 L
79 47.261 L
70.933 55.417 L
68 59.274 L
61.107 68.122 L
57 72.241 L
55.674 68.122 L
53.707 55.417 L
51.809 42.712 L
51.474 36.402 L
51.474 39.129 L
51.474 42.712 L
51.474 43.972 L
51.474 44.54 L
52.937 55.417 L
cp
51.474 28.997 M
51.474 29.57 L
56.985 22.472 L
56.984 22.472 L
56.472 22.472 L
51.474 28.909 L
cp
266.754 22.472 M
266.342 22.472 L
271.526 29.01 L
271.526 28.936 L
271.526 28.42 L
266.81 22.472 L
cp
f
GR
GS
0.251 GC
N
51.474 246.015 M
51.474 246.641 L
56.914 253.528 L
56.921 253.528 L
57 253.528 L
64.027 253.528 L
68 253.528 L
72.165 253.528 L
79 253.046 L
90 251.26 L
101 248.957 L
108.202 245.992 L
112 241.785 L
122.074 233.288 L
123 232.442 L
132.606 220.583 L
134 219.153 L
145 208.594 L
145.543 207.878 L
156 196.895 L
158.072 195.173 L
167 186.778 L
171.444 182.467 L
178 175.854 L
182.64 169.762 L
189 163.389 L
194.854 157.057 L
200 150.158 L
205.901 144.352 L
211 139.898 L
219.473 131.648 L
222 128.498 L
231.345 118.942 L
233 117.525 L
243.6 106.238 L
244 105.878 L
255 94.394 L
255.965 93.533 L
266 82.559 L
266.423 80.827 L
269.095 68.122 L
270.8 55.417 L
271.526 46.951 L
271.526 42.712 L
271.526 38.725 L
271.379 42.712 L
270.18 55.417 L
268.304 68.122 L
266 78.659 L
264.315 80.827 L
255 91.174 L
252.935 93.533 L
244 102.988 L
240.389 106.238 L
233 114.106 L
227.354 118.942 L
222 124.418 L
216.198 131.648 L
211 136.709 L
202.25 144.352 L
200 146.566 L
192.175 157.057 L
189 160.492 L
179.749 169.762 L
178 172.059 L
167.681 182.467 L
167 183.128 L
156 193.894 L
154.741 195.173 L
145 205.517 L
142.819 207.878 L
134 216.548 L
130.066 220.583 L
123 229.306 L
118.64 233.288 L
112 238.888 L
105.588 245.992 L
101 247.881 L
90 250.405 L
79 252.366 L
68 253.221 L
57 253.009 L
51.474 246.013 L
cp
227.484 245.992 M
233 247.716 L
244 251.183 L
255 252.419 L
266 253.466 L
271.526 246.376 L
271.526 246.342 L
271.526 245.992 L
271.526 243.217 L
271.526 241.085 L
271.051 233.288 L
269.877 220.583 L
266.795 207.878 L
266 204.869 L
263.7 207.878 L
255 216.103 L
250.4 220.583 L
244 228.48 L
239.264 233.288 L
233 240.522 L
cp
233 246.449 M
231.541 245.992 L
233 244.546 L
242.747 233.288 L
244 232.016 L
253.266 220.583 L
255 218.894 L
266 208.478 L
269.165 220.583 L
270.456 233.288 L
271.308 245.992 L
266 252.802 L
255 251.668 L
244 250.286 L
cp
51.474 233.288 M
51.474 244.434 L
51.592 233.288 L
52.616 220.583 L
54.458 207.878 L
57 196.905 L
58.744 195.173 L
68 184.297 L
69.891 182.467 L
79 174.528 L
83.341 169.762 L
90 162.097 L
94.525 157.057 L
101 150.528 L
107.144 144.352 L
112 138.837 L
119.128 131.648 L
123 127.715 L
131.773 118.942 L
134 116.555 L
144.055 106.238 L
145 105.238 L
156 94.393 L
156.651 93.533 L
167 82.801 L
168.646 80.827 L
178 70.135 L
180.192 68.122 L
189 57.432 L
190.831 55.417 L
200 47.728 L
205.062 42.712 L
211 35.529 L
216.829 30.007 L
222 28.489 L
233 25.417 L
244 24.107 L
255 23.167 L
266 22.632 L
271.526 29.601 L
271.526 29.568 L
271.526 29.01 L
266.342 22.472 L
266.316 22.472 L
266 22.472 L
256.115 22.472 L
255 22.521 L
244 23.387 L
233 24.569 L
222 27.377 L
213.037 30.007 L
211 31.937 L
202.092 42.712 L
200 44.786 L
189 53.627 L
187.261 55.417 L
178 66.741 L
176.789 68.122 L
167 79.253 L
165.779 80.827 L
156 90.802 L
152.645 93.533 L
145 101.022 L
140.064 106.238 L
134 112.46 L
127.952 118.942 L
123 123.895 L
115.365 131.648 L
112 135.042 L
103.802 144.352 L
101 147.169 L
91.195 157.057 L
90 158.388 L
80.12 169.762 L
79 170.992 L
68 180.7 L
66.381 182.467 L
57 193.471 L
56.498 195.173 L
53.689 207.878 L
52.014 220.583 L
51.474 227.965 L
cp
55.674 68.122 M
57 72.241 L
61.107 68.122 L
68 59.274 L
70.933 55.417 L
79 47.261 L
84.265 42.712 L
90 35.568 L
95.469 30.007 L
90 28.358 L
79 25.128 L
68 23.674 L
57.171 22.472 L
57.104 22.472 L
57 22.472 L
56.985 22.472 L
51.474 29.57 L
51.474 29.608 L
51.474 30.007 L
51.474 33.443 L
51.474 36.402 L
51.809 42.712 L
53.707 55.417 L
cp
57 69.236 M
56.641 68.122 L
54.478 55.417 L
52.39 42.712 L
51.648 30.007 L
57 23.115 L
68 24.459 L
79 26.067 L
90 29.623 L
91.275 30.007 L
90 31.303 L
80.842 42.712 L
79 44.304 L
68.008 55.417 L
68 55.427 L
58.111 68.122 L
cp
f
GR
GS
0.282 GC
N
51.474 245.992 M
51.474 246.013 L
57 253.009 L
68 253.221 L
79 252.366 L
90 250.405 L
101 247.881 L
105.588 245.992 L
112 238.888 L
118.64 233.288 L
123 229.306 L
130.066 220.583 L
134 216.548 L
142.819 207.878 L
145 205.517 L
154.741 195.173 L
156 193.894 L
167 183.128 L
167.681 182.467 L
178 172.059 L
179.749 169.762 L
189 160.492 L
192.175 157.057 L
200 146.566 L
202.25 144.352 L
211 136.709 L
216.198 131.648 L
222 124.418 L
227.354 118.942 L
233 114.106 L
240.389 106.238 L
244 102.988 L
252.935 93.533 L
255 91.174 L
264.315 80.827 L
266 78.659 L
268.304 68.122 L
270.18 55.417 L
271.379 42.712 L
271.526 38.725 L
271.526 30.007 L
271.526 29.601 L
266 22.632 L
255 23.167 L
244 24.107 L
233 25.417 L
222 28.489 L
216.829 30.007 L
211 35.529 L
205.062 42.712 L
200 47.728 L
190.831 55.417 L
189 57.432 L
180.192 68.122 L
178 70.135 L
168.646 80.827 L
167 82.801 L
156.651 93.533 L
156 94.393 L
145 105.238 L
144.055 106.238 L
134 116.555 L
131.773 118.942 L
123 127.715 L
119.128 131.648 L
112 138.837 L
107.144 144.352 L
101 150.528 L
94.525 157.057 L
90 162.097 L
83.341 169.762 L
79 174.528 L
69.891 182.467 L
68 184.297 L
58.744 195.173 L
57 196.905 L
54.458 207.878 L
52.616 220.583 L
51.592 233.288 L
51.474 244.434 L
cp
57 252.381 M
51.953 245.992 L
52.101 233.288 L
53.217 220.583 L
55.227 207.878 L
57 200.224 L
62.086 195.173 L
68 188.224 L
73.947 182.467 L
79 178.064 L
86.563 169.762 L
90 165.806 L
97.856 157.057 L
101 153.886 L
110.486 144.352 L
112 142.632 L
122.89 131.648 L
123 131.536 L
134 120.115 L
135.049 118.942 L
145 108.291 L
147.997 106.238 L
156 98.292 L
159.602 93.533 L
167 85.861 L
171.2 80.827 L
178 73.054 L
183.372 68.122 L
189 61.291 L
194.339 55.417 L
200 50.67 L
208.031 42.712 L
211 39.121 L
220.62 30.007 L
222 29.602 L
233 26.265 L
244 24.827 L
255 23.813 L
266 23.223 L
271.38 30.007 L
270.868 42.712 L
269.56 55.417 L
267.514 68.122 L
266 75.044 L
261.506 80.827 L
255 88.054 L
250.204 93.533 L
244 100.098 L
237.178 106.238 L
233 110.687 L
223.363 118.942 L
222 120.337 L
212.923 131.648 L
211 133.52 L
200 143.334 L
199.124 144.352 L
189.497 157.057 L
189 157.595 L
178 168.514 L
176.948 169.762 L
167 180.182 L
164.739 182.467 L
156 191.15 L
152.04 195.173 L
145 202.649 L
140.169 207.878 L
134 213.943 L
127.525 220.583 L
123 226.169 L
115.205 233.288 L
112 235.991 L
102.973 245.992 L
101 246.804 L
90 249.549 L
79 251.685 L
68 252.62 L
cp
231.541 245.992 M
233 246.449 L
244 250.286 L
255 251.668 L
266 252.802 L
271.308 245.992 L
270.456 233.288 L
269.165 220.583 L
266 208.478 L
255 218.894 L
253.266 220.583 L
244 232.016 L
242.747 233.288 L
233 244.546 L
cp
244 249.39 M
234.59 245.992 L
244 235.124 L
246.049 233.288 L
255 222.154 L
256.132 220.583 L
266 211.202 L
268.453 220.583 L
269.861 233.288 L
270.79 245.992 L
266 252.138 L
255 250.917 L
cp
56.641 68.122 M
57 69.236 L
58.111 68.122 L
68 55.427 L
68.008 55.417 L
79 44.304 L
80.842 42.712 L
90 31.303 L
91.275 30.007 L
90 29.623 L
79 26.067 L
68 24.459 L
57 23.115 L
51.648 30.007 L
52.39 42.712 L
54.478 55.417 L
cp
57 65.367 M
55.249 55.417 L
52.971 42.712 L
52.161 30.007 L
57 23.776 L
68 25.244 L
79 27.005 L
88.034 30.007 L
79 41.109 L
77.541 42.712 L
68 52.263 L
64.644 55.417 L
cp
f
GR
GS
0.298 GC
N
51.953 245.992 M
57 252.381 L
68 252.62 L
79 251.685 L
90 249.549 L
101 246.804 L
102.973 245.992 L
112 235.991 L
115.205 233.288 L
123 226.169 L
127.525 220.583 L
134 213.943 L
140.169 207.878 L
145 202.649 L
152.04 195.173 L
156 191.15 L
164.739 182.467 L
167 180.182 L
176.948 169.762 L
178 168.514 L
189 157.595 L
189.497 157.057 L
199.124 144.352 L
200 143.334 L
211 133.52 L
212.923 131.648 L
222 120.337 L
223.363 118.942 L
233 110.687 L
237.178 106.238 L
244 100.098 L
250.204 93.533 L
255 88.054 L
261.506 80.827 L
266 75.044 L
267.514 68.122 L
269.56 55.417 L
270.868 42.712 L
271.38 30.007 L
266 23.223 L
255 23.813 L
244 24.827 L
233 26.265 L
222 29.602 L
220.62 30.007 L
211 39.121 L
208.031 42.712 L
200 50.67 L
194.339 55.417 L
189 61.291 L
183.372 68.122 L
178 73.054 L
171.2 80.827 L
167 85.861 L
159.602 93.533 L
156 98.292 L
147.997 106.238 L
145 108.291 L
135.049 118.942 L
134 120.115 L
123 131.536 L
122.89 131.648 L
112 142.632 L
110.486 144.352 L
101 153.886 L
97.856 157.057 L
90 165.806 L
86.563 169.762 L
79 178.064 L
73.947 182.467 L
68 188.224 L
62.086 195.173 L
57 200.224 L
55.227 207.878 L
53.217 220.583 L
52.101 233.288 L
cp
57 251.753 M
52.449 245.992 L
52.609 233.288 L
53.819 220.583 L
55.996 207.878 L
57 203.544 L
65.427 195.173 L
68 192.15 L
78.004 182.467 L
79 181.599 L
89.784 169.762 L
90 169.514 L
101 157.219 L
101.128 157.057 L
112 145.663 L
113.523 144.352 L
123 134.467 L
125.622 131.648 L
134 122.927 L
137.564 118.942 L
145 110.983 L
151.924 106.238 L
156 102.191 L
162.554 93.533 L
167 88.922 L
173.754 80.827 L
178 75.974 L
186.552 68.122 L
189 65.151 L
197.847 55.417 L
200 53.612 L
211 42.712 L
222 31.965 L
223.727 30.007 L
233 27.113 L
244 25.547 L
255 24.459 L
266 23.813 L
270.912 30.007 L
270.357 42.712 L
268.94 55.417 L
266.723 68.122 L
266 71.43 L
258.698 80.827 L
255 84.935 L
247.474 93.533 L
244 97.209 L
233.967 106.238 L
233 107.268 L
222 116.615 L
220.255 118.942 L
211 130.304 L
209.81 131.648 L
200 140.68 L
196.843 144.352 L
189 154.623 L
186.393 157.057 L
178 165.351 L
174.284 169.762 L
167 177.392 L
161.978 182.467 L
156 188.407 L
149.34 195.173 L
145 199.781 L
137.519 207.878 L
134 211.337 L
124.985 220.583 L
123 223.033 L
112 233.063 L
111.744 233.288 L
101 244.972 L
100.207 245.992 L
90 248.694 L
79 251.005 L
68 252.02 L
cp
234.59 245.992 M
244 249.39 L
255 250.917 L
266 252.138 L
270.79 245.992 L
269.861 233.288 L
268.453 220.583 L
266 211.202 L
256.132 220.583 L
255 222.154 L
246.049 233.288 L
244 235.124 L
cp
244 248.493 M
237.073 245.992 L
244 237.992 L
249.25 233.288 L
255 226.135 L
258.997 220.583 L
266 213.926 L
267.741 220.583 L
269.266 233.288 L
270.273 245.992 L
266 251.475 L
255 250.166 L
cp
55.249 55.417 M
57 65.367 L
64.644 55.417 L
68 52.263 L
77.541 42.712 L
79 41.109 L
88.034 30.007 L
79 27.005 L
68 25.244 L
57 23.776 L
52.161 30.007 L
52.971 42.712 L
cp
57 60.988 M
56.02 55.417 L
53.552 42.712 L
52.674 30.007 L
57 24.437 L
68 26.03 L
79 27.944 L
85.209 30.007 L
79 37.638 L
74.381 42.712 L
68 49.1 L
61.28 55.417 L
cp
f
GR
GS
0.333 GC
N
52.449 245.992 M
57 251.753 L
68 252.02 L
79 251.005 L
90 248.694 L
100.207 245.992 L
101 244.972 L
111.744 233.288 L
112 233.063 L
123 223.033 L
124.985 220.583 L
134 211.337 L
137.519 207.878 L
145 199.781 L
149.34 195.173 L
156 188.407 L
161.978 182.467 L
167 177.392 L
174.284 169.762 L
178 165.351 L
186.393 157.057 L
189 154.623 L
196.843 144.352 L
200 140.68 L
209.81 131.648 L
211 130.304 L
220.255 118.942 L
222 116.615 L
233 107.268 L
233.967 106.238 L
244 97.209 L
247.474 93.533 L
255 84.935 L
258.698 80.827 L
266 71.43 L
266.723 68.122 L
268.94 55.417 L
270.357 42.712 L
270.912 30.007 L
266 23.813 L
255 24.459 L
244 25.547 L
233 27.113 L
223.727 30.007 L
222 31.965 L
211 42.712 L
200 53.612 L
197.847 55.417 L
189 65.151 L
186.552 68.122 L
178 75.974 L
173.754 80.827 L
167 88.922 L
162.554 93.533 L
156 102.191 L
151.924 106.238 L
145 110.983 L
137.564 118.942 L
134 122.927 L
125.622 131.648 L
123 134.467 L
113.523 144.352 L
112 145.663 L
101.128 157.057 L
101 157.219 L
90 169.514 L
89.784 169.762 L
79 181.599 L
78.004 182.467 L
68 192.15 L
65.427 195.173 L
57 203.544 L
55.996 207.878 L
53.819 220.583 L
52.609 233.288 L
cp
57 251.125 M
52.946 245.992 L
53.117 233.288 L
54.42 220.583 L
56.765 207.878 L
57 206.863 L
68 195.764 L
68.741 195.173 L
79 184.901 L
80.897 182.467 L
90 172.366 L
92.408 169.762 L
101 160.116 L
103.415 157.057 L
112 148.06 L
116.307 144.352 L
123 137.372 L
128.323 131.648 L
134 125.738 L
140.078 118.942 L
145 113.675 L
155.852 106.238 L
156 106.09 L
165.505 93.533 L
167 91.982 L
176.308 80.827 L
178 78.893 L
189 69.035 L
189.793 68.122 L
200 56.883 L
201.133 55.417 L
211 45.624 L
214.149 42.712 L
222 35.042 L
226.443 30.007 L
233 27.96 L
244 26.268 L
255 25.104 L
266 24.404 L
270.444 30.007 L
269.846 42.712 L
268.32 55.417 L
266 67.84 L
265.711 68.122 L
255.89 80.827 L
255 81.816 L
244.743 93.533 L
244 94.319 L
233 103.849 L
230.081 106.238 L
222 113.079 L
217.605 118.942 L
211 127.051 L
206.928 131.648 L
200 138.026 L
194.561 144.352 L
189 151.635 L
183.192 157.057 L
178 162.188 L
171.62 169.762 L
167 174.601 L
159.216 182.467 L
156 185.663 L
146.639 195.173 L
145 196.913 L
134.869 207.878 L
134 208.732 L
123 219.856 L
122.18 220.583 L
112 229.704 L
107.923 233.288 L
101 240.817 L
96.975 245.992 L
90 247.838 L
79 250.324 L
68 251.42 L
cp
237.073 245.992 M
244 248.493 L
255 250.166 L
266 251.475 L
270.273 245.992 L
269.266 233.288 L
267.741 220.583 L
266 213.926 L
258.997 220.583 L
255 226.135 L
249.25 233.288 L
244 237.992 L
cp
244 247.597 M
239.556 245.992 L
244 240.86 L
252.451 233.288 L
255 230.116 L
261.863 220.583 L
266 216.65 L
267.028 220.583 L
268.671 233.288 L
269.755 245.992 L
266 250.811 L
255 249.415 L
cp
56.02 55.417 M
57 60.988 L
61.28 55.417 L
68 49.1 L
74.381 42.712 L
79 37.638 L
85.209 30.007 L
79 27.944 L
68 26.03 L
57 24.437 L
52.674 30.007 L
53.552 42.712 L
cp
57 56.609 M
56.79 55.417 L
54.132 42.712 L
53.188 30.007 L
57 25.098 L
68 26.815 L
79 28.883 L
82.385 30.007 L
79 34.167 L
71.222 42.712 L
68 45.938 L
57.915 55.417 L
cp
f
GR
GS
0.349 GC
N
52.946 245.992 M
57 251.125 L
68 251.42 L
79 250.324 L
90 247.838 L
96.975 245.992 L
101 240.817 L
107.923 233.288 L
112 229.704 L
122.18 220.583 L
123 219.856 L
134 208.732 L
134.869 207.878 L
145 196.913 L
146.639 195.173 L
156 185.663 L
159.216 182.467 L
167 174.601 L
171.62 169.762 L
178 162.188 L
183.192 157.057 L
189 151.635 L
194.561 144.352 L
200 138.026 L
206.928 131.648 L
211 127.051 L
217.605 118.942 L
222 113.079 L
230.081 106.238 L
233 103.849 L
244 94.319 L
244.743 93.533 L
255 81.816 L
255.89 80.827 L
265.711 68.122 L
266 67.84 L
268.32 55.417 L
269.846 42.712 L
270.444 30.007 L
266 24.404 L
255 25.104 L
244 26.268 L
233 27.96 L
226.443 30.007 L
222 35.042 L
214.149 42.712 L
211 45.624 L
201.133 55.417 L
200 56.883 L
189.793 68.122 L
189 69.035 L
178 78.893 L
176.308 80.827 L
167 91.982 L
165.505 93.533 L
156 106.09 L
155.852 106.238 L
145 113.675 L
140.078 118.942 L
134 125.738 L
128.323 131.648 L
123 137.372 L
116.307 144.352 L
112 148.06 L
103.415 157.057 L
101 160.116 L
92.408 169.762 L
90 172.366 L
80.897 182.467 L
79 184.901 L
68.741 195.173 L
68 195.764 L
57 206.863 L
56.765 207.878 L
54.42 220.583 L
53.117 233.288 L
cp
57 250.497 M
53.442 245.992 L
53.626 233.288 L
55.022 220.583 L
57 210.092 L
58.733 207.878 L
68 198.334 L
71.963 195.173 L
79 188.126 L
83.412 182.467 L
90 175.157 L
94.988 169.762 L
101 163.013 L
105.702 157.057 L
112 150.457 L
119.092 144.352 L
123 140.276 L
131.023 131.648 L
134 128.549 L
142.593 118.942 L
145 116.366 L
156 108.411 L
158.331 106.238 L
167 95.072 L
168.113 93.533 L
178 81.735 L
179.606 80.827 L
189 73.002 L
193.24 68.122 L
200 60.679 L
204.067 55.417 L
211 48.536 L
217.299 42.712 L
222 38.119 L
229.159 30.007 L
233 28.808 L
244 26.988 L
255 25.75 L
266 24.994 L
269.975 30.007 L
269.335 42.712 L
267.7 55.417 L
266 64.521 L
262.312 68.122 L
255 77.765 L
253.264 80.827 L
244 91.418 L
241.083 93.533 L
233 100.429 L
225.904 106.238 L
222 109.543 L
214.956 118.942 L
211 123.798 L
204.045 131.648 L
200 135.372 L
192.279 144.352 L
189 148.646 L
179.992 157.057 L
178 159.026 L
168.955 169.762 L
167 171.811 L
156.455 182.467 L
156 182.92 L
145 193.886 L
143.815 195.173 L
134 205.704 L
131.746 207.878 L
123 216.536 L
118.431 220.583 L
112 226.345 L
104.103 233.288 L
101 236.662 L
93.742 245.992 L
90 246.983 L
79 249.644 L
68 250.82 L
cp
239.556 245.992 M
244 247.597 L
255 249.415 L
266 250.811 L
269.755 245.992 L
268.671 233.288 L
267.028 220.583 L
266 216.65 L
261.863 220.583 L
255 230.116 L
252.451 233.288 L
244 240.86 L
cp
244 246.7 M
242.039 245.992 L
244 243.728 L
255 233.975 L
255.606 233.288 L
264.728 220.583 L
266 219.374 L
266.316 220.583 L
268.076 233.288 L
269.238 245.992 L
266 250.147 L
255 248.664 L
cp
56.79 55.417 M
57 56.609 L
57.915 55.417 L
68 45.938 L
71.222 42.712 L
79 34.167 L
82.385 30.007 L
79 28.883 L
68 26.815 L
57 25.098 L
53.188 30.007 L
54.132 42.712 L
cp
57 53.435 M
54.713 42.712 L
53.701 30.007 L
57 25.759 L
68 27.6 L
79 29.821 L
79.56 30.007 L
79 30.696 L
68.062 42.712 L
68 42.775 L
cp
f
GR
GS
0.38 GC
N
53.442 245.992 M
57 250.497 L
68 250.82 L
79 249.644 L
90 246.983 L
93.742 245.992 L
101 236.662 L
104.103 233.288 L
112 226.345 L
118.431 220.583 L
123 216.536 L
131.746 207.878 L
134 205.704 L
143.815 195.173 L
145 193.886 L
156 182.92 L
156.455 182.467 L
167 171.811 L
168.955 169.762 L
178 159.026 L
179.992 157.057 L
189 148.646 L
192.279 144.352 L
200 135.372 L
204.045 131.648 L
211 123.798 L
214.956 118.942 L
222 109.543 L
225.904 106.238 L
233 100.429 L
241.083 93.533 L
244 91.418 L
253.264 80.827 L
255 77.765 L
262.312 68.122 L
266 64.521 L
267.7 55.417 L
269.335 42.712 L
269.975 30.007 L
266 24.994 L
255 25.75 L
244 26.988 L
233 28.808 L
229.159 30.007 L
222 38.119 L
217.299 42.712 L
211 48.536 L
204.067 55.417 L
200 60.679 L
193.24 68.122 L
189 73.002 L
179.606 80.827 L
178 81.735 L
168.113 93.533 L
167 95.072 L
158.331 106.238 L
156 108.411 L
145 116.366 L
142.593 118.942 L
134 128.549 L
131.023 131.648 L
123 140.276 L
119.092 144.352 L
112 150.457 L
105.702 157.057 L
101 163.013 L
94.988 169.762 L
90 175.157 L
83.412 182.467 L
79 188.126 L
71.963 195.173 L
68 198.334 L
58.733 207.878 L
57 210.092 L
55.022 220.583 L
53.626 233.288 L
cp
57 249.869 M
53.938 245.992 L
54.134 233.288 L
55.623 220.583 L
57 213.281 L
61.229 207.878 L
68 200.904 L
75.184 195.173 L
79 191.352 L
85.927 182.467 L
90 177.947 L
97.569 169.762 L
101 165.91 L
107.989 157.057 L
112 152.854 L
121.877 144.352 L
123 143.181 L
133.724 131.648 L
134 131.36 L
145 119.089 L
145.127 118.942 L
156 110.67 L
160.753 106.238 L
167 98.191 L
170.369 93.533 L
178 84.427 L
184.369 80.827 L
189 76.969 L
196.686 68.122 L
200 64.474 L
207.001 55.417 L
211 51.448 L
220.448 42.712 L
222 41.196 L
231.874 30.007 L
233 29.656 L
244 27.708 L
255 26.396 L
266 25.585 L
269.507 30.007 L
268.824 42.712 L
267.08 55.417 L
266 61.202 L
258.913 68.122 L
255 73.282 L
250.723 80.827 L
244 88.514 L
237.076 93.533 L
233 97.01 L
222 106.035 L
221.834 106.238 L
212.306 118.942 L
211 120.545 L
201.163 131.648 L
200 132.718 L
189.997 144.352 L
189 145.658 L
178 155.465 L
176.818 157.057 L
167 168.769 L
166.01 169.762 L
156 179.458 L
153.237 182.467 L
145 190.615 L
140.8 195.173 L
134 202.469 L
128.394 207.878 L
123 213.217 L
114.683 220.583 L
112 222.987 L
101 232.793 L
100.552 233.288 L
90.51 245.992 L
90 246.128 L
79 248.963 L
68 250.22 L
cp
242.039 245.992 M
244 246.7 L
255 248.664 L
266 250.147 L
269.238 245.992 L
268.076 233.288 L
266.316 220.583 L
266 219.374 L
264.728 220.583 L
255.606 233.288 L
255 233.975 L
244 243.728 L
cp
255 247.913 M
244.836 245.992 L
255 237.353 L
258.584 233.288 L
266 222.902 L
267.481 233.288 L
268.721 245.992 L
266 249.483 L
cp
54.713 42.712 M
57 53.435 L
68 42.775 L
68.062 42.712 L
79 30.696 L
79.56 30.007 L
79 29.821 L
68 27.6 L
57 25.759 L
53.701 30.007 L
cp
57 50.711 M
55.294 42.712 L
54.215 30.007 L
57 26.421 L
68 28.385 L
75.925 30.007 L
68 38.624 L
65.247 42.712 L
cp
f
GR
GS
0.412 GC
N
53.938 245.992 M
57 249.869 L
68 250.22 L
79 248.963 L
90 246.128 L
90.51 245.992 L
100.552 233.288 L
101 232.793 L
112 222.987 L
114.683 220.583 L
123 213.217 L
128.394 207.878 L
134 202.469 L
140.8 195.173 L
145 190.615 L
153.237 182.467 L
156 179.458 L
166.01 169.762 L
167 168.769 L
176.818 157.057 L
178 155.465 L
189 145.658 L
189.997 144.352 L
200 132.718 L
201.163 131.648 L
211 120.545 L
212.306 118.942 L
221.834 106.238 L
222 106.035 L
233 97.01 L
237.076 93.533 L
244 88.514 L
250.723 80.827 L
255 73.282 L
258.913 68.122 L
266 61.202 L
267.08 55.417 L
268.824 42.712 L
269.507 30.007 L
266 25.585 L
255 26.396 L
244 27.708 L
233 29.656 L
231.874 30.007 L
222 41.196 L
220.448 42.712 L
211 51.448 L
207.001 55.417 L
200 64.474 L
196.686 68.122 L
189 76.969 L
184.369 80.827 L
178 84.427 L
170.369 93.533 L
167 98.191 L
160.753 106.238 L
156 110.67 L
145.127 118.942 L
145 119.089 L
134 131.36 L
133.724 131.648 L
123 143.181 L
121.877 144.352 L
112 152.854 L
107.989 157.057 L
101 165.91 L
97.569 169.762 L
90 177.947 L
85.927 182.467 L
79 191.352 L
75.184 195.173 L
68 200.904 L
61.229 207.878 L
57 213.281 L
55.623 220.583 L
54.134 233.288 L
cp
57 249.241 M
54.434 245.992 L
54.643 233.288 L
56.225 220.583 L
57 216.471 L
63.724 207.878 L
68 203.474 L
78.405 195.173 L
79 194.577 L
88.442 182.467 L
90 180.738 L
100.149 169.762 L
101 168.808 L
110.276 157.057 L
112 155.251 L
123 146.374 L
125.115 144.352 L
134 134.999 L
136.766 131.648 L
145 122.508 L
148.097 118.942 L
156 112.929 L
163.175 106.238 L
167 101.311 L
172.625 93.533 L
178 87.119 L
189 80.894 L
189.07 80.827 L
200 68.236 L
200.118 68.122 L
209.935 55.417 L
211 54.36 L
222 44.392 L
223.629 42.712 L
233 32.13 L
235.318 30.007 L
244 28.428 L
255 27.042 L
266 26.175 L
269.039 30.007 L
268.313 42.712 L
266.46 55.417 L
266 57.882 L
255.514 68.122 L
255 68.8 L
248.183 80.827 L
244 85.609 L
233.069 93.533 L
233 93.591 L
222 102.933 L
219.287 106.238 L
211 117.229 L
209 118.942 L
200 129.015 L
197.29 131.648 L
189 141.357 L
186.182 144.352 L
178 151.248 L
173.689 157.057 L
167 165.036 L
162.29 169.762 L
156 175.855 L
149.929 182.467 L
145 187.343 L
137.786 195.173 L
134 199.234 L
125.041 207.878 L
123 209.898 L
112 219.539 L
111.204 220.583 L
101 230.164 L
98.171 233.288 L
90 243.489 L
87.798 245.992 L
79 248.282 L
68 249.619 L
cp
244.836 245.992 M
255 247.913 L
266 249.483 L
268.721 245.992 L
267.481 233.288 L
266 222.902 L
258.584 233.288 L
255 237.353 L
cp
255 247.162 M
248.811 245.992 L
255 240.732 L
261.562 233.288 L
266 227.073 L
266.887 233.288 L
268.203 245.992 L
266 248.819 L
cp
55.294 42.712 M
57 50.711 L
65.247 42.712 L
68 38.624 L
75.925 30.007 L
68 28.385 L
57 26.421 L
54.215 30.007 L
cp
57 47.987 M
55.875 42.712 L
54.728 30.007 L
57 27.082 L
68 29.17 L
72.089 30.007 L
68 34.454 L
62.439 42.712 L
cp
f
GR
GS
0.427 GC
N
54.434 245.992 M
57 249.241 L
68 249.619 L
79 248.282 L
87.798 245.992 L
90 243.489 L
98.171 233.288 L
101 230.164 L
111.204 220.583 L
112 219.539 L
123 209.898 L
125.041 207.878 L
134 199.234 L
137.786 195.173 L
145 187.343 L
149.929 182.467 L
156 175.855 L
162.29 169.762 L
167 165.036 L
173.689 157.057 L
178 151.248 L
186.182 144.352 L
189 141.357 L
197.29 131.648 L
200 129.015 L
209 118.942 L
211 117.229 L
219.287 106.238 L
222 102.933 L
233 93.591 L
233.069 93.533 L
244 85.609 L
248.183 80.827 L
255 68.8 L
255.514 68.122 L
266 57.882 L
266.46 55.417 L
268.313 42.712 L
269.039 30.007 L
266 26.175 L
255 27.042 L
244 28.428 L
235.318 30.007 L
233 32.13 L
223.629 42.712 L
222 44.392 L
211 54.36 L
209.935 55.417 L
200.118 68.122 L
200 68.236 L
189.07 80.827 L
189 80.894 L
178 87.119 L
172.625 93.533 L
167 101.311 L
163.175 106.238 L
156 112.929 L
148.097 118.942 L
145 122.508 L
136.766 131.648 L
134 134.999 L
125.115 144.352 L
123 146.374 L
112 155.251 L
110.276 157.057 L
101 168.808 L
100.149 169.762 L
90 180.738 L
88.442 182.467 L
79 194.577 L
78.405 195.173 L
68 203.474 L
63.724 207.878 L
57 216.471 L
56.225 220.583 L
54.643 233.288 L
cp
57 248.613 M
54.93 245.992 L
55.151 233.288 L
56.826 220.583 L
57 219.66 L
66.22 207.878 L
68 206.044 L
79 198.187 L
81.734 195.173 L
90 184.165 L
91.329 182.467 L
101 172.241 L
103.622 169.762 L
112 158.368 L
113.13 157.057 L
123 149.763 L
128.661 144.352 L
134 138.732 L
139.846 131.648 L
145 125.927 L
151.066 118.942 L
156 115.188 L
165.597 106.238 L
167 104.43 L
174.881 93.533 L
178 89.81 L
189 83.311 L
191.61 80.827 L
200 71.162 L
203.17 68.122 L
211 57.944 L
213.36 55.417 L
222 47.701 L
226.84 42.712 L
233 35.756 L
239.276 30.007 L
244 29.148 L
255 27.688 L
266 26.766 L
268.571 30.007 L
267.802 42.712 L
266 54.553 L
265.17 55.417 L
255 65.43 L
252.401 68.122 L
245.642 80.827 L
244 82.705 L
233 90.611 L
229.412 93.533 L
222 99.83 L
216.739 106.238 L
211 113.85 L
205.057 118.942 L
200 124.602 L
192.747 131.648 L
189 136.036 L
181.178 144.352 L
178 147.031 L
170.559 157.057 L
167 161.303 L
158.57 169.762 L
156 172.252 L
146.621 182.467 L
145 184.071 L
134.771 195.173 L
134 196 L
123 206.372 L
121.322 207.878 L
112 215.866 L
108.404 220.583 L
101 227.534 L
95.79 233.288 L
90 240.517 L
85.183 245.992 L
79 247.602 L
68 249.019 L
cp
248.811 245.992 M
255 247.162 L
266 248.819 L
268.203 245.992 L
266.887 233.288 L
266 227.073 L
261.562 233.288 L
255 240.732 L
cp
255 246.411 M
252.786 245.992 L
255 244.11 L
264.54 233.288 L
266 231.243 L
266.292 233.288 L
267.686 245.992 L
266 248.155 L
cp
55.875 42.712 M
57 47.987 L
62.439 42.712 L
68 34.454 L
72.089 30.007 L
68 29.17 L
57 27.082 L
54.728 30.007 L
cp
57 45.263 M
56.456 42.712 L
55.242 30.007 L
57 27.743 L
68 29.956 L
68.254 30.007 L
68 30.283 L
59.63 42.712 L
cp
f
GR
GS
0.459 GC
N
54.93 245.992 M
57 248.613 L
68 249.019 L
79 247.602 L
85.183 245.992 L
90 240.517 L
95.79 233.288 L
101 227.534 L
108.404 220.583 L
112 215.866 L
121.322 207.878 L
123 206.372 L
134 196 L
134.771 195.173 L
145 184.071 L
146.621 182.467 L
156 172.252 L
158.57 169.762 L
167 161.303 L
170.559 157.057 L
178 147.031 L
181.178 144.352 L
189 136.036 L
192.747 131.648 L
200 124.602 L
205.057 118.942 L
211 113.85 L
216.739 106.238 L
222 99.83 L
229.412 93.533 L
233 90.611 L
244 82.705 L
245.642 80.827 L
252.401 68.122 L
255 65.43 L
265.17 55.417 L
266 54.553 L
267.802 42.712 L
268.571 30.007 L
266 26.766 L
255 27.688 L
244 29.148 L
239.276 30.007 L
233 35.756 L
226.84 42.712 L
222 47.701 L
213.36 55.417 L
211 57.944 L
203.17 68.122 L
200 71.162 L
191.61 80.827 L
189 83.311 L
178 89.81 L
174.881 93.533 L
167 104.43 L
165.597 106.238 L
156 115.188 L
151.066 118.942 L
145 125.927 L
139.846 131.648 L
134 138.732 L
128.661 144.352 L
123 149.763 L
113.13 157.057 L
112 158.368 L
103.622 169.762 L
101 172.241 L
91.329 182.467 L
90 184.165 L
81.734 195.173 L
79 198.187 L
68 206.044 L
66.22 207.878 L
57 219.66 L
56.826 220.583 L
55.151 233.288 L
cp
57 247.985 M
55.426 245.992 L
55.659 233.288 L
57 223.28 L
59.149 220.583 L
68 209.011 L
69.653 207.878 L
79 201.884 L
85.087 195.173 L
90 188.63 L
94.825 182.467 L
101 175.937 L
107.534 169.762 L
112 163.689 L
117.714 157.057 L
123 153.151 L
132.207 144.352 L
134 142.465 L
142.927 131.648 L
145 129.347 L
154.035 118.942 L
156 117.447 L
167 108.32 L
168.576 106.238 L
177.136 93.533 L
178 92.502 L
189 85.729 L
194.151 80.827 L
200 74.089 L
206.222 68.122 L
211 61.911 L
217.066 55.417 L
222 51.011 L
230.051 42.712 L
233 39.382 L
243.235 30.007 L
244 29.868 L
255 28.333 L
266 27.356 L
268.102 30.007 L
267.29 42.712 L
266 51.194 L
261.949 55.417 L
255 62.259 L
249.34 68.122 L
244 78.686 L
242.529 80.827 L
233 87.638 L
225.761 93.533 L
222 96.728 L
214.192 106.238 L
211 110.472 L
201.114 118.942 L
200 120.189 L
189 131.089 L
188.494 131.648 L
178 143.192 L
176.688 144.352 L
167.43 157.057 L
167 157.57 L
156 168.469 L
154.317 169.762 L
145 179.55 L
143.243 182.467 L
134 192.412 L
130.918 195.173 L
123 202.525 L
117.036 207.878 L
112 212.193 L
105.603 220.583 L
101 224.905 L
93.409 233.288 L
90 237.544 L
82.569 245.992 L
79 246.921 L
68 248.419 L
cp
252.786 245.992 M
255 246.411 L
266 248.155 L
267.686 245.992 L
266.292 233.288 L
266 231.243 L
264.54 233.288 L
255 244.11 L
cp
266 247.491 M
256.804 245.992 L
266 235.628 L
267.168 245.992 L
cp
56.456 42.712 M
57 45.263 L
59.63 42.712 L
68 30.283 L
68.254 30.007 L
68 29.956 L
57 27.743 L
55.242 30.007 L
cp
57 42.388 M
55.755 30.007 L
57 28.404 L
64.941 30.007 L
cp
f
GR
GS
0.49 GC
N
55.426 245.992 M
57 247.985 L
68 248.419 L
79 246.921 L
82.569 245.992 L
90 237.544 L
93.409 233.288 L
101 224.905 L
105.603 220.583 L
112 212.193 L
117.036 207.878 L
123 202.525 L
130.918 195.173 L
134 192.412 L
143.243 182.467 L
145 179.55 L
154.317 169.762 L
156 168.469 L
167 157.57 L
167.43 157.057 L
176.688 144.352 L
178 143.192 L
188.494 131.648 L
189 131.089 L
200 120.189 L
201.114 118.942 L
211 110.472 L
214.192 106.238 L
222 96.728 L
225.761 93.533 L
233 87.638 L
242.529 80.827 L
244 78.686 L
249.34 68.122 L
255 62.259 L
261.949 55.417 L
266 51.194 L
267.29 42.712 L
268.102 30.007 L
266 27.356 L
255 28.333 L
244 29.868 L
243.235 30.007 L
233 39.382 L
230.051 42.712 L
222 51.011 L
217.066 55.417 L
211 61.911 L
206.222 68.122 L
200 74.089 L
194.151 80.827 L
189 85.729 L
178 92.502 L
177.136 93.533 L
168.576 106.238 L
167 108.32 L
156 117.447 L
154.035 118.942 L
145 129.347 L
142.927 131.648 L
134 142.465 L
132.207 144.352 L
123 153.151 L
117.714 157.057 L
112 163.689 L
107.534 169.762 L
101 175.937 L
94.825 182.467 L
90 188.63 L
85.087 195.173 L
79 201.884 L
69.653 207.878 L
68 209.011 L
59.149 220.583 L
57 223.28 L
55.659 233.288 L
cp
57 247.357 M
55.922 245.992 L
56.168 233.288 L
57 227.075 L
62.173 220.583 L
68 212.964 L
75.417 207.878 L
79 205.58 L
88.44 195.173 L
90 193.095 L
98.321 182.467 L
101 179.634 L
111.446 169.762 L
112 169.009 L
122.299 157.057 L
123 156.54 L
134 146.356 L
135.973 144.352 L
145 133.252 L
146.25 131.648 L
156 120.429 L
158.507 118.942 L
167 113.27 L
172.325 106.238 L
178 97.211 L
180.386 93.533 L
189 88.146 L
196.692 80.827 L
200 77.016 L
209.274 68.122 L
211 65.878 L
220.772 55.417 L
222 54.321 L
233 43.06 L
233.357 42.712 L
244 33.175 L
247.699 30.007 L
255 28.979 L
266 27.947 L
267.634 30.007 L
266.779 42.712 L
266 47.835 L
258.728 55.417 L
255 59.087 L
246.278 68.122 L
244 72.63 L
238.37 80.827 L
233 84.665 L
222.11 93.533 L
222 93.626 L
211.645 106.238 L
211 107.093 L
200 116.365 L
197.761 118.942 L
189 127.9 L
185.603 131.648 L
178 140.012 L
173.09 144.352 L
167 152.768 L
163.335 157.057 L
156 164.283 L
148.871 169.762 L
145 173.829 L
139.796 182.467 L
134 188.704 L
126.776 195.173 L
123 198.679 L
112.751 207.878 L
112 208.521 L
102.803 220.583 L
101 222.275 L
91.028 233.288 L
90 234.571 L
79.954 245.992 L
79 246.241 L
68 247.819 L
cp
256.804 245.992 M
266 247.491 L
267.168 245.992 L
266 235.628 L
cp
266 246.827 M
260.878 245.992 L
266 240.219 L
266.651 245.992 L
cp
55.755 30.007 M
57 42.388 L
64.941 30.007 L
57 28.404 L
cp
57 37.283 M
56.268 30.007 L
57 29.065 L
61.666 30.007 L
cp
f
GR
GS
0.506 GC
N
55.922 245.992 M
57 247.357 L
68 247.819 L
79 246.241 L
79.954 245.992 L
90 234.571 L
91.028 233.288 L
101 222.275 L
102.803 220.583 L
112 208.521 L
112.751 207.878 L
123 198.679 L
126.776 195.173 L
134 188.704 L
139.796 182.467 L
145 173.829 L
148.871 169.762 L
156 164.283 L
163.335 157.057 L
167 152.768 L
173.09 144.352 L
178 140.012 L
185.603 131.648 L
189 127.9 L
197.761 118.942 L
200 116.365 L
211 107.093 L
211.645 106.238 L
222 93.626 L
222.11 93.533 L
233 84.665 L
238.37 80.827 L
244 72.63 L
246.278 68.122 L
255 59.087 L
258.728 55.417 L
266 47.835 L
266.779 42.712 L
267.634 30.007 L
266 27.947 L
255 28.979 L
247.699 30.007 L
244 33.175 L
233.357 42.712 L
233 43.06 L
222 54.321 L
220.772 55.417 L
211 65.878 L
209.274 68.122 L
200 77.016 L
196.692 80.827 L
189 88.146 L
180.386 93.533 L
178 97.211 L
172.325 106.238 L
167 113.27 L
158.507 118.942 L
156 120.429 L
146.25 131.648 L
145 133.252 L
135.973 144.352 L
134 146.356 L
123 156.54 L
122.299 157.057 L
112 169.009 L
111.446 169.762 L
101 179.634 L
98.321 182.467 L
90 193.095 L
88.44 195.173 L
79 205.58 L
75.417 207.878 L
68 212.964 L
62.173 220.583 L
57 227.075 L
56.168 233.288 L
cp
57 246.729 M
56.418 245.992 L
56.676 233.288 L
57 230.87 L
65.197 220.583 L
68 216.918 L
79 210.272 L
81.108 207.878 L
90 198.36 L
91.924 195.173 L
101 183.544 L
102.211 182.467 L
112 173.735 L
114.979 169.762 L
123 160.466 L
126.745 157.057 L
134 150.408 L
139.964 144.352 L
145 138.16 L
150.07 131.648 L
156 124.825 L
165.918 118.942 L
167 118.22 L
176.073 106.238 L
178 103.173 L
184.252 93.533 L
189 90.563 L
199.232 80.827 L
200 79.943 L
211 73.118 L
212.929 68.122 L
222 58.551 L
224.866 55.417 L
233 47.325 L
237.738 42.712 L
244 37.101 L
252.284 30.007 L
255 29.625 L
266 28.537 L
267.166 30.007 L
266.268 42.712 L
266 44.477 L
255.506 55.417 L
255 55.916 L
244 66.702 L
242.644 68.122 L
234.21 80.827 L
233 81.693 L
222 86.959 L
218.221 93.533 L
211 102.588 L
207.799 106.238 L
200 112.773 L
194.642 118.942 L
189 124.711 L
182.712 131.648 L
178 136.832 L
169.492 144.352 L
167 147.797 L
159.086 157.057 L
156 160.097 L
145 168.565 L
144.103 169.762 L
136.349 182.467 L
134 184.995 L
123 194.758 L
122.452 195.173 L
112 203.703 L
108.931 207.878 L
101 218.764 L
98.595 220.583 L
90 229.366 L
86.799 233.288 L
79 241.997 L
76.391 245.992 L
68 247.219 L
cp
260.878 245.992 M
266 246.827 L
266.651 245.992 L
266 240.219 L
cp
266 246.163 M
264.951 245.992 L
266 244.81 L
266.133 245.992 L
cp
56.268 30.007 M
57 37.283 L
61.666 30.007 L
57 29.065 L
cp
57 32.177 M
56.782 30.007 L
57 29.727 L
58.392 30.007 L
cp
f
GR
GS
0.537 GC
N
56.418 245.992 M
57 246.729 L
68 247.219 L
76.391 245.992 L
79 241.997 L
86.799 233.288 L
90 229.366 L
98.595 220.583 L
101 218.764 L
108.931 207.878 L
112 203.703 L
122.452 195.173 L
123 194.758 L
134 184.995 L
136.349 182.467 L
144.103 169.762 L
145 168.565 L
156 160.097 L
159.086 157.057 L
167 147.797 L
169.492 144.352 L
178 136.832 L
182.712 131.648 L
189 124.711 L
194.642 118.942 L
200 112.773 L
207.799 106.238 L
211 102.588 L
218.221 93.533 L
222 86.959 L
233 81.693 L
234.21 80.827 L
242.644 68.122 L
244 66.702 L
255 55.916 L
255.506 55.417 L
266 44.477 L
266.268 42.712 L
267.166 30.007 L
266 28.537 L
255 29.625 L
252.284 30.007 L
244 37.101 L
237.738 42.712 L
233 47.325 L
224.866 55.417 L
222 58.551 L
212.929 68.122 L
211 73.118 L
200 79.943 L
199.232 80.827 L
189 90.563 L
184.252 93.533 L
178 103.173 L
176.073 106.238 L
167 118.22 L
165.918 118.942 L
156 124.825 L
150.07 131.648 L
145 138.16 L
139.964 144.352 L
134 150.408 L
126.745 157.057 L
123 160.466 L
114.979 169.762 L
112 173.735 L
102.211 182.467 L
101 183.544 L
91.924 195.173 L
90 198.36 L
81.108 207.878 L
79 210.272 L
68 216.918 L
65.197 220.583 L
57 230.87 L
56.676 233.288 L
cp
57 246.101 M
56.914 245.992 L
57 241.9 L
63.279 233.288 L
68 223.262 L
69.142 220.583 L
79 216.597 L
86.678 207.878 L
90 204.321 L
95.522 195.173 L
101 188.153 L
107.4 182.467 L
112 178.364 L
118.45 169.762 L
123 164.489 L
131.166 157.057 L
134 154.459 L
143.955 144.352 L
145 143.068 L
153.891 131.648 L
156 129.221 L
167 124.468 L
172.503 118.942 L
178 110.847 L
182.201 106.238 L
188.117 93.533 L
189 92.981 L
200 87.986 L
211 84.368 L
214.324 93.533 L
211 97.702 L
203.513 106.238 L
200 109.182 L
191.522 118.942 L
189 121.521 L
179.821 131.648 L
178 133.651 L
167 141.598 L
164.652 144.352 L
156 154.583 L
154.533 157.057 L
145 164.425 L
141.003 169.762 L
134 180.898 L
132.196 182.467 L
123 190.073 L
116.252 195.173 L
112 198.643 L
105.212 207.878 L
101 213.658 L
91.843 220.583 L
90 222.466 L
81.166 233.288 L
79 235.706 L
72.284 245.992 L
68 246.618 L
cp
264.951 245.992 M
266 246.163 L
266.133 245.992 L
266 244.81 L
cp
222 79.764 M
217.369 68.122 L
222 63.236 L
229.152 55.417 L
233 51.589 L
242.12 42.712 L
244 41.027 L
255 33.165 L
257.364 30.007 L
266 29.128 L
266.697 30.007 L
266 39.642 L
262.942 42.712 L
255 50.258 L
250.054 55.417 L
244 61.148 L
237.344 68.122 L
233 74.935 L
cp
56.782 30.007 M
57 32.177 L
58.392 30.007 L
57 29.727 L
cp
f
GR
GS
0.569 GC
N
56.914 245.992 M
57 246.101 L
68 246.618 L
72.284 245.992 L
79 235.706 L
81.166 233.288 L
90 222.466 L
91.843 220.583 L
101 213.658 L
105.212 207.878 L
112 198.643 L
116.252 195.173 L
123 190.073 L
132.196 182.467 L
134 180.898 L
141.003 169.762 L
145 164.425 L
154.533 157.057 L
156 154.583 L
164.652 144.352 L
167 141.598 L
178 133.651 L
179.821 131.648 L
189 121.521 L
191.522 118.942 L
200 109.182 L
203.513 106.238 L
211 97.702 L
214.324 93.533 L
211 84.368 L
200 87.986 L
189 92.981 L
188.117 93.533 L
182.201 106.238 L
178 110.847 L
172.503 118.942 L
167 124.468 L
156 129.221 L
153.891 131.648 L
145 143.068 L
143.955 144.352 L
134 154.459 L
131.166 157.057 L
123 164.489 L
118.45 169.762 L
112 178.364 L
107.4 182.467 L
101 188.153 L
95.522 195.173 L
90 204.321 L
86.678 207.878 L
79 216.597 L
69.142 220.583 L
68 223.262 L
63.279 233.288 L
57 241.9 L
cp
68 246.018 M
67.458 245.992 L
68 245.284 L
68.176 245.992 L
cp
101 208.552 M
98.285 207.878 L
99.119 195.173 L
101 192.763 L
107.871 195.173 L
101.492 207.878 L
cp
123 185.387 M
113.692 182.467 L
121.921 169.762 L
123 168.512 L
134 159.875 L
137.903 169.762 L
134 175.969 L
126.531 182.467 L
cp
145 160.284 M
137.468 157.057 L
145 150.533 L
149.176 157.057 L
cp
156 145.547 M
154.329 144.352 L
156 141.458 L
157.01 144.352 L
cp
167 132.633 M
164.834 131.648 L
167 130.937 L
169.519 131.648 L
cp
217.369 68.122 M
222 79.764 L
233 74.935 L
237.344 68.122 L
244 61.148 L
250.054 55.417 L
255 50.258 L
262.942 42.712 L
266 39.642 L
266.697 30.007 L
266 29.128 L
257.364 30.007 L
255 33.165 L
244 41.027 L
242.12 42.712 L
233 51.589 L
229.152 55.417 L
222 63.236 L
cp
222 68.602 M
221.809 68.122 L
222 67.921 L
224.115 68.122 L
cp
244 55.594 M
241.391 55.417 L
244 54.748 L
244.186 55.417 L
cp
255 44.136 M
251.815 42.712 L
255 40.911 L
256.499 42.712 L
cp
266 33.173 M
263.163 30.007 L
266 29.719 L
266.229 30.007 L
cp
f
GR
GS
0.584 GC
N
67.458 245.992 M
68 246.018 L
68.176 245.992 L
68 245.284 L
cp
98.285 207.878 M
101 208.552 L
101.492 207.878 L
107.871 195.173 L
101 192.763 L
99.119 195.173 L
cp
113.692 182.467 M
123 185.387 L
126.531 182.467 L
134 175.969 L
137.903 169.762 L
134 159.875 L
123 168.512 L
121.921 169.762 L
cp
134 171.04 M
130.994 169.762 L
134 167.727 L
134.804 169.762 L
cp
137.468 157.057 M
145 160.284 L
149.176 157.057 L
145 150.533 L
cp
154.329 144.352 M
156 145.547 L
157.01 144.352 L
156 141.458 L
cp
164.834 131.648 M
167 132.633 L
169.519 131.648 L
167 130.937 L
cp
221.809 68.122 M
222 68.602 L
224.115 68.122 L
222 67.921 L
cp
241.391 55.417 M
244 55.594 L
244.186 55.417 L
244 54.748 L
cp
251.815 42.712 M
255 44.136 L
256.499 42.712 L
255 40.911 L
cp
263.163 30.007 M
266 33.173 L
266.229 30.007 L
266 29.719 L
cp
f
GR
GS
0.616 GC
N
130.994 169.762 M
134 171.04 L
134.804 169.762 L
134 167.727 L
cp
f
GR
%%Trailer
%%Pages: 1
%%EOF
