%!PS-Adobe-3.0 EPSF-3.0
%%Creator: (MATLAB, The Mathworks, Inc. Version 9.3.0.713579 \(R2017b\). Operating System: Mac OS X)
%%Title: ./dataFit_pres_01_0_05_0_5.eps
%%CreationDate: 2018-08-05T10:35:27
%%Pages: (atend)
%%BoundingBox:     1     2   280   281
%%LanguageLevel: 3
%%EndComments
%%BeginProlog
%%BeginResource: procset (Apache XML Graphics Std ProcSet) 1.2 0
%%Version: 1.2 0
%%Copyright: (Copyright 2001-2003,2010 The Apache Software Foundation. License terms: http://www.apache.org/licenses/LICENSE-2.0)
/bd{bind def}bind def
/ld{load def}bd
/GR/grestore ld
/GS/gsave ld
/RM/rmoveto ld
/C/curveto ld
/t/show ld
/L/lineto ld
/ML/setmiterlimit ld
/CT/concat ld
/f/fill ld
/N/newpath ld
/S/stroke ld
/CC/setcmykcolor ld
/A/ashow ld
/cp/closepath ld
/RC/setrgbcolor ld
/LJ/setlinejoin ld
/GC/setgray ld
/LW/setlinewidth ld
/M/moveto ld
/re {4 2 roll M
1 index 0 rlineto
0 exch rlineto
neg 0 rlineto
cp } bd
/_ctm matrix def
/_tm matrix def
/BT { _ctm currentmatrix pop matrix _tm copy pop 0 0 moveto } bd
/ET { _ctm setmatrix } bd
/iTm { _ctm setmatrix _tm concat } bd
/Tm { _tm astore pop iTm 0 0 moveto } bd
/ux 0.0 def
/uy 0.0 def
/F {
  /Tp exch def
  /Tf exch def
  Tf findfont Tp scalefont setfont
  /cf Tf def  /cs Tp def
} bd
/ULS {currentpoint /uy exch def /ux exch def} bd
/ULE {
  /Tcx currentpoint pop def
  gsave
  newpath
  cf findfont cs scalefont dup
  /FontMatrix get 0 get /Ts exch def /FontInfo get dup
  /UnderlinePosition get Ts mul /To exch def
  /UnderlineThickness get Ts mul /Tt exch def
  ux uy To add moveto  Tcx uy To add lineto
  Tt setlinewidth stroke
  grestore
} bd
/OLE {
  /Tcx currentpoint pop def
  gsave
  newpath
  cf findfont cs scalefont dup
  /FontMatrix get 0 get /Ts exch def /FontInfo get dup
  /UnderlinePosition get Ts mul /To exch def
  /UnderlineThickness get Ts mul /Tt exch def
  ux uy To add cs add moveto Tcx uy To add cs add lineto
  Tt setlinewidth stroke
  grestore
} bd
/SOE {
  /Tcx currentpoint pop def
  gsave
  newpath
  cf findfont cs scalefont dup
  /FontMatrix get 0 get /Ts exch def /FontInfo get dup
  /UnderlinePosition get Ts mul /To exch def
  /UnderlineThickness get Ts mul /Tt exch def
  ux uy To add cs 10 mul 26 idiv add moveto Tcx uy To add cs 10 mul 26 idiv add lineto
  Tt setlinewidth stroke
  grestore
} bd
/QT {
/Y22 exch store
/X22 exch store
/Y21 exch store
/X21 exch store
currentpoint
/Y21 load 2 mul add 3 div exch
/X21 load 2 mul add 3 div exch
/X21 load 2 mul /X22 load add 3 div
/Y21 load 2 mul /Y22 load add 3 div
/X22 load /Y22 load curveto
} bd
/SSPD {
dup length /d exch dict def
{
/v exch def
/k exch def
currentpagedevice k known {
/cpdv currentpagedevice k get def
v cpdv ne {
/upd false def
/nullv v type /nulltype eq def
/nullcpdv cpdv type /nulltype eq def
nullv nullcpdv or
{
/upd true def
} {
/sametype v type cpdv type eq def
sametype {
v type /arraytype eq {
/vlen v length def
/cpdvlen cpdv length def
vlen cpdvlen eq {
0 1 vlen 1 sub {
/i exch def
/obj v i get def
/cpdobj cpdv i get def
obj cpdobj ne {
/upd true def
exit
} if
} for
} {
/upd true def
} ifelse
} {
v type /dicttype eq {
v {
/dv exch def
/dk exch def
/cpddv cpdv dk get def
dv cpddv ne {
/upd true def
exit
} if
} forall
} {
/upd true def
} ifelse
} ifelse
} if
} ifelse
upd true eq {
d k v put
} if
} if
} if
} forall
d length 0 gt {
d setpagedevice
} if
} bd
/RE { % /NewFontName [NewEncodingArray] /FontName RE -
  findfont dup length dict begin
  {
    1 index /FID ne
    {def} {pop pop} ifelse
  } forall
  /Encoding exch def
  /FontName 1 index def
  currentdict definefont pop
  end
} bind def
%%EndResource
%%BeginResource: procset (Apache XML Graphics EPS ProcSet) 1.0 0
%%Version: 1.0 0
%%Copyright: (Copyright 2002-2003 The Apache Software Foundation. License terms: http://www.apache.org/licenses/LICENSE-2.0)
/BeginEPSF { %def
/b4_Inc_state save def         % Save state for cleanup
/dict_count countdictstack def % Count objects on dict stack
/op_count count 1 sub def      % Count objects on operand stack
userdict begin                 % Push userdict on dict stack
/showpage { } def              % Redefine showpage, { } = null proc
0 setgray 0 setlinecap         % Prepare graphics state
1 setlinewidth 0 setlinejoin
10 setmiterlimit [ ] 0 setdash newpath
/languagelevel where           % If level not equal to 1 then
{pop languagelevel             % set strokeadjust and
1 ne                           % overprint to their defaults.
{false setstrokeadjust false setoverprint
} if
} if
} bd
/EndEPSF { %def
count op_count sub {pop} repeat            % Clean up stacks
countdictstack dict_count sub {end} repeat
b4_Inc_state restore
} bd
%%EndResource
%FOPBeginFontDict
%%IncludeResource: font Courier-Oblique
%%IncludeResource: font Courier-BoldOblique
%%IncludeResource: font Courier-Bold
%%IncludeResource: font ZapfDingbats
%%IncludeResource: font Symbol
%%IncludeResource: font Helvetica
%%IncludeResource: font Helvetica-Oblique
%%IncludeResource: font Helvetica-Bold
%%IncludeResource: font Helvetica-BoldOblique
%%IncludeResource: font Times-Roman
%%IncludeResource: font Times-Italic
%%IncludeResource: font Times-Bold
%%IncludeResource: font Times-BoldItalic
%%IncludeResource: font Courier
%FOPEndFontDict
%%BeginResource: encoding WinAnsiEncoding
/WinAnsiEncoding [
/.notdef /.notdef /.notdef /.notdef /.notdef
/.notdef /.notdef /.notdef /.notdef /.notdef
/.notdef /.notdef /.notdef /.notdef /.notdef
/.notdef /.notdef /.notdef /.notdef /.notdef
/.notdef /.notdef /.notdef /.notdef /.notdef
/.notdef /.notdef /.notdef /.notdef /.notdef
/.notdef /.notdef /space /exclam /quotedbl
/numbersign /dollar /percent /ampersand /quotesingle
/parenleft /parenright /asterisk /plus /comma
/hyphen /period /slash /zero /one
/two /three /four /five /six
/seven /eight /nine /colon /semicolon
/less /equal /greater /question /at
/A /B /C /D /E
/F /G /H /I /J
/K /L /M /N /O
/P /Q /R /S /T
/U /V /W /X /Y
/Z /bracketleft /backslash /bracketright /asciicircum
/underscore /quoteleft /a /b /c
/d /e /f /g /h
/i /j /k /l /m
/n /o /p /q /r
/s /t /u /v /w
/x /y /z /braceleft /bar
/braceright /asciitilde /bullet /Euro /bullet
/quotesinglbase /florin /quotedblbase /ellipsis /dagger
/daggerdbl /circumflex /perthousand /Scaron /guilsinglleft
/OE /bullet /Zcaron /bullet /bullet
/quoteleft /quoteright /quotedblleft /quotedblright /bullet
/endash /emdash /asciitilde /trademark /scaron
/guilsinglright /oe /bullet /zcaron /Ydieresis
/space /exclamdown /cent /sterling /currency
/yen /brokenbar /section /dieresis /copyright
/ordfeminine /guillemotleft /logicalnot /sfthyphen /registered
/macron /degree /plusminus /twosuperior /threesuperior
/acute /mu /paragraph /middot /cedilla
/onesuperior /ordmasculine /guillemotright /onequarter /onehalf
/threequarters /questiondown /Agrave /Aacute /Acircumflex
/Atilde /Adieresis /Aring /AE /Ccedilla
/Egrave /Eacute /Ecircumflex /Edieresis /Igrave
/Iacute /Icircumflex /Idieresis /Eth /Ntilde
/Ograve /Oacute /Ocircumflex /Otilde /Odieresis
/multiply /Oslash /Ugrave /Uacute /Ucircumflex
/Udieresis /Yacute /Thorn /germandbls /agrave
/aacute /acircumflex /atilde /adieresis /aring
/ae /ccedilla /egrave /eacute /ecircumflex
/edieresis /igrave /iacute /icircumflex /idieresis
/eth /ntilde /ograve /oacute /ocircumflex
/otilde /odieresis /divide /oslash /ugrave
/uacute /ucircumflex /udieresis /yacute /thorn
/ydieresis
] def
%%EndResource
%FOPBeginFontReencode
/Courier-Oblique findfont
dup length dict begin
  {1 index /FID ne {def} {pop pop} ifelse} forall
  /Encoding WinAnsiEncoding def
  currentdict
end
/Courier-Oblique exch definefont pop
/Courier-BoldOblique findfont
dup length dict begin
  {1 index /FID ne {def} {pop pop} ifelse} forall
  /Encoding WinAnsiEncoding def
  currentdict
end
/Courier-BoldOblique exch definefont pop
/Courier-Bold findfont
dup length dict begin
  {1 index /FID ne {def} {pop pop} ifelse} forall
  /Encoding WinAnsiEncoding def
  currentdict
end
/Courier-Bold exch definefont pop
/Helvetica findfont
dup length dict begin
  {1 index /FID ne {def} {pop pop} ifelse} forall
  /Encoding WinAnsiEncoding def
  currentdict
end
/Helvetica exch definefont pop
/Helvetica-Oblique findfont
dup length dict begin
  {1 index /FID ne {def} {pop pop} ifelse} forall
  /Encoding WinAnsiEncoding def
  currentdict
end
/Helvetica-Oblique exch definefont pop
/Helvetica-Bold findfont
dup length dict begin
  {1 index /FID ne {def} {pop pop} ifelse} forall
  /Encoding WinAnsiEncoding def
  currentdict
end
/Helvetica-Bold exch definefont pop
/Helvetica-BoldOblique findfont
dup length dict begin
  {1 index /FID ne {def} {pop pop} ifelse} forall
  /Encoding WinAnsiEncoding def
  currentdict
end
/Helvetica-BoldOblique exch definefont pop
/Times-Roman findfont
dup length dict begin
  {1 index /FID ne {def} {pop pop} ifelse} forall
  /Encoding WinAnsiEncoding def
  currentdict
end
/Times-Roman exch definefont pop
/Times-Italic findfont
dup length dict begin
  {1 index /FID ne {def} {pop pop} ifelse} forall
  /Encoding WinAnsiEncoding def
  currentdict
end
/Times-Italic exch definefont pop
/Times-Bold findfont
dup length dict begin
  {1 index /FID ne {def} {pop pop} ifelse} forall
  /Encoding WinAnsiEncoding def
  currentdict
end
/Times-Bold exch definefont pop
/Times-BoldItalic findfont
dup length dict begin
  {1 index /FID ne {def} {pop pop} ifelse} forall
  /Encoding WinAnsiEncoding def
  currentdict
end
/Times-BoldItalic exch definefont pop
/Courier findfont
dup length dict begin
  {1 index /FID ne {def} {pop pop} ifelse} forall
  /Encoding WinAnsiEncoding def
  currentdict
end
/Courier exch definefont pop
%FOPEndFontReencode
%%EndProlog
%%Page: 1 1
%%PageBoundingBox: 0 0 300 300
%%BeginPageSetup
[1 0 0 -1 0 300] CT
%%EndPageSetup
GS
1 GC
N
0 0 300 300 re
f
GR
GS
1 GC
N
0 0 300 300 re
f
GR
GS
1 GC
N
51.5 253.5 M
271.5 253.5 L
271.5 22.5 L
51.5 22.5 L
cp
f
GR
GS
0.149 GC
2 setlinecap
1 LJ
0.5 LW
N
51.5 253.5 M
271.5 253.5 L
S
GR
GS
0.149 GC
2 setlinecap
1 LJ
0.5 LW
N
51.5 22.5 M
271.5 22.5 L
S
GR
GS
0.149 GC
2 setlinecap
1 LJ
0.5 LW
N
51.5 253.5 M
51.5 251.19 L
S
GR
GS
0.149 GC
2 setlinecap
1 LJ
0.5 LW
N
161.5 253.5 M
161.5 251.19 L
S
GR
GS
0.149 GC
2 setlinecap
1 LJ
0.5 LW
N
271.5 253.5 M
271.5 251.19 L
S
GR
GS
0.149 GC
2 setlinecap
1 LJ
0.5 LW
N
51.5 22.5 M
51.5 24.81 L
S
GR
GS
0.149 GC
2 setlinecap
1 LJ
0.5 LW
N
161.5 22.5 M
161.5 24.81 L
S
GR
GS
0.149 GC
2 setlinecap
1 LJ
0.5 LW
N
271.5 22.5 M
271.5 24.81 L
S
GR
GS
[1 0 0 1 51.5 258.70001] CT
0.149 GC
N
0 13.799 M
-1.953 13.799 -2.664 12.182 QT
-3.375 10.565 -3.375 8.331 QT
-3.375 6.94 -3.117 5.713 QT
-2.859 4.487 -2.109 3.635 QT
-1.359 2.784 0 2.784 QT
1.063 2.784 1.734 3.299 QT
2.406 3.815 2.758 4.627 QT
3.109 5.44 3.234 6.377 QT
3.359 7.315 3.359 8.331 QT
3.359 9.706 3.109 10.909 QT
2.859 12.112 2.117 12.956 QT
1.375 13.799 0 13.799 QT
cp
0 13.377 M
0.891 13.377 1.328 12.463 QT
1.766 11.549 1.867 10.44 QT
1.969 9.331 1.969 8.081 QT
1.969 6.877 1.867 5.862 QT
1.766 4.846 1.336 4.018 QT
0.906 3.19 0 3.19 QT
-0.906 3.19 -1.344 4.018 QT
-1.781 4.846 -1.883 5.862 QT
-1.984 6.877 -1.984 8.081 QT
-1.984 8.971 -1.938 9.76 QT
-1.891 10.549 -1.703 11.385 QT
-1.516 12.221 -1.102 12.799 QT
-0.688 13.377 0 13.377 QT
cp
f
GR
GS
[1 0 0 1 161.5 258.70001] CT
0.149 GC
N
-3.222 13.159 M
-3.222 13.081 -3.16 12.909 QT
-2.722 11.971 -2.332 11.081 QT
-1.941 10.19 -1.636 9.338 QT
-1.332 8.487 -1.066 7.534 QT
-2.097 7.534 L
-2.675 7.534 -3.183 7.901 QT
-3.691 8.268 -4.035 8.831 QT
-4.066 8.893 -4.128 8.893 QT
-4.316 8.893 L
-4.457 8.893 -4.457 8.737 QT
-4.457 8.706 -4.425 8.643 QT
-3.91 7.752 -3.308 7.143 QT
-2.707 6.534 -1.957 6.534 QT
3.84 6.534 L
4.012 6.534 4.129 6.643 QT
4.247 6.752 4.247 6.94 QT
4.247 7.174 4.075 7.354 QT
3.903 7.534 3.668 7.534 QT
1.637 7.534 L
1.372 8.784 1.356 9.987 QT
1.356 11.518 1.887 12.768 QT
1.934 12.862 1.934 12.956 QT
1.934 13.127 1.832 13.276 QT
1.731 13.424 1.575 13.526 QT
1.418 13.627 1.231 13.627 QT
0.809 13.627 0.653 12.932 QT
0.497 12.237 0.497 11.596 QT
0.497 10.674 0.653 9.831 QT
0.809 8.987 1.153 7.534 QT
-0.582 7.534 L
-1.847 12.659 -2.113 13.174 QT
-2.332 13.627 -2.738 13.627 QT
-2.925 13.627 -3.074 13.495 QT
-3.222 13.362 -3.222 13.159 QT
cp
f
GR
GS
[1 0 0 1 271.5 258.70001] CT
0.149 GC
N
-8.05 13.44 M
-8.05 13.002 L
-8.05 12.971 -8.019 12.924 QT
-5.535 10.174 L
-4.972 9.565 -4.621 9.151 QT
-4.269 8.737 -3.925 8.198 QT
-3.582 7.659 -3.378 7.096 QT
-3.175 6.534 -3.175 5.909 QT
-3.175 5.252 -3.418 4.659 QT
-3.66 4.065 -4.144 3.706 QT
-4.628 3.346 -5.3 3.346 QT
-6.003 3.346 -6.558 3.76 QT
-7.113 4.174 -7.332 4.846 QT
-7.269 4.831 -7.16 4.831 QT
-6.8 4.831 -6.55 5.073 QT
-6.3 5.315 -6.3 5.69 QT
-6.3 6.065 -6.55 6.315 QT
-6.8 6.565 -7.16 6.565 QT
-7.535 6.565 -7.793 6.307 QT
-8.05 6.049 -8.05 5.69 QT
-8.05 5.096 -7.824 4.565 QT
-7.597 4.034 -7.168 3.627 QT
-6.738 3.221 -6.207 3.002 QT
-5.675 2.784 -5.066 2.784 QT
-4.16 2.784 -3.371 3.167 QT
-2.582 3.549 -2.121 4.26 QT
-1.66 4.971 -1.66 5.909 QT
-1.66 6.612 -1.964 7.237 QT
-2.269 7.862 -2.746 8.37 QT
-3.222 8.877 -3.964 9.526 QT
-4.707 10.174 -4.941 10.393 QT
-6.753 12.143 L
-5.207 12.143 L
-4.082 12.143 -3.316 12.12 QT
-2.55 12.096 -2.503 12.065 QT
-2.316 11.862 -2.128 10.581 QT
-1.66 10.581 L
-2.113 13.44 L
-8.05 13.44 L
cp
f
GR
GS
[1 0 0 1 271.5 258.70001] CT
0.149 GC
N
0.778 13.159 M
0.778 13.081 0.84 12.909 QT
1.278 11.971 1.668 11.081 QT
2.059 10.19 2.364 9.338 QT
2.668 8.487 2.934 7.534 QT
1.903 7.534 L
1.325 7.534 0.817 7.901 QT
0.309 8.268 -0.035 8.831 QT
-0.066 8.893 -0.128 8.893 QT
-0.316 8.893 L
-0.457 8.893 -0.457 8.737 QT
-0.457 8.706 -0.425 8.643 QT
0.09 7.752 0.692 7.143 QT
1.293 6.534 2.043 6.534 QT
7.84 6.534 L
8.012 6.534 8.129 6.643 QT
8.247 6.752 8.247 6.94 QT
8.247 7.174 8.075 7.354 QT
7.903 7.534 7.668 7.534 QT
5.637 7.534 L
5.372 8.784 5.356 9.987 QT
5.356 11.518 5.887 12.768 QT
5.934 12.862 5.934 12.956 QT
5.934 13.127 5.832 13.276 QT
5.731 13.424 5.575 13.526 QT
5.418 13.627 5.231 13.627 QT
4.809 13.627 4.653 12.932 QT
4.497 12.237 4.497 11.596 QT
4.497 10.674 4.653 9.831 QT
4.809 8.987 5.153 7.534 QT
3.418 7.534 L
2.153 12.659 1.887 13.174 QT
1.668 13.627 1.262 13.627 QT
1.075 13.627 0.926 13.495 QT
0.778 13.362 0.778 13.159 QT
cp
f
GR
GS
[1 0 0 1 161.50011 278.88] CT
0.149 GC
N
-1.759 18.284 M
-0.946 15.034 L
-1.853 15.034 -2.65 14.612 QT
-3.446 14.19 -3.923 13.425 QT
-4.4 12.659 -4.4 11.753 QT
-4.4 10.784 -3.915 9.893 QT
-3.431 9.003 -2.595 8.284 QT
-1.759 7.565 -0.79 7.175 QT
0.179 6.784 1.132 6.784 QT
2.21 2.393 L
2.241 2.3 2.35 2.3 QT
2.569 2.3 L
2.647 2.3 2.686 2.362 QT
2.725 2.425 2.725 2.471 QT
1.647 6.784 L
2.319 6.784 2.952 7.026 QT
3.585 7.268 4.077 7.714 QT
4.569 8.159 4.843 8.76 QT
5.116 9.362 5.116 10.05 QT
5.116 11.018 4.632 11.909 QT
4.147 12.8 3.327 13.51 QT
2.507 14.221 1.499 14.628 QT
0.491 15.034 -0.415 15.034 QT
-1.243 18.378 L
-1.275 18.471 -1.4 18.471 QT
-1.603 18.471 L
-1.681 18.471 -1.72 18.409 QT
-1.759 18.346 -1.759 18.284 QT
cp
-0.837 14.565 M
1.007 7.237 L
0.554 7.237 0.054 7.425 QT
-0.446 7.612 -0.892 7.893 QT
-1.337 8.175 -1.696 8.534 QT
-2.134 8.971 -2.47 9.573 QT
-2.806 10.175 -2.978 10.839 QT
-3.15 11.503 -3.15 12.143 QT
-3.15 12.815 -2.861 13.37 QT
-2.571 13.925 -2.04 14.245 QT
-1.509 14.565 -0.837 14.565 QT
cp
-0.29 14.565 M
0.382 14.565 1.147 14.175 QT
1.913 13.784 2.397 13.268 QT
3.085 12.596 3.475 11.628 QT
3.866 10.659 3.866 9.675 QT
3.866 9.003 3.577 8.44 QT
3.288 7.878 2.757 7.557 QT
2.225 7.237 1.538 7.237 QT
-0.29 14.565 L
cp
f
GR
GS
0.149 GC
2 setlinecap
1 LJ
0.5 LW
N
51.5 253.5 M
51.5 22.5 L
S
GR
GS
0.149 GC
2 setlinecap
1 LJ
0.5 LW
N
271.5 253.5 M
271.5 22.5 L
S
GR
GS
0.149 GC
2 setlinecap
1 LJ
0.5 LW
N
51.5 253.5 M
53.81 253.5 L
S
GR
GS
0.149 GC
2 setlinecap
1 LJ
0.5 LW
N
51.5 138 M
53.81 138 L
S
GR
GS
0.149 GC
2 setlinecap
1 LJ
0.5 LW
N
51.5 22.5 M
53.81 22.5 L
S
GR
GS
0.149 GC
2 setlinecap
1 LJ
0.5 LW
N
271.5 253.5 M
269.19 253.5 L
S
GR
GS
0.149 GC
2 setlinecap
1 LJ
0.5 LW
N
271.5 138 M
269.19 138 L
S
GR
GS
0.149 GC
2 setlinecap
1 LJ
0.5 LW
N
271.5 22.5 M
269.19 22.5 L
S
GR
GS
[1 0 0 1 46.3 253.5] CT
0.149 GC
N
-20.498 0.152 M
-20.639 0.152 -20.725 0.051 QT
-20.811 -0.051 -20.811 -0.16 QT
-20.811 -0.285 -20.725 -0.387 QT
-20.639 -0.488 -20.498 -0.488 QT
-11.326 -0.488 L
-11.201 -0.488 -11.116 -0.387 QT
-11.03 -0.285 -11.03 -0.16 QT
-11.03 -0.051 -11.116 0.051 QT
-11.201 0.152 -11.326 0.152 QT
-20.498 0.152 L
cp
f
GR
GS
[1 0 0 1 46.3 253.5] CT
0.149 GC
N
-8.069 3.559 M
-8.069 3.481 -8.007 3.309 QT
-7.569 2.371 -7.179 1.481 QT
-6.788 0.59 -6.484 -0.262 QT
-6.179 -1.113 -5.913 -2.066 QT
-6.944 -2.066 L
-7.523 -2.066 -8.03 -1.699 QT
-8.538 -1.332 -8.882 -0.769 QT
-8.913 -0.707 -8.976 -0.707 QT
-9.163 -0.707 L
-9.304 -0.707 -9.304 -0.863 QT
-9.304 -0.894 -9.273 -0.957 QT
-8.757 -1.848 -8.155 -2.457 QT
-7.554 -3.066 -6.804 -3.066 QT
-1.007 -3.066 L
-0.835 -3.066 -0.718 -2.957 QT
-0.601 -2.848 -0.601 -2.66 QT
-0.601 -2.426 -0.773 -2.246 QT
-0.944 -2.066 -1.179 -2.066 QT
-3.21 -2.066 L
-3.476 -0.816 -3.491 0.387 QT
-3.491 1.918 -2.96 3.168 QT
-2.913 3.262 -2.913 3.356 QT
-2.913 3.527 -3.015 3.676 QT
-3.116 3.824 -3.273 3.926 QT
-3.429 4.027 -3.616 4.027 QT
-4.038 4.027 -4.194 3.332 QT
-4.351 2.637 -4.351 1.996 QT
-4.351 1.074 -4.194 0.231 QT
-4.038 -0.613 -3.694 -2.066 QT
-5.429 -2.066 L
-6.694 3.059 -6.96 3.574 QT
-7.179 4.027 -7.585 4.027 QT
-7.773 4.027 -7.921 3.895 QT
-8.069 3.762 -8.069 3.559 QT
cp
f
GR
GS
[1 0 0 1 46.3 138] CT
0.149 GC
N
-4 4.199 M
-5.953 4.199 -6.664 2.582 QT
-7.375 0.965 -7.375 -1.269 QT
-7.375 -2.66 -7.117 -3.887 QT
-6.859 -5.113 -6.109 -5.965 QT
-5.359 -6.816 -4 -6.816 QT
-2.938 -6.816 -2.266 -6.301 QT
-1.594 -5.785 -1.242 -4.973 QT
-0.891 -4.16 -0.766 -3.223 QT
-0.641 -2.285 -0.641 -1.269 QT
-0.641 0.106 -0.891 1.309 QT
-1.141 2.512 -1.883 3.356 QT
-2.625 4.199 -4 4.199 QT
cp
-4 3.777 M
-3.109 3.777 -2.672 2.863 QT
-2.234 1.949 -2.133 0.84 QT
-2.031 -0.269 -2.031 -1.519 QT
-2.031 -2.723 -2.133 -3.738 QT
-2.234 -4.754 -2.664 -5.582 QT
-3.094 -6.41 -4 -6.41 QT
-4.906 -6.41 -5.344 -5.582 QT
-5.781 -4.754 -5.883 -3.738 QT
-5.984 -2.723 -5.984 -1.519 QT
-5.984 -0.629 -5.938 0.16 QT
-5.891 0.949 -5.703 1.785 QT
-5.516 2.621 -5.102 3.199 QT
-4.688 3.777 -4 3.777 QT
cp
f
GR
GS
[1 0 0 1 46.3 22.5] CT
0.149 GC
N
/f-1802301508{-8.069 3.559 M
-8.069 3.481 -8.007 3.309 QT
-7.569 2.371 -7.179 1.481 QT
-6.788 0.59 -6.484 -0.262 QT
-6.179 -1.113 -5.913 -2.066 QT
-6.944 -2.066 L
-7.523 -2.066 -8.03 -1.699 QT
-8.538 -1.332 -8.882 -0.769 QT
-8.913 -0.707 -8.976 -0.707 QT
-9.163 -0.707 L
-9.304 -0.707 -9.304 -0.863 QT
-9.304 -0.894 -9.273 -0.957 QT
-8.757 -1.848 -8.155 -2.457 QT
-7.554 -3.066 -6.804 -3.066 QT
-1.007 -3.066 L
-0.835 -3.066 -0.718 -2.957 QT
-0.601 -2.848 -0.601 -2.66 QT
-0.601 -2.426 -0.773 -2.246 QT
-0.944 -2.066 -1.179 -2.066 QT
-3.21 -2.066 L
-3.476 -0.816 -3.491 0.387 QT
-3.491 1.918 -2.96 3.168 QT
-2.913 3.262 -2.913 3.356 QT
-2.913 3.527 -3.015 3.676 QT
-3.116 3.824 -3.273 3.926 QT
-3.429 4.027 -3.616 4.027 QT
-4.038 4.027 -4.194 3.332 QT
-4.351 2.637 -4.351 1.996 QT
-4.351 1.074 -4.194 0.231 QT
-4.038 -0.613 -3.694 -2.066 QT
-5.429 -2.066 L
-6.694 3.059 -6.96 3.574 QT
-7.179 4.027 -7.585 4.027 QT
-7.773 4.027 -7.921 3.895 QT
-8.069 3.762 -8.069 3.559 QT
cp}def
f-1802301508
f
GR
GS
[0 -1 1 0 21.12 137.99989] CT
0.149 GC
N
/f1226721168{-0.635 -6.07 M
-1.26 -6.07 -1.799 -6.297 QT
-2.338 -6.524 -2.736 -6.969 QT
-3.135 -7.414 -3.33 -7.953 QT
-3.525 -8.492 -3.525 -9.117 QT
-3.525 -10.242 -2.994 -11.305 QT
-2.463 -12.367 -1.541 -13.141 QT
-0.619 -13.914 0.459 -14.18 QT
-0.072 -15.164 -0.346 -15.867 QT
-0.619 -16.57 -0.619 -17.32 QT
-0.619 -17.852 -0.369 -18.274 QT
-0.119 -18.695 0.334 -18.93 QT
0.787 -19.164 1.334 -19.164 QT
1.881 -19.164 3.459 -18.805 QT
3.881 -18.711 3.881 -18.32 QT
3.881 -18.024 3.662 -17.781 QT
3.443 -17.539 3.146 -17.539 QT
2.912 -17.539 2.74 -17.641 QT
2.568 -17.742 2.193 -17.992 QT
1.818 -18.242 1.514 -18.383 QT
1.209 -18.524 0.896 -18.524 QT
0.521 -18.524 0.225 -18.297 QT
-0.072 -18.07 -0.072 -17.711 QT
-0.072 -17.133 0.436 -16.391 QT
0.943 -15.649 1.881 -14.492 QT
2.943 -13.133 2.943 -11.508 QT
2.943 -10.695 2.709 -9.758 QT
2.475 -8.82 2.029 -7.985 QT
1.584 -7.149 0.896 -6.61 QT
0.209 -6.07 -0.635 -6.07 QT
cp
-0.604 -6.555 M
0.1 -6.555 0.607 -7.281 QT
1.115 -8.008 1.373 -9.016 QT
1.631 -10.024 1.631 -10.711 QT
1.631 -12.055 0.693 -13.742 QT
-0.26 -13.477 -0.947 -12.633 QT
-1.635 -11.789 -1.986 -10.688 QT
-2.338 -9.586 -2.338 -8.602 QT
-2.338 -7.742 -1.893 -7.149 QT
-1.447 -6.555 -0.604 -6.555 QT
cp}def
f1226721168
f
GR
GS
N
175.821 245.992 M
175.603 253.528 L
177.113 253.528 L
178 253.528 L
184.524 253.528 L
189 253.528 L
195.524 253.528 L
200 253.528 L
206.524 253.528 L
211 253.528 L
217.524 253.528 L
222 253.528 L
228.524 253.528 L
233 253.528 L
239.524 253.528 L
244 253.528 L
250.524 253.528 L
255 253.528 L
256.592 253.528 L
257.452 253.528 L
257.113 245.992 L
256.873 233.288 L
257.027 220.583 L
256.694 207.878 L
255 206.375 L
244 206.11 L
233 206.115 L
222 206.331 L
211 206.115 L
200 206.07 L
189 206.087 L
178 206.592 L
176.357 207.878 L
176.212 220.583 L
176.033 233.288 L
cp
66.502 68.122 M
68 69.453 L
79 69.88 L
90 69.802 L
101 69.754 L
112 69.717 L
123 69.695 L
134 69.777 L
145 69.667 L
146.47 68.122 L
146.581 55.417 L
147.053 42.712 L
147.491 30.007 L
147.765 22.472 L
146.014 22.472 L
145 22.472 L
138.476 22.472 L
134 22.472 L
127.476 22.472 L
123 22.472 L
116.476 22.472 L
112 22.472 L
105.476 22.472 L
101 22.472 L
94.476 22.472 L
90 22.472 L
83.476 22.472 L
79 22.472 L
72.476 22.472 L
68 22.472 L
66.534 22.472 L
65.661 22.472 L
65.855 30.007 L
66.112 42.712 L
66.2 55.417 L
cp
f
GR
GS
0.016 GC
N
173.428 245.992 M
172.93 253.528 L
174.63 253.528 L
175.603 253.528 L
175.821 245.992 L
176.033 233.288 L
176.212 220.583 L
176.357 207.878 L
178 206.592 L
189 206.087 L
200 206.07 L
211 206.115 L
222 206.331 L
233 206.115 L
244 206.11 L
255 206.375 L
256.694 207.878 L
257.027 220.583 L
256.873 233.288 L
257.113 245.992 L
257.452 253.528 L
259.291 253.528 L
260.284 253.528 L
259.553 245.992 L
259.094 233.288 L
259.309 220.583 L
258.467 207.878 L
255 204.802 L
244 204.342 L
233 204.353 L
222 204.784 L
211 204.353 L
200 204.263 L
189 204.297 L
178 204.937 L
174.241 207.878 L
174.248 220.583 L
173.761 233.288 L
cp
64.628 68.122 M
68 71.117 L
79 71.637 L
90 71.481 L
101 71.385 L
112 71.312 L
123 71.268 L
134 71.432 L
145 71.498 L
148.211 68.122 L
148.36 55.417 L
149.253 42.712 L
150.099 30.007 L
150.75 22.472 L
148.826 22.472 L
147.765 22.472 L
147.491 30.007 L
147.053 42.712 L
146.581 55.417 L
146.47 68.122 L
145 69.667 L
134 69.777 L
123 69.695 L
112 69.717 L
101 69.754 L
90 69.802 L
79 69.88 L
68 69.453 L
66.502 68.122 L
66.2 55.417 L
66.112 42.712 L
65.855 30.007 L
65.661 22.472 L
64.089 22.472 L
63.081 22.472 L
63.378 30.007 L
63.61 42.712 L
64.066 55.417 L
cp
f
GR
GS
0.047 GC
N
171.036 245.992 M
170.257 253.528 L
171.957 253.528 L
172.93 253.528 L
173.428 245.992 L
173.761 233.288 L
174.248 220.583 L
174.241 207.878 L
178 204.937 L
189 204.297 L
200 204.263 L
211 204.353 L
222 204.784 L
233 204.353 L
244 204.342 L
255 204.802 L
258.467 207.878 L
259.309 220.583 L
259.094 233.288 L
259.553 245.992 L
260.284 253.528 L
262.122 253.528 L
263.115 253.528 L
261.993 245.992 L
261.314 233.288 L
261.591 220.583 L
260.24 207.878 L
255 203.23 L
244 202.574 L
233 202.59 L
222 203.237 L
211 202.59 L
200 202.456 L
189 202.507 L
178 203.282 L
172.126 207.878 L
172.284 220.583 L
171.49 233.288 L
cp
269.891 245.992 M
268.792 253.528 L
270.564 253.528 L
271.526 253.528 L
271.526 245.992 L
271.526 240.56 L
271.526 233.288 L
271.526 227.062 L
271.526 220.583 L
271.526 209.615 L
270.309 220.583 L
270.543 233.288 L
cp
62.754 68.122 M
68 72.782 L
79 73.394 L
90 73.16 L
101 73.016 L
112 72.906 L
123 72.84 L
134 73.087 L
145 73.328 L
149.953 68.122 L
150.14 55.417 L
151.454 42.712 L
152.707 30.007 L
153.734 22.472 L
151.811 22.472 L
150.75 22.472 L
150.099 30.007 L
149.253 42.712 L
148.36 55.417 L
148.211 68.122 L
145 71.498 L
134 71.432 L
123 71.268 L
112 71.312 L
101 71.385 L
90 71.481 L
79 71.637 L
68 71.117 L
64.628 68.122 L
64.066 55.417 L
63.61 42.712 L
63.378 30.007 L
63.081 22.472 L
61.51 22.472 L
60.502 22.472 L
60.901 30.007 L
61.108 42.712 L
61.932 55.417 L
cp
51.474 55.417 M
51.474 67.508 L
52.213 55.417 L
53.109 42.712 L
53.213 30.007 L
53.575 22.472 L
52.028 22.472 L
51.474 22.472 L
51.474 30.007 L
51.474 33.681 L
51.474 42.712 L
51.474 49.045 L
cp
f
GR
GS
0.063 GC
N
167.598 253.528 M
169.283 253.528 L
170.257 253.528 L
171.036 245.992 L
171.49 233.288 L
172.284 220.583 L
172.126 207.878 L
178 203.282 L
189 202.507 L
200 202.456 L
211 202.59 L
222 203.237 L
233 202.59 L
244 202.574 L
255 203.23 L
260.24 207.878 L
261.591 220.583 L
261.314 233.288 L
261.993 245.992 L
263.115 253.528 L
264.37 253.528 L
265.362 253.528 L
265.822 253.528 L
264.433 245.992 L
263.534 233.288 L
263.873 220.583 L
262.013 207.878 L
255 201.657 L
244 200.806 L
233 200.828 L
222 201.69 L
211 200.828 L
200 200.649 L
189 200.717 L
178 201.627 L
170.011 207.878 L
170.321 220.583 L
169.219 233.288 L
168.643 245.992 L
cp
266.173 253.528 M
267.828 253.528 L
268.792 253.528 L
269.891 245.992 L
270.543 233.288 L
270.309 220.583 L
271.526 209.615 L
271.526 207.878 L
271.526 202.551 L
269.959 207.878 L
268.079 220.583 L
268.391 233.288 L
267.521 245.992 L
cp
51.474 68.122 M
51.474 74.5 L
53.248 68.122 L
54.284 55.417 L
55.479 42.712 L
55.617 30.007 L
56.1 22.472 L
54.553 22.472 L
53.575 22.472 L
53.213 30.007 L
53.109 42.712 L
52.213 55.417 L
51.474 67.508 L
cp
60.88 68.122 M
68 74.446 L
79 75.151 L
90 74.84 L
101 74.647 L
112 74.501 L
123 74.413 L
134 74.742 L
145 75.158 L
151.694 68.122 L
151.919 55.417 L
153.654 42.712 L
155.315 30.007 L
156 25.735 L
156.178 22.472 L
156 22.472 L
155.721 22.472 L
154.795 22.472 L
153.734 22.472 L
152.707 30.007 L
151.454 42.712 L
150.14 55.417 L
149.953 68.122 L
145 73.328 L
134 73.087 L
123 72.84 L
112 72.906 L
101 73.016 L
90 73.16 L
79 73.394 L
68 72.782 L
62.754 68.122 L
61.932 55.417 L
61.108 42.712 L
60.901 30.007 L
60.502 22.472 L
58.93 22.472 L
57.922 22.472 L
58.424 30.007 L
58.606 42.712 L
59.799 55.417 L
cp
f
GR
GS
0.094 GC
N
166.74 245.992 M
166.319 253.528 L
166.867 253.528 L
166.973 253.528 L
167 253.528 L
167.598 253.528 L
168.643 245.992 L
169.219 233.288 L
170.321 220.583 L
170.011 207.878 L
178 201.627 L
189 200.717 L
200 200.649 L
211 200.828 L
222 201.69 L
233 200.828 L
244 200.806 L
255 201.657 L
262.013 207.878 L
263.873 220.583 L
263.534 233.288 L
264.433 245.992 L
265.822 253.528 L
266 253.528 L
266.173 253.528 L
267.521 245.992 L
268.391 233.288 L
268.079 220.583 L
269.959 207.878 L
271.526 202.551 L
271.526 201.042 L
271.526 198.831 L
268.198 207.878 L
266 219.928 L
263.786 207.878 L
255 200.085 L
244 199.038 L
233 199.065 L
222 200.143 L
211 199.065 L
200 198.841 L
189 198.927 L
178 199.972 L
167.895 207.878 L
168.357 220.583 L
167 232.875 L
166.983 233.288 L
cp
266 236.289 M
265.754 233.288 L
266 225.408 L
266.238 233.288 L
cp
53.248 68.122 M
51.474 74.5 L
51.474 76.77 L
51.474 78.434 L
55.06 68.122 L
56.355 55.417 L
57 49.505 L
57.665 55.417 L
59.006 68.122 L
68 76.111 L
79 76.908 L
90 76.519 L
101 76.278 L
112 76.096 L
123 75.986 L
134 76.397 L
145 76.989 L
153.436 68.122 L
153.698 55.417 L
155.855 42.712 L
156 41.667 L
156.622 30.007 L
157.05 22.472 L
156.525 22.472 L
156.178 22.472 L
156 25.735 L
155.315 30.007 L
153.654 42.712 L
151.919 55.417 L
151.694 68.122 L
145 75.158 L
134 74.742 L
123 74.413 L
112 74.501 L
101 74.647 L
90 74.84 L
79 75.151 L
68 74.446 L
60.88 68.122 L
59.799 55.417 L
58.606 42.712 L
58.424 30.007 L
57.922 22.472 L
57.58 22.472 L
57 22.472 L
56.663 22.472 L
56.1 22.472 L
55.617 30.007 L
55.479 42.712 L
54.284 55.417 L
cp
f
GR
GS
0.125 GC
N
165.908 245.992 M
165.434 253.528 L
165.981 253.528 L
166.319 253.528 L
166.74 245.992 L
166.983 233.288 L
167 232.875 L
168.357 220.583 L
167.895 207.878 L
178 199.972 L
189 198.927 L
200 198.841 L
211 199.065 L
222 200.143 L
233 199.065 L
244 199.038 L
255 200.085 L
263.786 207.878 L
266 219.928 L
268.198 207.878 L
271.526 198.831 L
271.526 196.89 L
271.526 196.351 L
266.438 207.878 L
266 210.279 L
265.559 207.878 L
255 198.512 L
244 197.27 L
233 197.303 L
222 198.596 L
211 197.303 L
200 197.034 L
189 197.136 L
178 198.318 L
167 206.858 L
166.641 207.878 L
166.805 220.583 L
166.256 233.288 L
cp
265.754 233.288 M
266 236.289 L
266.238 233.288 L
266 225.408 L
cp
51.474 80.827 M
51.474 81.553 L
51.569 80.827 L
56.872 68.122 L
57 66.944 L
57.132 68.122 L
68 77.776 L
79 78.665 L
90 78.198 L
101 77.91 L
112 77.69 L
123 77.558 L
134 78.052 L
145 78.819 L
155.178 68.122 L
155.478 55.417 L
156 52.379 L
156.705 42.712 L
157.466 30.007 L
157.918 22.472 L
157.394 22.472 L
157.05 22.472 L
156.622 30.007 L
156 41.667 L
155.855 42.712 L
153.698 55.417 L
153.436 68.122 L
145 76.989 L
134 76.397 L
123 75.986 L
112 76.096 L
101 76.278 L
90 76.519 L
79 76.908 L
68 76.111 L
59.006 68.122 L
57.665 55.417 L
57 49.505 L
56.355 55.417 L
55.06 68.122 L
51.474 78.434 L
cp
f
GR
GS
0.141 GC
N
165.077 245.992 M
164.548 253.528 L
165.096 253.528 L
165.434 253.528 L
165.908 245.992 L
166.256 233.288 L
166.805 220.583 L
166.641 207.878 L
167 206.858 L
178 198.318 L
189 197.136 L
200 197.034 L
211 197.303 L
222 198.596 L
233 197.303 L
244 197.27 L
255 198.512 L
265.559 207.878 L
266 210.279 L
266.438 207.878 L
271.526 196.351 L
271.526 195.173 L
271.526 192.601 L
271.221 195.173 L
266 206.529 L
255 196.939 L
244 195.502 L
233 195.54 L
222 197.049 L
211 195.54 L
200 195.227 L
189 195.346 L
178 196.663 L
167 205.09 L
166.019 207.878 L
166.174 220.583 L
165.529 233.288 L
cp
51.569 80.827 M
51.474 81.553 L
51.474 82.013 L
51.474 87.491 L
52.498 80.827 L
57 70.166 L
68 79.44 L
79 80.422 L
90 79.878 L
101 79.541 L
112 79.285 L
123 79.131 L
134 79.707 L
145 80.65 L
156 69.257 L
156.346 68.122 L
156.472 55.417 L
157.46 42.712 L
158.31 30.007 L
158.787 22.472 L
158.262 22.472 L
157.918 22.472 L
157.466 30.007 L
156.705 42.712 L
156 52.379 L
155.478 55.417 L
155.178 68.122 L
145 78.819 L
134 78.052 L
123 77.558 L
112 77.69 L
101 77.91 L
90 78.198 L
79 78.665 L
68 77.776 L
57.132 68.122 L
57 66.944 L
56.872 68.122 L
cp
f
GR
GS
0.173 GC
N
164.246 245.992 M
163.662 253.528 L
164.21 253.528 L
164.548 253.528 L
165.077 245.992 L
165.529 233.288 L
166.174 220.583 L
166.019 207.878 L
167 205.09 L
178 196.663 L
189 195.346 L
200 195.227 L
211 195.54 L
222 197.049 L
233 195.54 L
244 195.502 L
255 196.939 L
266 206.529 L
271.221 195.173 L
271.526 192.601 L
271.526 190.857 L
271.526 186.841 L
270.395 195.173 L
266 204.733 L
255 195.367 L
253.549 195.173 L
244 193.659 L
233 193.724 L
224.332 195.173 L
222 195.502 L
219.668 195.173 L
211 193.896 L
200 193.442 L
189 193.394 L
178 194.969 L
177.767 195.173 L
167 203.322 L
165.396 207.878 L
165.543 220.583 L
164.802 233.288 L
cp
52.498 80.827 M
51.474 87.491 L
51.474 90.814 L
51.474 91.945 L
53.426 80.827 L
57 72.364 L
67.544 80.827 L
68 81.157 L
79 82.353 L
90 81.641 L
101 81.219 L
112 80.893 L
115.215 80.827 L
123 80.703 L
125.162 80.827 L
134 81.574 L
145 82.519 L
146.878 80.827 L
156 71.405 L
157.001 68.122 L
157.141 55.417 L
158.215 42.712 L
159.154 30.007 L
159.655 22.472 L
159.13 22.472 L
158.787 22.472 L
158.31 30.007 L
157.46 42.712 L
156.472 55.417 L
156.346 68.122 L
156 69.257 L
145 80.65 L
134 79.707 L
123 79.131 L
112 79.285 L
101 79.541 L
90 79.878 L
79 80.422 L
68 79.44 L
57 70.166 L
cp
f
GR
GS
0.204 GC
N
51.474 249.922 M
51.474 253.528 L
51.893 253.528 L
52.148 253.528 L
51.644 245.992 L
51.474 241.804 L
51.474 244.003 L
51.474 245.992 L
cp
163.415 245.992 M
162.777 253.528 L
163.324 253.528 L
163.662 253.528 L
164.246 245.992 L
164.802 233.288 L
165.543 220.583 L
165.396 207.878 L
167 203.322 L
177.767 195.173 L
178 194.969 L
189 193.394 L
200 193.442 L
211 193.896 L
219.668 195.173 L
222 195.502 L
224.332 195.173 L
233 193.724 L
244 193.659 L
253.549 195.173 L
255 195.367 L
266 204.733 L
270.395 195.173 L
271.526 186.841 L
271.526 182.467 L
271.526 174.815 L
271.51 182.467 L
269.57 195.173 L
266 202.937 L
256.854 195.173 L
255 193.384 L
244 191.798 L
233 191.893 L
222 193.298 L
211 192.283 L
200 191.657 L
189 191.424 L
178 192.921 L
175.431 195.173 L
167 201.554 L
164.774 207.878 L
164.912 220.583 L
164.075 233.288 L
cp
51.474 93.533 M
51.474 102.494 L
51.844 93.533 L
54.354 80.827 L
57 74.562 L
64.806 80.827 L
68 83.133 L
79 84.337 L
90 83.513 L
101 83.073 L
112 82.89 L
123 82.95 L
134 83.889 L
145 84.391 L
148.958 80.827 L
156 73.553 L
157.657 68.122 L
157.81 55.417 L
158.969 42.712 L
159.998 30.007 L
160.523 22.472 L
159.998 22.472 L
159.655 22.472 L
159.154 30.007 L
158.215 42.712 L
157.141 55.417 L
157.001 68.122 L
156 71.405 L
146.878 80.827 L
145 82.519 L
134 81.574 L
125.162 80.827 L
123 80.703 L
115.215 80.827 L
112 80.893 L
101 81.219 L
90 81.641 L
79 82.353 L
68 81.157 L
67.544 80.827 L
57 72.364 L
53.426 80.827 L
51.474 91.945 L
cp
271.455 30.007 M
271.526 31.258 L
271.526 30.726 L
271.526 30.007 L
271.526 22.472 L
271.309 22.472 L
cp
f
GR
GS
0.22 GC
N
51.644 245.992 M
52.148 253.528 L
52.576 253.528 L
52.832 253.528 L
52.271 245.992 L
51.698 233.288 L
51.474 230.181 L
51.474 231.245 L
51.474 233.288 L
51.474 237.129 L
51.474 241.804 L
cp
162.584 245.992 M
161.891 253.528 L
162.439 253.528 L
162.777 253.528 L
163.415 245.992 L
164.075 233.288 L
164.912 220.583 L
164.774 207.878 L
167 201.554 L
175.431 195.173 L
178 192.921 L
189 191.424 L
200 191.657 L
211 192.283 L
222 193.298 L
233 191.893 L
244 191.798 L
255 193.384 L
256.854 195.173 L
266 202.937 L
269.57 195.173 L
271.51 182.467 L
271.526 174.815 L
271.526 169.762 L
271.526 169.51 L
271.526 157.057 L
271.526 148.425 L
271.526 144.352 L
271.526 142.511 L
271.493 144.352 L
270.997 157.057 L
270.93 169.762 L
270.9 182.467 L
268.744 195.173 L
266 201.141 L
258.969 195.173 L
255 191.344 L
244 189.938 L
233 190.063 L
222 190.916 L
211 190.671 L
200 189.872 L
189 189.454 L
178 190.873 L
173.096 195.173 L
167 199.786 L
164.152 207.878 L
164.281 220.583 L
163.348 233.288 L
cp
51.474 131.648 M
51.474 137.719 L
51.633 131.648 L
52.055 118.942 L
51.91 106.238 L
52.494 93.533 L
55.282 80.827 L
57 76.76 L
62.068 80.827 L
68 85.11 L
79 86.32 L
90 85.386 L
101 84.928 L
112 84.888 L
123 85.255 L
134 86.203 L
145 86.264 L
151.037 80.827 L
156 75.701 L
158.312 68.122 L
158.479 55.417 L
159.724 42.712 L
160.842 30.007 L
161.391 22.472 L
160.867 22.472 L
160.523 22.472 L
159.998 30.007 L
158.969 42.712 L
157.81 55.417 L
157.657 68.122 L
156 73.553 L
148.958 80.827 L
145 84.391 L
134 83.889 L
123 82.95 L
112 82.89 L
101 83.073 L
90 83.513 L
79 84.337 L
68 83.133 L
64.806 80.827 L
57 74.562 L
54.354 80.827 L
51.844 93.533 L
51.474 102.494 L
51.474 106.238 L
51.474 108.91 L
51.474 118.942 L
51.474 120.618 L
cp
270.839 30.007 M
271.526 40.873 L
271.526 36.527 L
271.526 31.258 L
271.455 30.007 L
271.309 22.472 L
270.927 22.472 L
270.677 22.472 L
cp
f
GR
GS
0.251 GC
N
52.271 245.992 M
52.832 253.528 L
53.26 253.528 L
53.515 253.528 L
52.898 245.992 L
52.268 233.288 L
51.474 223.29 L
51.474 226.504 L
51.474 230.181 L
51.698 233.288 L
cp
161.753 245.992 M
161.006 253.528 L
161.553 253.528 L
161.891 253.528 L
162.584 245.992 L
163.348 233.288 L
164.281 220.583 L
164.152 207.878 L
167 199.786 L
173.096 195.173 L
178 190.873 L
189 189.454 L
200 189.872 L
211 190.671 L
222 190.916 L
233 190.063 L
244 189.938 L
255 191.344 L
258.969 195.173 L
266 201.141 L
268.744 195.173 L
270.9 182.467 L
270.93 169.762 L
270.997 157.057 L
271.493 144.352 L
271.526 142.511 L
271.526 131.648 L
271.526 124.155 L
271.195 131.648 L
270.942 144.352 L
270.396 157.057 L
270.323 169.762 L
270.29 182.467 L
267.918 195.173 L
266 199.345 L
261.085 195.173 L
255 189.303 L
244 188.077 L
233 188.232 L
222 188.534 L
211 189.058 L
200 188.088 L
189 187.484 L
178 188.825 L
170.76 195.173 L
167 198.018 L
163.529 207.878 L
163.65 220.583 L
162.621 233.288 L
cp
51.474 144.352 M
51.474 150.948 L
51.83 144.352 L
52.196 131.648 L
52.661 118.942 L
52.501 106.238 L
53.143 93.533 L
56.21 80.827 L
57 78.958 L
59.329 80.827 L
68 87.087 L
79 88.304 L
90 87.259 L
101 86.782 L
112 86.885 L
123 87.56 L
134 88.517 L
145 88.136 L
153.117 80.827 L
156 77.849 L
158.968 68.122 L
159.148 55.417 L
160.479 42.712 L
161.686 30.007 L
162.26 22.472 L
161.735 22.472 L
161.391 22.472 L
160.842 30.007 L
159.724 42.712 L
158.479 55.417 L
158.312 68.122 L
156 75.701 L
151.037 80.827 L
145 86.264 L
134 86.203 L
123 85.255 L
112 84.888 L
101 84.928 L
90 85.386 L
79 86.32 L
68 85.11 L
62.068 80.827 L
57 76.76 L
55.282 80.827 L
52.494 93.533 L
51.91 106.238 L
52.055 118.942 L
51.633 131.648 L
51.474 137.719 L
cp
271.107 42.712 M
271.526 49.919 L
271.526 47.124 L
271.526 42.712 L
271.526 41.672 L
271.526 40.873 L
270.839 30.007 L
270.677 22.472 L
270.295 22.472 L
270.044 22.472 L
270.223 30.007 L
cp
f
GR
GS
0.282 GC
N
52.898 245.992 M
53.515 253.528 L
53.943 253.528 L
54.198 253.528 L
53.525 245.992 L
52.838 233.288 L
51.737 220.583 L
51.474 213.473 L
51.474 216.906 L
51.474 220.583 L
51.474 222.313 L
51.474 223.29 L
52.268 233.288 L
cp
160.921 245.992 M
160.12 253.528 L
160.667 253.528 L
161.006 253.528 L
161.753 245.992 L
162.621 233.288 L
163.65 220.583 L
163.529 207.878 L
167 198.018 L
170.76 195.173 L
178 188.825 L
189 187.484 L
200 188.088 L
211 189.058 L
222 188.534 L
233 188.232 L
244 188.077 L
255 189.303 L
261.085 195.173 L
266 199.345 L
267.918 195.173 L
270.29 182.467 L
270.323 169.762 L
270.396 157.057 L
270.942 144.352 L
271.195 131.648 L
271.526 124.155 L
271.526 118.942 L
271.526 113.975 L
271.28 118.942 L
270.667 131.648 L
270.391 144.352 L
269.796 157.057 L
269.716 169.762 L
269.68 182.467 L
267.093 195.173 L
266 197.549 L
263.2 195.173 L
255 187.263 L
244 186.217 L
233 186.402 L
222 186.152 L
211 187.445 L
200 186.303 L
189 185.514 L
178 186.777 L
168.424 195.173 L
167 196.25 L
162.907 207.878 L
163.018 220.583 L
161.894 233.288 L
cp
51.474 157.057 M
51.474 161.107 L
51.612 157.057 L
52.36 144.352 L
52.76 131.648 L
53.266 118.942 L
53.092 106.238 L
53.793 93.533 L
57 81.2 L
68 89.063 L
79 90.287 L
90 89.131 L
101 88.636 L
112 88.883 L
123 89.865 L
134 90.831 L
145 90.009 L
155.197 80.827 L
156 79.998 L
159.623 68.122 L
159.816 55.417 L
161.234 42.712 L
162.53 30.007 L
163.128 22.472 L
162.603 22.472 L
162.26 22.472 L
161.686 30.007 L
160.479 42.712 L
159.148 55.417 L
158.968 68.122 L
156 77.849 L
153.117 80.827 L
145 88.136 L
134 88.517 L
123 87.56 L
112 86.885 L
101 86.782 L
90 87.259 L
79 88.304 L
68 87.087 L
59.329 80.827 L
57 78.958 L
56.21 80.827 L
53.143 93.533 L
52.501 106.238 L
52.661 118.942 L
52.196 131.648 L
51.83 144.352 L
51.474 150.948 L
cp
271.362 68.122 M
271.526 71.906 L
271.526 70.264 L
271.526 68.122 L
271.526 59.575 L
271.526 55.417 L
271.526 52.229 L
271.526 49.919 L
271.107 42.712 L
270.223 30.007 L
270.044 22.472 L
269.663 22.472 L
269.412 22.472 L
269.607 30.007 L
270.571 42.712 L
271.378 55.417 L
cp
f
GR
GS
0.298 GC
N
53.525 245.992 M
54.198 253.528 L
54.626 253.528 L
54.881 253.528 L
54.152 245.992 L
53.408 233.288 L
52.215 220.583 L
51.706 207.878 L
51.655 195.173 L
51.474 185.703 L
51.474 191.677 L
51.474 195.173 L
51.474 201.807 L
51.474 207.878 L
51.474 210.651 L
51.474 213.473 L
51.737 220.583 L
52.838 233.288 L
cp
160.09 245.992 M
159.234 253.528 L
159.782 253.528 L
160.12 253.528 L
160.921 245.992 L
161.894 233.288 L
163.018 220.583 L
162.907 207.878 L
167 196.25 L
168.424 195.173 L
178 186.777 L
189 185.514 L
200 186.303 L
211 187.445 L
222 186.152 L
233 186.402 L
244 186.217 L
255 187.263 L
263.2 195.173 L
266 197.549 L
267.093 195.173 L
269.68 182.467 L
269.716 169.762 L
269.796 157.057 L
270.391 144.352 L
270.667 131.648 L
271.28 118.942 L
271.526 113.975 L
271.526 106.238 L
271.526 100.13 L
271.486 106.238 L
270.803 118.942 L
270.14 131.648 L
269.841 144.352 L
269.195 157.057 L
269.109 169.762 L
269.07 182.467 L
266.267 195.173 L
266 195.754 L
265.315 195.173 L
255 185.223 L
244 184.357 L
233 184.571 L
222 183.77 L
211 185.833 L
200 184.519 L
189 183.545 L
178 184.73 L
167 194.088 L
166.673 195.173 L
162.285 207.878 L
162.387 220.583 L
161.167 233.288 L
cp
51.474 169.762 M
51.474 178.508 L
51.611 169.762 L
52.079 157.057 L
52.89 144.352 L
53.323 131.648 L
53.872 118.942 L
53.683 106.238 L
54.442 93.533 L
57 83.697 L
68 91.04 L
79 92.271 L
90 91.004 L
101 90.491 L
112 90.88 L
123 92.169 L
134 93.145 L
145 91.882 L
156 82.254 L
156.522 80.827 L
160.279 68.122 L
160.485 55.417 L
161.989 42.712 L
163.374 30.007 L
163.996 22.472 L
163.471 22.472 L
163.128 22.472 L
162.53 30.007 L
161.234 42.712 L
159.816 55.417 L
159.623 68.122 L
156 79.998 L
155.197 80.827 L
145 90.009 L
134 90.831 L
123 89.865 L
112 88.883 L
101 88.636 L
90 89.131 L
79 90.287 L
68 89.063 L
57 81.2 L
53.793 93.533 L
53.092 106.238 L
53.266 118.942 L
52.76 131.648 L
52.36 144.352 L
51.612 157.057 L
51.474 161.107 L
cp
271.491 80.827 M
271.526 86.541 L
271.526 81.74 L
271.526 80.827 L
271.526 76.005 L
271.526 71.906 L
271.362 68.122 L
271.378 55.417 L
270.571 42.712 L
269.607 30.007 L
269.412 22.472 L
269.03 22.472 L
268.78 22.472 L
268.991 30.007 L
270.035 42.712 L
270.909 55.417 L
270.892 68.122 L
cp
f
GR
GS
0.333 GC
N
54.152 245.992 M
54.881 253.528 L
55.309 253.528 L
55.564 253.528 L
54.779 245.992 L
53.977 233.288 L
52.693 220.583 L
52.145 207.878 L
52.09 195.173 L
51.828 182.467 L
52.042 169.762 L
52.547 157.057 L
53.42 144.352 L
53.886 131.648 L
54.477 118.942 L
54.274 106.238 L
55.091 93.533 L
57 86.194 L
68 93.017 L
72.593 93.533 L
79 100.439 L
84.606 93.533 L
90 92.877 L
101 92.345 L
112 92.878 L
116.897 93.533 L
123 97.613 L
134 97.584 L
145 94.335 L
145.328 93.533 L
156 84.577 L
157.371 80.827 L
160.934 68.122 L
161.154 55.417 L
162.743 42.712 L
164.218 30.007 L
164.864 22.472 L
164.34 22.472 L
163.996 22.472 L
163.374 30.007 L
161.989 42.712 L
160.485 55.417 L
160.279 68.122 L
156.522 80.827 L
156 82.254 L
145 91.882 L
134 93.145 L
123 92.169 L
112 90.88 L
101 90.491 L
90 91.004 L
79 92.271 L
68 91.04 L
57 83.697 L
54.442 93.533 L
53.683 106.238 L
53.872 118.942 L
53.323 131.648 L
52.89 144.352 L
52.079 157.057 L
51.611 169.762 L
51.474 178.508 L
51.474 182.467 L
51.474 183.629 L
51.474 185.703 L
51.655 195.173 L
51.706 207.878 L
52.215 220.583 L
53.408 233.288 L
cp
159.259 245.992 M
158.349 253.528 L
158.896 253.528 L
159.234 253.528 L
160.09 245.992 L
161.167 233.288 L
162.387 220.583 L
162.285 207.878 L
166.673 195.173 L
167 194.088 L
178 184.73 L
189 183.545 L
200 184.519 L
211 185.833 L
222 183.77 L
233 184.571 L
244 184.357 L
255 185.223 L
265.315 195.173 L
266 195.754 L
266.267 195.173 L
269.07 182.467 L
269.109 169.762 L
269.195 157.057 L
269.841 144.352 L
270.14 131.648 L
270.803 118.942 L
271.486 106.238 L
271.526 100.13 L
271.526 93.533 L
271.526 92.43 L
271.526 86.541 L
271.491 80.827 L
270.892 68.122 L
270.909 55.417 L
270.035 42.712 L
268.991 30.007 L
268.78 22.472 L
268.398 22.472 L
268.147 22.472 L
268.375 30.007 L
269.5 42.712 L
270.441 55.417 L
270.422 68.122 L
271.067 80.827 L
271.152 93.533 L
271.062 106.238 L
270.327 118.942 L
269.612 131.648 L
269.29 144.352 L
268.595 157.057 L
268.502 169.762 L
268.46 182.467 L
266 193.348 L
255 183.182 L
244 182.496 L
233 182.741 L
230.273 182.467 L
222 179.242 L
218.763 182.467 L
211 184.22 L
200 182.734 L
197.273 182.467 L
189 179.242 L
180.065 182.467 L
178 182.682 L
167 191.311 L
165.834 195.173 L
161.662 207.878 L
161.756 220.583 L
160.44 233.288 L
cp
f
GR
GS
0.349 GC
N
54.779 245.992 M
55.564 253.528 L
55.992 253.528 L
56.247 253.528 L
55.406 245.992 L
54.547 233.288 L
53.171 220.583 L
52.583 207.878 L
52.525 195.173 L
52.244 182.467 L
52.474 169.762 L
53.014 157.057 L
53.95 144.352 L
54.449 131.648 L
55.083 118.942 L
54.865 106.238 L
55.741 93.533 L
57 88.691 L
64.964 93.533 L
68 99.142 L
74.311 106.238 L
79 109.144 L
83.89 106.238 L
90 98.972 L
97.129 106.238 L
101 109.153 L
104.519 106.238 L
112 98.634 L
121.681 106.238 L
123 106.964 L
124.641 106.238 L
134 102.449 L
145 101.112 L
148.097 93.533 L
156 86.901 L
158.221 80.827 L
161.589 68.122 L
161.823 55.417 L
163.498 42.712 L
165.062 30.007 L
165.733 22.472 L
165.208 22.472 L
164.864 22.472 L
164.218 30.007 L
162.743 42.712 L
161.154 55.417 L
160.934 68.122 L
157.371 80.827 L
156 84.577 L
145.328 93.533 L
145 94.335 L
134 97.584 L
123 97.613 L
116.897 93.533 L
112 92.878 L
101 92.345 L
90 92.877 L
84.606 93.533 L
79 100.439 L
72.593 93.533 L
68 93.017 L
57 86.194 L
55.091 93.533 L
54.274 106.238 L
54.477 118.942 L
53.886 131.648 L
53.42 144.352 L
52.547 157.057 L
52.042 169.762 L
51.828 182.467 L
52.09 195.173 L
52.145 207.878 L
52.693 220.583 L
53.977 233.288 L
cp
158.428 245.992 M
157.463 253.528 L
158.01 253.528 L
158.349 253.528 L
159.259 245.992 L
160.44 233.288 L
161.756 220.583 L
161.662 207.878 L
165.834 195.173 L
167 191.311 L
178 182.682 L
180.065 182.467 L
189 179.242 L
197.273 182.467 L
200 182.734 L
211 184.22 L
218.763 182.467 L
222 179.242 L
230.273 182.467 L
233 182.741 L
244 182.496 L
255 183.182 L
266 193.348 L
268.46 182.467 L
268.502 169.762 L
268.595 157.057 L
269.29 144.352 L
269.612 131.648 L
270.327 118.942 L
271.062 106.238 L
271.152 93.533 L
271.067 80.827 L
270.422 68.122 L
270.441 55.417 L
269.5 42.712 L
268.375 30.007 L
268.147 22.472 L
267.766 22.472 L
267.515 22.472 L
267.758 30.007 L
268.964 42.712 L
269.972 55.417 L
269.952 68.122 L
270.643 80.827 L
270.734 93.533 L
270.637 106.238 L
269.85 118.942 L
269.084 131.648 L
268.739 144.352 L
267.995 157.057 L
267.895 169.762 L
267.85 182.467 L
266 190.65 L
256.941 182.467 L
255 174.247 L
246.679 169.762 L
244 169.138 L
242.721 169.762 L
233 176.178 L
222 172.126 L
217.184 169.762 L
211 167.493 L
207.106 169.762 L
200 175.834 L
189 172.126 L
183.152 169.762 L
178 167.802 L
176.481 169.762 L
174.802 182.467 L
167 188.534 L
164.996 195.173 L
161.04 207.878 L
161.125 220.583 L
159.713 233.288 L
cp
211 182.607 M
209.983 182.467 L
211 180.322 L
211.619 182.467 L
cp
f
GR
GS
0.38 GC
N
55.406 245.992 M
56.247 253.528 L
56.351 253.528 L
56.607 253.528 L
56.888 253.528 L
56.033 245.992 L
55.117 233.288 L
53.649 220.583 L
53.022 207.878 L
52.96 195.173 L
52.661 182.467 L
52.906 169.762 L
53.482 157.057 L
54.48 144.352 L
55.013 131.648 L
55.688 118.942 L
55.456 106.238 L
56.39 93.533 L
57 91.188 L
60.857 93.533 L
67.732 106.238 L
68 115.522 L
79 113.33 L
90 107.413 L
101 115.341 L
111.987 106.238 L
112 106.224 L
112.017 106.238 L
123 112.284 L
134 110.907 L
145 108.44 L
146.97 106.238 L
150.866 93.533 L
156 89.224 L
159.071 80.827 L
162.245 68.122 L
162.491 55.417 L
164.253 42.712 L
165.906 30.007 L
166.599 22.472 L
166.555 22.472 L
166.076 22.472 L
165.733 22.472 L
165.062 30.007 L
163.498 42.712 L
161.823 55.417 L
161.589 68.122 L
158.221 80.827 L
156 86.901 L
148.097 93.533 L
145 101.112 L
134 102.449 L
124.641 106.238 L
123 106.964 L
121.681 106.238 L
112 98.634 L
104.519 106.238 L
101 109.153 L
97.129 106.238 L
90 98.972 L
83.89 106.238 L
79 109.144 L
74.311 106.238 L
68 99.142 L
64.964 93.533 L
57 88.691 L
55.741 93.533 L
54.865 106.238 L
55.083 118.942 L
54.449 131.648 L
53.95 144.352 L
53.014 157.057 L
52.474 169.762 L
52.244 182.467 L
52.525 195.173 L
52.583 207.878 L
53.171 220.583 L
54.547 233.288 L
cp
156.585 253.528 M
157.125 253.528 L
157.463 253.528 L
158.428 245.992 L
159.713 233.288 L
161.125 220.583 L
161.04 207.878 L
164.996 195.173 L
167 188.534 L
174.802 182.467 L
176.481 169.762 L
178 167.802 L
183.152 169.762 L
189 172.126 L
200 175.834 L
207.106 169.762 L
211 167.493 L
217.184 169.762 L
222 172.126 L
233 176.178 L
242.721 169.762 L
244 169.138 L
246.679 169.762 L
255 174.247 L
256.941 182.467 L
266 190.65 L
267.85 182.467 L
267.895 169.762 L
267.995 157.057 L
268.739 144.352 L
269.084 131.648 L
269.85 118.942 L
270.637 106.238 L
270.734 93.533 L
270.643 80.827 L
269.952 68.122 L
269.972 55.417 L
268.964 42.712 L
267.758 30.007 L
267.515 22.472 L
267.134 22.472 L
266.883 22.472 L
267.142 30.007 L
268.428 42.712 L
269.504 55.417 L
269.482 68.122 L
270.219 80.827 L
270.317 93.533 L
270.213 106.238 L
269.373 118.942 L
268.557 131.648 L
268.189 144.352 L
267.394 157.057 L
267.288 169.762 L
267.24 182.467 L
266 187.952 L
259.928 182.467 L
257.566 169.762 L
256.767 157.057 L
255 155.336 L
252.038 157.057 L
244 163.664 L
233 167.612 L
222 166.306 L
211 162.172 L
200 164.72 L
189 163.914 L
178 161.105 L
171.293 169.762 L
171.231 182.467 L
167 185.757 L
164.158 195.173 L
160.418 207.878 L
160.494 220.583 L
158.986 233.288 L
157.597 245.992 L
cp
209.983 182.467 M
211 182.607 L
211.619 182.467 L
211 180.322 L
cp
f
GR
GS
0.412 GC
N
56.033 245.992 M
56.888 253.528 L
56.961 253.528 L
57 253.528 L
57.815 253.528 L
58.892 253.528 L
57 248.986 L
56.66 245.992 L
55.687 233.288 L
54.127 220.583 L
53.461 207.878 L
53.395 195.173 L
53.077 182.467 L
53.337 169.762 L
53.95 157.057 L
55.01 144.352 L
55.576 131.648 L
56.294 118.942 L
56.047 106.238 L
57 93.995 L
63.625 106.238 L
62.989 118.942 L
68 122.883 L
76.153 118.942 L
79 117.516 L
90 116.308 L
94.561 118.942 L
101 122.033 L
106.151 118.942 L
112 114.848 L
123 117.604 L
126.178 118.942 L
134 121.653 L
142.715 118.942 L
145 117.477 L
155.05 106.238 L
153.635 93.533 L
156 91.548 L
159.921 80.827 L
162.9 68.122 L
163.16 55.417 L
165.008 42.712 L
166.75 30.007 L
167 27.288 L
168.539 22.472 L
167 22.472 L
166.599 22.472 L
165.906 30.007 L
164.253 42.712 L
162.491 55.417 L
162.245 68.122 L
159.071 80.827 L
156 89.224 L
150.866 93.533 L
146.97 106.238 L
145 108.44 L
134 110.907 L
123 112.284 L
112.017 106.238 L
112 106.224 L
111.987 106.238 L
101 115.341 L
90 107.413 L
79 113.33 L
68 115.522 L
67.732 106.238 L
60.857 93.533 L
57 91.188 L
56.39 93.533 L
55.456 106.238 L
55.688 118.942 L
55.013 131.648 L
54.48 144.352 L
53.482 157.057 L
52.906 169.762 L
52.661 182.467 L
52.96 195.173 L
53.022 207.878 L
53.649 220.583 L
55.117 233.288 L
cp
155.108 253.528 M
156 253.528 L
156.585 253.528 L
157.597 245.992 L
158.986 233.288 L
160.494 220.583 L
160.418 207.878 L
164.158 195.173 L
167 185.757 L
171.231 182.467 L
171.293 169.762 L
178 161.105 L
189 163.914 L
200 164.72 L
211 162.172 L
222 166.306 L
233 167.612 L
244 163.664 L
252.038 157.057 L
255 155.336 L
256.767 157.057 L
257.566 169.762 L
259.928 182.467 L
266 187.952 L
267.24 182.467 L
267.288 169.762 L
267.394 157.057 L
268.189 144.352 L
268.557 131.648 L
269.373 118.942 L
270.213 106.238 L
270.317 93.533 L
270.219 80.827 L
269.482 68.122 L
269.504 55.417 L
268.428 42.712 L
267.142 30.007 L
266.883 22.472 L
266.501 22.472 L
266.25 22.472 L
266.526 30.007 L
267.892 42.712 L
269.035 55.417 L
269.012 68.122 L
269.795 80.827 L
269.899 93.533 L
269.789 106.238 L
268.896 118.942 L
268.029 131.648 L
267.638 144.352 L
266.794 157.057 L
266.681 169.762 L
266.63 182.467 L
266 185.254 L
262.915 182.467 L
261.541 169.762 L
260.742 157.057 L
255 151.463 L
245.378 157.057 L
244 158.19 L
239.922 157.057 L
233 155.406 L
229.607 157.057 L
222 161.131 L
211.515 157.057 L
211 156.768 L
200 154.129 L
189 156.228 L
178 155.413 L
174.694 157.057 L
167 167.758 L
166.771 169.762 L
167 175.901 L
167.659 182.467 L
167 182.98 L
163.32 195.173 L
159.795 207.878 L
159.863 220.583 L
158.26 233.288 L
156.766 245.992 L
156 251.692 L
cp
f
GR
GS
0.427 GC
N
56.66 245.992 M
57 248.986 L
58.892 253.528 L
59.4 253.528 L
59.889 253.528 L
61.255 253.528 L
58.202 245.992 L
57 242.689 L
56.257 233.288 L
54.605 220.583 L
53.9 207.878 L
53.83 195.173 L
53.493 182.467 L
53.769 169.762 L
54.417 157.057 L
55.54 144.352 L
56.139 131.648 L
56.899 118.942 L
56.638 106.238 L
57 101.586 L
59.517 106.238 L
57.855 118.942 L
68 126.92 L
79 125.526 L
90 125.972 L
101 129.426 L
112 122.93 L
123 123.335 L
134 126.032 L
145 122.475 L
156 121.874 L
157.107 118.942 L
157.133 106.238 L
156.181 93.533 L
160.771 80.827 L
163.556 68.122 L
163.829 55.417 L
165.763 42.712 L
167 33.824 L
168.339 30.007 L
171.177 22.472 L
169.437 22.472 L
168.539 22.472 L
167 27.288 L
166.75 30.007 L
165.008 42.712 L
163.16 55.417 L
162.9 68.122 L
159.921 80.827 L
156 91.548 L
153.635 93.533 L
155.05 106.238 L
145 117.477 L
142.715 118.942 L
134 121.653 L
126.178 118.942 L
123 117.604 L
112 114.848 L
106.151 118.942 L
101 122.033 L
94.561 118.942 L
90 116.308 L
79 117.516 L
76.153 118.942 L
68 122.883 L
62.989 118.942 L
63.625 106.238 L
57 93.995 L
56.047 106.238 L
56.294 118.942 L
55.576 131.648 L
55.01 144.352 L
53.95 157.057 L
53.337 169.762 L
53.077 182.467 L
53.395 195.173 L
53.461 207.878 L
54.127 220.583 L
55.687 233.288 L
cp
155.781 245.992 M
152.111 253.528 L
153.893 253.528 L
153.982 253.528 L
155.108 253.528 L
156 251.692 L
156.766 245.992 L
158.26 233.288 L
159.863 220.583 L
159.795 207.878 L
163.32 195.173 L
167 182.98 L
167.659 182.467 L
167 175.901 L
166.771 169.762 L
167 167.758 L
174.694 157.057 L
178 155.413 L
189 156.228 L
200 154.129 L
211 156.768 L
211.515 157.057 L
222 161.131 L
229.607 157.057 L
233 155.406 L
239.922 157.057 L
244 158.19 L
245.378 157.057 L
255 151.463 L
260.742 157.057 L
261.541 169.762 L
262.915 182.467 L
266 185.254 L
266.63 182.467 L
266.681 169.762 L
266.794 157.057 L
267.638 144.352 L
268.029 131.648 L
268.896 118.942 L
269.789 106.238 L
269.899 93.533 L
269.795 80.827 L
269.012 68.122 L
269.035 55.417 L
267.892 42.712 L
266.526 30.007 L
266.25 22.472 L
266.214 22.472 L
266 22.472 L
262.053 22.472 L
261.881 22.472 L
265.577 30.007 L
266 30.7 L
267.357 42.712 L
268.567 55.417 L
268.542 68.122 L
269.372 80.827 L
269.481 93.533 L
269.365 106.238 L
268.42 118.942 L
267.501 131.648 L
267.087 144.352 L
266.194 157.057 L
266.074 169.762 L
266.02 182.467 L
266 182.556 L
265.903 182.467 L
265.516 169.762 L
264.717 157.057 L
255 147.59 L
244 150.418 L
233 150.701 L
222 152.729 L
211 149.278 L
200 149.716 L
189 152.407 L
178 151.258 L
167 156.637 L
166.831 157.057 L
165.442 169.762 L
166.103 182.467 L
162.481 195.173 L
159.173 207.878 L
159.232 220.583 L
157.533 233.288 L
156 245.534 L
cp
f
GR
GS
0.459 GC
N
58.202 245.992 M
61.255 253.528 L
62.621 253.528 L
63.688 253.528 L
60.823 245.992 L
57 235.483 L
56.826 233.288 L
55.083 220.583 L
54.339 207.878 L
54.265 195.173 L
53.909 182.467 L
54.2 169.762 L
54.885 157.057 L
56.07 144.352 L
56.703 131.648 L
57 126.721 L
68 130.958 L
71.368 131.648 L
79 133.127 L
90 133.193 L
101 134.472 L
110.074 131.648 L
112 130.52 L
123 129.204 L
134 130.411 L
145 126.692 L
156 127.456 L
159.213 118.942 L
158.416 106.238 L
157.423 93.533 L
161.62 80.827 L
164.211 68.122 L
164.498 55.417 L
166.517 42.712 L
167 39.245 L
170.242 30.007 L
173.692 22.472 L
171.952 22.472 L
171.177 22.472 L
168.339 30.007 L
167 33.824 L
165.763 42.712 L
163.829 55.417 L
163.556 68.122 L
160.771 80.827 L
156.181 93.533 L
157.133 106.238 L
157.107 118.942 L
156 121.874 L
145 122.475 L
134 126.032 L
123 123.335 L
112 122.93 L
101 129.426 L
90 125.972 L
79 125.526 L
68 126.92 L
57.855 118.942 L
59.517 106.238 L
57 101.586 L
56.638 106.238 L
56.899 118.942 L
56.139 131.648 L
55.54 144.352 L
54.417 157.057 L
53.769 169.762 L
53.493 182.467 L
53.83 195.173 L
53.9 207.878 L
54.605 220.583 L
56.257 233.288 L
57 242.689 L
cp
153.012 245.992 M
149.201 253.528 L
150.984 253.528 L
152.111 253.528 L
155.781 245.992 L
156 245.534 L
157.533 233.288 L
159.232 220.583 L
159.173 207.878 L
162.481 195.173 L
166.103 182.467 L
165.442 169.762 L
166.831 157.057 L
167 156.637 L
178 151.258 L
189 152.407 L
200 149.716 L
211 149.278 L
222 152.729 L
233 150.701 L
244 150.418 L
255 147.59 L
264.717 157.057 L
265.516 169.762 L
265.903 182.467 L
266 182.556 L
266.02 182.467 L
266.074 169.762 L
266.194 157.057 L
267.087 144.352 L
267.501 131.648 L
268.42 118.942 L
269.365 106.238 L
269.481 93.533 L
269.372 80.827 L
268.542 68.122 L
268.567 55.417 L
267.357 42.712 L
266 30.7 L
265.577 30.007 L
261.881 22.472 L
260.701 22.472 L
258.124 22.472 L
257.42 22.472 L
262.678 30.007 L
266 35.444 L
266.821 42.712 L
268.098 55.417 L
268.073 68.122 L
268.948 80.827 L
269.064 93.533 L
268.941 106.238 L
267.943 118.942 L
266.973 131.648 L
266.537 144.352 L
266 151.847 L
256.584 144.352 L
255 143.695 L
244 143.146 L
239.15 144.352 L
233 145.996 L
228.9 144.352 L
222 142.286 L
211 142.999 L
204.248 144.352 L
200 145.303 L
189 148.586 L
178 147.103 L
167 151.317 L
164.688 157.057 L
164.114 169.762 L
165.003 182.467 L
161.643 195.173 L
158.551 207.878 L
158.601 220.583 L
156.806 233.288 L
156 239.725 L
cp
f
GR
GS
0.49 GC
N
60.823 245.992 M
63.688 253.528 L
65.054 253.528 L
66.121 253.528 L
63.445 245.992 L
58.061 233.288 L
57 230.903 L
55.561 220.583 L
54.778 207.878 L
54.701 195.173 L
54.326 182.467 L
54.632 169.762 L
55.353 157.057 L
56.6 144.352 L
57 136.534 L
68 135.279 L
79 136.947 L
90 136.774 L
101 138.509 L
112 134.923 L
123 135.22 L
134 134.154 L
142.842 131.648 L
145 130.909 L
149.543 131.648 L
156 133.419 L
157.593 131.648 L
161.319 118.942 L
159.7 106.238 L
158.664 93.533 L
162.47 80.827 L
164.867 68.122 L
165.166 55.417 L
167 44.189 L
167.756 42.712 L
172.146 30.007 L
175.999 22.472 L
175.618 22.472 L
174.466 22.472 L
173.692 22.472 L
170.242 30.007 L
167 39.245 L
166.517 42.712 L
164.498 55.417 L
164.211 68.122 L
161.62 80.827 L
157.423 93.533 L
158.416 106.238 L
159.213 118.942 L
156 127.456 L
145 126.692 L
134 130.411 L
123 129.204 L
112 130.52 L
110.074 131.648 L
101 134.472 L
90 133.193 L
79 133.127 L
71.368 131.648 L
68 130.958 L
57 126.721 L
56.703 131.648 L
56.07 144.352 L
54.885 157.057 L
54.2 169.762 L
53.909 182.467 L
54.265 195.173 L
54.339 207.878 L
55.083 220.583 L
56.826 233.288 L
57 235.483 L
cp
87.47 253.528 M
90 253.528 L
91.629 253.528 L
94.218 253.528 L
90 251.08 L
cp
128.768 253.528 M
132.656 253.528 L
134 253.528 L
135.839 253.528 L
140.702 253.528 L
134 249.419 L
cp
146.358 253.528 M
148.075 253.528 L
149.201 253.528 L
153.012 245.992 L
156 239.725 L
156.806 233.288 L
158.601 220.583 L
158.551 207.878 L
161.643 195.173 L
165.003 182.467 L
164.114 169.762 L
164.688 157.057 L
167 151.317 L
178 147.103 L
189 148.586 L
200 145.303 L
204.248 144.352 L
211 142.999 L
222 142.286 L
228.9 144.352 L
233 145.996 L
239.15 144.352 L
244 143.146 L
255 143.695 L
256.584 144.352 L
266 151.847 L
266.537 144.352 L
266.973 131.648 L
267.943 118.942 L
268.941 106.238 L
269.064 93.533 L
268.948 80.827 L
268.073 68.122 L
268.098 55.417 L
266.821 42.712 L
266 35.444 L
262.678 30.007 L
257.42 22.472 L
256.506 22.472 L
255 22.472 L
252.856 22.472 L
244 22.472 L
242.504 22.472 L
239.514 22.472 L
239.043 22.472 L
244 26.032 L
255 23.159 L
259.778 30.007 L
266 40.188 L
266.285 42.712 L
267.63 55.417 L
267.603 68.122 L
268.524 80.827 L
268.646 93.533 L
268.517 106.238 L
267.466 118.942 L
266.446 131.648 L
266 143.977 L
255 139.686 L
244 138.767 L
233 140.573 L
222 138.772 L
211 139.045 L
200 141.596 L
190.333 144.352 L
189 144.766 L
186.335 144.352 L
178 142.213 L
172.252 144.352 L
167 145.997 L
162.545 157.057 L
162.785 169.762 L
163.902 182.467 L
160.805 195.173 L
157.928 207.878 L
157.97 220.583 L
156.079 233.288 L
156 233.916 L
150.243 245.992 L
cp
f
GR
GS
0.506 GC
N
63.445 245.992 M
66.121 253.528 L
66.147 253.528 L
67.213 253.528 L
68 253.528 L
71.16 253.528 L
73.38 253.528 L
68 251.444 L
66.067 245.992 L
59.587 233.288 L
57 227.474 L
56.039 220.583 L
55.217 207.878 L
55.136 195.173 L
54.742 182.467 L
55.064 169.762 L
55.82 157.057 L
57 145.476 L
59.044 144.352 L
68 139.658 L
79 140.768 L
90 140.354 L
101 142.547 L
112 138.769 L
123 141.342 L
134 137.646 L
145 144.339 L
156 140.535 L
160.808 144.352 L
160.402 157.057 L
161.457 169.762 L
162.802 182.467 L
159.967 195.173 L
157.306 207.878 L
157.339 220.583 L
156 229.527 L
154.029 233.288 L
147.474 245.992 L
145 250.791 L
138.009 245.992 L
134 244.316 L
131.765 245.992 L
123.567 253.528 L
124.238 253.528 L
128.768 253.528 L
134 249.419 L
140.702 253.528 L
142.15 253.528 L
143.189 253.528 L
145 253.528 L
146.358 253.528 L
150.243 245.992 L
156 233.916 L
156.079 233.288 L
157.97 220.583 L
157.928 207.878 L
160.805 195.173 L
163.902 182.467 L
162.785 169.762 L
162.545 157.057 L
167 145.997 L
172.252 144.352 L
178 142.213 L
186.335 144.352 L
189 144.766 L
190.333 144.352 L
200 141.596 L
211 139.045 L
222 138.772 L
233 140.573 L
244 138.767 L
255 139.686 L
266 143.977 L
266.446 131.648 L
267.466 118.942 L
268.517 106.238 L
268.646 93.533 L
268.524 80.827 L
267.603 68.122 L
267.63 55.417 L
266.285 42.712 L
266 40.188 L
259.778 30.007 L
255 23.159 L
244 26.032 L
239.043 22.472 L
236.553 22.472 L
234.411 22.472 L
242.722 30.007 L
244 30.953 L
248.056 30.007 L
255 27.315 L
256.879 30.007 L
264.853 42.712 L
266 44.73 L
267.161 55.417 L
267.133 68.122 L
268.1 80.827 L
268.228 93.533 L
268.092 106.238 L
266.99 118.942 L
266 130.763 L
264.527 131.648 L
255 135.677 L
244 134.388 L
233 134.764 L
222 135.258 L
211 135.092 L
200 138.081 L
189 137.926 L
178 135.888 L
167 136.788 L
163.995 131.648 L
163.426 118.942 L
160.983 106.238 L
159.906 93.533 L
163.32 80.827 L
165.522 68.122 L
165.835 55.417 L
167 48.285 L
169.854 42.712 L
174.049 30.007 L
177.902 22.472 L
177.855 22.472 L
175.999 22.472 L
172.146 30.007 L
167.756 42.712 L
167 44.189 L
165.166 55.417 L
164.867 68.122 L
162.47 80.827 L
158.664 93.533 L
159.7 106.238 L
161.319 118.942 L
157.593 131.648 L
156 133.419 L
149.543 131.648 L
145 130.909 L
142.842 131.648 L
134 134.154 L
123 135.22 L
112 134.923 L
101 138.509 L
90 136.774 L
79 136.947 L
68 135.279 L
57 136.534 L
56.6 144.352 L
55.353 157.057 L
54.632 169.762 L
54.326 182.467 L
54.701 195.173 L
54.778 207.878 L
55.561 220.583 L
57 230.903 L
58.061 233.288 L
cp
81.523 253.528 M
85.387 253.528 L
87.47 253.528 L
90 251.08 L
94.218 253.528 L
97.151 253.528 L
100.585 253.528 L
90 246.214 L
cp
105.7 253.528 M
112 253.528 L
112.86 253.528 L
116.669 253.528 L
112 253.143 L
cp
184.828 22.472 M
178.813 22.472 L
189 24.862 L
200 24.472 L
203.442 22.472 L
200 22.472 L
192.665 22.472 L
189 22.472 L
cp
f
GR
GS
0.537 GC
N
66.067 245.992 M
68 251.444 L
73.38 253.528 L
76.534 253.528 L
77.853 253.528 L
79 253.528 L
81.523 253.528 L
90 246.214 L
100.585 253.528 L
100.597 253.528 L
100.78 253.528 L
101 253.528 L
105.7 253.528 L
112 253.143 L
116.669 253.528 L
122.043 253.528 L
123 253.528 L
123.567 253.528 L
131.765 245.992 L
134 244.316 L
138.009 245.992 L
145 250.791 L
147.474 245.992 L
154.029 233.288 L
156 229.527 L
157.339 220.583 L
157.306 207.878 L
159.967 195.173 L
162.802 182.467 L
161.457 169.762 L
160.402 157.057 L
160.808 144.352 L
156 140.535 L
145 144.339 L
134 137.646 L
123 141.342 L
112 138.769 L
101 142.547 L
90 140.354 L
79 140.768 L
68 139.658 L
59.044 144.352 L
57 145.476 L
55.82 157.057 L
55.064 169.762 L
54.742 182.467 L
55.136 195.173 L
55.217 207.878 L
56.039 220.583 L
57 227.474 L
59.587 233.288 L
cp
79 247.798 M
73.885 245.992 L
68 245.294 L
61.113 233.288 L
57 224.044 L
56.517 220.583 L
55.656 207.878 L
55.571 195.173 L
55.158 182.467 L
55.495 169.762 L
56.288 157.057 L
57 150.067 L
67.398 144.352 L
68 144.037 L
73.923 144.352 L
79 144.551 L
82.808 144.352 L
90 143.935 L
91.918 144.352 L
101 147.888 L
107.055 144.352 L
112 142.616 L
117.175 144.352 L
123 145.771 L
126.913 144.352 L
134 141.139 L
139.274 144.352 L
145 148.022 L
156 148.233 L
158.259 157.057 L
160.128 169.762 L
161.702 182.467 L
159.128 195.173 L
156.684 207.878 L
156.707 220.583 L
156 225.31 L
151.819 233.288 L
145 245.569 L
134 241.044 L
127.403 245.992 L
123 250.039 L
112 248.061 L
101 250.165 L
95.005 245.992 L
90 242.219 L
81.123 245.992 L
cp
163.995 131.648 M
167 136.788 L
178 135.888 L
189 137.926 L
200 138.081 L
211 135.092 L
222 135.258 L
233 134.764 L
244 134.388 L
255 135.677 L
264.527 131.648 L
266 130.763 L
266.99 118.942 L
268.092 106.238 L
268.228 93.533 L
268.1 80.827 L
267.133 68.122 L
267.161 55.417 L
266 44.73 L
264.853 42.712 L
256.879 30.007 L
255 27.315 L
248.056 30.007 L
244 30.953 L
242.722 30.007 L
234.411 22.472 L
233.921 22.472 L
233 22.472 L
226.668 22.472 L
222 22.472 L
216.578 22.472 L
212.135 22.472 L
222 26.74 L
233 24.254 L
239.346 30.007 L
244 33.45 L
255 31.334 L
262.401 42.712 L
266 49.043 L
266.693 55.417 L
266.663 68.122 L
267.676 80.827 L
267.811 93.533 L
267.668 106.238 L
266.513 118.942 L
266 125.07 L
255.049 131.648 L
255 131.668 L
254.851 131.648 L
244 130.47 L
233 130.335 L
222.615 131.648 L
222 131.744 L
220.066 131.648 L
211 131.145 L
209.524 131.648 L
200 134.567 L
190.476 131.648 L
189 131.172 L
178 130.728 L
167 126.157 L
165.532 118.942 L
162.267 106.238 L
161.147 93.533 L
164.17 80.827 L
166.177 68.122 L
166.504 55.417 L
167 52.38 L
171.951 42.712 L
175.952 30.007 L
178 26.002 L
189 28.251 L
200 27.533 L
210.027 22.472 L
208.832 22.472 L
203.442 22.472 L
200 24.472 L
189 24.862 L
178.813 22.472 L
178.352 22.472 L
178 22.472 L
177.902 22.472 L
174.049 30.007 L
169.854 42.712 L
167 48.285 L
165.835 55.417 L
165.522 68.122 L
163.32 80.827 L
159.906 93.533 L
160.983 106.238 L
163.426 118.942 L
cp
f
GR
GS
0.569 GC
N
73.885 245.992 M
79 247.798 L
81.123 245.992 L
90 242.219 L
95.005 245.992 L
101 250.165 L
112 248.061 L
123 250.039 L
127.403 245.992 L
134 241.044 L
145 245.569 L
151.819 233.288 L
156 225.31 L
156.707 220.583 L
156.684 207.878 L
159.128 195.173 L
161.702 182.467 L
160.128 169.762 L
158.259 157.057 L
156 148.233 L
145 148.022 L
139.274 144.352 L
134 141.139 L
126.913 144.352 L
123 145.771 L
117.175 144.352 L
112 142.616 L
107.055 144.352 L
101 147.888 L
91.918 144.352 L
90 143.935 L
82.808 144.352 L
79 144.551 L
73.923 144.352 L
68 144.037 L
67.398 144.352 L
57 150.067 L
56.288 157.057 L
55.495 169.762 L
55.158 182.467 L
55.571 195.173 L
55.656 207.878 L
56.517 220.583 L
57 224.044 L
61.113 233.288 L
68 245.294 L
cp
101 246.516 M
100.248 245.992 L
90 238.266 L
79 243.552 L
68 242.634 L
62.639 233.288 L
57 220.615 L
56.995 220.583 L
56.095 207.878 L
56.006 195.173 L
55.575 182.467 L
55.927 169.762 L
56.756 157.057 L
57 154.658 L
68 148.986 L
79 147.768 L
90 148.162 L
101 154.285 L
112 148.461 L
123 148.561 L
134 144.738 L
145 151.695 L
156 156.605 L
156.116 157.057 L
158.8 169.762 L
160.602 182.467 L
158.29 195.173 L
156.061 207.878 L
156.076 220.583 L
156 221.093 L
149.608 233.288 L
145 241.588 L
134 237.772 L
123.041 245.992 L
123 246.03 L
122.828 245.992 L
112 243.415 L
103.141 245.992 L
cp
190.476 131.648 M
200 134.567 L
209.524 131.648 L
211 131.145 L
220.066 131.648 L
222 131.744 L
222.615 131.648 L
233 130.335 L
244 130.47 L
254.851 131.648 L
255 131.668 L
255.049 131.648 L
266 125.07 L
266.513 118.942 L
267.668 106.238 L
267.811 93.533 L
267.676 80.827 L
266.663 68.122 L
266.693 55.417 L
266 49.043 L
262.401 42.712 L
255 31.334 L
244 33.45 L
239.346 30.007 L
233 24.254 L
222 26.74 L
212.135 22.472 L
211.483 22.472 L
211 22.472 L
210.43 22.472 L
210.027 22.472 L
200 27.533 L
189 28.251 L
178 26.002 L
175.952 30.007 L
171.951 42.712 L
167 52.38 L
166.504 55.417 L
166.177 68.122 L
164.17 80.827 L
161.147 93.533 L
162.267 106.238 L
165.532 118.942 L
167 126.157 L
178 130.728 L
189 131.172 L
cp
178 127.937 M
167.945 118.942 L
167 117.655 L
163.55 106.238 L
162.389 93.533 L
165.02 80.827 L
166.833 68.122 L
167 61.812 L
167.537 55.417 L
174.048 42.712 L
177.855 30.007 L
178 29.723 L
179.506 30.007 L
189 31.86 L
200 30.989 L
201.685 30.007 L
211 25.881 L
218.904 30.007 L
222 32.492 L
225.523 30.007 L
233 27.315 L
235.97 30.007 L
244 35.946 L
255 35.104 L
259.949 42.712 L
266 53.356 L
266.224 55.417 L
266.193 68.122 L
267.253 80.827 L
267.393 93.533 L
267.244 106.238 L
266.036 118.942 L
266 119.377 L
255 127.659 L
244 127.325 L
233 127.502 L
222 128.639 L
211 127.246 L
200 130.488 L
189 127.475 L
cp
f
GR
GS
0.584 GC
N
100.248 245.992 M
101 246.516 L
103.141 245.992 L
112 243.415 L
122.828 245.992 L
123 246.03 L
123.041 245.992 L
134 237.772 L
145 241.588 L
149.608 233.288 L
156 221.093 L
156.076 220.583 L
156.061 207.878 L
158.29 195.173 L
160.602 182.467 L
158.8 169.762 L
156.116 157.057 L
156 156.605 L
145 151.695 L
134 144.738 L
123 148.561 L
112 148.461 L
101 154.285 L
90 148.162 L
79 147.768 L
68 148.986 L
57 154.658 L
56.756 157.057 L
55.927 169.762 L
55.575 182.467 L
56.006 195.173 L
56.095 207.878 L
56.995 220.583 L
57 220.615 L
62.639 233.288 L
68 242.634 L
79 243.552 L
90 238.266 L
cp
68 239.973 M
64.165 233.288 L
59.18 220.583 L
57 214.453 L
56.534 207.878 L
56.441 195.173 L
55.991 182.467 L
56.358 169.762 L
57 160.145 L
61.801 157.057 L
68 153.98 L
79 150.984 L
90 152.475 L
97.175 157.057 L
101 158.686 L
109.726 157.057 L
112 155.952 L
123 151.352 L
134 149.562 L
145 155.368 L
148.6 157.057 L
156 162.911 L
157.471 169.762 L
159.502 182.467 L
157.452 195.173 L
156 203.529 L
154.304 207.878 L
153.72 220.583 L
147.398 233.288 L
145 237.607 L
134 234.501 L
123 243.719 L
112 239.069 L
101 240.804 L
90 234.312 L
79 240.389 L
cp
167.945 118.942 M
178 127.937 L
189 127.475 L
200 130.488 L
211 127.246 L
222 128.639 L
233 127.502 L
244 127.325 L
255 127.659 L
266 119.377 L
266.036 118.942 L
267.244 106.238 L
267.393 93.533 L
267.253 80.827 L
266.193 68.122 L
266.224 55.417 L
266 53.356 L
259.949 42.712 L
255 35.104 L
244 35.946 L
235.97 30.007 L
233 27.315 L
225.523 30.007 L
222 32.492 L
218.904 30.007 L
211 25.881 L
201.685 30.007 L
200 30.989 L
189 31.86 L
179.506 30.007 L
178 29.723 L
177.855 30.007 L
174.048 42.712 L
167.537 55.417 L
167 61.812 L
166.833 68.122 L
165.02 80.827 L
162.389 93.533 L
163.55 106.238 L
167 117.655 L
cp
178 125.146 M
171.065 118.942 L
167 113.407 L
164.834 106.238 L
163.63 93.533 L
165.869 80.827 L
167 72.683 L
168.029 68.122 L
169.617 55.417 L
176.146 42.712 L
178 36.499 L
189 35.706 L
200 36.118 L
210.486 30.007 L
211 29.78 L
211.436 30.007 L
222 38.484 L
233 30.852 L
244 38.443 L
255 38.874 L
257.496 42.712 L
264.53 55.417 L
264.971 68.122 L
266 71.063 L
266.829 80.827 L
266.975 93.533 L
266.82 106.238 L
266 114.835 L
261.157 118.942 L
255 123.65 L
244 124.18 L
233 124.67 L
222 125.545 L
211 123.347 L
200 123.629 L
189 123.778 L
cp
f
GR
GS
0.616 GC
N
64.165 233.288 M
68 239.973 L
79 240.389 L
90 234.312 L
101 240.804 L
112 239.069 L
123 243.719 L
134 234.501 L
145 237.607 L
147.398 233.288 L
153.72 220.583 L
154.304 207.878 L
156 203.529 L
157.452 195.173 L
159.502 182.467 L
157.471 169.762 L
156 162.911 L
148.6 157.057 L
145 155.368 L
134 149.562 L
123 151.352 L
112 155.952 L
109.726 157.057 L
101 158.686 L
97.175 157.057 L
90 152.475 L
79 150.984 L
68 153.98 L
61.801 157.057 L
57 160.145 L
56.358 169.762 L
55.991 182.467 L
56.441 195.173 L
56.534 207.878 L
57 214.453 L
59.18 220.583 L
cp
68 237.313 M
65.691 233.288 L
61.38 220.583 L
57 208.265 L
56.972 207.878 L
56.876 195.173 L
56.407 182.467 L
56.79 169.762 L
57 166.614 L
68 158.99 L
71.318 157.057 L
79 154.2 L
90 156.787 L
90.423 157.057 L
101 161.562 L
112 161.91 L
116.943 157.057 L
123 154.142 L
134 154.386 L
139.569 157.057 L
145 160.362 L
156 169.099 L
156.143 169.762 L
158.402 182.467 L
156.614 195.173 L
156 198.705 L
152.423 207.878 L
151.126 220.583 L
145.188 233.288 L
145 233.626 L
143.691 233.288 L
134 231.557 L
132.342 233.288 L
123 241.423 L
112 234.724 L
101 234.748 L
98.298 233.288 L
90 230.878 L
85.898 233.288 L
79 237.227 L
cp
171.065 118.942 M
178 125.146 L
189 123.778 L
200 123.629 L
211 123.347 L
222 125.545 L
233 124.67 L
244 124.18 L
255 123.65 L
261.157 118.942 L
266 114.835 L
266.82 106.238 L
266.975 93.533 L
266.829 80.827 L
266 71.063 L
264.971 68.122 L
264.53 55.417 L
257.496 42.712 L
255 38.874 L
244 38.443 L
233 30.852 L
222 38.484 L
211.436 30.007 L
211 29.78 L
210.486 30.007 L
200 36.118 L
189 35.706 L
178 36.499 L
176.146 42.712 L
169.617 55.417 L
168.029 68.122 L
167 72.683 L
165.869 80.827 L
163.63 93.533 L
164.834 106.238 L
167 113.407 L
cp
178 122.356 M
174.184 118.942 L
167 109.158 L
166.117 106.238 L
164.872 93.533 L
166.719 80.827 L
167 78.805 L
169.409 68.122 L
171.697 55.417 L
178 43.18 L
179.36 42.712 L
189 39.553 L
200 41.247 L
211 38.654 L
217.603 42.712 L
222 43.481 L
225.298 42.712 L
233 37.88 L
244 40.94 L
255 42.645 L
255.044 42.712 L
261.714 55.417 L
263.223 68.122 L
266 76.057 L
266.405 80.827 L
266.558 93.533 L
266.396 106.238 L
266 110.387 L
255.914 118.942 L
255 119.641 L
244 121.035 L
233 121.838 L
222 122.451 L
211 119.448 L
207.806 118.942 L
200 117.988 L
194.424 118.942 L
189 120.082 L
cp
f
GR
GS
0.647 GC
N
65.691 233.288 M
68 237.313 L
79 237.227 L
85.898 233.288 L
90 230.878 L
98.298 233.288 L
101 234.748 L
112 234.724 L
123 241.423 L
132.342 233.288 L
134 231.557 L
143.691 233.288 L
145 233.626 L
145.188 233.288 L
151.126 220.583 L
152.423 207.878 L
156 198.705 L
156.614 195.173 L
158.402 182.467 L
156.143 169.762 L
156 169.099 L
145 160.362 L
139.569 157.057 L
134 154.386 L
123 154.142 L
116.943 157.057 L
112 161.91 L
101 161.562 L
90.423 157.057 L
90 156.787 L
79 154.2 L
71.318 157.057 L
68 158.99 L
57 166.614 L
56.79 169.762 L
56.407 182.467 L
56.876 195.173 L
56.972 207.878 L
57 208.265 L
61.38 220.583 L
cp
68 234.653 M
67.217 233.288 L
63.58 220.583 L
59.149 207.878 L
58.397 195.173 L
57 187.201 L
56.823 182.467 L
57 176.72 L
60.419 169.762 L
68 164.028 L
79 157.663 L
90 161.361 L
101 164.437 L
112 167.603 L
122.741 157.057 L
123 156.933 L
124 157.057 L
134 163.107 L
145 166.484 L
149.125 169.762 L
156 175.227 L
157.301 182.467 L
156 192.827 L
155.506 195.173 L
150.542 207.878 L
148.532 220.583 L
145 228.181 L
134 228.807 L
129.706 233.288 L
123 239.128 L
114.292 233.288 L
112 230.262 L
101 230.953 L
90 227.625 L
80.36 233.288 L
79 234.064 L
cp
174.184 118.942 M
178 122.356 L
189 120.082 L
194.424 118.942 L
200 117.988 L
207.806 118.942 L
211 119.448 L
222 122.451 L
233 121.838 L
244 121.035 L
255 119.641 L
255.914 118.942 L
266 110.387 L
266.396 106.238 L
266.558 93.533 L
266.405 80.827 L
266 76.057 L
263.223 68.122 L
261.714 55.417 L
255.044 42.712 L
255 42.645 L
244 40.94 L
233 37.88 L
225.298 42.712 L
222 43.481 L
217.603 42.712 L
211 38.654 L
200 41.247 L
189 39.553 L
179.36 42.712 L
178 43.18 L
171.697 55.417 L
169.409 68.122 L
167 78.805 L
166.719 80.827 L
164.872 93.533 L
166.117 106.238 L
167 109.158 L
cp
178 119.565 M
177.304 118.942 L
170.756 106.238 L
167 102.371 L
166.113 93.533 L
167 86.975 L
168.284 80.827 L
170.79 68.122 L
173.776 55.417 L
178 47.218 L
189 43.983 L
200 45.118 L
211 44.762 L
222 46.093 L
233 44.147 L
244 43.983 L
255 47.986 L
258.897 55.417 L
261.475 68.122 L
265.914 80.827 L
266 82.322 L
266.14 93.533 L
266 104.12 L
265.742 106.238 L
255 116.041 L
244 117.11 L
233.688 118.942 L
233 119.006 L
222 119.357 L
220.533 118.942 L
211 115.189 L
200 114.976 L
189 114.517 L
180.683 118.942 L
cp
f
GR
GS
0.667 GC
N
67.217 233.288 M
68 234.653 L
79 234.064 L
80.36 233.288 L
90 227.625 L
101 230.953 L
112 230.262 L
114.292 233.288 L
123 239.128 L
129.706 233.288 L
134 228.807 L
145 228.181 L
148.532 220.583 L
150.542 207.878 L
155.506 195.173 L
156 192.827 L
157.301 182.467 L
156 175.227 L
149.125 169.762 L
145 166.484 L
134 163.107 L
124 157.057 L
123 156.933 L
122.741 157.057 L
112 167.603 L
101 164.437 L
90 161.361 L
79 157.663 L
68 164.028 L
60.419 169.762 L
57 176.72 L
56.823 182.467 L
57 187.201 L
58.397 195.173 L
59.149 207.878 L
63.58 220.583 L
cp
123 236.832 M
117.714 233.288 L
112 225.744 L
101 227.875 L
90 224.372 L
79 228.174 L
68 229.152 L
65.781 220.583 L
61.441 207.878 L
60.353 195.173 L
58.551 182.467 L
67.08 169.762 L
68 169.066 L
79 163.084 L
90 165.952 L
101 167.312 L
107.365 169.762 L
112 172.459 L
115.399 169.762 L
123 162.237 L
131.048 169.762 L
134 172.397 L
145 171.065 L
156 181.348 L
156.201 182.467 L
156 184.069 L
153.66 195.173 L
148.661 207.878 L
145.937 220.583 L
145 222.599 L
134 226.057 L
127.07 233.288 L
cp
177.304 118.942 M
178 119.565 L
180.683 118.942 L
189 114.517 L
200 114.976 L
211 115.189 L
220.533 118.942 L
222 119.357 L
233 119.006 L
233.688 118.942 L
244 117.11 L
255 116.041 L
265.742 106.238 L
266 104.12 L
266.14 93.533 L
266 82.322 L
265.914 80.827 L
261.475 68.122 L
258.897 55.417 L
255 47.986 L
244 43.983 L
233 44.147 L
222 46.093 L
211 44.762 L
200 45.118 L
189 43.983 L
178 47.218 L
173.776 55.417 L
170.79 68.122 L
168.284 80.827 L
167 86.975 L
166.113 93.533 L
167 102.371 L
170.756 106.238 L
cp
189 108.121 M
184.319 106.238 L
178 104.143 L
168.368 93.533 L
170.202 80.827 L
172.171 68.122 L
175.856 55.417 L
178 51.255 L
189 51.099 L
200 48.487 L
211 48.434 L
222 48.704 L
233 48.738 L
244 48.362 L
255 53.357 L
256.081 55.417 L
259.727 68.122 L
263.989 80.827 L
264.198 93.533 L
261.892 106.238 L
255 112.527 L
244 111.636 L
233 113.145 L
222 114.46 L
211 110.876 L
200 111.964 L
cp
f
GR
GS
0.698 GC
N
117.714 233.288 M
123 236.832 L
127.07 233.288 L
134 226.057 L
145 222.599 L
145.937 220.583 L
148.661 207.878 L
153.66 195.173 L
156 184.069 L
156.201 182.467 L
156 181.348 L
145 171.065 L
134 172.397 L
131.048 169.762 L
123 162.237 L
115.399 169.762 L
112 172.459 L
107.365 169.762 L
101 167.312 L
90 165.952 L
79 163.084 L
68 169.066 L
67.08 169.762 L
58.551 182.467 L
60.353 195.173 L
61.441 207.878 L
65.781 220.583 L
68 229.152 L
79 228.174 L
90 224.372 L
101 227.875 L
112 225.744 L
cp
123 234.537 M
121.137 233.288 L
112 221.226 L
101 224.798 L
90 221.119 L
79 221.397 L
68 220.655 L
67.981 220.583 L
63.734 207.878 L
62.309 195.173 L
61.245 182.467 L
68 173.012 L
76.669 169.762 L
79 168.506 L
85.346 169.762 L
90 171.588 L
101 171.056 L
112 176.805 L
120.875 169.762 L
123 167.659 L
125.25 169.762 L
134 177.572 L
145 173.869 L
153.685 182.467 L
151.814 195.173 L
146.78 207.878 L
145 215.462 L
140.688 220.583 L
134 223.307 L
124.434 233.288 L
cp
184.319 106.238 M
189 108.121 L
200 111.964 L
211 110.876 L
222 114.46 L
233 113.145 L
244 111.636 L
255 112.527 L
261.892 106.238 L
264.198 93.533 L
263.989 80.827 L
259.727 68.122 L
256.081 55.417 L
255 53.357 L
244 48.362 L
233 48.738 L
222 48.704 L
211 48.434 L
200 48.487 L
189 51.099 L
178 51.255 L
175.856 55.417 L
172.171 68.122 L
170.202 80.827 L
168.368 93.533 L
178 104.143 L
cp
200 108.952 M
193.83 106.238 L
189 102.338 L
178 98.871 L
173.153 93.533 L
172.12 80.827 L
173.551 68.122 L
177.936 55.417 L
178 55.293 L
178.802 55.417 L
189 57.314 L
191.981 55.417 L
200 51.855 L
211 52.107 L
222 51.315 L
233 53.329 L
244 52.741 L
249.477 55.417 L
255 58.791 L
257.98 68.122 L
262.063 80.827 L
261.49 93.533 L
258.041 106.238 L
255 109.013 L
244.188 106.238 L
244 106.132 L
243.154 106.238 L
233 107.215 L
222 109.285 L
211 106.563 L
cp
f
GR
GS
0.714 GC
N
121.137 233.288 M
123 234.537 L
124.434 233.288 L
134 223.307 L
140.688 220.583 L
145 215.462 L
146.78 207.878 L
151.814 195.173 L
153.685 182.467 L
145 173.869 L
134 177.572 L
125.25 169.762 L
123 167.659 L
120.875 169.762 L
112 176.805 L
101 171.056 L
90 171.588 L
85.346 169.762 L
79 168.506 L
76.669 169.762 L
68 173.012 L
61.245 182.467 L
62.309 195.173 L
63.734 207.878 L
67.981 220.583 L
68 220.655 L
79 221.397 L
90 221.119 L
101 224.798 L
112 221.226 L
cp
101 221.721 M
97.623 220.583 L
90 217.434 L
79 215.672 L
68 213.783 L
66.026 207.878 L
64.264 195.173 L
63.938 182.467 L
68 176.782 L
79 175.229 L
90 182.329 L
101 179.814 L
112 181.151 L
123 172.873 L
133.694 182.467 L
134 182.718 L
134.281 182.467 L
145 176.673 L
150.853 182.467 L
149.968 195.173 L
145 207.627 L
144.679 207.878 L
134 220.516 L
123 215.233 L
112 214.771 L
104.315 220.583 L
cp
193.83 106.238 M
200 108.952 L
211 106.563 L
222 109.285 L
233 107.215 L
243.154 106.238 L
244 106.132 L
244.188 106.238 L
255 109.013 L
258.041 106.238 L
261.49 93.533 L
262.063 80.827 L
257.98 68.122 L
255 58.791 L
249.477 55.417 L
244 52.741 L
233 53.329 L
222 51.315 L
211 52.107 L
200 51.855 L
191.981 55.417 L
189 57.314 L
178.802 55.417 L
178 55.293 L
177.936 55.417 L
173.551 68.122 L
172.12 80.827 L
173.153 93.533 L
178 98.871 L
189 102.338 L
cp
178 93.6 M
177.938 93.533 L
174.038 80.827 L
174.932 68.122 L
178 59.275 L
189 62.139 L
199.564 55.417 L
200 55.224 L
204.049 55.417 L
211 56.896 L
212.622 55.417 L
222 53.927 L
227.627 55.417 L
233 61.882 L
238.763 68.122 L
244 70.283 L
248.446 68.122 L
255 64.265 L
256.232 68.122 L
260.138 80.827 L
258.782 93.533 L
255 104.575 L
244 98.439 L
233 103.373 L
223.04 93.533 L
222 92.179 L
216.531 93.533 L
211 96.669 L
200 104.719 L
189 96.811 L
cp
f
GR
GS
0.745 GC
N
97.623 220.583 M
101 221.721 L
104.315 220.583 L
112 214.771 L
123 215.233 L
134 220.516 L
144.679 207.878 L
145 207.627 L
149.968 195.173 L
150.853 182.467 L
145 176.673 L
134.281 182.467 L
134 182.718 L
133.694 182.467 L
123 172.873 L
112 181.151 L
101 179.814 L
90 182.329 L
79 175.229 L
68 176.782 L
63.938 182.467 L
64.264 195.173 L
66.026 207.878 L
68 213.783 L
79 215.672 L
90 217.434 L
cp
79 210.091 M
70.856 207.878 L
68 206.193 L
66.22 195.173 L
66.631 182.467 L
68 180.552 L
79 182.345 L
79.188 182.467 L
90 189.002 L
101 188.572 L
112 186.976 L
116.839 182.467 L
123 177.956 L
128.028 182.467 L
134 187.346 L
139.469 182.467 L
145 179.478 L
148.02 182.467 L
148.122 195.173 L
145 202.999 L
138.74 207.878 L
134 213.488 L
123 209.303 L
112 207.994 L
101 210.889 L
90 213.664 L
cp
118.245 195.173 M
123 205.344 L
126.996 195.173 L
123 188.555 L
cp
177.938 93.533 M
178 93.6 L
189 96.811 L
200 104.719 L
211 96.669 L
216.531 93.533 L
222 92.179 L
223.04 93.533 L
233 103.373 L
244 98.439 L
255 104.575 L
258.782 93.533 L
260.138 80.827 L
256.232 68.122 L
255 64.265 L
248.446 68.122 L
244 70.283 L
238.763 68.122 L
233 61.882 L
227.627 55.417 L
222 53.927 L
212.622 55.417 L
211 56.896 L
204.049 55.417 L
200 55.224 L
199.564 55.417 L
189 62.139 L
178 59.275 L
174.932 68.122 L
174.038 80.827 L
cp
233 99.944 M
226.511 93.533 L
222 87.661 L
211 90.433 L
200 87.983 L
189 89.396 L
178 87.424 L
175.955 80.827 L
176.312 68.122 L
178 63.256 L
189 66.963 L
200 61.379 L
208.906 68.122 L
211 69.444 L
220.503 68.122 L
222 67.052 L
222.846 68.122 L
233 74.395 L
244 74.801 L
255 70.033 L
258.213 80.827 L
256.074 93.533 L
255 96.668 L
249.251 93.533 L
244 90.819 L
242.215 93.533 L
cp
f
GR
GS
0.776 GC
N
70.856 207.878 M
79 210.091 L
90 213.664 L
101 210.889 L
112 207.994 L
123 209.303 L
134 213.488 L
138.74 207.878 L
145 202.999 L
148.122 195.173 L
148.02 182.467 L
145 179.478 L
139.469 182.467 L
134 187.346 L
128.028 182.467 L
123 177.956 L
116.839 182.467 L
112 186.976 L
101 188.572 L
90 189.002 L
79.188 182.467 L
79 182.345 L
68 180.552 L
66.631 182.467 L
66.22 195.173 L
68 206.193 L
cp
90 209.894 M
84.832 207.878 L
90 196.602 L
94.393 207.878 L
cp
79 196.427 M
74.346 195.173 L
79 194.372 L
84.429 195.173 L
cp
112 197.886 M
106.279 195.173 L
112 193.446 L
113.316 195.173 L
cp
123 205.344 M
118.245 195.173 L
123 188.555 L
126.996 195.173 L
cp
134 205.007 M
131.138 195.173 L
134 191.974 L
144.657 182.467 L
145 182.282 L
145.187 182.467 L
146.276 195.173 L
145 198.371 L
cp
226.511 93.533 M
233 99.944 L
242.215 93.533 L
244 90.819 L
249.251 93.533 L
255 96.668 L
256.074 93.533 L
258.213 80.827 L
255 70.033 L
244 74.801 L
233 74.395 L
222.846 68.122 L
222 67.052 L
220.503 68.122 L
211 69.444 L
208.906 68.122 L
200 61.379 L
189 66.963 L
178 63.256 L
176.312 68.122 L
175.955 80.827 L
178 87.424 L
189 89.396 L
200 87.983 L
211 90.433 L
222 87.661 L
cp
233 96.514 M
229.982 93.533 L
233 85.549 L
237.286 93.533 L
cp
178 81.236 M
177.873 80.827 L
177.693 68.122 L
178 67.237 L
180.49 68.122 L
181.258 80.827 L
cp
211 85.985 M
203.943 80.827 L
211 74.715 L
222 76.407 L
227.491 80.827 L
222 83.143 L
cp
244 83.329 M
239.669 80.827 L
244 79.319 L
255 76.502 L
256.287 80.827 L
255 87.506 L
cp
200 69.298 M
199.12 68.122 L
200 67.704 L
200.552 68.122 L
cp
f
GR
GS
0.792 GC
N
84.832 207.878 M
90 209.894 L
94.393 207.878 L
90 196.602 L
cp
74.346 195.173 M
79 196.427 L
84.429 195.173 L
79 194.372 L
cp
106.279 195.173 M
112 197.886 L
113.316 195.173 L
112 193.446 L
cp
131.138 195.173 M
134 205.007 L
145 198.371 L
146.276 195.173 L
145.187 182.467 L
145 182.282 L
144.657 182.467 L
134 191.974 L
cp
229.982 93.533 M
233 96.514 L
237.286 93.533 L
233 85.549 L
cp
177.873 80.827 M
178 81.236 L
181.258 80.827 L
180.49 68.122 L
178 67.237 L
177.693 68.122 L
cp
203.943 80.827 M
211 85.985 L
222 83.143 L
227.491 80.827 L
222 76.407 L
211 74.715 L
cp
211 81.538 M
210.028 80.827 L
211 79.986 L
213.714 80.827 L
cp
239.669 80.827 M
244 83.329 L
255 87.506 L
256.287 80.827 L
255 76.502 L
244 79.319 L
cp
199.12 68.122 M
200 69.298 L
200.552 68.122 L
200 67.704 L
cp
f
GR
GS
0.824 GC
N
210.028 80.827 M
211 81.538 L
213.714 80.827 L
211 79.986 L
cp
f
GR
%%Trailer
%%Pages: 1
%%EOF
