%!PS-Adobe-3.0 EPSF-3.0
%%Creator: (MATLAB, The Mathworks, Inc. Version 9.3.0.713579 \(R2017b\). Operating System: Mac OS X)
%%Title: ./dataFit_model.eps
%%CreationDate: 2018-08-06T08:01:26
%%Pages: (atend)
%%BoundingBox:     1     2   280   281
%%LanguageLevel: 3
%%EndComments
%%BeginProlog
%%BeginResource: procset (Apache XML Graphics Std ProcSet) 1.2 0
%%Version: 1.2 0
%%Copyright: (Copyright 2001-2003,2010 The Apache Software Foundation. License terms: http://www.apache.org/licenses/LICENSE-2.0)
/bd{bind def}bind def
/ld{load def}bd
/GR/grestore ld
/GS/gsave ld
/RM/rmoveto ld
/C/curveto ld
/t/show ld
/L/lineto ld
/ML/setmiterlimit ld
/CT/concat ld
/f/fill ld
/N/newpath ld
/S/stroke ld
/CC/setcmykcolor ld
/A/ashow ld
/cp/closepath ld
/RC/setrgbcolor ld
/LJ/setlinejoin ld
/GC/setgray ld
/LW/setlinewidth ld
/M/moveto ld
/re {4 2 roll M
1 index 0 rlineto
0 exch rlineto
neg 0 rlineto
cp } bd
/_ctm matrix def
/_tm matrix def
/BT { _ctm currentmatrix pop matrix _tm copy pop 0 0 moveto } bd
/ET { _ctm setmatrix } bd
/iTm { _ctm setmatrix _tm concat } bd
/Tm { _tm astore pop iTm 0 0 moveto } bd
/ux 0.0 def
/uy 0.0 def
/F {
  /Tp exch def
  /Tf exch def
  Tf findfont Tp scalefont setfont
  /cf Tf def  /cs Tp def
} bd
/ULS {currentpoint /uy exch def /ux exch def} bd
/ULE {
  /Tcx currentpoint pop def
  gsave
  newpath
  cf findfont cs scalefont dup
  /FontMatrix get 0 get /Ts exch def /FontInfo get dup
  /UnderlinePosition get Ts mul /To exch def
  /UnderlineThickness get Ts mul /Tt exch def
  ux uy To add moveto  Tcx uy To add lineto
  Tt setlinewidth stroke
  grestore
} bd
/OLE {
  /Tcx currentpoint pop def
  gsave
  newpath
  cf findfont cs scalefont dup
  /FontMatrix get 0 get /Ts exch def /FontInfo get dup
  /UnderlinePosition get Ts mul /To exch def
  /UnderlineThickness get Ts mul /Tt exch def
  ux uy To add cs add moveto Tcx uy To add cs add lineto
  Tt setlinewidth stroke
  grestore
} bd
/SOE {
  /Tcx currentpoint pop def
  gsave
  newpath
  cf findfont cs scalefont dup
  /FontMatrix get 0 get /Ts exch def /FontInfo get dup
  /UnderlinePosition get Ts mul /To exch def
  /UnderlineThickness get Ts mul /Tt exch def
  ux uy To add cs 10 mul 26 idiv add moveto Tcx uy To add cs 10 mul 26 idiv add lineto
  Tt setlinewidth stroke
  grestore
} bd
/QT {
/Y22 exch store
/X22 exch store
/Y21 exch store
/X21 exch store
currentpoint
/Y21 load 2 mul add 3 div exch
/X21 load 2 mul add 3 div exch
/X21 load 2 mul /X22 load add 3 div
/Y21 load 2 mul /Y22 load add 3 div
/X22 load /Y22 load curveto
} bd
/SSPD {
dup length /d exch dict def
{
/v exch def
/k exch def
currentpagedevice k known {
/cpdv currentpagedevice k get def
v cpdv ne {
/upd false def
/nullv v type /nulltype eq def
/nullcpdv cpdv type /nulltype eq def
nullv nullcpdv or
{
/upd true def
} {
/sametype v type cpdv type eq def
sametype {
v type /arraytype eq {
/vlen v length def
/cpdvlen cpdv length def
vlen cpdvlen eq {
0 1 vlen 1 sub {
/i exch def
/obj v i get def
/cpdobj cpdv i get def
obj cpdobj ne {
/upd true def
exit
} if
} for
} {
/upd true def
} ifelse
} {
v type /dicttype eq {
v {
/dv exch def
/dk exch def
/cpddv cpdv dk get def
dv cpddv ne {
/upd true def
exit
} if
} forall
} {
/upd true def
} ifelse
} ifelse
} if
} ifelse
upd true eq {
d k v put
} if
} if
} if
} forall
d length 0 gt {
d setpagedevice
} if
} bd
/RE { % /NewFontName [NewEncodingArray] /FontName RE -
  findfont dup length dict begin
  {
    1 index /FID ne
    {def} {pop pop} ifelse
  } forall
  /Encoding exch def
  /FontName 1 index def
  currentdict definefont pop
  end
} bind def
%%EndResource
%%BeginResource: procset (Apache XML Graphics EPS ProcSet) 1.0 0
%%Version: 1.0 0
%%Copyright: (Copyright 2002-2003 The Apache Software Foundation. License terms: http://www.apache.org/licenses/LICENSE-2.0)
/BeginEPSF { %def
/b4_Inc_state save def         % Save state for cleanup
/dict_count countdictstack def % Count objects on dict stack
/op_count count 1 sub def      % Count objects on operand stack
userdict begin                 % Push userdict on dict stack
/showpage { } def              % Redefine showpage, { } = null proc
0 setgray 0 setlinecap         % Prepare graphics state
1 setlinewidth 0 setlinejoin
10 setmiterlimit [ ] 0 setdash newpath
/languagelevel where           % If level not equal to 1 then
{pop languagelevel             % set strokeadjust and
1 ne                           % overprint to their defaults.
{false setstrokeadjust false setoverprint
} if
} if
} bd
/EndEPSF { %def
count op_count sub {pop} repeat            % Clean up stacks
countdictstack dict_count sub {end} repeat
b4_Inc_state restore
} bd
%%EndResource
%FOPBeginFontDict
%%IncludeResource: font Courier-Oblique
%%IncludeResource: font Courier-BoldOblique
%%IncludeResource: font Courier-Bold
%%IncludeResource: font ZapfDingbats
%%IncludeResource: font Symbol
%%IncludeResource: font Helvetica
%%IncludeResource: font Helvetica-Oblique
%%IncludeResource: font Helvetica-Bold
%%IncludeResource: font Helvetica-BoldOblique
%%IncludeResource: font Times-Roman
%%IncludeResource: font Times-Italic
%%IncludeResource: font Times-Bold
%%IncludeResource: font Times-BoldItalic
%%IncludeResource: font Courier
%FOPEndFontDict
%%BeginResource: encoding WinAnsiEncoding
/WinAnsiEncoding [
/.notdef /.notdef /.notdef /.notdef /.notdef
/.notdef /.notdef /.notdef /.notdef /.notdef
/.notdef /.notdef /.notdef /.notdef /.notdef
/.notdef /.notdef /.notdef /.notdef /.notdef
/.notdef /.notdef /.notdef /.notdef /.notdef
/.notdef /.notdef /.notdef /.notdef /.notdef
/.notdef /.notdef /space /exclam /quotedbl
/numbersign /dollar /percent /ampersand /quotesingle
/parenleft /parenright /asterisk /plus /comma
/hyphen /period /slash /zero /one
/two /three /four /five /six
/seven /eight /nine /colon /semicolon
/less /equal /greater /question /at
/A /B /C /D /E
/F /G /H /I /J
/K /L /M /N /O
/P /Q /R /S /T
/U /V /W /X /Y
/Z /bracketleft /backslash /bracketright /asciicircum
/underscore /quoteleft /a /b /c
/d /e /f /g /h
/i /j /k /l /m
/n /o /p /q /r
/s /t /u /v /w
/x /y /z /braceleft /bar
/braceright /asciitilde /bullet /Euro /bullet
/quotesinglbase /florin /quotedblbase /ellipsis /dagger
/daggerdbl /circumflex /perthousand /Scaron /guilsinglleft
/OE /bullet /Zcaron /bullet /bullet
/quoteleft /quoteright /quotedblleft /quotedblright /bullet
/endash /emdash /asciitilde /trademark /scaron
/guilsinglright /oe /bullet /zcaron /Ydieresis
/space /exclamdown /cent /sterling /currency
/yen /brokenbar /section /dieresis /copyright
/ordfeminine /guillemotleft /logicalnot /sfthyphen /registered
/macron /degree /plusminus /twosuperior /threesuperior
/acute /mu /paragraph /middot /cedilla
/onesuperior /ordmasculine /guillemotright /onequarter /onehalf
/threequarters /questiondown /Agrave /Aacute /Acircumflex
/Atilde /Adieresis /Aring /AE /Ccedilla
/Egrave /Eacute /Ecircumflex /Edieresis /Igrave
/Iacute /Icircumflex /Idieresis /Eth /Ntilde
/Ograve /Oacute /Ocircumflex /Otilde /Odieresis
/multiply /Oslash /Ugrave /Uacute /Ucircumflex
/Udieresis /Yacute /Thorn /germandbls /agrave
/aacute /acircumflex /atilde /adieresis /aring
/ae /ccedilla /egrave /eacute /ecircumflex
/edieresis /igrave /iacute /icircumflex /idieresis
/eth /ntilde /ograve /oacute /ocircumflex
/otilde /odieresis /divide /oslash /ugrave
/uacute /ucircumflex /udieresis /yacute /thorn
/ydieresis
] def
%%EndResource
%FOPBeginFontReencode
/Courier-Oblique findfont
dup length dict begin
  {1 index /FID ne {def} {pop pop} ifelse} forall
  /Encoding WinAnsiEncoding def
  currentdict
end
/Courier-Oblique exch definefont pop
/Courier-BoldOblique findfont
dup length dict begin
  {1 index /FID ne {def} {pop pop} ifelse} forall
  /Encoding WinAnsiEncoding def
  currentdict
end
/Courier-BoldOblique exch definefont pop
/Courier-Bold findfont
dup length dict begin
  {1 index /FID ne {def} {pop pop} ifelse} forall
  /Encoding WinAnsiEncoding def
  currentdict
end
/Courier-Bold exch definefont pop
/Helvetica findfont
dup length dict begin
  {1 index /FID ne {def} {pop pop} ifelse} forall
  /Encoding WinAnsiEncoding def
  currentdict
end
/Helvetica exch definefont pop
/Helvetica-Oblique findfont
dup length dict begin
  {1 index /FID ne {def} {pop pop} ifelse} forall
  /Encoding WinAnsiEncoding def
  currentdict
end
/Helvetica-Oblique exch definefont pop
/Helvetica-Bold findfont
dup length dict begin
  {1 index /FID ne {def} {pop pop} ifelse} forall
  /Encoding WinAnsiEncoding def
  currentdict
end
/Helvetica-Bold exch definefont pop
/Helvetica-BoldOblique findfont
dup length dict begin
  {1 index /FID ne {def} {pop pop} ifelse} forall
  /Encoding WinAnsiEncoding def
  currentdict
end
/Helvetica-BoldOblique exch definefont pop
/Times-Roman findfont
dup length dict begin
  {1 index /FID ne {def} {pop pop} ifelse} forall
  /Encoding WinAnsiEncoding def
  currentdict
end
/Times-Roman exch definefont pop
/Times-Italic findfont
dup length dict begin
  {1 index /FID ne {def} {pop pop} ifelse} forall
  /Encoding WinAnsiEncoding def
  currentdict
end
/Times-Italic exch definefont pop
/Times-Bold findfont
dup length dict begin
  {1 index /FID ne {def} {pop pop} ifelse} forall
  /Encoding WinAnsiEncoding def
  currentdict
end
/Times-Bold exch definefont pop
/Times-BoldItalic findfont
dup length dict begin
  {1 index /FID ne {def} {pop pop} ifelse} forall
  /Encoding WinAnsiEncoding def
  currentdict
end
/Times-BoldItalic exch definefont pop
/Courier findfont
dup length dict begin
  {1 index /FID ne {def} {pop pop} ifelse} forall
  /Encoding WinAnsiEncoding def
  currentdict
end
/Courier exch definefont pop
%FOPEndFontReencode
%%EndProlog
%%Page: 1 1
%%PageBoundingBox: 0 0 300 300
%%BeginPageSetup
[1 0 0 -1 0 300] CT
%%EndPageSetup
GS
1 GC
N
0 0 300 300 re
f
GR
GS
1 GC
N
0 0 300 300 re
f
GR
GS
1 GC
N
51.5 253.5 M
271.5 253.5 L
271.5 22.5 L
51.5 22.5 L
cp
f
GR
GS
0.149 GC
2 setlinecap
1 LJ
0.5 LW
N
51.5 253.5 M
271.5 253.5 L
S
GR
GS
0.149 GC
2 setlinecap
1 LJ
0.5 LW
N
51.5 22.5 M
271.5 22.5 L
S
GR
GS
0.149 GC
2 setlinecap
1 LJ
0.5 LW
N
51.5 253.5 M
51.5 251.19 L
S
GR
GS
0.149 GC
2 setlinecap
1 LJ
0.5 LW
N
161.5 253.5 M
161.5 251.19 L
S
GR
GS
0.149 GC
2 setlinecap
1 LJ
0.5 LW
N
271.5 253.5 M
271.5 251.19 L
S
GR
GS
0.149 GC
2 setlinecap
1 LJ
0.5 LW
N
51.5 22.5 M
51.5 24.81 L
S
GR
GS
0.149 GC
2 setlinecap
1 LJ
0.5 LW
N
161.5 22.5 M
161.5 24.81 L
S
GR
GS
0.149 GC
2 setlinecap
1 LJ
0.5 LW
N
271.5 22.5 M
271.5 24.81 L
S
GR
GS
[1 0 0 1 51.5 258.70001] CT
0.149 GC
N
0 13.799 M
-1.953 13.799 -2.664 12.182 QT
-3.375 10.565 -3.375 8.331 QT
-3.375 6.94 -3.117 5.713 QT
-2.859 4.487 -2.109 3.635 QT
-1.359 2.784 0 2.784 QT
1.063 2.784 1.734 3.299 QT
2.406 3.815 2.758 4.627 QT
3.109 5.44 3.234 6.377 QT
3.359 7.315 3.359 8.331 QT
3.359 9.706 3.109 10.909 QT
2.859 12.112 2.117 12.956 QT
1.375 13.799 0 13.799 QT
cp
0 13.377 M
0.891 13.377 1.328 12.463 QT
1.766 11.549 1.867 10.44 QT
1.969 9.331 1.969 8.081 QT
1.969 6.877 1.867 5.862 QT
1.766 4.846 1.336 4.018 QT
0.906 3.19 0 3.19 QT
-0.906 3.19 -1.344 4.018 QT
-1.781 4.846 -1.883 5.862 QT
-1.984 6.877 -1.984 8.081 QT
-1.984 8.971 -1.938 9.76 QT
-1.891 10.549 -1.703 11.385 QT
-1.516 12.221 -1.102 12.799 QT
-0.688 13.377 0 13.377 QT
cp
f
GR
GS
[1 0 0 1 161.5 258.70001] CT
0.149 GC
N
-3.222 13.159 M
-3.222 13.081 -3.16 12.909 QT
-2.722 11.971 -2.332 11.081 QT
-1.941 10.19 -1.636 9.338 QT
-1.332 8.487 -1.066 7.534 QT
-2.097 7.534 L
-2.675 7.534 -3.183 7.901 QT
-3.691 8.268 -4.035 8.831 QT
-4.066 8.893 -4.128 8.893 QT
-4.316 8.893 L
-4.457 8.893 -4.457 8.737 QT
-4.457 8.706 -4.425 8.643 QT
-3.91 7.752 -3.308 7.143 QT
-2.707 6.534 -1.957 6.534 QT
3.84 6.534 L
4.012 6.534 4.129 6.643 QT
4.247 6.752 4.247 6.94 QT
4.247 7.174 4.075 7.354 QT
3.903 7.534 3.668 7.534 QT
1.637 7.534 L
1.372 8.784 1.356 9.987 QT
1.356 11.518 1.887 12.768 QT
1.934 12.862 1.934 12.956 QT
1.934 13.127 1.832 13.276 QT
1.731 13.424 1.575 13.526 QT
1.418 13.627 1.231 13.627 QT
0.809 13.627 0.653 12.932 QT
0.497 12.237 0.497 11.596 QT
0.497 10.674 0.653 9.831 QT
0.809 8.987 1.153 7.534 QT
-0.582 7.534 L
-1.847 12.659 -2.113 13.174 QT
-2.332 13.627 -2.738 13.627 QT
-2.925 13.627 -3.074 13.495 QT
-3.222 13.362 -3.222 13.159 QT
cp
f
GR
GS
[1 0 0 1 271.5 258.70001] CT
0.149 GC
N
-8.05 13.44 M
-8.05 13.002 L
-8.05 12.971 -8.019 12.924 QT
-5.535 10.174 L
-4.972 9.565 -4.621 9.151 QT
-4.269 8.737 -3.925 8.198 QT
-3.582 7.659 -3.378 7.096 QT
-3.175 6.534 -3.175 5.909 QT
-3.175 5.252 -3.418 4.659 QT
-3.66 4.065 -4.144 3.706 QT
-4.628 3.346 -5.3 3.346 QT
-6.003 3.346 -6.558 3.76 QT
-7.113 4.174 -7.332 4.846 QT
-7.269 4.831 -7.16 4.831 QT
-6.8 4.831 -6.55 5.073 QT
-6.3 5.315 -6.3 5.69 QT
-6.3 6.065 -6.55 6.315 QT
-6.8 6.565 -7.16 6.565 QT
-7.535 6.565 -7.793 6.307 QT
-8.05 6.049 -8.05 5.69 QT
-8.05 5.096 -7.824 4.565 QT
-7.597 4.034 -7.168 3.627 QT
-6.738 3.221 -6.207 3.002 QT
-5.675 2.784 -5.066 2.784 QT
-4.16 2.784 -3.371 3.167 QT
-2.582 3.549 -2.121 4.26 QT
-1.66 4.971 -1.66 5.909 QT
-1.66 6.612 -1.964 7.237 QT
-2.269 7.862 -2.746 8.37 QT
-3.222 8.877 -3.964 9.526 QT
-4.707 10.174 -4.941 10.393 QT
-6.753 12.143 L
-5.207 12.143 L
-4.082 12.143 -3.316 12.12 QT
-2.55 12.096 -2.503 12.065 QT
-2.316 11.862 -2.128 10.581 QT
-1.66 10.581 L
-2.113 13.44 L
-8.05 13.44 L
cp
f
GR
GS
[1 0 0 1 271.5 258.70001] CT
0.149 GC
N
0.778 13.159 M
0.778 13.081 0.84 12.909 QT
1.278 11.971 1.668 11.081 QT
2.059 10.19 2.364 9.338 QT
2.668 8.487 2.934 7.534 QT
1.903 7.534 L
1.325 7.534 0.817 7.901 QT
0.309 8.268 -0.035 8.831 QT
-0.066 8.893 -0.128 8.893 QT
-0.316 8.893 L
-0.457 8.893 -0.457 8.737 QT
-0.457 8.706 -0.425 8.643 QT
0.09 7.752 0.692 7.143 QT
1.293 6.534 2.043 6.534 QT
7.84 6.534 L
8.012 6.534 8.129 6.643 QT
8.247 6.752 8.247 6.94 QT
8.247 7.174 8.075 7.354 QT
7.903 7.534 7.668 7.534 QT
5.637 7.534 L
5.372 8.784 5.356 9.987 QT
5.356 11.518 5.887 12.768 QT
5.934 12.862 5.934 12.956 QT
5.934 13.127 5.832 13.276 QT
5.731 13.424 5.575 13.526 QT
5.418 13.627 5.231 13.627 QT
4.809 13.627 4.653 12.932 QT
4.497 12.237 4.497 11.596 QT
4.497 10.674 4.653 9.831 QT
4.809 8.987 5.153 7.534 QT
3.418 7.534 L
2.153 12.659 1.887 13.174 QT
1.668 13.627 1.262 13.627 QT
1.075 13.627 0.926 13.495 QT
0.778 13.362 0.778 13.159 QT
cp
f
GR
GS
[1 0 0 1 161.50011 278.88] CT
0.149 GC
N
-1.759 18.284 M
-0.946 15.034 L
-1.853 15.034 -2.65 14.612 QT
-3.446 14.19 -3.923 13.425 QT
-4.4 12.659 -4.4 11.753 QT
-4.4 10.784 -3.915 9.893 QT
-3.431 9.003 -2.595 8.284 QT
-1.759 7.565 -0.79 7.175 QT
0.179 6.784 1.132 6.784 QT
2.21 2.393 L
2.241 2.3 2.35 2.3 QT
2.569 2.3 L
2.647 2.3 2.686 2.362 QT
2.725 2.425 2.725 2.471 QT
1.647 6.784 L
2.319 6.784 2.952 7.026 QT
3.585 7.268 4.077 7.714 QT
4.569 8.159 4.843 8.76 QT
5.116 9.362 5.116 10.05 QT
5.116 11.018 4.632 11.909 QT
4.147 12.8 3.327 13.51 QT
2.507 14.221 1.499 14.628 QT
0.491 15.034 -0.415 15.034 QT
-1.243 18.378 L
-1.275 18.471 -1.4 18.471 QT
-1.603 18.471 L
-1.681 18.471 -1.72 18.409 QT
-1.759 18.346 -1.759 18.284 QT
cp
-0.837 14.565 M
1.007 7.237 L
0.554 7.237 0.054 7.425 QT
-0.446 7.612 -0.892 7.893 QT
-1.337 8.175 -1.696 8.534 QT
-2.134 8.971 -2.47 9.573 QT
-2.806 10.175 -2.978 10.839 QT
-3.15 11.503 -3.15 12.143 QT
-3.15 12.815 -2.861 13.37 QT
-2.571 13.925 -2.04 14.245 QT
-1.509 14.565 -0.837 14.565 QT
cp
-0.29 14.565 M
0.382 14.565 1.147 14.175 QT
1.913 13.784 2.397 13.268 QT
3.085 12.596 3.475 11.628 QT
3.866 10.659 3.866 9.675 QT
3.866 9.003 3.577 8.44 QT
3.288 7.878 2.757 7.557 QT
2.225 7.237 1.538 7.237 QT
-0.29 14.565 L
cp
f
GR
GS
0.149 GC
2 setlinecap
1 LJ
0.5 LW
N
51.5 253.5 M
51.5 22.5 L
S
GR
GS
0.149 GC
2 setlinecap
1 LJ
0.5 LW
N
271.5 253.5 M
271.5 22.5 L
S
GR
GS
0.149 GC
2 setlinecap
1 LJ
0.5 LW
N
51.5 253.5 M
53.81 253.5 L
S
GR
GS
0.149 GC
2 setlinecap
1 LJ
0.5 LW
N
51.5 138 M
53.81 138 L
S
GR
GS
0.149 GC
2 setlinecap
1 LJ
0.5 LW
N
51.5 22.5 M
53.81 22.5 L
S
GR
GS
0.149 GC
2 setlinecap
1 LJ
0.5 LW
N
271.5 253.5 M
269.19 253.5 L
S
GR
GS
0.149 GC
2 setlinecap
1 LJ
0.5 LW
N
271.5 138 M
269.19 138 L
S
GR
GS
0.149 GC
2 setlinecap
1 LJ
0.5 LW
N
271.5 22.5 M
269.19 22.5 L
S
GR
GS
[1 0 0 1 46.3 253.5] CT
0.149 GC
N
-20.498 0.152 M
-20.639 0.152 -20.725 0.051 QT
-20.811 -0.051 -20.811 -0.16 QT
-20.811 -0.285 -20.725 -0.387 QT
-20.639 -0.488 -20.498 -0.488 QT
-11.326 -0.488 L
-11.201 -0.488 -11.116 -0.387 QT
-11.03 -0.285 -11.03 -0.16 QT
-11.03 -0.051 -11.116 0.051 QT
-11.201 0.152 -11.326 0.152 QT
-20.498 0.152 L
cp
f
GR
GS
[1 0 0 1 46.3 253.5] CT
0.149 GC
N
-8.069 3.559 M
-8.069 3.481 -8.007 3.309 QT
-7.569 2.371 -7.179 1.481 QT
-6.788 0.59 -6.484 -0.262 QT
-6.179 -1.113 -5.913 -2.066 QT
-6.944 -2.066 L
-7.523 -2.066 -8.03 -1.699 QT
-8.538 -1.332 -8.882 -0.769 QT
-8.913 -0.707 -8.976 -0.707 QT
-9.163 -0.707 L
-9.304 -0.707 -9.304 -0.863 QT
-9.304 -0.894 -9.273 -0.957 QT
-8.757 -1.848 -8.155 -2.457 QT
-7.554 -3.066 -6.804 -3.066 QT
-1.007 -3.066 L
-0.835 -3.066 -0.718 -2.957 QT
-0.601 -2.848 -0.601 -2.66 QT
-0.601 -2.426 -0.773 -2.246 QT
-0.944 -2.066 -1.179 -2.066 QT
-3.21 -2.066 L
-3.476 -0.816 -3.491 0.387 QT
-3.491 1.918 -2.96 3.168 QT
-2.913 3.262 -2.913 3.356 QT
-2.913 3.527 -3.015 3.676 QT
-3.116 3.824 -3.273 3.926 QT
-3.429 4.027 -3.616 4.027 QT
-4.038 4.027 -4.194 3.332 QT
-4.351 2.637 -4.351 1.996 QT
-4.351 1.074 -4.194 0.231 QT
-4.038 -0.613 -3.694 -2.066 QT
-5.429 -2.066 L
-6.694 3.059 -6.96 3.574 QT
-7.179 4.027 -7.585 4.027 QT
-7.773 4.027 -7.921 3.895 QT
-8.069 3.762 -8.069 3.559 QT
cp
f
GR
GS
[1 0 0 1 46.3 138] CT
0.149 GC
N
-4 4.199 M
-5.953 4.199 -6.664 2.582 QT
-7.375 0.965 -7.375 -1.269 QT
-7.375 -2.66 -7.117 -3.887 QT
-6.859 -5.113 -6.109 -5.965 QT
-5.359 -6.816 -4 -6.816 QT
-2.938 -6.816 -2.266 -6.301 QT
-1.594 -5.785 -1.242 -4.973 QT
-0.891 -4.16 -0.766 -3.223 QT
-0.641 -2.285 -0.641 -1.269 QT
-0.641 0.106 -0.891 1.309 QT
-1.141 2.512 -1.883 3.356 QT
-2.625 4.199 -4 4.199 QT
cp
-4 3.777 M
-3.109 3.777 -2.672 2.863 QT
-2.234 1.949 -2.133 0.84 QT
-2.031 -0.269 -2.031 -1.519 QT
-2.031 -2.723 -2.133 -3.738 QT
-2.234 -4.754 -2.664 -5.582 QT
-3.094 -6.41 -4 -6.41 QT
-4.906 -6.41 -5.344 -5.582 QT
-5.781 -4.754 -5.883 -3.738 QT
-5.984 -2.723 -5.984 -1.519 QT
-5.984 -0.629 -5.938 0.16 QT
-5.891 0.949 -5.703 1.785 QT
-5.516 2.621 -5.102 3.199 QT
-4.688 3.777 -4 3.777 QT
cp
f
GR
GS
[1 0 0 1 46.3 22.5] CT
0.149 GC
N
/f-1802301508{-8.069 3.559 M
-8.069 3.481 -8.007 3.309 QT
-7.569 2.371 -7.179 1.481 QT
-6.788 0.59 -6.484 -0.262 QT
-6.179 -1.113 -5.913 -2.066 QT
-6.944 -2.066 L
-7.523 -2.066 -8.03 -1.699 QT
-8.538 -1.332 -8.882 -0.769 QT
-8.913 -0.707 -8.976 -0.707 QT
-9.163 -0.707 L
-9.304 -0.707 -9.304 -0.863 QT
-9.304 -0.894 -9.273 -0.957 QT
-8.757 -1.848 -8.155 -2.457 QT
-7.554 -3.066 -6.804 -3.066 QT
-1.007 -3.066 L
-0.835 -3.066 -0.718 -2.957 QT
-0.601 -2.848 -0.601 -2.66 QT
-0.601 -2.426 -0.773 -2.246 QT
-0.944 -2.066 -1.179 -2.066 QT
-3.21 -2.066 L
-3.476 -0.816 -3.491 0.387 QT
-3.491 1.918 -2.96 3.168 QT
-2.913 3.262 -2.913 3.356 QT
-2.913 3.527 -3.015 3.676 QT
-3.116 3.824 -3.273 3.926 QT
-3.429 4.027 -3.616 4.027 QT
-4.038 4.027 -4.194 3.332 QT
-4.351 2.637 -4.351 1.996 QT
-4.351 1.074 -4.194 0.231 QT
-4.038 -0.613 -3.694 -2.066 QT
-5.429 -2.066 L
-6.694 3.059 -6.96 3.574 QT
-7.179 4.027 -7.585 4.027 QT
-7.773 4.027 -7.921 3.895 QT
-8.069 3.762 -8.069 3.559 QT
cp}def
f-1802301508
f
GR
GS
[0 -1 1 0 21.12 137.99989] CT
0.149 GC
N
/f1226721168{-0.635 -6.07 M
-1.26 -6.07 -1.799 -6.297 QT
-2.338 -6.524 -2.736 -6.969 QT
-3.135 -7.414 -3.33 -7.953 QT
-3.525 -8.492 -3.525 -9.117 QT
-3.525 -10.242 -2.994 -11.305 QT
-2.463 -12.367 -1.541 -13.141 QT
-0.619 -13.914 0.459 -14.18 QT
-0.072 -15.164 -0.346 -15.867 QT
-0.619 -16.57 -0.619 -17.32 QT
-0.619 -17.852 -0.369 -18.274 QT
-0.119 -18.695 0.334 -18.93 QT
0.787 -19.164 1.334 -19.164 QT
1.881 -19.164 3.459 -18.805 QT
3.881 -18.711 3.881 -18.32 QT
3.881 -18.024 3.662 -17.781 QT
3.443 -17.539 3.146 -17.539 QT
2.912 -17.539 2.74 -17.641 QT
2.568 -17.742 2.193 -17.992 QT
1.818 -18.242 1.514 -18.383 QT
1.209 -18.524 0.896 -18.524 QT
0.521 -18.524 0.225 -18.297 QT
-0.072 -18.07 -0.072 -17.711 QT
-0.072 -17.133 0.436 -16.391 QT
0.943 -15.649 1.881 -14.492 QT
2.943 -13.133 2.943 -11.508 QT
2.943 -10.695 2.709 -9.758 QT
2.475 -8.82 2.029 -7.985 QT
1.584 -7.149 0.896 -6.61 QT
0.209 -6.07 -0.635 -6.07 QT
cp
-0.604 -6.555 M
0.1 -6.555 0.607 -7.281 QT
1.115 -8.008 1.373 -9.016 QT
1.631 -10.024 1.631 -10.711 QT
1.631 -12.055 0.693 -13.742 QT
-0.26 -13.477 -0.947 -12.633 QT
-1.635 -11.789 -1.986 -10.688 QT
-2.338 -9.586 -2.338 -8.602 QT
-2.338 -7.742 -1.893 -7.149 QT
-1.447 -6.555 -0.604 -6.555 QT
cp}def
f1226721168
f
GR
GS
N
51.474 253.528 M
52.924 253.528 L
51.474 249.989 L
cp
202.04 253.528 M
211 253.528 L
214.667 253.528 L
222 253.528 L
226.74 253.528 L
232.176 253.528 L
222 249.613 L
211 250.942 L
cp
271.526 248.513 M
268.946 253.528 L
271.526 253.528 L
cp
51.474 22.472 M
51.474 28.983 L
54.461 22.472 L
cp
98.39 22.472 M
92.315 22.472 L
101 24.081 L
109.014 22.472 L
101 22.472 L
cp
270.583 22.472 M
271.526 25.292 L
271.526 22.472 L
cp
f
GR
GS
0.016 GC
N
51.474 248.897 M
51.474 249.989 L
52.924 253.528 L
54.085 253.528 L
55.645 253.528 L
57 253.528 L
58.567 253.528 L
61.47 253.528 L
57 252.669 L
53.671 245.992 L
51.474 239.634 L
51.474 241.363 L
51.474 245.992 L
cp
151.907 253.528 M
156 253.528 L
157.827 253.528 L
166.873 253.528 L
167 253.528 L
173.026 253.528 L
178 253.528 L
186.03 253.528 L
187.517 253.528 L
189 253.528 L
199.203 253.528 L
200 253.528 L
202.04 253.528 L
211 250.942 L
222 249.613 L
232.176 253.528 L
232.556 253.528 L
233 253.528 L
242.564 253.528 L
244 253.528 L
251.788 253.528 L
254.102 253.528 L
255 253.528 L
260.237 253.528 L
265.626 253.528 L
266 253.528 L
266.094 253.528 L
267.246 253.528 L
268.946 253.528 L
271.526 248.513 L
271.526 245.992 L
271.526 237.894 L
268.646 245.992 L
266 251.001 L
255 247.67 L
251.926 245.992 L
244 243.496 L
233 243.177 L
222 241.31 L
211 241.318 L
200 243.805 L
189 244.988 L
182.738 245.992 L
178 247.203 L
167 248.982 L
156 252.466 L
cp
51.474 144.352 M
51.474 147.771 L
52.2 144.352 L
53.195 131.648 L
51.474 124.938 L
51.474 127.463 L
51.474 131.648 L
51.474 140.808 L
cp
270.033 144.352 M
271.526 150.096 L
271.526 148.046 L
271.526 144.352 L
271.526 136.047 L
271.526 131.648 L
271.526 127.325 L
270.472 131.648 L
cp
51.474 30.007 M
51.474 39.581 L
56.008 30.007 L
57 27.878 L
68 28.404 L
75.064 30.007 L
79 30.585 L
90 33.357 L
101 34.608 L
112 32.2 L
123 31.778 L
134 31.537 L
139.943 30.007 L
145 28.133 L
156 24.928 L
167 23.595 L
174.274 22.472 L
167 22.472 L
165.038 22.472 L
156 22.472 L
155.182 22.472 L
150.895 22.472 L
145 22.472 L
143.617 22.472 L
136.014 22.472 L
134 22.472 L
124.268 22.472 L
123 22.472 L
112.81 22.472 L
112 22.472 L
109.014 22.472 L
101 24.081 L
92.315 22.472 L
90.592 22.472 L
90 22.472 L
81.423 22.472 L
79 22.472 L
78.133 22.472 L
70.368 22.472 L
68 22.472 L
62.704 22.472 L
62.123 22.472 L
57 22.472 L
56.596 22.472 L
56.497 22.472 L
54.461 22.472 L
51.474 28.983 L
cp
269.207 30.007 M
271.526 36.635 L
271.526 34.822 L
271.526 30.007 L
271.526 25.292 L
270.583 22.472 L
268.997 22.472 L
267.305 22.472 L
266 22.472 L
265.147 22.472 L
261.615 22.472 L
266 22.907 L
cp
f
GR
GS
0.047 GC
N
53.671 245.992 M
57 252.669 L
61.47 253.528 L
66.43 253.528 L
66.961 253.528 L
68 253.528 L
74.801 253.528 L
79 253.528 L
85.258 253.528 L
90 253.528 L
96.299 253.528 L
101 253.528 L
107.07 253.528 L
112 253.528 L
115.899 253.528 L
123 253.528 L
127.736 253.528 L
134 253.528 L
140.768 253.528 L
145 253.528 L
151.907 253.528 L
156 252.466 L
167 248.982 L
178 247.203 L
182.738 245.992 L
189 244.988 L
200 243.805 L
211 241.318 L
222 241.31 L
233 243.177 L
244 243.496 L
251.926 245.992 L
255 247.67 L
266 251.001 L
268.646 245.992 L
271.526 237.894 L
271.526 233.288 L
271.526 232.014 L
271.246 233.288 L
266 244.491 L
255 241.727 L
244 238.321 L
233 236.017 L
222 235.501 L
211 234.247 L
200 236.863 L
189 238.663 L
178 241.245 L
167 243.474 L
156 245.094 L
149.134 245.992 L
145 247.186 L
134 250.663 L
123 251.368 L
112 251.679 L
101 249.601 L
90 249.195 L
79 251.695 L
68 247.797 L
60.723 245.992 L
57 245.555 L
51.474 234.404 L
51.474 234.443 L
51.474 236.897 L
51.474 239.634 L
cp
271.503 157.057 M
271.526 157.186 L
271.526 157.145 L
271.526 157.057 L
271.526 153.67 L
271.526 150.096 L
270.033 144.352 L
270.472 131.648 L
271.526 127.325 L
271.526 121.975 L
271.526 119.846 L
267.208 131.648 L
266.55 144.352 L
cp
52.2 144.352 M
51.474 147.771 L
51.474 154.093 L
51.474 156.364 L
55.3 144.352 L
56.793 131.648 L
51.903 118.942 L
51.474 116.877 L
51.474 117.48 L
51.474 118.942 L
51.474 121.793 L
51.474 124.938 L
53.195 131.648 L
cp
191.797 144.352 M
200 148.9 L
211 146.765 L
218.55 144.352 L
211 142.509 L
200 142.079 L
cp
224.038 144.352 M
233 147.939 L
240.302 144.352 L
233 140.68 L
cp
74.816 131.648 M
79 133.289 L
90 132.934 L
101 131.725 L
102.551 131.648 L
101 131.462 L
90 130.241 L
79 130.963 L
cp
115.543 131.648 M
123 132.768 L
131.522 131.648 L
123 130.383 L
cp
51.474 42.712 M
51.474 44.865 L
51.986 42.712 L
57 33.081 L
68 33.986 L
79 36.876 L
90 40.299 L
101 42.353 L
112 39.691 L
123 40.028 L
134 37.436 L
145 34.857 L
156 31.852 L
167 30.317 L
171.11 30.007 L
178 28.969 L
189 27.149 L
200 24.817 L
211 25.063 L
222 26.124 L
233 24.218 L
244 27.358 L
255 29.562 L
257.7 30.007 L
266 30.607 L
271.526 41.796 L
271.526 41.75 L
271.526 40.637 L
271.526 36.635 L
269.207 30.007 L
266 22.907 L
261.615 22.472 L
255.216 22.472 L
255 22.472 L
246.672 22.472 L
244 22.472 L
237.5 22.472 L
233 22.472 L
228.408 22.472 L
222 22.472 L
216.822 22.472 L
211 22.472 L
206.063 22.472 L
200 22.472 L
193.876 22.472 L
189 22.472 L
179.204 22.472 L
178 22.472 L
177.512 22.472 L
174.274 22.472 L
167 23.595 L
156 24.928 L
145 28.133 L
139.943 30.007 L
134 31.537 L
123 31.778 L
112 32.2 L
101 34.608 L
90 33.357 L
79 30.585 L
75.064 30.007 L
68 28.404 L
57 27.878 L
56.008 30.007 L
51.474 39.581 L
cp
f
GR
GS
0.063 GC
N
60.723 245.992 M
68 247.797 L
79 251.695 L
90 249.195 L
101 249.601 L
112 251.679 L
123 251.368 L
134 250.663 L
145 247.186 L
149.134 245.992 L
156 245.094 L
167 243.474 L
178 241.245 L
189 238.663 L
200 236.863 L
211 234.247 L
222 235.501 L
233 236.017 L
244 238.321 L
255 241.727 L
266 244.491 L
271.246 233.288 L
271.526 232.014 L
271.526 231.316 L
271.526 225.783 L
269.329 233.288 L
266 240.396 L
255 236.481 L
244.475 233.288 L
244 233.191 L
233 230.546 L
222 230.502 L
211 229.574 L
200 231.39 L
189 232.734 L
186.356 233.288 L
178 235.849 L
167 239.825 L
156 241.41 L
145 243.482 L
134 245.451 L
123 245.911 L
121.066 245.992 L
112 246.641 L
109.734 245.992 L
101 244.775 L
90 244.914 L
80.354 245.992 L
79 246.324 L
78.154 245.992 L
68 243.811 L
57 242.245 L
52.561 233.288 L
51.474 228.6 L
51.474 229.7 L
51.474 233.288 L
51.474 234.404 L
57 245.555 L
cp
51.474 157.057 M
51.474 162.867 L
53.004 157.057 L
57 146.451 L
68 144.906 L
79 145.79 L
87.103 144.352 L
90 142.665 L
101 139.916 L
112 143.311 L
123 142.024 L
134 143.719 L
139.547 144.352 L
145 144.519 L
156 145.899 L
167 147.231 L
178 152.572 L
189 151.354 L
195.738 157.057 L
200 158.861 L
211 158.04 L
222 160.036 L
232.668 157.057 L
233 156.904 L
244 153.167 L
255 149.503 L
266 148.112 L
269.671 157.057 L
271.526 164.804 L
271.526 162.786 L
271.526 157.186 L
271.503 157.057 L
266.55 144.352 L
267.208 131.648 L
271.526 119.846 L
271.526 118.942 L
271.526 113.364 L
270.142 118.942 L
266 129.02 L
255 130.923 L
244 130.489 L
233 131.603 L
222 131.067 L
216.027 131.648 L
211 133.253 L
200 134.488 L
190.029 131.648 L
189 131.516 L
186.071 131.648 L
178 132.951 L
176.159 131.648 L
167 129.264 L
156 129.402 L
145 126.499 L
134 122.998 L
123 119.938 L
115.775 118.942 L
112 118.647 L
101 117.042 L
91.603 118.942 L
90 119.6 L
79 121.998 L
68 126.535 L
57 126.92 L
53.87 118.942 L
51.474 110.288 L
51.474 112.332 L
51.474 116.877 L
51.903 118.942 L
56.793 131.648 L
55.3 144.352 L
51.474 156.364 L
cp
200 148.9 M
191.797 144.352 L
200 142.079 L
211 142.509 L
218.55 144.352 L
211 146.765 L
cp
233 147.939 M
224.038 144.352 L
233 140.68 L
240.302 144.352 L
cp
79 133.289 M
74.816 131.648 L
79 130.963 L
90 130.241 L
101 131.462 L
102.551 131.648 L
101 131.725 L
90 132.934 L
cp
123 132.768 M
115.543 131.648 L
123 130.383 L
131.522 131.648 L
cp
51.986 42.712 M
51.474 44.865 L
51.474 45.906 L
51.474 50.61 L
53.982 42.712 L
57 36.914 L
68 38.75 L
78.123 42.712 L
79 42.97 L
90 45.265 L
101 46.368 L
112 45.718 L
123 45.547 L
134 43.078 L
137.154 42.712 L
145 41.078 L
156 36.596 L
167 33.853 L
178 32.626 L
189 31.527 L
200 30.169 L
211 30.594 L
222 30.916 L
230.115 30.007 L
233 29.347 L
234.867 30.007 L
244 31.761 L
255 32.884 L
266 33.995 L
270.305 42.712 L
271.526 47.86 L
271.526 46.656 L
271.526 42.712 L
271.526 41.796 L
266 30.607 L
257.7 30.007 L
255 29.562 L
244 27.358 L
233 24.218 L
222 26.124 L
211 25.063 L
200 24.817 L
189 27.149 L
178 28.969 L
171.11 30.007 L
167 30.317 L
156 31.852 L
145 34.857 L
134 37.436 L
123 40.028 L
112 39.691 L
101 42.353 L
90 40.299 L
79 36.876 L
68 33.986 L
57 33.081 L
cp
f
GR
GS
0.094 GC
N
78.154 245.992 M
79 246.324 L
80.354 245.992 L
90 244.914 L
101 244.775 L
109.734 245.992 L
112 246.641 L
121.066 245.992 L
123 245.911 L
134 245.451 L
145 243.482 L
156 241.41 L
167 239.825 L
178 235.849 L
186.356 233.288 L
189 232.734 L
200 231.39 L
211 229.574 L
222 230.502 L
233 230.546 L
244 233.191 L
244.475 233.288 L
255 236.481 L
266 240.396 L
269.329 233.288 L
271.526 225.783 L
271.526 223.07 L
271.526 222.044 L
267.411 233.288 L
266 236.3 L
258.82 233.288 L
255 232.256 L
244 229.666 L
233 226.116 L
222 226.002 L
211 225.277 L
200 227.477 L
189 229.049 L
178 231.788 L
173.611 233.288 L
167 236.176 L
156 237.725 L
145 240.54 L
134 242.501 L
123 242.954 L
112 243.738 L
101 242.321 L
90 242.466 L
79 242.502 L
68 240.869 L
57 238.935 L
54.201 233.288 L
51.474 223.88 L
51.474 225.733 L
51.474 228.6 L
52.561 233.288 L
57 242.245 L
68 243.811 L
cp
53.004 157.057 M
51.474 162.867 L
51.474 165.052 L
51.474 167.024 L
54.755 157.057 L
57 151.098 L
68 148.887 L
79 148.755 L
90 146.931 L
101 145.66 L
112 146.973 L
123 146.441 L
134 147.806 L
145 147.868 L
156 150.604 L
167 152.055 L
174.461 157.057 L
178 158.444 L
189 158.296 L
200 162.761 L
211 164.584 L
222 165.432 L
233 161.965 L
244 159.986 L
254.14 157.057 L
255 156.664 L
266 152.577 L
267.839 157.057 L
271.526 169.374 L
271.526 166.667 L
271.526 164.804 L
269.671 157.057 L
266 148.112 L
255 149.503 L
244 153.167 L
233 156.904 L
232.668 157.057 L
222 160.036 L
211 158.04 L
200 158.861 L
195.738 157.057 L
189 151.354 L
178 152.572 L
167 147.231 L
156 145.899 L
145 144.519 L
139.547 144.352 L
134 143.719 L
123 142.024 L
112 143.311 L
101 139.916 L
90 142.665 L
87.103 144.352 L
79 145.79 L
68 144.906 L
57 146.451 L
cp
176.159 131.648 M
178 132.951 L
186.071 131.648 L
189 131.516 L
190.029 131.648 L
200 134.488 L
211 133.253 L
216.027 131.648 L
222 131.067 L
233 131.603 L
244 130.489 L
255 130.923 L
266 129.02 L
270.142 118.942 L
271.526 113.364 L
271.526 111.042 L
271.526 108.951 L
268.428 118.942 L
266 124.849 L
255 127.202 L
244 127.477 L
233 128.879 L
222 128.249 L
211 129.09 L
200 129.778 L
189 128.118 L
178 127.794 L
167 124.764 L
156 122.33 L
147.717 118.942 L
145 118.5 L
134 116.822 L
123 115.155 L
112 112.717 L
101 111.795 L
90 114.298 L
79 116.702 L
71.444 118.942 L
68 120.697 L
57 121.905 L
55.838 118.942 L
51.474 106.334 L
51.474 108.835 L
51.474 110.288 L
53.87 118.942 L
57 126.92 L
68 126.535 L
79 121.998 L
90 119.6 L
91.603 118.942 L
101 117.042 L
112 118.647 L
115.775 118.942 L
123 119.938 L
134 122.998 L
145 126.499 L
156 129.402 L
167 129.264 L
cp
53.982 42.712 M
51.474 50.61 L
51.474 53.167 L
51.474 54.057 L
55.977 42.712 L
57 40.748 L
65.281 42.712 L
68 43.274 L
79 46.539 L
90 49.178 L
101 50.202 L
112 50.756 L
123 49.748 L
134 46.539 L
145 44.461 L
152.9 42.712 L
156 41.34 L
167 37.389 L
178 35.695 L
189 34.225 L
200 32.817 L
211 32.836 L
222 33.424 L
233 32.696 L
244 34.545 L
255 35.937 L
266 37.384 L
268.632 42.712 L
271.526 52.477 L
271.526 50.559 L
271.526 47.86 L
270.305 42.712 L
266 33.995 L
255 32.884 L
244 31.761 L
234.867 30.007 L
233 29.347 L
230.115 30.007 L
222 30.916 L
211 30.594 L
200 30.169 L
189 31.527 L
178 32.626 L
167 33.853 L
156 36.596 L
145 41.078 L
137.154 42.712 L
134 43.078 L
123 45.547 L
112 45.718 L
101 46.368 L
90 45.265 L
79 42.97 L
78.123 42.712 L
68 38.75 L
57 36.914 L
cp
f
GR
GS
0.125 GC
N
54.201 233.288 M
57 238.935 L
68 240.869 L
79 242.502 L
90 242.466 L
101 242.321 L
112 243.738 L
123 242.954 L
134 242.501 L
145 240.54 L
156 237.725 L
167 236.176 L
173.611 233.288 L
178 231.788 L
189 229.049 L
200 227.477 L
211 225.277 L
222 226.002 L
233 226.116 L
244 229.666 L
255 232.256 L
258.82 233.288 L
266 236.3 L
267.411 233.288 L
271.526 222.044 L
271.526 220.583 L
271.526 217.586 L
271.074 220.583 L
266 232.666 L
255 229.62 L
244 226.141 L
233 221.685 L
222 221.502 L
211 220.981 L
200 223.565 L
189 225.365 L
178 228.935 L
167 232.714 L
161.443 233.288 L
156 234.04 L
145 237.598 L
134 239.551 L
123 239.997 L
112 241.15 L
101 239.867 L
90 240.017 L
79 238.781 L
68 237.927 L
57 235.626 L
55.841 233.288 L
51.474 220.733 L
51.474 222.864 L
51.474 223.88 L
cp
51.474 169.762 M
51.474 169.849 L
51.487 169.762 L
56.506 157.057 L
57 155.745 L
68 152.868 L
79 151.72 L
90 150.05 L
101 148.514 L
112 149.833 L
123 149.232 L
134 151.443 L
145 151.217 L
156 155.309 L
167 156.879 L
167.266 157.057 L
178 161.262 L
189 162.906 L
200 166.66 L
208.715 169.762 L
211 170.642 L
222 170.405 L
224.862 169.762 L
233 166.959 L
244 164.504 L
255 159.95 L
265.96 157.057 L
266 157.042 L
266.006 157.057 L
270.571 169.762 L
271.526 175.109 L
271.526 173.858 L
271.526 169.762 L
271.526 169.5 L
271.526 169.374 L
267.839 157.057 L
266 152.577 L
255 156.664 L
254.14 157.057 L
244 159.986 L
233 161.965 L
222 165.432 L
211 164.584 L
200 162.761 L
189 158.296 L
178 158.444 L
174.461 157.057 L
167 152.055 L
156 150.604 L
145 147.868 L
134 147.806 L
123 146.441 L
112 146.973 L
101 145.66 L
90 146.931 L
79 148.755 L
68 148.887 L
57 151.098 L
54.755 157.057 L
51.474 167.024 L
cp
55.838 118.942 M
57 121.905 L
68 120.697 L
71.444 118.942 L
79 116.702 L
90 114.298 L
101 111.795 L
112 112.717 L
123 115.155 L
134 116.822 L
145 118.5 L
147.717 118.942 L
156 122.33 L
167 124.764 L
178 127.794 L
189 128.118 L
200 129.778 L
211 129.09 L
222 128.249 L
233 128.879 L
244 127.477 L
255 127.202 L
266 124.849 L
268.428 118.942 L
271.526 108.951 L
271.526 106.238 L
271.526 105.719 L
271.441 106.238 L
266.714 118.942 L
266 120.679 L
255 123.481 L
244 124.465 L
233 126.155 L
222 125.43 L
211 125.996 L
200 126.789 L
189 124.719 L
178 123.481 L
167 120.264 L
163.036 118.942 L
156 117.569 L
145 115.682 L
134 112.949 L
123 110.97 L
112 106.787 L
101 106.548 L
90 109.348 L
79 113.303 L
68 116.414 L
57 117.791 L
52.528 106.238 L
51.474 100.54 L
51.474 101.841 L
51.474 106.238 L
51.474 106.314 L
51.474 106.334 L
cp
51.474 55.417 M
51.474 58.568 L
51.921 55.417 L
57 43.812 L
68 46.613 L
79 50.108 L
90 53.09 L
101 54.035 L
110.112 55.417 L
112 55.707 L
113.937 55.417 L
123 53.95 L
134 49.999 L
145 46.833 L
156 44.341 L
162.428 42.712 L
167 40.925 L
178 38.764 L
189 36.923 L
200 35.465 L
211 35.077 L
222 35.932 L
233 35.781 L
244 37.329 L
255 38.989 L
266 40.772 L
266.958 42.712 L
271.477 55.417 L
271.526 55.727 L
271.526 55.657 L
271.526 55.417 L
271.526 53.382 L
271.526 52.477 L
268.632 42.712 L
266 37.384 L
255 35.937 L
244 34.545 L
233 32.696 L
222 33.424 L
211 32.836 L
200 32.817 L
189 34.225 L
178 35.695 L
167 37.389 L
156 41.34 L
152.9 42.712 L
145 44.461 L
134 46.539 L
123 49.748 L
112 50.756 L
101 50.202 L
90 49.178 L
79 46.539 L
68 43.274 L
65.281 42.712 L
57 40.748 L
55.977 42.712 L
51.474 54.057 L
cp
f
GR
GS
0.141 GC
N
55.841 233.288 M
57 235.626 L
68 237.927 L
79 238.781 L
90 240.017 L
101 239.867 L
112 241.15 L
123 239.997 L
134 239.551 L
145 237.598 L
156 234.04 L
161.443 233.288 L
167 232.714 L
178 228.935 L
189 225.365 L
200 223.565 L
211 220.981 L
222 221.502 L
233 221.685 L
244 226.141 L
255 229.62 L
266 232.666 L
271.074 220.583 L
271.526 217.586 L
271.526 215.986 L
271.526 212.409 L
270.086 220.583 L
266 230.313 L
255 226.985 L
244 222.616 L
239.222 220.583 L
233 218.271 L
222 217.532 L
211 216.785 L
200 219.609 L
195.117 220.583 L
189 221.68 L
178 226.081 L
167 229.964 L
156 231.69 L
149.059 233.288 L
145 234.656 L
134 236.602 L
123 237.039 L
112 238.563 L
101 237.414 L
90 237.569 L
79 235.06 L
68 234.985 L
60.71 233.288 L
57 232.605 L
52.325 220.583 L
51.474 215.53 L
51.474 216.633 L
51.474 220.583 L
51.474 220.702 L
51.474 220.733 L
cp
51.487 169.762 M
51.474 169.849 L
51.474 169.889 L
51.474 175.09 L
52.401 169.762 L
57 158.644 L
67.252 157.057 L
68 156.849 L
79 154.685 L
90 153.17 L
101 151.368 L
112 152.694 L
123 152.022 L
134 155.081 L
145 154.565 L
150.964 157.057 L
156 158.375 L
167 160.495 L
178 164.08 L
189 167.515 L
196.752 169.762 L
200 170.548 L
211 174.859 L
222 173.658 L
233 171.313 L
241.007 169.762 L
244 169.022 L
255 163.011 L
266 160.028 L
269.5 169.762 L
271.526 179.487 L
271.526 177.469 L
271.526 175.109 L
270.571 169.762 L
266.006 157.057 L
266 157.042 L
265.96 157.057 L
255 159.95 L
244 164.504 L
233 166.959 L
224.862 169.762 L
222 170.405 L
211 170.642 L
208.715 169.762 L
200 166.66 L
189 162.906 L
178 161.262 L
167.266 157.057 L
167 156.879 L
156 155.309 L
145 151.217 L
134 151.443 L
123 149.232 L
112 149.833 L
101 148.514 L
90 150.05 L
79 151.72 L
68 152.868 L
57 155.745 L
56.506 157.057 L
cp
163.036 118.942 M
167 120.264 L
178 123.481 L
189 124.719 L
200 126.789 L
211 125.996 L
222 125.43 L
233 126.155 L
244 124.465 L
255 123.481 L
266 120.679 L
266.714 118.942 L
271.441 106.238 L
271.526 105.719 L
271.526 105.519 L
271.526 100.951 L
270.515 106.238 L
266 117.583 L
258.009 118.942 L
255 119.76 L
244 121.453 L
233 123.432 L
222 122.612 L
211 122.902 L
200 123.801 L
189 121.32 L
178 119.168 L
177.241 118.942 L
167 117.461 L
156 114.934 L
145 112.863 L
134 109.076 L
123 106.784 L
121.617 106.238 L
112 102.154 L
101 102.342 L
90 104.622 L
87.182 106.238 L
79 109.905 L
68 112.799 L
57 114.98 L
53.616 106.238 L
51.474 96.314 L
51.474 98.323 L
51.474 100.54 L
52.528 106.238 L
57 117.791 L
68 116.414 L
79 113.303 L
90 109.348 L
101 106.548 L
112 106.787 L
123 110.97 L
134 112.949 L
145 115.682 L
156 117.569 L
cp
51.921 55.417 M
51.474 58.568 L
51.474 60.507 L
51.474 64.082 L
52.907 55.417 L
57 46.066 L
68 49.952 L
79 53.677 L
85.008 55.417 L
90 56.955 L
101 58.295 L
112 59.579 L
123 57.54 L
128.884 55.417 L
134 53.46 L
145 49.205 L
156 46.632 L
167 43.718 L
173.963 42.712 L
178 41.833 L
189 39.621 L
200 38.112 L
211 37.318 L
222 38.439 L
233 38.867 L
244 40.113 L
255 42.042 L
258.735 42.712 L
266 43.722 L
270.557 55.417 L
271.526 60.695 L
271.526 59.634 L
271.526 55.727 L
271.477 55.417 L
266.958 42.712 L
266 40.772 L
255 38.989 L
244 37.329 L
233 35.781 L
222 35.932 L
211 35.077 L
200 35.465 L
189 36.923 L
178 38.764 L
167 40.925 L
162.428 42.712 L
156 44.341 L
145 46.833 L
134 49.999 L
123 53.95 L
113.937 55.417 L
112 55.707 L
110.112 55.417 L
101 54.035 L
90 53.09 L
79 50.108 L
68 46.613 L
57 43.812 L
cp
f
GR
GS
0.173 GC
N
60.71 233.288 M
68 234.985 L
79 235.06 L
90 237.569 L
101 237.414 L
112 238.563 L
123 237.039 L
134 236.602 L
145 234.656 L
149.059 233.288 L
156 231.69 L
167 229.964 L
178 226.081 L
189 221.68 L
195.117 220.583 L
200 219.609 L
211 216.785 L
222 217.532 L
233 218.271 L
239.222 220.583 L
244 222.616 L
255 226.985 L
266 230.313 L
270.086 220.583 L
271.526 212.409 L
271.526 208.936 L
271.526 208.527 L
269.098 220.583 L
266 227.961 L
255 224.349 L
246.513 220.583 L
244 219.221 L
233 215.194 L
222 213.699 L
211 212.599 L
200 215.513 L
189 218.522 L
184.259 220.583 L
178 223.228 L
167 227.214 L
156 229.682 L
145 232.268 L
136.065 233.288 L
134 233.652 L
123 234.082 L
112 235.975 L
101 234.96 L
90 235.12 L
83.528 233.288 L
79 232.463 L
68 232.467 L
57 230.282 L
53.228 220.583 L
51.474 211.469 L
51.474 213.259 L
51.474 215.53 L
52.325 220.583 L
57 232.605 L
cp
271.454 182.467 M
271.526 183.855 L
271.526 183.188 L
271.526 182.467 L
271.526 180.346 L
271.526 179.487 L
269.5 169.762 L
266 160.028 L
255 163.011 L
244 169.022 L
241.007 169.762 L
233 171.313 L
222 173.658 L
211 174.859 L
200 170.548 L
196.752 169.762 L
189 167.515 L
178 164.08 L
167 160.495 L
156 158.375 L
150.964 157.057 L
145 154.565 L
134 155.081 L
123 152.022 L
112 152.694 L
101 151.368 L
90 153.17 L
79 154.685 L
68 156.849 L
67.252 157.057 L
57 158.644 L
52.401 169.762 L
51.474 175.09 L
51.474 177.067 L
51.474 179.021 L
53.316 169.762 L
57 160.855 L
68 158.751 L
79 157.448 L
83.929 157.057 L
90 156.289 L
101 154.221 L
112 155.555 L
123 154.813 L
130.016 157.057 L
134 157.799 L
145 157.629 L
156 160.472 L
167 164.064 L
178 166.898 L
185.313 169.762 L
189 171.651 L
200 174.395 L
211 179.076 L
222 176.911 L
233 174.849 L
244 172.301 L
248.504 169.762 L
255 166.071 L
266 163.008 L
268.428 169.762 L
cp
177.241 118.942 M
178 119.168 L
189 121.32 L
200 123.801 L
211 122.902 L
222 122.612 L
233 123.432 L
244 121.453 L
255 119.76 L
258.009 118.942 L
266 117.583 L
270.515 106.238 L
271.526 100.951 L
271.526 99.298 L
271.526 97.375 L
269.588 106.238 L
266 115.255 L
255 117.367 L
244 118.621 L
241.751 118.942 L
233 120.708 L
222 119.794 L
211 119.808 L
200 120.812 L
192.568 118.942 L
189 118.395 L
178 117.066 L
167 115.364 L
156 112.298 L
145 110.045 L
135.815 106.238 L
134 105.297 L
123 101.876 L
112 97.654 L
101 98.202 L
90 100.277 L
79.599 106.238 L
79 106.506 L
68 109.185 L
57 112.169 L
54.704 106.238 L
51.569 93.533 L
51.474 91.996 L
51.474 92.657 L
51.474 93.533 L
51.474 95.524 L
51.474 96.314 L
53.616 106.238 L
57 114.98 L
68 112.799 L
79 109.905 L
87.182 106.238 L
90 104.622 L
101 102.342 L
112 102.154 L
121.617 106.238 L
123 106.784 L
134 109.076 L
145 112.863 L
156 114.934 L
167 117.461 L
cp
51.474 68.122 M
51.474 68.443 L
51.492 68.122 L
53.894 55.417 L
57 48.321 L
68 53.291 L
74.096 55.417 L
79 57.034 L
90 60.75 L
101 62.796 L
112 63.452 L
123 60.802 L
134 56.761 L
136.327 55.417 L
145 51.577 L
156 48.922 L
167 45.751 L
178 44.062 L
187.132 42.712 L
189 42.319 L
200 40.76 L
211 39.559 L
222 40.947 L
233 41.952 L
241.673 42.712 L
244 42.826 L
255 44.169 L
266 46.084 L
269.637 55.417 L
271.526 64.421 L
271.526 62.796 L
271.526 60.695 L
270.557 55.417 L
266 43.722 L
258.735 42.712 L
255 42.042 L
244 40.113 L
233 38.867 L
222 38.439 L
211 37.318 L
200 38.112 L
189 39.621 L
178 41.833 L
173.963 42.712 L
167 43.718 L
156 46.632 L
145 49.205 L
134 53.46 L
128.884 55.417 L
123 57.54 L
112 59.579 L
101 58.295 L
90 56.955 L
85.008 55.417 L
79 53.677 L
68 49.952 L
57 46.066 L
52.907 55.417 L
51.474 64.082 L
cp
f
GR
GS
0.204 GC
N
83.528 233.288 M
90 235.12 L
101 234.96 L
112 235.975 L
123 234.082 L
134 233.652 L
136.065 233.288 L
145 232.268 L
156 229.682 L
167 227.214 L
178 223.228 L
184.259 220.583 L
189 218.522 L
200 215.513 L
211 212.599 L
222 213.699 L
233 215.194 L
244 219.221 L
246.513 220.583 L
255 224.349 L
266 227.961 L
269.098 220.583 L
271.526 208.527 L
271.526 207.878 L
271.526 197.078 L
271.526 195.173 L
271.526 189.654 L
271.526 183.855 L
271.454 182.467 L
268.428 169.762 L
266 163.008 L
255 166.071 L
248.504 169.762 L
244 172.301 L
233 174.849 L
222 176.911 L
211 179.076 L
200 174.395 L
189 171.651 L
185.313 169.762 L
178 166.898 L
167 164.064 L
156 160.472 L
145 157.629 L
134 157.799 L
130.016 157.057 L
123 154.813 L
112 155.555 L
101 154.221 L
90 156.289 L
83.929 157.057 L
79 157.448 L
68 158.751 L
57 160.855 L
53.316 169.762 L
51.474 179.021 L
51.474 181.894 L
51.474 182.078 L
54.23 169.762 L
57 163.066 L
68 160.539 L
79 159.401 L
90 158.285 L
101 157.067 L
112 157.865 L
123 157.448 L
134 159.423 L
145 159.861 L
156 162.569 L
167 167.633 L
178 169.717 L
178.117 169.762 L
189 175.335 L
200 178.241 L
209.337 182.467 L
211 183.692 L
213.382 182.467 L
222 180.164 L
233 178.385 L
244 175.337 L
253.89 169.762 L
255 169.132 L
266 165.989 L
267.357 169.762 L
270.761 182.467 L
271.503 195.173 L
270.989 207.878 L
268.11 220.583 L
266 225.608 L
255 221.714 L
252.451 220.583 L
244 216.005 L
233 212.117 L
222 209.865 L
211 208.413 L
200 211.418 L
189 215.588 L
178 220.356 L
177.459 220.583 L
167 224.463 L
156 227.674 L
145 230.36 L
134 231.743 L
123 232.182 L
112.552 233.288 L
112 233.387 L
110.81 233.288 L
101 232.773 L
90 232.861 L
79 230.888 L
68 230.527 L
57 227.958 L
54.132 220.583 L
51.474 208.31 L
51.474 210.5 L
51.474 211.469 L
53.228 220.583 L
57 230.282 L
68 232.467 L
79 232.463 L
cp
192.568 118.942 M
200 120.812 L
211 119.808 L
222 119.794 L
233 120.708 L
241.751 118.942 L
244 118.621 L
255 117.367 L
266 115.255 L
269.588 106.238 L
271.526 97.375 L
271.526 95.041 L
271.526 94.594 L
268.662 106.238 L
266 112.927 L
255 115.349 L
244 116.688 L
233 118.305 L
222 117.848 L
211 117.813 L
200 118.291 L
189 116.574 L
178 115.086 L
167 113.268 L
156 109.663 L
145 107.227 L
142.613 106.238 L
134 101.772 L
123 96.861 L
113.238 93.533 L
112 92.945 L
107.636 93.533 L
101 94.062 L
90 95.931 L
79 103.198 L
68 105.722 L
66.432 106.238 L
57 109.358 L
55.792 106.238 L
52.265 93.533 L
51.474 82.212 L
51.474 86.764 L
51.474 91.996 L
51.569 93.533 L
54.704 106.238 L
57 112.169 L
68 109.185 L
79 106.506 L
79.599 106.238 L
90 100.277 L
101 98.202 L
112 97.654 L
123 101.876 L
134 105.297 L
135.815 106.238 L
145 110.045 L
156 112.298 L
167 115.364 L
178 117.066 L
189 118.395 L
cp
51.492 68.122 M
51.474 68.443 L
51.474 70.112 L
51.474 79.292 L
52.178 68.122 L
54.881 55.417 L
57 50.575 L
66.409 55.417 L
68 56.328 L
79 60.188 L
90 64.546 L
101 67.296 L
112 67.325 L
123 64.065 L
134 59.855 L
141.684 55.417 L
145 53.95 L
156 51.213 L
167 47.784 L
178 45.953 L
189 44.395 L
200 43.168 L
204.315 42.712 L
211 41.801 L
217.366 42.712 L
222 43.161 L
233 43.854 L
244 44.549 L
255 46.035 L
266 48.447 L
268.716 55.417 L
271.526 67.319 L
271.526 65.371 L
271.526 64.421 L
269.637 55.417 L
266 46.084 L
255 44.169 L
244 42.826 L
241.673 42.712 L
233 41.952 L
222 40.947 L
211 39.559 L
200 40.76 L
189 42.319 L
187.132 42.712 L
178 44.062 L
167 45.751 L
156 48.922 L
145 51.577 L
136.327 55.417 L
134 56.761 L
123 60.802 L
112 63.452 L
101 62.796 L
90 60.75 L
79 57.034 L
74.096 55.417 L
68 53.291 L
57 48.321 L
53.894 55.417 L
cp
f
GR
GS
0.22 GC
N
110.81 233.288 M
112 233.387 L
112.552 233.288 L
123 232.182 L
134 231.743 L
145 230.36 L
156 227.674 L
167 224.463 L
177.459 220.583 L
178 220.356 L
189 215.588 L
200 211.418 L
211 208.413 L
222 209.865 L
233 212.117 L
244 216.005 L
252.451 220.583 L
255 221.714 L
266 225.608 L
268.11 220.583 L
270.989 207.878 L
271.503 195.173 L
270.761 182.467 L
267.357 169.762 L
266 165.989 L
255 169.132 L
253.89 169.762 L
244 175.337 L
233 178.385 L
222 180.164 L
213.382 182.467 L
211 183.692 L
209.337 182.467 L
200 178.241 L
189 175.335 L
178.117 169.762 L
178 169.717 L
167 167.633 L
156 162.569 L
145 159.861 L
134 159.423 L
123 157.448 L
112 157.865 L
101 157.067 L
90 158.285 L
79 159.401 L
68 160.539 L
57 163.066 L
54.23 169.762 L
51.474 182.078 L
51.474 182.467 L
51.474 189.514 L
51.985 182.467 L
55.144 169.762 L
57 165.276 L
68 162.326 L
79 161.354 L
90 159.914 L
101 158.696 L
112 159.567 L
123 159.446 L
134 161.048 L
145 162.094 L
156 164.665 L
165.434 169.762 L
167 170.566 L
178 172.562 L
189 179.02 L
200 182.088 L
200.839 182.467 L
211 189.948 L
222 184.966 L
229.192 182.467 L
233 181.921 L
244 178.373 L
255 172.281 L
263.239 169.762 L
266 168.969 L
266.285 169.762 L
270.068 182.467 L
270.892 195.173 L
270.321 207.878 L
267.123 220.583 L
266 223.256 L
258.678 220.583 L
255 218.409 L
244 212.789 L
233 209.04 L
228.165 207.878 L
222 204.222 L
211 201.388 L
200 206.834 L
199.154 207.878 L
189 212.653 L
178 217.254 L
170.047 220.583 L
167 221.713 L
156 225.666 L
145 228.453 L
134 229.98 L
123 230.67 L
112 231.71 L
101 231.158 L
90 231.164 L
79 229.313 L
68 228.587 L
57 225.635 L
55.035 220.583 L
51.978 207.878 L
51.474 200.876 L
51.474 203.37 L
51.474 207.878 L
51.474 208.203 L
51.474 208.31 L
54.132 220.583 L
57 227.958 L
68 230.527 L
79 230.888 L
90 232.861 L
101 232.773 L
cp
55.792 106.238 M
57 109.358 L
66.432 106.238 L
68 105.722 L
79 103.198 L
90 95.931 L
101 94.062 L
107.636 93.533 L
112 92.945 L
113.238 93.533 L
123 96.861 L
134 101.772 L
142.613 106.238 L
145 107.227 L
156 109.663 L
167 113.268 L
178 115.086 L
189 116.574 L
200 118.291 L
211 117.813 L
222 117.848 L
233 118.305 L
244 116.688 L
255 115.349 L
266 112.927 L
268.662 106.238 L
271.526 94.594 L
271.526 93.533 L
271.526 87.694 L
271.208 93.533 L
267.735 106.238 L
266 110.598 L
255 113.33 L
244 114.755 L
233 116.495 L
222 116.28 L
211 116.245 L
200 116.55 L
189 114.752 L
178 113.106 L
167 111.171 L
156 107.027 L
152.526 106.238 L
145 104.196 L
134 98.247 L
125.211 93.533 L
123 89.985 L
112 85.96 L
101 84.587 L
90 90.014 L
87.926 93.533 L
79 99.898 L
68 102.932 L
57.934 106.238 L
57 106.546 L
56.88 106.238 L
52.962 93.533 L
51.974 80.827 L
52.865 68.122 L
55.868 55.417 L
57 52.83 L
62.028 55.417 L
68 58.836 L
79 63.342 L
89.598 68.122 L
90 68.718 L
101 76.891 L
112 74.721 L
120.416 68.122 L
123 67.327 L
134 62.949 L
145 56.786 L
148.447 55.417 L
156 53.504 L
167 49.817 L
178 47.844 L
189 46.365 L
200 44.904 L
211 43.758 L
222 44.678 L
233 45.368 L
244 46.271 L
255 47.902 L
266 50.809 L
267.796 55.417 L
271.129 68.122 L
271.526 74.667 L
271.526 72.062 L
271.526 68.122 L
271.526 67.508 L
271.526 67.319 L
268.716 55.417 L
266 48.447 L
255 46.035 L
244 44.549 L
233 43.854 L
222 43.161 L
217.366 42.712 L
211 41.801 L
204.315 42.712 L
200 43.168 L
189 44.395 L
178 45.953 L
167 47.784 L
156 51.213 L
145 53.95 L
141.684 55.417 L
134 59.855 L
123 64.065 L
112 67.325 L
101 67.296 L
90 64.546 L
79 60.188 L
68 56.328 L
66.409 55.417 L
57 50.575 L
54.881 55.417 L
52.178 68.122 L
51.474 79.292 L
51.474 80.827 L
51.474 81.604 L
51.474 82.212 L
52.265 93.533 L
cp
f
GR
GS
0.251 GC
N
55.035 220.583 M
57 225.635 L
68 228.587 L
79 229.313 L
90 231.164 L
101 231.158 L
112 231.71 L
123 230.67 L
134 229.98 L
145 228.453 L
156 225.666 L
167 221.713 L
170.047 220.583 L
178 217.254 L
189 212.653 L
199.154 207.878 L
200 206.834 L
211 201.388 L
222 204.222 L
228.165 207.878 L
233 209.04 L
244 212.789 L
255 218.409 L
258.678 220.583 L
266 223.256 L
267.123 220.583 L
270.321 207.878 L
270.892 195.173 L
270.068 182.467 L
266.285 169.762 L
266 168.969 L
263.239 169.762 L
255 172.281 L
244 178.373 L
233 181.921 L
229.192 182.467 L
222 184.966 L
211 189.948 L
200.839 182.467 L
200 182.088 L
189 179.02 L
178 172.562 L
167 170.566 L
165.434 169.762 L
156 164.665 L
145 162.094 L
134 161.048 L
123 159.446 L
112 159.567 L
101 158.696 L
90 159.914 L
79 161.354 L
68 162.326 L
57 165.276 L
55.144 169.762 L
51.985 182.467 L
51.474 189.514 L
51.474 195.173 L
51.474 198.622 L
51.474 200.876 L
51.978 207.878 L
cp
57 223.311 M
55.939 220.583 L
52.576 207.878 L
51.569 195.173 L
52.584 182.467 L
56.059 169.762 L
57 167.487 L
68 164.113 L
79 163.307 L
90 161.543 L
101 160.325 L
112 161.269 L
123 161.443 L
134 162.672 L
145 164.326 L
156 166.762 L
161.553 169.762 L
167 172.556 L
178 175.409 L
188.722 182.467 L
189 182.795 L
200 190.548 L
208.337 195.173 L
200 199.141 L
192.915 207.878 L
189 209.719 L
178 214.151 L
167 219.387 L
163.945 220.583 L
156 223.657 L
145 226.546 L
134 228.218 L
123 229.158 L
112 230.07 L
101 229.543 L
90 229.467 L
79 227.739 L
68 226.648 L
cp
266 220.904 M
265.121 220.583 L
255 214.601 L
244 209.573 L
238.956 207.878 L
233 196.449 L
222 196.632 L
216.077 195.173 L
222 193.527 L
233 194.207 L
240.789 182.467 L
244 181.409 L
255 175.452 L
266 171.427 L
269.375 182.467 L
270.282 195.173 L
269.653 207.878 L
266.135 220.583 L
cp
56.88 106.238 M
57 106.546 L
57.934 106.238 L
68 102.932 L
79 99.898 L
87.926 93.533 L
90 90.014 L
101 84.587 L
112 85.96 L
123 89.985 L
125.211 93.533 L
134 98.247 L
145 104.196 L
152.526 106.238 L
156 107.027 L
167 111.171 L
178 113.106 L
189 114.752 L
200 116.55 L
211 116.245 L
222 116.28 L
233 116.495 L
244 114.755 L
255 113.33 L
266 110.598 L
267.735 106.238 L
271.208 93.533 L
271.526 87.694 L
271.526 80.827 L
271.526 77.329 L
271.526 74.667 L
271.129 68.122 L
267.796 55.417 L
266 50.809 L
255 47.902 L
244 46.271 L
233 45.368 L
222 44.678 L
211 43.758 L
200 44.904 L
189 46.365 L
178 47.844 L
167 49.817 L
156 53.504 L
148.447 55.417 L
145 56.786 L
134 62.949 L
123 67.327 L
120.416 68.122 L
112 74.721 L
101 76.891 L
90 68.718 L
89.598 68.122 L
79 63.342 L
68 58.836 L
62.028 55.417 L
57 52.83 L
55.868 55.417 L
52.865 68.122 L
51.974 80.827 L
52.962 93.533 L
cp
167 109.074 M
159.753 106.238 L
156 104.566 L
145 101.051 L
134 94.722 L
131.783 93.533 L
123.651 80.827 L
128.824 68.122 L
134 66.043 L
145 60.378 L
156 55.781 L
156.945 55.417 L
167 51.85 L
178 49.735 L
189 48.335 L
200 46.64 L
211 45.52 L
222 46.194 L
233 46.882 L
244 47.994 L
255 49.768 L
266 53.171 L
266.875 55.417 L
270.542 68.122 L
271.39 80.827 L
270.629 93.533 L
266.809 106.238 L
266 108.27 L
255 111.311 L
244 112.821 L
233 114.685 L
222 114.712 L
211 114.677 L
200 114.809 L
189 112.93 L
178 111.126 L
cp
57 104.25 M
53.658 93.533 L
52.572 80.827 L
53.551 68.122 L
56.854 55.417 L
57 55.085 L
57.647 55.417 L
68 61.344 L
79 66.495 L
82.607 68.122 L
90 79.068 L
92.327 80.827 L
90 82.162 L
83.298 93.533 L
79 96.598 L
68 100.141 L
cp
f
GR
GS
0.282 GC
N
55.939 220.583 M
57 223.311 L
68 226.648 L
79 227.739 L
90 229.467 L
101 229.543 L
112 230.07 L
123 229.158 L
134 228.218 L
145 226.546 L
156 223.657 L
163.945 220.583 L
167 219.387 L
178 214.151 L
189 209.719 L
192.915 207.878 L
200 199.141 L
208.337 195.173 L
200 190.548 L
189 182.795 L
188.722 182.467 L
178 175.409 L
167 172.556 L
161.553 169.762 L
156 166.762 L
145 164.326 L
134 162.672 L
123 161.443 L
112 161.269 L
101 160.325 L
90 161.543 L
79 163.307 L
68 164.113 L
57 167.487 L
56.059 169.762 L
52.584 182.467 L
51.569 195.173 L
52.576 207.878 L
cp
57 220.987 M
56.843 220.583 L
53.174 207.878 L
52.076 195.173 L
53.182 182.467 L
56.973 169.762 L
57 169.698 L
68 165.901 L
79 165.26 L
90 163.172 L
101 161.954 L
112 162.971 L
123 163.441 L
134 164.296 L
145 166.558 L
156 168.859 L
157.672 169.762 L
167 174.547 L
178 178.255 L
184.398 182.467 L
189 187.878 L
197.225 195.173 L
189 205.259 L
186.062 207.878 L
178 211.049 L
167 217.358 L
158.757 220.583 L
156 221.649 L
145 224.639 L
134 226.455 L
123 227.646 L
112 228.429 L
101 227.928 L
90 227.77 L
79 226.164 L
68 224.708 L
cp
265.121 220.583 M
266 220.904 L
266.135 220.583 L
269.653 207.878 L
270.282 195.173 L
269.375 182.467 L
266 171.427 L
255 175.452 L
244 181.409 L
240.789 182.467 L
233 194.207 L
222 193.527 L
216.077 195.173 L
222 196.632 L
233 196.449 L
238.956 207.878 L
244 209.573 L
255 214.601 L
cp
255 210.793 M
248.2 207.878 L
244 205.313 L
236.654 195.173 L
244 185.75 L
247.846 182.467 L
255 178.624 L
266 173.695 L
268.681 182.467 L
269.671 195.173 L
268.986 207.878 L
266 218.526 L
cp
159.753 106.238 M
167 109.074 L
178 111.126 L
189 112.93 L
200 114.809 L
211 114.677 L
222 114.712 L
233 114.685 L
244 112.821 L
255 111.311 L
266 108.27 L
266.809 106.238 L
270.629 93.533 L
271.39 80.827 L
270.542 68.122 L
266.875 55.417 L
266 53.171 L
255 49.768 L
244 47.994 L
233 46.882 L
222 46.194 L
211 45.52 L
200 46.64 L
189 48.335 L
178 49.735 L
167 51.85 L
156.945 55.417 L
156 55.781 L
145 60.378 L
134 66.043 L
128.824 68.122 L
123.651 80.827 L
131.783 93.533 L
134 94.722 L
145 101.051 L
156 104.566 L
cp
167 106.977 M
165.11 106.238 L
156 102.179 L
145 97.906 L
137.55 93.533 L
134 88.727 L
128.604 80.827 L
134 71.062 L
136.43 68.122 L
145 63.97 L
156 57.988 L
162.676 55.417 L
167 53.883 L
178 51.627 L
189 50.304 L
200 48.375 L
211 47.283 L
222 47.71 L
233 48.396 L
244 49.716 L
255 51.635 L
265.741 55.417 L
266 55.509 L
269.955 68.122 L
270.88 80.827 L
270.05 93.533 L
266 106.011 L
265.148 106.238 L
255 109.292 L
244 110.888 L
233 112.875 L
222 113.143 L
211 113.108 L
200 113.068 L
189 111.108 L
178 109.146 L
cp
53.658 93.533 M
57 104.25 L
68 100.141 L
79 96.598 L
83.298 93.533 L
90 82.162 L
92.327 80.827 L
90 79.068 L
82.607 68.122 L
79 66.495 L
68 61.344 L
57.647 55.417 L
57 55.085 L
56.854 55.417 L
53.551 68.122 L
52.572 80.827 L
cp
57 102.018 M
54.354 93.533 L
53.169 80.827 L
54.238 68.122 L
57 57.638 L
68 63.852 L
76.565 68.122 L
79 72.754 L
84.545 80.827 L
79 92.543 L
78.456 93.533 L
68 97.351 L
cp
f
GR
GS
0.298 GC
N
56.843 220.583 M
57 220.987 L
68 224.708 L
79 226.164 L
90 227.77 L
101 227.928 L
112 228.429 L
123 227.646 L
134 226.455 L
145 224.639 L
156 221.649 L
158.757 220.583 L
167 217.358 L
178 211.049 L
186.062 207.878 L
189 205.259 L
197.225 195.173 L
189 187.878 L
184.398 182.467 L
178 178.255 L
167 174.547 L
157.672 169.762 L
156 168.859 L
145 166.558 L
134 164.296 L
123 163.441 L
112 162.971 L
101 161.954 L
90 163.172 L
79 165.26 L
68 165.901 L
57 169.698 L
56.973 169.762 L
53.182 182.467 L
52.076 195.173 L
53.174 207.878 L
cp
68 222.769 M
61.651 220.583 L
57 218.898 L
53.771 207.878 L
52.582 195.173 L
53.781 182.467 L
57 171.705 L
62.01 169.762 L
68 167.688 L
79 167.213 L
90 164.8 L
101 163.583 L
112 164.673 L
123 165.438 L
134 165.92 L
145 168.791 L
149.767 169.762 L
156 170.92 L
167 176.537 L
178 181.102 L
180.075 182.467 L
189 192.96 L
191.494 195.173 L
189 198.231 L
178.176 207.878 L
178 207.947 L
167 215.328 L
156 219.681 L
152.769 220.583 L
145 222.732 L
134 224.693 L
123 226.134 L
112 226.789 L
101 226.313 L
90 226.073 L
79 224.589 L
cp
248.2 207.878 M
255 210.793 L
266 218.526 L
268.986 207.878 L
269.671 195.173 L
268.681 182.467 L
266 173.695 L
255 178.624 L
247.846 182.467 L
244 185.75 L
236.654 195.173 L
244 205.313 L
cp
266 216.144 M
255.696 207.878 L
255 206.994 L
244 199.891 L
240.582 195.173 L
244 190.788 L
253.749 182.467 L
255 181.795 L
266 175.963 L
267.988 182.467 L
269.06 195.173 L
268.318 207.878 L
cp
165.11 106.238 M
167 106.977 L
178 109.146 L
189 111.108 L
200 113.068 L
211 113.108 L
222 113.143 L
233 112.875 L
244 110.888 L
255 109.292 L
265.148 106.238 L
266 106.011 L
270.05 93.533 L
270.88 80.827 L
269.955 68.122 L
266 55.509 L
265.741 55.417 L
255 51.635 L
244 49.716 L
233 48.396 L
222 47.71 L
211 47.283 L
200 48.375 L
189 50.304 L
178 51.627 L
167 53.883 L
162.676 55.417 L
156 57.988 L
145 63.97 L
136.43 68.122 L
134 71.062 L
128.604 80.827 L
134 88.727 L
137.55 93.533 L
145 97.906 L
156 102.179 L
cp
178 107.166 M
173.38 106.238 L
167 104.663 L
156 99.792 L
145 94.761 L
142.908 93.533 L
134 81.475 L
133.558 80.827 L
134 80.027 L
143.842 68.122 L
145 67.561 L
156 60.194 L
167 55.902 L
169.161 55.417 L
178 53.518 L
189 52.274 L
200 50.111 L
211 49.045 L
222 49.226 L
233 49.91 L
244 51.439 L
255 53.501 L
260.441 55.417 L
266 57.382 L
269.367 68.122 L
270.37 80.827 L
269.471 93.533 L
266 104.226 L
258.442 106.238 L
255 107.274 L
244 108.955 L
233 111.065 L
222 111.575 L
211 111.54 L
200 111.327 L
189 109.287 L
cp
54.354 93.533 M
57 102.018 L
68 97.351 L
78.456 93.533 L
79 92.543 L
84.545 80.827 L
79 72.754 L
76.565 68.122 L
68 63.852 L
57 57.638 L
54.238 68.122 L
53.169 80.827 L
cp
57 99.785 M
55.05 93.533 L
53.767 80.827 L
54.924 68.122 L
57 60.244 L
68 66.359 L
71.536 68.122 L
78.485 80.827 L
70.814 93.533 L
68 94.56 L
cp
f
GR
GS
0.333 GC
N
61.651 220.583 M
68 222.769 L
79 224.589 L
90 226.073 L
101 226.313 L
112 226.789 L
123 226.134 L
134 224.693 L
145 222.732 L
152.769 220.583 L
156 219.681 L
167 215.328 L
178 207.947 L
178.176 207.878 L
189 198.231 L
191.494 195.173 L
189 192.96 L
180.075 182.467 L
178 181.102 L
167 176.537 L
156 170.92 L
149.767 169.762 L
145 168.791 L
134 165.92 L
123 165.438 L
112 164.673 L
101 163.583 L
90 164.8 L
79 167.213 L
68 167.688 L
62.01 169.762 L
57 171.705 L
53.781 182.467 L
52.582 195.173 L
53.771 207.878 L
57 218.898 L
cp
68 220.829 M
67.284 220.583 L
57 216.857 L
54.369 207.878 L
53.088 195.173 L
54.379 182.467 L
57 173.706 L
67.172 169.762 L
68 169.476 L
79 169.166 L
90 166.429 L
101 165.212 L
112 166.375 L
123 167.436 L
134 167.544 L
141.782 169.762 L
145 170.693 L
156 172.953 L
167 178.528 L
175.711 182.467 L
178 186.014 L
185.744 195.173 L
178 202.526 L
175.053 207.878 L
167 213.299 L
156 217.758 L
145.876 220.583 L
145 220.825 L
134 222.93 L
123 224.622 L
112 225.148 L
101 224.698 L
90 224.377 L
79 223.014 L
cp
255.696 207.878 M
266 216.144 L
268.318 207.878 L
269.06 195.173 L
267.988 182.467 L
266 175.963 L
255 181.795 L
253.749 182.467 L
244 190.788 L
240.582 195.173 L
244 199.891 L
255 206.994 L
cp
266 213.762 M
258.665 207.878 L
255 203.224 L
244.629 195.173 L
255 185.892 L
258.264 182.467 L
266 178.231 L
267.295 182.467 L
268.449 195.173 L
267.65 207.878 L
cp
173.38 106.238 M
178 107.166 L
189 109.287 L
200 111.327 L
211 111.54 L
222 111.575 L
233 111.065 L
244 108.955 L
255 107.274 L
258.442 106.238 L
266 104.226 L
269.471 93.533 L
270.37 80.827 L
269.367 68.122 L
266 57.382 L
260.441 55.417 L
255 53.501 L
244 51.439 L
233 49.91 L
222 49.226 L
211 49.045 L
200 50.111 L
189 52.274 L
178 53.518 L
169.161 55.417 L
167 55.902 L
156 60.194 L
145 67.561 L
143.842 68.122 L
134 80.027 L
133.558 80.827 L
134 81.475 L
142.908 93.533 L
145 94.761 L
156 99.792 L
167 104.663 L
cp
189 107.465 M
182.85 106.238 L
178 105.311 L
167 102.23 L
156 97.405 L
148.004 93.533 L
145 90.58 L
137.427 80.827 L
145 71.875 L
147.701 68.122 L
156 62.401 L
167 57.875 L
177.962 55.417 L
178 55.409 L
189 54.244 L
200 51.846 L
211 50.808 L
222 50.742 L
233 51.424 L
244 53.161 L
255 55.368 L
255.141 55.417 L
266 59.254 L
268.78 68.122 L
269.86 80.827 L
268.891 93.533 L
266 102.442 L
255 105.319 L
249.003 106.238 L
244 107.022 L
233 109.255 L
222 110.007 L
211 109.972 L
200 109.586 L
cp
55.05 93.533 M
57 99.785 L
68 94.56 L
70.814 93.533 L
78.485 80.827 L
71.536 68.122 L
68 66.359 L
57 60.244 L
54.924 68.122 L
53.767 80.827 L
cp
57 97.553 M
55.746 93.533 L
54.364 80.827 L
55.611 68.122 L
57 62.849 L
66.592 68.122 L
68 69.646 L
75.188 80.827 L
68 90.678 L
65.143 93.533 L
cp
f
GR
GS
0.349 GC
N
67.284 220.583 M
68 220.829 L
79 223.014 L
90 224.377 L
101 224.698 L
112 225.148 L
123 224.622 L
134 222.93 L
145 220.825 L
145.876 220.583 L
156 217.758 L
167 213.299 L
175.053 207.878 L
178 202.526 L
185.744 195.173 L
178 186.014 L
175.711 182.467 L
167 178.528 L
156 172.953 L
145 170.693 L
141.782 169.762 L
134 167.544 L
123 167.436 L
112 166.375 L
101 165.212 L
90 166.429 L
79 169.166 L
68 169.476 L
67.172 169.762 L
57 173.706 L
54.379 182.467 L
53.088 195.173 L
54.369 207.878 L
57 216.857 L
cp
79 221.439 M
74.776 220.583 L
68 218.953 L
57 214.817 L
54.967 207.878 L
53.595 195.173 L
54.978 182.467 L
57 175.707 L
68 171.329 L
79 170.791 L
83.388 169.762 L
90 168.058 L
101 166.84 L
112 168.077 L
123 169.433 L
134 169.169 L
136.084 169.762 L
145 172.341 L
156 174.986 L
167 180.518 L
171.31 182.467 L
178 192.832 L
179.979 195.173 L
178 197.052 L
172.038 207.878 L
167 211.269 L
156 215.835 L
145 218.995 L
137.032 220.583 L
134 221.168 L
123 223.109 L
112 223.507 L
101 223.083 L
90 222.68 L
cp
258.665 207.878 M
266 213.762 L
267.65 207.878 L
268.449 195.173 L
267.295 182.467 L
266 178.231 L
258.264 182.467 L
255 185.892 L
244.629 195.173 L
255 203.224 L
cp
266 211.38 M
261.634 207.878 L
255 199.454 L
249.485 195.173 L
255 190.237 L
262.406 182.467 L
266 180.499 L
266.602 182.467 L
267.839 195.173 L
266.982 207.878 L
cp
182.85 106.238 M
189 107.465 L
200 109.586 L
211 109.972 L
222 110.007 L
233 109.255 L
244 107.022 L
249.003 106.238 L
255 105.319 L
266 102.442 L
268.891 93.533 L
269.86 80.827 L
268.78 68.122 L
266 59.254 L
255.141 55.417 L
255 55.368 L
244 53.161 L
233 51.424 L
222 50.742 L
211 50.808 L
200 51.846 L
189 54.244 L
178 55.409 L
177.962 55.417 L
167 57.875 L
156 62.401 L
147.701 68.122 L
145 71.875 L
137.427 80.827 L
145 90.58 L
148.004 93.533 L
156 97.405 L
167 102.23 L
178 105.311 L
cp
200 107.845 M
191.871 106.238 L
189 105.654 L
178 103.567 L
167 99.797 L
156 95.018 L
152.933 93.533 L
145 85.735 L
141.189 80.827 L
145 76.323 L
150.901 68.122 L
156 64.607 L
167 59.848 L
178 57.056 L
189 56.061 L
192.042 55.417 L
200 53.582 L
211 52.57 L
222 52.258 L
233 52.938 L
244 54.884 L
246.656 55.417 L
255 57.117 L
266 61.127 L
268.193 68.122 L
269.35 80.827 L
268.312 93.533 L
266 100.657 L
255 103.43 L
244 105.366 L
238.818 106.238 L
233 107.445 L
222 108.438 L
211 108.403 L
cp
55.746 93.533 M
57 97.553 L
65.143 93.533 L
68 90.678 L
75.188 80.827 L
68 69.646 L
66.592 68.122 L
57 62.849 L
55.611 68.122 L
54.364 80.827 L
cp
57 95.32 M
56.442 93.533 L
54.962 80.827 L
56.297 68.122 L
57 65.454 L
61.853 68.122 L
68 74.774 L
71.891 80.827 L
68 86.16 L
60.621 93.533 L
cp
f
GR
GS
0.38 GC
N
74.776 220.583 M
79 221.439 L
90 222.68 L
101 223.083 L
112 223.507 L
123 223.109 L
134 221.168 L
137.032 220.583 L
145 218.995 L
156 215.835 L
167 211.269 L
172.038 207.878 L
178 197.052 L
179.979 195.173 L
178 192.832 L
171.31 182.467 L
167 180.518 L
156 174.986 L
145 172.341 L
136.084 169.762 L
134 169.169 L
123 169.433 L
112 168.077 L
101 166.84 L
90 168.058 L
83.388 169.762 L
79 170.791 L
68 171.329 L
57 175.707 L
54.978 182.467 L
53.595 195.173 L
54.967 207.878 L
57 214.817 L
68 218.953 L
cp
90 220.983 M
86.247 220.583 L
79 219.77 L
68 217.087 L
57 212.776 L
55.565 207.878 L
54.101 195.173 L
55.576 182.467 L
57 177.708 L
68 173.196 L
79 172.271 L
89.707 169.762 L
90 169.687 L
101 168.469 L
111.871 169.762 L
112 169.777 L
123 170.883 L
134 170.839 L
145 173.989 L
156 177.019 L
166.916 182.467 L
167 182.562 L
175.885 195.173 L
169.024 207.878 L
167 209.24 L
156 213.911 L
145 217.176 L
134 219.535 L
128.514 220.583 L
123 221.597 L
112 221.867 L
101 221.468 L
cp
261.634 207.878 M
266 211.38 L
266.982 207.878 L
267.839 195.173 L
266.602 182.467 L
266 180.499 L
262.406 182.467 L
255 190.237 L
249.485 195.173 L
255 199.454 L
cp
266 208.998 M
264.603 207.878 L
255 195.684 L
254.341 195.173 L
255 194.583 L
266 183.251 L
267.228 195.173 L
266.314 207.878 L
cp
191.871 106.238 M
200 107.845 L
211 108.403 L
222 108.438 L
233 107.445 L
238.818 106.238 L
244 105.366 L
255 103.43 L
266 100.657 L
268.312 93.533 L
269.35 80.827 L
268.193 68.122 L
266 61.127 L
255 57.117 L
246.656 55.417 L
244 54.884 L
233 52.938 L
222 52.258 L
211 52.57 L
200 53.582 L
192.042 55.417 L
189 56.061 L
178 57.056 L
167 59.848 L
156 64.607 L
150.901 68.122 L
145 76.323 L
141.189 80.827 L
145 85.735 L
152.933 93.533 L
156 95.018 L
167 99.797 L
178 103.567 L
189 105.654 L
cp
211 106.835 M
201.837 106.238 L
200 106.113 L
189 103.867 L
178 101.824 L
167 97.364 L
158.127 93.533 L
156 91.756 L
145 80.89 L
144.952 80.827 L
145 80.77 L
154.102 68.122 L
156 66.814 L
167 61.822 L
178 58.701 L
189 57.654 L
199.567 55.417 L
200 55.318 L
211 54.333 L
222 53.774 L
233 54.452 L
238.283 55.417 L
244 56.553 L
255 58.864 L
266 63 L
267.606 68.122 L
268.84 80.827 L
267.733 93.533 L
266 98.872 L
255 101.542 L
244 103.899 L
233 105.711 L
228.026 106.238 L
222 106.87 L
cp
56.442 93.533 M
57 95.32 L
60.621 93.533 L
68 86.16 L
71.891 80.827 L
68 74.774 L
61.853 68.122 L
57 65.454 L
56.297 68.122 L
54.962 80.827 L
cp
57 92.564 M
55.559 80.827 L
56.984 68.122 L
57 68.06 L
57.114 68.122 L
68 79.903 L
68.594 80.827 L
68 81.642 L
cp
f
GR
GS
0.412 GC
N
86.247 220.583 M
90 220.983 L
101 221.468 L
112 221.867 L
123 221.597 L
128.514 220.583 L
134 219.535 L
145 217.176 L
156 213.911 L
167 209.24 L
169.024 207.878 L
175.885 195.173 L
167 182.562 L
166.916 182.467 L
156 177.019 L
145 173.989 L
134 170.839 L
123 170.883 L
112 169.777 L
111.871 169.762 L
101 168.469 L
90 169.687 L
89.707 169.762 L
79 172.271 L
68 173.196 L
57 177.708 L
55.576 182.467 L
54.101 195.173 L
55.565 207.878 L
57 212.776 L
68 217.087 L
79 219.77 L
cp
57 210.736 M
56.163 207.878 L
54.607 195.173 L
56.175 182.467 L
57 179.709 L
68 175.062 L
79 173.752 L
90 171.268 L
101 170.103 L
112 171.275 L
123 172.224 L
134 172.536 L
145 175.636 L
156 179.052 L
162.843 182.467 L
167 187.134 L
172.663 195.173 L
167 205.876 L
165.534 207.878 L
156 211.988 L
145 215.357 L
134 217.967 L
123 220.053 L
112 220.246 L
101 219.967 L
90 219.45 L
79 217.989 L
68 215.22 L
cp
264.603 207.878 M
266 208.998 L
266.314 207.878 L
267.228 195.173 L
266 183.251 L
255 194.583 L
254.341 195.173 L
255 195.684 L
cp
266 203.508 M
260.072 195.173 L
266 189.181 L
266.617 195.173 L
cp
201.837 106.238 M
211 106.835 L
222 106.87 L
228.026 106.238 L
233 105.711 L
244 103.899 L
255 101.542 L
266 98.872 L
267.733 93.533 L
268.84 80.827 L
267.606 68.122 L
266 63 L
255 58.864 L
244 56.553 L
238.283 55.417 L
233 54.452 L
222 53.774 L
211 54.333 L
200 55.318 L
199.567 55.417 L
189 57.654 L
178 58.701 L
167 61.822 L
156 66.814 L
154.102 68.122 L
145 80.77 L
144.952 80.827 L
145 80.89 L
156 91.756 L
158.127 93.533 L
167 97.364 L
178 101.824 L
189 103.867 L
200 106.113 L
cp
167 94.932 M
163.76 93.533 L
156 87.051 L
149.701 80.827 L
156 71.111 L
157.721 68.122 L
167 63.795 L
178 60.346 L
189 59.246 L
200 57.005 L
211 56.028 L
220.026 55.417 L
222 55.29 L
224.073 55.417 L
233 55.978 L
244 58.198 L
255 60.61 L
266 64.872 L
267.019 68.122 L
268.331 80.827 L
267.154 93.533 L
266 97.088 L
255 99.654 L
244 102.432 L
233 104.13 L
222 105.322 L
211 105.266 L
200 104.487 L
189 102.08 L
178 100.08 L
cp
55.559 80.827 M
57 92.564 L
68 81.642 L
68.594 80.827 L
68 79.903 L
57.114 68.122 L
57 68.06 L
56.984 68.122 L
cp
57 87.698 M
56.156 80.827 L
57 73.315 L
63.96 80.827 L
cp
f
GR
GS
0.427 GC
N
56.163 207.878 M
57 210.736 L
68 215.22 L
79 217.989 L
90 219.45 L
101 219.967 L
112 220.246 L
123 220.053 L
134 217.967 L
145 215.357 L
156 211.988 L
165.534 207.878 L
167 205.876 L
172.663 195.173 L
167 187.134 L
162.843 182.467 L
156 179.052 L
145 175.636 L
134 172.536 L
123 172.224 L
112 171.275 L
101 170.103 L
90 171.268 L
79 173.752 L
68 175.062 L
57 179.709 L
56.175 182.467 L
54.607 195.173 L
cp
57 208.695 M
56.76 207.878 L
55.113 195.173 L
56.773 182.467 L
57 181.71 L
68 176.929 L
79 175.232 L
90 172.848 L
101 171.758 L
112 172.773 L
123 173.565 L
134 174.232 L
145 177.284 L
156 181.085 L
158.769 182.467 L
167 191.707 L
169.442 195.173 L
167 199.787 L
161.073 207.878 L
156 210.065 L
145 213.538 L
134 216.399 L
123 218.443 L
112 218.697 L
101 218.603 L
90 217.967 L
79 216.207 L
68 213.354 L
cp
260.072 195.173 M
266 203.508 L
266.617 195.173 L
266 189.181 L
cp
266 195.257 M
265.94 195.173 L
266 195.111 L
266.006 195.173 L
cp
163.76 93.533 M
167 94.932 L
178 100.08 L
189 102.08 L
200 104.487 L
211 105.266 L
222 105.322 L
233 104.13 L
244 102.432 L
255 99.654 L
266 97.088 L
267.154 93.533 L
268.331 80.827 L
267.019 68.122 L
266 64.872 L
255 60.61 L
244 58.198 L
233 55.978 L
224.073 55.417 L
222 55.29 L
220.026 55.417 L
211 56.028 L
200 57.005 L
189 59.246 L
178 60.346 L
167 63.795 L
157.721 68.122 L
156 71.111 L
149.701 80.827 L
156 87.051 L
cp
178 98.337 M
168.47 93.533 L
167 92.32 L
156 82.346 L
154.463 80.827 L
156 78.457 L
161.952 68.122 L
167 65.768 L
178 61.992 L
189 60.838 L
200 58.689 L
211 57.616 L
222 56.836 L
233 57.525 L
244 59.844 L
255 62.356 L
266 66.745 L
266.432 68.122 L
267.821 80.827 L
266.575 93.533 L
266 95.303 L
255 97.766 L
244 100.964 L
233 102.548 L
222 103.788 L
211 103.695 L
200 102.86 L
189 100.292 L
cp
56.156 80.827 M
57 87.698 L
63.96 80.827 L
57 73.315 L
cp
57 82.832 M
56.754 80.827 L
57 78.635 L
59.031 80.827 L
cp
f
GR
GS
0.459 GC
N
56.76 207.878 M
57 208.695 L
68 213.354 L
79 216.207 L
90 217.967 L
101 218.603 L
112 218.697 L
123 218.443 L
134 216.399 L
145 213.538 L
156 210.065 L
161.073 207.878 L
167 199.787 L
169.442 195.173 L
167 191.707 L
158.769 182.467 L
156 181.085 L
145 177.284 L
134 174.232 L
123 173.565 L
112 172.773 L
101 171.758 L
90 172.848 L
79 175.232 L
68 176.929 L
57 181.71 L
56.773 182.467 L
55.113 195.173 L
cp
68 211.487 M
59.602 207.878 L
57 205.588 L
55.62 195.173 L
57 184.826 L
59.641 182.467 L
68 178.795 L
79 176.713 L
90 174.427 L
101 173.413 L
112 174.271 L
123 174.906 L
134 175.929 L
145 178.932 L
154.572 182.467 L
156 183.949 L
166.002 195.173 L
156.613 207.878 L
156 208.142 L
145 211.72 L
134 214.83 L
123 216.832 L
112 217.148 L
101 217.24 L
90 216.485 L
79 214.425 L
cp
265.94 195.173 M
266 195.257 L
266.006 195.173 L
266 195.111 L
cp
168.47 93.533 M
178 98.337 L
189 100.292 L
200 102.86 L
211 103.695 L
222 103.788 L
233 102.548 L
244 100.964 L
255 97.766 L
266 95.303 L
266.575 93.533 L
267.821 80.827 L
266.432 68.122 L
266 66.745 L
255 62.356 L
244 59.844 L
233 57.525 L
222 56.836 L
211 57.616 L
200 58.689 L
189 60.838 L
178 61.992 L
167 65.768 L
161.952 68.122 L
156 78.457 L
154.463 80.827 L
156 82.346 L
167 92.32 L
cp
178 96.593 M
171.928 93.533 L
167 89.467 L
158.011 80.827 L
166.183 68.122 L
167 67.741 L
178 63.637 L
189 62.431 L
200 60.373 L
211 59.204 L
222 58.385 L
233 59.072 L
244 61.489 L
255 64.102 L
264.867 68.122 L
266 69.308 L
267.311 80.827 L
266 93.494 L
265.932 93.533 L
255 95.878 L
244 99.497 L
233 100.967 L
222 102.253 L
211 102.125 L
200 101.234 L
189 98.505 L
cp
56.754 80.827 M
57 82.832 L
59.031 80.827 L
57 78.635 L
cp
f
GR
GS
0.49 GC
N
59.602 207.878 M
68 211.487 L
79 214.425 L
90 216.485 L
101 217.24 L
112 217.148 L
123 216.832 L
134 214.83 L
145 211.72 L
156 208.142 L
156.613 207.878 L
166.002 195.173 L
156 183.949 L
154.572 182.467 L
145 178.932 L
134 175.929 L
123 174.906 L
112 174.271 L
101 173.413 L
90 174.427 L
79 176.713 L
68 178.795 L
59.641 182.467 L
57 184.826 L
55.62 195.173 L
57 205.588 L
cp
68 209.621 M
63.944 207.878 L
57 201.768 L
56.126 195.173 L
57 188.621 L
63.89 182.467 L
68 180.662 L
79 178.194 L
90 176.006 L
101 175.068 L
112 175.769 L
123 176.247 L
134 177.626 L
145 180.579 L
150.111 182.467 L
156 188.578 L
161.877 195.173 L
156 203.086 L
151.196 207.878 L
145 209.901 L
134 213.262 L
123 215.222 L
112 215.599 L
101 215.876 L
90 215.002 L
79 212.643 L
cp
171.928 93.533 M
178 96.593 L
189 98.505 L
200 101.234 L
211 102.125 L
222 102.253 L
233 100.967 L
244 99.497 L
255 95.878 L
265.932 93.533 L
266 93.494 L
267.311 80.827 L
266 69.308 L
264.867 68.122 L
255 64.102 L
244 61.489 L
233 59.072 L
222 58.385 L
211 59.204 L
200 60.373 L
189 62.431 L
178 63.637 L
167 67.741 L
166.183 68.122 L
158.011 80.827 L
167 89.467 L
cp
178 94.85 M
175.387 93.533 L
167 86.613 L
160.98 80.827 L
167 71.739 L
170.504 68.122 L
178 65.282 L
189 64.023 L
200 62.058 L
211 60.792 L
222 59.934 L
233 60.619 L
244 63.134 L
255 65.849 L
260.581 68.122 L
266 73.79 L
266.801 80.827 L
266 88.566 L
257.13 93.533 L
255 93.99 L
244 98.03 L
233 99.385 L
222 100.719 L
211 100.554 L
200 99.607 L
189 96.718 L
cp
f
GR
GS
0.506 GC
N
63.944 207.878 M
68 209.621 L
79 212.643 L
90 215.002 L
101 215.876 L
112 215.599 L
123 215.222 L
134 213.262 L
145 209.901 L
151.196 207.878 L
156 203.086 L
161.877 195.173 L
156 188.578 L
150.111 182.467 L
145 180.579 L
134 177.626 L
123 176.247 L
112 175.769 L
101 175.068 L
90 176.006 L
79 178.194 L
68 180.662 L
63.89 182.467 L
57 188.621 L
56.126 195.173 L
57 201.768 L
cp
79 210.861 M
68.418 207.878 L
68 207.652 L
57 197.947 L
56.632 195.173 L
57 192.416 L
68 182.58 L
68.187 182.467 L
79 179.674 L
90 177.585 L
101 176.723 L
112 177.267 L
123 177.588 L
134 179.323 L
145 182.227 L
145.651 182.467 L
156 193.206 L
157.753 195.173 L
156 197.532 L
145.626 207.878 L
145 208.082 L
134 211.694 L
123 213.611 L
112 214.05 L
101 214.513 L
90 213.52 L
cp
175.387 93.533 M
178 94.85 L
189 96.718 L
200 99.607 L
211 100.554 L
222 100.719 L
233 99.385 L
244 98.03 L
255 93.99 L
257.13 93.533 L
266 88.566 L
266.801 80.827 L
266 73.79 L
260.581 68.122 L
255 65.849 L
244 63.134 L
233 60.619 L
222 59.934 L
211 60.792 L
200 62.058 L
189 64.023 L
178 65.282 L
170.504 68.122 L
167 71.739 L
160.98 80.827 L
167 86.613 L
cp
189 94.93 M
180.621 93.533 L
178 92.774 L
167 83.759 L
163.949 80.827 L
167 76.222 L
174.846 68.122 L
178 66.928 L
189 65.616 L
200 63.742 L
211 62.38 L
222 61.483 L
233 62.166 L
244 64.78 L
255 67.595 L
256.295 68.122 L
266 78.273 L
266.291 80.827 L
266 83.637 L
255 91.181 L
252.047 93.533 L
244 96.563 L
233 97.804 L
222 99.184 L
211 98.984 L
200 97.981 L
cp
f
GR
GS
0.537 GC
N
68.418 207.878 M
79 210.861 L
90 213.52 L
101 214.513 L
112 214.05 L
123 213.611 L
134 211.694 L
145 208.082 L
145.626 207.878 L
156 197.532 L
157.753 195.173 L
156 193.206 L
145.651 182.467 L
145 182.227 L
134 179.323 L
123 177.588 L
112 177.267 L
101 176.723 L
90 177.585 L
79 179.674 L
68.187 182.467 L
68 182.58 L
57 192.416 L
56.632 195.173 L
57 197.947 L
68 207.652 L
cp
79 209.08 M
74.737 207.878 L
68 204.243 L
58.026 195.173 L
68 186.019 L
73.918 182.467 L
79 181.155 L
90 179.164 L
101 178.378 L
112 178.765 L
123 178.929 L
134 181.02 L
139.497 182.467 L
145 185.319 L
154.206 195.173 L
145 204.94 L
140.794 207.878 L
134 210.126 L
123 212.001 L
112 212.501 L
101 213.149 L
90 212.037 L
cp
180.621 93.533 M
189 94.93 L
200 97.981 L
211 98.984 L
222 99.184 L
233 97.804 L
244 96.563 L
252.047 93.533 L
255 91.181 L
266 83.637 L
266.291 80.827 L
266 78.273 L
256.295 68.122 L
255 67.595 L
244 64.78 L
233 62.166 L
222 61.483 L
211 62.38 L
200 63.742 L
189 65.616 L
178 66.928 L
174.846 68.122 L
167 76.222 L
163.949 80.827 L
167 83.759 L
178 92.774 L
cp
200 96.354 M
190.228 93.533 L
189 93.024 L
178 89.671 L
167 80.906 L
166.918 80.827 L
167 80.704 L
178 69.236 L
181.552 68.122 L
189 67.208 L
200 65.426 L
211 63.968 L
222 63.033 L
233 63.713 L
244 66.425 L
250.562 68.122 L
255 71.044 L
264.291 80.827 L
255 88.079 L
248.151 93.533 L
244 95.095 L
233 96.223 L
222 97.65 L
211 97.413 L
cp
f
GR
GS
0.569 GC
N
74.737 207.878 M
79 209.08 L
90 212.037 L
101 213.149 L
112 212.501 L
123 212.001 L
134 210.126 L
140.794 207.878 L
145 204.94 L
154.206 195.173 L
145 185.319 L
139.497 182.467 L
134 181.02 L
123 178.929 L
112 178.765 L
101 178.378 L
90 179.164 L
79 181.155 L
73.918 182.467 L
68 186.019 L
58.026 195.173 L
68 204.243 L
cp
90 210.555 M
80.679 207.878 L
79 206.868 L
68 200.834 L
61.774 195.173 L
68 189.459 L
79 182.838 L
80.034 182.467 L
90 180.743 L
101 180.033 L
112 180.263 L
123 180.27 L
133.096 182.467 L
134 182.894 L
145 188.658 L
151.086 195.173 L
145 201.63 L
136.054 207.878 L
134 208.557 L
123 210.391 L
112 210.952 L
101 211.786 L
cp
190.228 93.533 M
200 96.354 L
211 97.413 L
222 97.65 L
233 96.223 L
244 95.095 L
248.151 93.533 L
255 88.079 L
264.291 80.827 L
255 71.044 L
250.562 68.122 L
244 66.425 L
233 63.713 L
222 63.033 L
211 63.968 L
200 65.426 L
189 67.208 L
181.552 68.122 L
178 69.236 L
167 80.704 L
166.918 80.827 L
167 80.906 L
178 89.671 L
189 93.024 L
cp
200 94.728 M
195.861 93.533 L
189 90.691 L
178 86.569 L
170.789 80.827 L
178 73.302 L
189 69.285 L
193.562 68.122 L
200 67.11 L
211 65.556 L
222 64.582 L
233 65.26 L
244 68.07 L
244.202 68.122 L
255 75.23 L
260.316 80.827 L
255 84.976 L
244.254 93.533 L
244 93.628 L
233 94.641 L
222 96.115 L
211 95.843 L
cp
f
GR
GS
0.584 GC
N
80.679 207.878 M
90 210.555 L
101 211.786 L
112 210.952 L
123 210.391 L
134 208.557 L
136.054 207.878 L
145 201.63 L
151.086 195.173 L
145 188.658 L
134 182.894 L
133.096 182.467 L
123 180.27 L
112 180.263 L
101 180.033 L
90 180.743 L
80.034 182.467 L
79 182.838 L
68 189.459 L
61.774 195.173 L
68 200.834 L
79 206.868 L
cp
90 209.072 M
85.84 207.878 L
79 203.766 L
68 197.426 L
65.523 195.173 L
68 192.899 L
79 186.11 L
89.162 182.467 L
90 182.322 L
101 181.688 L
112 181.762 L
123 181.611 L
126.935 182.467 L
134 185.798 L
145 191.997 L
147.967 195.173 L
145 198.32 L
134 205.98 L
128.471 207.878 L
123 208.78 L
112 209.403 L
101 210.422 L
cp
195.861 93.533 M
200 94.728 L
211 95.843 L
222 96.115 L
233 94.641 L
244 93.628 L
244.254 93.533 L
255 84.976 L
260.316 80.827 L
255 75.23 L
244.202 68.122 L
244 68.07 L
233 65.26 L
222 64.582 L
211 65.556 L
200 67.11 L
193.562 68.122 L
189 69.285 L
178 73.302 L
170.789 80.827 L
178 86.569 L
189 90.691 L
cp
211 94.273 M
203.962 93.533 L
200 92.889 L
189 88.358 L
178 83.466 L
174.686 80.827 L
178 77.369 L
189 72.015 L
200 69.067 L
204.324 68.122 L
211 67.144 L
222 66.131 L
233 66.807 L
238.144 68.122 L
244 70.754 L
255 79.415 L
256.341 80.827 L
255 81.874 L
244 90.974 L
233 92.707 L
229.654 93.533 L
222 94.581 L
cp
f
GR
GS
0.616 GC
N
85.84 207.878 M
90 209.072 L
101 210.422 L
112 209.403 L
123 208.78 L
128.471 207.878 L
134 205.98 L
145 198.32 L
147.967 195.173 L
145 191.997 L
134 185.798 L
126.935 182.467 L
123 181.611 L
112 181.762 L
101 181.688 L
90 182.322 L
89.162 182.467 L
79 186.11 L
68 192.899 L
65.523 195.173 L
68 197.426 L
79 203.766 L
cp
101 209.058 M
92.013 207.878 L
90 207.25 L
79 200.664 L
69.768 195.173 L
79 189.382 L
90 184.953 L
101 183.751 L
112 183.947 L
123 183.466 L
134 188.703 L
144.764 195.173 L
134 202.632 L
123 206.683 L
112 207.829 L
111.807 207.878 L
cp
203.962 93.533 M
211 94.273 L
222 94.581 L
229.654 93.533 L
233 92.707 L
244 90.974 L
255 81.874 L
256.341 80.827 L
255 79.415 L
244 70.754 L
238.144 68.122 L
233 66.807 L
222 66.131 L
211 67.144 L
204.324 68.122 L
200 69.067 L
189 72.015 L
178 77.369 L
174.686 80.827 L
178 83.466 L
189 88.358 L
200 92.889 L
cp
189 86.024 M
178.691 80.827 L
189 74.746 L
200 71.434 L
211 69.153 L
217.304 68.122 L
222 67.68 L
229.225 68.122 L
233 68.673 L
244 73.471 L
252.837 80.827 L
244 88.237 L
233 89.944 L
222 92.598 L
211 92.155 L
200 90.461 L
cp
f
GR
GS
0.647 GC
N
92.013 207.878 M
101 209.058 L
111.807 207.878 L
112 207.829 L
123 206.683 L
134 202.632 L
144.764 195.173 L
134 188.703 L
123 183.466 L
112 183.947 L
101 183.751 L
90 184.953 L
79 189.382 L
69.768 195.173 L
79 200.664 L
90 207.25 L
cp
79 197.561 M
74.984 195.173 L
79 192.653 L
90 187.69 L
101 186.179 L
112 186.744 L
123 186.23 L
134 191.607 L
139.931 195.173 L
134 199.283 L
123 203.966 L
112 204.675 L
101 207.434 L
90 204.015 L
cp
178.691 80.827 M
189 86.024 L
200 90.461 L
211 92.155 L
222 92.598 L
233 89.944 L
244 88.237 L
252.837 80.827 L
244 73.471 L
233 68.673 L
229.225 68.122 L
222 67.68 L
217.304 68.122 L
211 69.153 L
200 71.434 L
189 74.746 L
cp
189 83.691 M
183.319 80.827 L
189 77.476 L
200 73.801 L
211 71.838 L
222 70.572 L
233 72.357 L
244 76.188 L
249.573 80.827 L
244 85.5 L
233 87.18 L
222 89.649 L
211 89.549 L
200 88.033 L
cp
f
GR
GS
0.667 GC
N
74.984 195.173 M
79 197.561 L
90 204.015 L
101 207.434 L
112 204.675 L
123 203.966 L
134 199.283 L
139.931 195.173 L
134 191.607 L
123 186.23 L
112 186.744 L
101 186.179 L
90 187.69 L
79 192.653 L
cp
90 200.781 M
80.288 195.173 L
90 190.427 L
101 188.606 L
112 189.542 L
123 188.993 L
134 194.512 L
135.099 195.173 L
134 195.934 L
123 201.249 L
112 201.521 L
101 204.125 L
cp
183.319 80.827 M
189 83.691 L
200 88.033 L
211 89.549 L
222 89.649 L
233 87.18 L
244 85.5 L
249.573 80.827 L
244 76.188 L
233 72.357 L
222 70.572 L
211 71.838 L
200 73.801 L
189 77.476 L
cp
189 81.358 M
187.947 80.827 L
189 80.206 L
200 76.169 L
211 74.523 L
222 74.001 L
233 76.042 L
244 78.906 L
246.309 80.827 L
244 82.763 L
233 84.416 L
222 86.699 L
211 86.944 L
200 85.606 L
cp
f
GR
GS
0.698 GC
N
80.288 195.173 M
90 200.781 L
101 204.125 L
112 201.521 L
123 201.249 L
134 195.934 L
135.099 195.173 L
134 194.512 L
123 188.993 L
112 189.542 L
101 188.606 L
90 190.427 L
cp
90 197.546 M
85.889 195.173 L
90 193.164 L
101 191.034 L
112 192.339 L
123 191.757 L
129.769 195.173 L
123 198.531 L
112 198.367 L
101 200.815 L
cp
187.947 80.827 M
189 81.358 L
200 85.606 L
211 86.944 L
222 86.699 L
233 84.416 L
244 82.763 L
246.309 80.827 L
244 78.906 L
233 76.042 L
222 74.001 L
211 74.523 L
200 76.169 L
189 80.206 L
cp
200 83.178 M
193.882 80.827 L
200 78.536 L
211 77.209 L
222 77.43 L
233 79.727 L
238.556 80.827 L
233 81.653 L
222 83.749 L
211 84.339 L
cp
f
GR
GS
0.714 GC
N
85.889 195.173 M
90 197.546 L
101 200.815 L
112 198.367 L
123 198.531 L
129.769 195.173 L
123 191.757 L
112 192.339 L
101 191.034 L
90 193.164 L
cp
101 197.505 M
93.015 195.173 L
101 193.462 L
112 195.136 L
123 194.52 L
124.293 195.173 L
123 195.814 L
112 195.213 L
cp
193.882 80.827 M
200 83.178 L
211 84.339 L
222 83.749 L
233 81.653 L
238.556 80.827 L
233 79.727 L
222 77.43 L
211 77.209 L
200 78.536 L
cp
211 81.733 M
200.921 80.827 L
211 79.894 L
221.709 80.827 L
cp
f
GR
GS
0.745 GC
N
93.015 195.173 M
101 197.505 L
112 195.213 L
123 195.814 L
124.293 195.173 L
123 194.52 L
112 195.136 L
101 193.462 L
cp
200.921 80.827 M
211 81.733 L
221.709 80.827 L
211 79.894 L
cp
f
GR
%%Trailer
%%Pages: 1
%%EOF
