%!PS-Adobe-3.0 EPSF-3.0
%%Creator: (MATLAB, The Mathworks, Inc. Version 9.3.0.713579 \(R2017b\). Operating System: Mac OS X)
%%Title: ./decisionFunction.eps
%%CreationDate: 2018-08-02T13:32:17
%%Pages: (atend)
%%BoundingBox:    10     1   266   204
%%LanguageLevel: 3
%%EndComments
%%BeginProlog
%%BeginResource: procset (Apache XML Graphics Std ProcSet) 1.2 0
%%Version: 1.2 0
%%Copyright: (Copyright 2001-2003,2010 The Apache Software Foundation. License terms: http://www.apache.org/licenses/LICENSE-2.0)
/bd{bind def}bind def
/ld{load def}bd
/GR/grestore ld
/GS/gsave ld
/RM/rmoveto ld
/C/curveto ld
/t/show ld
/L/lineto ld
/ML/setmiterlimit ld
/CT/concat ld
/f/fill ld
/N/newpath ld
/S/stroke ld
/CC/setcmykcolor ld
/A/ashow ld
/cp/closepath ld
/RC/setrgbcolor ld
/LJ/setlinejoin ld
/GC/setgray ld
/LW/setlinewidth ld
/M/moveto ld
/re {4 2 roll M
1 index 0 rlineto
0 exch rlineto
neg 0 rlineto
cp } bd
/_ctm matrix def
/_tm matrix def
/BT { _ctm currentmatrix pop matrix _tm copy pop 0 0 moveto } bd
/ET { _ctm setmatrix } bd
/iTm { _ctm setmatrix _tm concat } bd
/Tm { _tm astore pop iTm 0 0 moveto } bd
/ux 0.0 def
/uy 0.0 def
/F {
  /Tp exch def
  /Tf exch def
  Tf findfont Tp scalefont setfont
  /cf Tf def  /cs Tp def
} bd
/ULS {currentpoint /uy exch def /ux exch def} bd
/ULE {
  /Tcx currentpoint pop def
  gsave
  newpath
  cf findfont cs scalefont dup
  /FontMatrix get 0 get /Ts exch def /FontInfo get dup
  /UnderlinePosition get Ts mul /To exch def
  /UnderlineThickness get Ts mul /Tt exch def
  ux uy To add moveto  Tcx uy To add lineto
  Tt setlinewidth stroke
  grestore
} bd
/OLE {
  /Tcx currentpoint pop def
  gsave
  newpath
  cf findfont cs scalefont dup
  /FontMatrix get 0 get /Ts exch def /FontInfo get dup
  /UnderlinePosition get Ts mul /To exch def
  /UnderlineThickness get Ts mul /Tt exch def
  ux uy To add cs add moveto Tcx uy To add cs add lineto
  Tt setlinewidth stroke
  grestore
} bd
/SOE {
  /Tcx currentpoint pop def
  gsave
  newpath
  cf findfont cs scalefont dup
  /FontMatrix get 0 get /Ts exch def /FontInfo get dup
  /UnderlinePosition get Ts mul /To exch def
  /UnderlineThickness get Ts mul /Tt exch def
  ux uy To add cs 10 mul 26 idiv add moveto Tcx uy To add cs 10 mul 26 idiv add lineto
  Tt setlinewidth stroke
  grestore
} bd
/QT {
/Y22 exch store
/X22 exch store
/Y21 exch store
/X21 exch store
currentpoint
/Y21 load 2 mul add 3 div exch
/X21 load 2 mul add 3 div exch
/X21 load 2 mul /X22 load add 3 div
/Y21 load 2 mul /Y22 load add 3 div
/X22 load /Y22 load curveto
} bd
/SSPD {
dup length /d exch dict def
{
/v exch def
/k exch def
currentpagedevice k known {
/cpdv currentpagedevice k get def
v cpdv ne {
/upd false def
/nullv v type /nulltype eq def
/nullcpdv cpdv type /nulltype eq def
nullv nullcpdv or
{
/upd true def
} {
/sametype v type cpdv type eq def
sametype {
v type /arraytype eq {
/vlen v length def
/cpdvlen cpdv length def
vlen cpdvlen eq {
0 1 vlen 1 sub {
/i exch def
/obj v i get def
/cpdobj cpdv i get def
obj cpdobj ne {
/upd true def
exit
} if
} for
} {
/upd true def
} ifelse
} {
v type /dicttype eq {
v {
/dv exch def
/dk exch def
/cpddv cpdv dk get def
dv cpddv ne {
/upd true def
exit
} if
} forall
} {
/upd true def
} ifelse
} ifelse
} if
} ifelse
upd true eq {
d k v put
} if
} if
} if
} forall
d length 0 gt {
d setpagedevice
} if
} bd
/RE { % /NewFontName [NewEncodingArray] /FontName RE -
  findfont dup length dict begin
  {
    1 index /FID ne
    {def} {pop pop} ifelse
  } forall
  /Encoding exch def
  /FontName 1 index def
  currentdict definefont pop
  end
} bind def
%%EndResource
%%BeginResource: procset (Apache XML Graphics EPS ProcSet) 1.0 0
%%Version: 1.0 0
%%Copyright: (Copyright 2002-2003 The Apache Software Foundation. License terms: http://www.apache.org/licenses/LICENSE-2.0)
/BeginEPSF { %def
/b4_Inc_state save def         % Save state for cleanup
/dict_count countdictstack def % Count objects on dict stack
/op_count count 1 sub def      % Count objects on operand stack
userdict begin                 % Push userdict on dict stack
/showpage { } def              % Redefine showpage, { } = null proc
0 setgray 0 setlinecap         % Prepare graphics state
1 setlinewidth 0 setlinejoin
10 setmiterlimit [ ] 0 setdash newpath
/languagelevel where           % If level not equal to 1 then
{pop languagelevel             % set strokeadjust and
1 ne                           % overprint to their defaults.
{false setstrokeadjust false setoverprint
} if
} if
} bd
/EndEPSF { %def
count op_count sub {pop} repeat            % Clean up stacks
countdictstack dict_count sub {end} repeat
b4_Inc_state restore
} bd
%%EndResource
%FOPBeginFontDict
%%IncludeResource: font Courier-Oblique
%%IncludeResource: font Courier-BoldOblique
%%IncludeResource: font Courier-Bold
%%IncludeResource: font ZapfDingbats
%%IncludeResource: font Symbol
%%IncludeResource: font Helvetica
%%IncludeResource: font Helvetica-Oblique
%%IncludeResource: font Helvetica-Bold
%%IncludeResource: font Helvetica-BoldOblique
%%IncludeResource: font Times-Roman
%%IncludeResource: font Times-Italic
%%IncludeResource: font Times-Bold
%%IncludeResource: font Times-BoldItalic
%%IncludeResource: font Courier
%FOPEndFontDict
%%BeginResource: encoding WinAnsiEncoding
/WinAnsiEncoding [
/.notdef /.notdef /.notdef /.notdef /.notdef
/.notdef /.notdef /.notdef /.notdef /.notdef
/.notdef /.notdef /.notdef /.notdef /.notdef
/.notdef /.notdef /.notdef /.notdef /.notdef
/.notdef /.notdef /.notdef /.notdef /.notdef
/.notdef /.notdef /.notdef /.notdef /.notdef
/.notdef /.notdef /space /exclam /quotedbl
/numbersign /dollar /percent /ampersand /quotesingle
/parenleft /parenright /asterisk /plus /comma
/hyphen /period /slash /zero /one
/two /three /four /five /six
/seven /eight /nine /colon /semicolon
/less /equal /greater /question /at
/A /B /C /D /E
/F /G /H /I /J
/K /L /M /N /O
/P /Q /R /S /T
/U /V /W /X /Y
/Z /bracketleft /backslash /bracketright /asciicircum
/underscore /quoteleft /a /b /c
/d /e /f /g /h
/i /j /k /l /m
/n /o /p /q /r
/s /t /u /v /w
/x /y /z /braceleft /bar
/braceright /asciitilde /bullet /Euro /bullet
/quotesinglbase /florin /quotedblbase /ellipsis /dagger
/daggerdbl /circumflex /perthousand /Scaron /guilsinglleft
/OE /bullet /Zcaron /bullet /bullet
/quoteleft /quoteright /quotedblleft /quotedblright /bullet
/endash /emdash /asciitilde /trademark /scaron
/guilsinglright /oe /bullet /zcaron /Ydieresis
/space /exclamdown /cent /sterling /currency
/yen /brokenbar /section /dieresis /copyright
/ordfeminine /guillemotleft /logicalnot /sfthyphen /registered
/macron /degree /plusminus /twosuperior /threesuperior
/acute /mu /paragraph /middot /cedilla
/onesuperior /ordmasculine /guillemotright /onequarter /onehalf
/threequarters /questiondown /Agrave /Aacute /Acircumflex
/Atilde /Adieresis /Aring /AE /Ccedilla
/Egrave /Eacute /Ecircumflex /Edieresis /Igrave
/Iacute /Icircumflex /Idieresis /Eth /Ntilde
/Ograve /Oacute /Ocircumflex /Otilde /Odieresis
/multiply /Oslash /Ugrave /Uacute /Ucircumflex
/Udieresis /Yacute /Thorn /germandbls /agrave
/aacute /acircumflex /atilde /adieresis /aring
/ae /ccedilla /egrave /eacute /ecircumflex
/edieresis /igrave /iacute /icircumflex /idieresis
/eth /ntilde /ograve /oacute /ocircumflex
/otilde /odieresis /divide /oslash /ugrave
/uacute /ucircumflex /udieresis /yacute /thorn
/ydieresis
] def
%%EndResource
%FOPBeginFontReencode
/Courier-Oblique findfont
dup length dict begin
  {1 index /FID ne {def} {pop pop} ifelse} forall
  /Encoding WinAnsiEncoding def
  currentdict
end
/Courier-Oblique exch definefont pop
/Courier-BoldOblique findfont
dup length dict begin
  {1 index /FID ne {def} {pop pop} ifelse} forall
  /Encoding WinAnsiEncoding def
  currentdict
end
/Courier-BoldOblique exch definefont pop
/Courier-Bold findfont
dup length dict begin
  {1 index /FID ne {def} {pop pop} ifelse} forall
  /Encoding WinAnsiEncoding def
  currentdict
end
/Courier-Bold exch definefont pop
/Helvetica findfont
dup length dict begin
  {1 index /FID ne {def} {pop pop} ifelse} forall
  /Encoding WinAnsiEncoding def
  currentdict
end
/Helvetica exch definefont pop
/Helvetica-Oblique findfont
dup length dict begin
  {1 index /FID ne {def} {pop pop} ifelse} forall
  /Encoding WinAnsiEncoding def
  currentdict
end
/Helvetica-Oblique exch definefont pop
/Helvetica-Bold findfont
dup length dict begin
  {1 index /FID ne {def} {pop pop} ifelse} forall
  /Encoding WinAnsiEncoding def
  currentdict
end
/Helvetica-Bold exch definefont pop
/Helvetica-BoldOblique findfont
dup length dict begin
  {1 index /FID ne {def} {pop pop} ifelse} forall
  /Encoding WinAnsiEncoding def
  currentdict
end
/Helvetica-BoldOblique exch definefont pop
/Times-Roman findfont
dup length dict begin
  {1 index /FID ne {def} {pop pop} ifelse} forall
  /Encoding WinAnsiEncoding def
  currentdict
end
/Times-Roman exch definefont pop
/Times-Italic findfont
dup length dict begin
  {1 index /FID ne {def} {pop pop} ifelse} forall
  /Encoding WinAnsiEncoding def
  currentdict
end
/Times-Italic exch definefont pop
/Times-Bold findfont
dup length dict begin
  {1 index /FID ne {def} {pop pop} ifelse} forall
  /Encoding WinAnsiEncoding def
  currentdict
end
/Times-Bold exch definefont pop
/Times-BoldItalic findfont
dup length dict begin
  {1 index /FID ne {def} {pop pop} ifelse} forall
  /Encoding WinAnsiEncoding def
  currentdict
end
/Times-BoldItalic exch definefont pop
/Courier findfont
dup length dict begin
  {1 index /FID ne {def} {pop pop} ifelse} forall
  /Encoding WinAnsiEncoding def
  currentdict
end
/Courier exch definefont pop
%FOPEndFontReencode
%%EndProlog
%%Page: 1 1
%%PageBoundingBox: 0 0 288 216
%%BeginPageSetup
[1 0 0 -1 0 216] CT
%%EndPageSetup
GS
1 GC
N
0 0 288 216 re
f
GR
GS
1 GC
N
0 0 288 216 re
f
GR
GS
1 GC
N
37 191 M
261 191 L
261 16 L
37 16 L
cp
f
GR
GS
0.149 GC
2 setlinecap
1 LJ
0.5 LW
N
37 191 M
261 191 L
S
GR
GS
0.149 GC
2 setlinecap
1 LJ
0.5 LW
N
37 16 M
261 16 L
S
GR
GS
0.149 GC
2 setlinecap
1 LJ
0.5 LW
N
37 191 M
37 188.76 L
S
GR
GS
0.149 GC
2 setlinecap
1 LJ
0.5 LW
N
149 191 M
149 188.76 L
S
GR
GS
0.149 GC
2 setlinecap
1 LJ
0.5 LW
N
261 191 M
261 188.76 L
S
GR
GS
0.149 GC
2 setlinecap
1 LJ
0.5 LW
N
37 16 M
37 18.24 L
S
GR
GS
0.149 GC
2 setlinecap
1 LJ
0.5 LW
N
149 16 M
149 18.24 L
S
GR
GS
0.149 GC
2 setlinecap
1 LJ
0.5 LW
N
261 16 M
261 18.24 L
S
GR
GS
[1 0 0 1 37 194.60001] CT
0.149 GC
N
0 6.892 M
-0.984 6.892 -1.336 6.087 QT
-1.688 5.282 -1.688 4.173 QT
-1.688 3.47 -1.563 2.861 QT
-1.438 2.251 -1.055 1.822 QT
-0.672 1.392 0 1.392 QT
0.531 1.392 0.867 1.65 QT
1.203 1.907 1.375 2.314 QT
1.547 2.72 1.617 3.189 QT
1.688 3.657 1.688 4.173 QT
1.688 4.861 1.555 5.454 QT
1.422 6.048 1.055 6.47 QT
0.688 6.892 0 6.892 QT
cp
0 6.689 M
0.453 6.689 0.672 6.228 QT
0.891 5.767 0.938 5.212 QT
0.984 4.657 0.984 4.032 QT
0.984 3.439 0.938 2.931 QT
0.891 2.423 0.672 2.009 QT
0.453 1.595 0 1.595 QT
-0.453 1.595 -0.672 2.009 QT
-0.891 2.423 -0.938 2.931 QT
-0.984 3.439 -0.984 4.032 QT
-0.984 4.486 -0.969 4.876 QT
-0.953 5.267 -0.859 5.689 QT
-0.766 6.111 -0.555 6.4 QT
-0.344 6.689 0 6.689 QT
cp
f
GR
GS
[1 0 0 1 149 194.60001] CT
0.149 GC
N
-1.611 6.579 M
-1.611 6.532 -1.58 6.454 QT
-1.361 5.986 -1.166 5.54 QT
-0.97 5.095 -0.814 4.673 QT
-0.658 4.251 -0.533 3.767 QT
-1.049 3.767 L
-1.345 3.767 -1.595 3.947 QT
-1.845 4.126 -2.017 4.407 QT
-2.033 4.439 -2.064 4.439 QT
-2.158 4.439 L
-2.236 4.439 -2.236 4.361 QT
-2.236 4.345 -2.22 4.314 QT
-1.955 3.876 -1.658 3.572 QT
-1.361 3.267 -0.986 3.267 QT
1.92 3.267 L
1.998 3.267 2.061 3.322 QT
2.123 3.376 2.123 3.47 QT
2.123 3.595 2.037 3.681 QT
1.951 3.767 1.842 3.767 QT
0.811 3.767 L
0.686 4.392 0.67 4.986 QT
0.67 5.767 0.951 6.376 QT
0.967 6.423 0.967 6.486 QT
0.967 6.564 0.92 6.642 QT
0.873 6.72 0.787 6.767 QT
0.701 6.814 0.623 6.814 QT
0.405 6.814 0.326 6.47 QT
0.248 6.126 0.248 5.798 QT
0.248 5.345 0.326 4.915 QT
0.405 4.486 0.576 3.767 QT
-0.299 3.767 L
-0.924 6.329 -1.049 6.595 QT
-1.174 6.814 -1.361 6.814 QT
-1.47 6.814 -1.541 6.743 QT
-1.611 6.673 -1.611 6.579 QT
cp
f
GR
GS
[1 0 0 1 261 194.60001] CT
0.149 GC
N
-4.017 6.72 M
-4.017 6.501 L
-4.017 6.486 -4.002 6.454 QT
-2.767 5.079 L
-2.486 4.782 -2.306 4.572 QT
-2.127 4.361 -1.955 4.095 QT
-1.783 3.829 -1.689 3.548 QT
-1.595 3.267 -1.595 2.954 QT
-1.595 2.626 -1.713 2.329 QT
-1.83 2.032 -2.072 1.853 QT
-2.314 1.673 -2.658 1.673 QT
-3.002 1.673 -3.275 1.884 QT
-3.549 2.095 -3.674 2.423 QT
-3.642 2.407 -3.58 2.407 QT
-3.408 2.407 -3.275 2.532 QT
-3.142 2.657 -3.142 2.845 QT
-3.142 3.032 -3.275 3.157 QT
-3.408 3.282 -3.58 3.282 QT
-3.767 3.282 -3.892 3.15 QT
-4.017 3.017 -4.017 2.845 QT
-4.017 2.548 -3.908 2.282 QT
-3.799 2.017 -3.588 1.814 QT
-3.377 1.611 -3.103 1.501 QT
-2.83 1.392 -2.533 1.392 QT
-2.08 1.392 -1.681 1.587 QT
-1.283 1.782 -1.056 2.134 QT
-0.83 2.486 -0.83 2.954 QT
-0.83 3.298 -0.978 3.611 QT
-1.127 3.923 -1.369 4.181 QT
-1.611 4.439 -1.978 4.767 QT
-2.345 5.095 -2.47 5.204 QT
-3.377 6.064 L
-2.611 6.064 L
-2.033 6.064 -1.658 6.056 QT
-1.283 6.048 -1.252 6.032 QT
-1.158 5.923 -1.064 5.298 QT
-0.83 5.298 L
-1.049 6.72 L
-4.017 6.72 L
cp
f
GR
GS
[1 0 0 1 261 194.60001] CT
0.149 GC
N
0.389 6.579 M
0.389 6.532 0.42 6.454 QT
0.639 5.986 0.834 5.54 QT
1.03 5.095 1.186 4.673 QT
1.342 4.251 1.467 3.767 QT
0.951 3.767 L
0.655 3.767 0.405 3.947 QT
0.155 4.126 -0.017 4.407 QT
-0.033 4.439 -0.064 4.439 QT
-0.158 4.439 L
-0.236 4.439 -0.236 4.361 QT
-0.236 4.345 -0.22 4.314 QT
0.045 3.876 0.342 3.572 QT
0.639 3.267 1.014 3.267 QT
3.92 3.267 L
3.998 3.267 4.061 3.322 QT
4.123 3.376 4.123 3.47 QT
4.123 3.595 4.037 3.681 QT
3.951 3.767 3.842 3.767 QT
2.811 3.767 L
2.686 4.392 2.67 4.986 QT
2.67 5.767 2.951 6.376 QT
2.967 6.423 2.967 6.486 QT
2.967 6.564 2.92 6.642 QT
2.873 6.72 2.787 6.767 QT
2.701 6.814 2.623 6.814 QT
2.405 6.814 2.326 6.47 QT
2.248 6.126 2.248 5.798 QT
2.248 5.345 2.326 4.915 QT
2.405 4.486 2.576 3.767 QT
1.701 3.767 L
1.076 6.329 0.951 6.595 QT
0.826 6.814 0.639 6.814 QT
0.53 6.814 0.459 6.743 QT
0.389 6.673 0.389 6.579 QT
cp
f
GR
GS
[1 0 0 1 149.00011 205.44] CT
0.149 GC
N
-0.872 9.142 M
-0.465 7.517 L
-0.934 7.517 -1.325 7.306 QT
-1.715 7.095 -1.958 6.712 QT
-2.2 6.329 -2.2 5.876 QT
-2.2 5.392 -1.958 4.947 QT
-1.715 4.501 -1.294 4.142 QT
-0.872 3.783 -0.387 3.587 QT
0.097 3.392 0.566 3.392 QT
1.113 1.204 L
1.128 1.142 1.175 1.142 QT
1.285 1.142 L
1.316 1.142 1.339 1.173 QT
1.363 1.204 1.363 1.236 QT
0.831 3.392 L
1.16 3.392 1.48 3.517 QT
1.8 3.642 2.042 3.861 QT
2.285 4.079 2.417 4.376 QT
2.55 4.673 2.55 5.017 QT
2.55 5.517 2.308 5.954 QT
2.066 6.392 1.66 6.751 QT
1.253 7.111 0.753 7.314 QT
0.253 7.517 -0.215 7.517 QT
-0.622 9.189 L
-0.637 9.236 -0.7 9.236 QT
-0.809 9.236 L
-0.84 9.236 -0.856 9.204 QT
-0.872 9.173 -0.872 9.142 QT
cp
-0.419 7.283 M
0.503 3.626 L
0.269 3.626 0.019 3.712 QT
-0.231 3.798 -0.45 3.939 QT
-0.669 4.079 -0.856 4.267 QT
-1.075 4.486 -1.239 4.783 QT
-1.403 5.079 -1.489 5.415 QT
-1.575 5.751 -1.575 6.064 QT
-1.575 6.408 -1.426 6.681 QT
-1.278 6.954 -1.02 7.119 QT
-0.762 7.283 -0.419 7.283 QT
cp
-0.153 7.283 M
0.191 7.283 0.574 7.087 QT
0.956 6.892 1.206 6.642 QT
1.535 6.298 1.73 5.814 QT
1.925 5.329 1.925 4.829 QT
1.925 4.501 1.785 4.22 QT
1.644 3.939 1.378 3.783 QT
1.113 3.626 0.769 3.626 QT
-0.153 7.283 L
cp
f
GR
GS
0.149 GC
2 setlinecap
1 LJ
0.5 LW
N
37 191 M
37 16 L
S
GR
GS
0.149 GC
2 setlinecap
1 LJ
0.5 LW
N
261 191 M
261 16 L
S
GR
GS
0.149 GC
2 setlinecap
1 LJ
0.5 LW
N
37 191 M
39.24 191 L
S
GR
GS
0.149 GC
2 setlinecap
1 LJ
0.5 LW
N
37 103.5 M
39.24 103.5 L
S
GR
GS
0.149 GC
2 setlinecap
1 LJ
0.5 LW
N
37 16 M
39.24 16 L
S
GR
GS
0.149 GC
2 setlinecap
1 LJ
0.5 LW
N
261 191 M
258.76 191 L
S
GR
GS
0.149 GC
2 setlinecap
1 LJ
0.5 LW
N
261 103.5 M
258.76 103.5 L
S
GR
GS
0.149 GC
2 setlinecap
1 LJ
0.5 LW
N
261 16 M
258.76 16 L
S
GR
GS
[1 0 0 1 33.4 191] CT
0.149 GC
N
-2 2.092 M
-2.984 2.092 -3.336 1.287 QT
-3.688 0.482 -3.688 -0.627 QT
-3.688 -1.33 -3.563 -1.939 QT
-3.438 -2.549 -3.055 -2.978 QT
-2.672 -3.408 -2 -3.408 QT
-1.469 -3.408 -1.133 -3.15 QT
-0.797 -2.893 -0.625 -2.486 QT
-0.453 -2.08 -0.383 -1.611 QT
-0.313 -1.143 -0.313 -0.627 QT
-0.313 0.061 -0.445 0.654 QT
-0.578 1.248 -0.945 1.67 QT
-1.313 2.092 -2 2.092 QT
cp
-2 1.889 M
-1.547 1.889 -1.328 1.428 QT
-1.109 0.967 -1.063 0.412 QT
-1.016 -0.143 -1.016 -0.768 QT
-1.016 -1.361 -1.063 -1.869 QT
-1.109 -2.377 -1.328 -2.791 QT
-1.547 -3.205 -2 -3.205 QT
-2.453 -3.205 -2.672 -2.791 QT
-2.891 -2.377 -2.938 -1.869 QT
-2.984 -1.361 -2.984 -0.768 QT
-2.984 -0.314 -2.969 0.076 QT
-2.953 0.467 -2.859 0.889 QT
-2.766 1.311 -2.555 1.6 QT
-2.344 1.889 -2 1.889 QT
cp
f
GR
GS
[1 0 0 1 33.4 103.5] CT
0.149 GC
N
-8.222 2.092 M
-9.207 2.092 -9.558 1.287 QT
-9.91 0.482 -9.91 -0.627 QT
-9.91 -1.33 -9.785 -1.939 QT
-9.66 -2.549 -9.277 -2.978 QT
-8.894 -3.408 -8.222 -3.408 QT
-7.691 -3.408 -7.355 -3.15 QT
-7.019 -2.893 -6.847 -2.486 QT
-6.675 -2.08 -6.605 -1.611 QT
-6.535 -1.143 -6.535 -0.627 QT
-6.535 0.061 -6.668 0.654 QT
-6.8 1.248 -7.168 1.67 QT
-7.535 2.092 -8.222 2.092 QT
cp
-8.222 1.889 M
-7.769 1.889 -7.55 1.428 QT
-7.332 0.967 -7.285 0.412 QT
-7.238 -0.143 -7.238 -0.768 QT
-7.238 -1.361 -7.285 -1.869 QT
-7.332 -2.377 -7.55 -2.791 QT
-7.769 -3.205 -8.222 -3.205 QT
-8.675 -3.205 -8.894 -2.791 QT
-9.113 -2.377 -9.16 -1.869 QT
-9.207 -1.361 -9.207 -0.768 QT
-9.207 -0.314 -9.191 0.076 QT
-9.175 0.467 -9.082 0.889 QT
-8.988 1.311 -8.777 1.6 QT
-8.566 1.889 -8.222 1.889 QT
cp
f
GR
GS
[1 0 0 1 33.4 103.5] CT
0.149 GC
N
-5.55 1.482 M
-5.55 1.295 -5.418 1.17 QT
-5.285 1.045 -5.113 1.045 QT
-5.003 1.045 -4.894 1.1 QT
-4.785 1.154 -4.73 1.264 QT
-4.675 1.373 -4.675 1.482 QT
-4.675 1.654 -4.8 1.787 QT
-4.925 1.92 -5.113 1.92 QT
-5.285 1.92 -5.418 1.787 QT
-5.55 1.654 -5.55 1.482 QT
cp
f
GR
GS
[1 0 0 1 33.4 103.5] CT
0.149 GC
N
-3.297 1.014 M
-3.219 1.248 -3.047 1.436 QT
-2.875 1.623 -2.648 1.732 QT
-2.422 1.842 -2.172 1.842 QT
-1.594 1.842 -1.375 1.389 QT
-1.156 0.936 -1.156 0.295 QT
-1.156 0.029 -1.164 -0.166 QT
-1.172 -0.361 -1.219 -0.533 QT
-1.281 -0.814 -1.469 -1.025 QT
-1.656 -1.236 -1.922 -1.236 QT
-2.203 -1.236 -2.391 -1.15 QT
-2.578 -1.064 -2.703 -0.955 QT
-2.828 -0.846 -2.922 -0.728 QT
-3.016 -0.611 -3.031 -0.596 QT
-3.125 -0.596 L
-3.141 -0.596 -3.172 -0.627 QT
-3.203 -0.658 -3.203 -0.674 QT
-3.203 -3.346 L
-3.203 -3.361 -3.18 -3.385 QT
-3.156 -3.408 -3.125 -3.408 QT
-3.109 -3.408 L
-2.563 -3.158 -1.953 -3.158 QT
-1.359 -3.158 -0.813 -3.408 QT
-0.797 -3.408 L
-0.766 -3.408 -0.742 -3.393 QT
-0.719 -3.377 -0.719 -3.346 QT
-0.719 -3.268 L
-0.719 -3.236 -0.734 -3.236 QT
-1 -2.877 -1.414 -2.674 QT
-1.828 -2.471 -2.266 -2.471 QT
-2.594 -2.471 -2.922 -2.549 QT
-2.922 -1.049 L
-2.656 -1.252 -2.453 -1.346 QT
-2.25 -1.439 -1.922 -1.439 QT
-1.484 -1.439 -1.133 -1.189 QT
-0.781 -0.939 -0.594 -0.525 QT
-0.406 -0.111 -0.406 0.311 QT
-0.406 0.795 -0.641 1.201 QT
-0.875 1.607 -1.281 1.85 QT
-1.688 2.092 -2.172 2.092 QT
-2.563 2.092 -2.891 1.889 QT
-3.219 1.686 -3.406 1.342 QT
-3.594 0.998 -3.594 0.607 QT
-3.594 0.436 -3.477 0.318 QT
-3.359 0.201 -3.188 0.201 QT
-3.016 0.201 -2.898 0.318 QT
-2.781 0.436 -2.781 0.607 QT
-2.781 0.779 -2.898 0.904 QT
-3.016 1.029 -3.188 1.029 QT
-3.219 1.029 -3.25 1.022 QT
-3.281 1.014 -3.297 1.014 QT
cp
f
GR
GS
[1 0 0 1 33.4 16] CT
0.149 GC
N
-3.25 1.92 M
-3.25 1.639 L
-2.25 1.639 -2.25 1.389 QT
-2.25 -2.814 L
-2.672 -2.611 -3.297 -2.611 QT
-3.297 -2.893 L
-2.328 -2.893 -1.828 -3.408 QT
-1.703 -3.408 L
-1.688 -3.408 -1.656 -3.385 QT
-1.625 -3.361 -1.625 -3.346 QT
-1.625 1.389 L
-1.625 1.639 -0.625 1.639 QT
-0.625 1.92 L
-3.25 1.92 L
cp
f
GR
GS
[0 -1 1 0 20.17775 103.49992] CT
0.149 GC
N
-8.476 -1.418 M
-8.57 -1.418 -8.57 -1.543 QT
-8.539 -1.731 -8.445 -1.731 QT
-8.164 -1.731 -8.055 -1.785 QT
-7.945 -1.84 -7.883 -2.043 QT
-6.867 -6.09 L
-6.805 -6.262 -6.805 -6.527 QT
-6.805 -6.918 -7.055 -6.918 QT
-7.336 -6.918 -7.476 -6.582 QT
-7.617 -6.246 -7.742 -5.731 QT
-7.742 -5.668 -7.82 -5.668 QT
-7.93 -5.668 L
-7.945 -5.668 -7.969 -5.699 QT
-7.992 -5.731 -7.992 -5.762 QT
-7.898 -6.152 -7.812 -6.426 QT
-7.726 -6.699 -7.531 -6.926 QT
-7.336 -7.152 -7.055 -7.152 QT
-6.742 -7.152 -6.508 -6.973 QT
-6.273 -6.793 -6.211 -6.496 QT
-5.961 -6.777 -5.664 -6.965 QT
-5.367 -7.152 -5.055 -7.152 QT
-4.68 -7.152 -4.398 -6.949 QT
-4.117 -6.746 -3.976 -6.418 QT
-3.836 -6.09 -3.836 -5.715 QT
-3.836 -5.121 -4.133 -4.504 QT
-4.43 -3.887 -4.937 -3.481 QT
-5.445 -3.074 -6.023 -3.074 QT
-6.289 -3.074 -6.5 -3.223 QT
-6.711 -3.371 -6.836 -3.606 QT
-7.242 -2.012 L
-7.258 -1.871 -7.273 -1.856 QT
-7.273 -1.731 -6.68 -1.731 QT
-6.586 -1.731 -6.586 -1.621 QT
-6.617 -1.496 -6.633 -1.457 QT
-6.648 -1.418 -6.742 -1.418 QT
-8.476 -1.418 L
cp
-6.023 -3.309 M
-5.711 -3.309 -5.437 -3.566 QT
-5.164 -3.824 -5.008 -4.137 QT
-4.883 -4.387 -4.773 -4.731 QT
-4.664 -5.074 -4.586 -5.473 QT
-4.508 -5.871 -4.508 -6.106 QT
-4.508 -6.309 -4.562 -6.488 QT
-4.617 -6.668 -4.742 -6.793 QT
-4.867 -6.918 -5.07 -6.918 QT
-5.398 -6.918 -5.695 -6.684 QT
-5.992 -6.449 -6.226 -6.09 QT
-6.226 -6.059 L
-6.726 -4.074 L
-6.664 -3.762 -6.484 -3.535 QT
-6.305 -3.309 -6.023 -3.309 QT
cp
f
GR
GS
[0 -1 1 0 20.17775 103.49992] CT
0.149 GC
N
-1.033 -0.934 M
-1.533 -1.324 -1.9 -1.84 QT
-2.268 -2.356 -2.494 -2.934 QT
-2.721 -3.512 -2.838 -4.145 QT
-2.955 -4.777 -2.955 -5.418 QT
-2.955 -6.059 -2.838 -6.691 QT
-2.721 -7.324 -2.486 -7.91 QT
-2.252 -8.496 -1.893 -9.004 QT
-1.533 -9.512 -1.033 -9.902 QT
-1.033 -9.918 -1.002 -9.918 QT
-0.908 -9.918 L
-0.893 -9.918 -0.869 -9.895 QT
-0.846 -9.871 -0.846 -9.84 QT
-0.846 -9.793 -0.861 -9.777 QT
-1.299 -9.356 -1.588 -8.863 QT
-1.877 -8.371 -2.057 -7.816 QT
-2.236 -7.262 -2.315 -6.66 QT
-2.393 -6.059 -2.393 -5.418 QT
-2.393 -2.559 -0.861 -1.074 QT
-0.846 -1.043 -0.846 -0.996 QT
-0.846 -0.981 -0.869 -0.949 QT
-0.893 -0.918 -0.908 -0.918 QT
-1.002 -0.918 L
-1.033 -0.918 -1.033 -0.934 QT
cp
f
GR
GS
[0 -1 1 0 20.17775 103.49992] CT
0.149 GC
N
1.342 -1.418 M
1.748 -3.043 L
1.28 -3.043 0.889 -3.254 QT
0.498 -3.465 0.256 -3.848 QT
0.014 -4.231 0.014 -4.684 QT
0.014 -5.168 0.256 -5.613 QT
0.498 -6.059 0.92 -6.418 QT
1.342 -6.777 1.826 -6.973 QT
2.311 -7.168 2.78 -7.168 QT
3.326 -9.356 L
3.342 -9.418 3.389 -9.418 QT
3.498 -9.418 L
3.53 -9.418 3.553 -9.387 QT
3.576 -9.356 3.576 -9.324 QT
3.045 -7.168 L
3.373 -7.168 3.694 -7.043 QT
4.014 -6.918 4.256 -6.699 QT
4.498 -6.481 4.631 -6.184 QT
4.764 -5.887 4.764 -5.543 QT
4.764 -5.043 4.522 -4.606 QT
4.28 -4.168 3.873 -3.809 QT
3.467 -3.449 2.967 -3.246 QT
2.467 -3.043 1.998 -3.043 QT
1.592 -1.371 L
1.576 -1.324 1.514 -1.324 QT
1.405 -1.324 L
1.373 -1.324 1.358 -1.356 QT
1.342 -1.387 1.342 -1.418 QT
cp
1.795 -3.277 M
2.717 -6.934 L
2.483 -6.934 2.233 -6.848 QT
1.983 -6.762 1.764 -6.621 QT
1.545 -6.481 1.358 -6.293 QT
1.139 -6.074 0.975 -5.777 QT
0.811 -5.481 0.725 -5.145 QT
0.639 -4.809 0.639 -4.496 QT
0.639 -4.152 0.787 -3.879 QT
0.936 -3.606 1.194 -3.441 QT
1.451 -3.277 1.795 -3.277 QT
cp
2.061 -3.277 M
2.405 -3.277 2.787 -3.473 QT
3.17 -3.668 3.42 -3.918 QT
3.748 -4.262 3.944 -4.746 QT
4.139 -5.231 4.139 -5.731 QT
4.139 -6.059 3.998 -6.34 QT
3.858 -6.621 3.592 -6.777 QT
3.326 -6.934 2.983 -6.934 QT
2.061 -3.277 L
cp
f
GR
GS
[0 -1 1 0 20.17775 103.49992] CT
0.149 GC
N
5.414 -0.918 M
5.335 -0.918 5.335 -0.996 QT
5.335 -1.043 5.351 -1.059 QT
6.898 -2.559 6.898 -5.418 QT
6.898 -8.277 5.382 -9.762 QT
5.335 -9.793 5.335 -9.84 QT
5.335 -9.871 5.359 -9.895 QT
5.382 -9.918 5.414 -9.918 QT
5.507 -9.918 L
5.523 -9.918 5.554 -9.902 QT
6.195 -9.387 6.624 -8.66 QT
7.054 -7.934 7.257 -7.106 QT
7.46 -6.277 7.46 -5.418 QT
7.46 -4.777 7.351 -4.16 QT
7.242 -3.543 7.007 -2.941 QT
6.773 -2.34 6.414 -1.832 QT
6.054 -1.324 5.554 -0.934 QT
5.523 -0.918 5.507 -0.918 QT
5.414 -0.918 L
cp
f
GR
GS
0 0.447 0.741 RC
1 LJ
N
37 103.5 M
38.12 103.5 L
39.24 103.5 L
40.36 103.5 L
41.48 103.5 L
42.6 103.5 L
43.72 103.5 L
44.84 103.5 L
45.96 103.5 L
47.08 103.5 L
48.2 103.5 L
49.32 103.5 L
50.44 103.5 L
51.56 103.5 L
52.68 103.5 L
53.8 103.5 L
54.92 103.5 L
56.04 103.5 L
57.16 103.5 L
58.28 103.5 L
59.4 103.5 L
60.52 103.5 L
61.64 103.5 L
62.76 103.5 L
63.88 103.5 L
65 103.5 L
66.12 103.5 L
67.24 103.5 L
68.36 103.5 L
69.48 103.5 L
70.6 103.5 L
71.72 103.5 L
72.84 103.5 L
73.96 103.5 L
75.08 103.5 L
76.2 103.5 L
77.32 103.5 L
78.44 103.5 L
79.56 103.5 L
80.68 103.5 L
81.8 103.5 L
82.92 103.5 L
84.04 103.5 L
85.16 103.5 L
86.28 103.5 L
87.4 103.5 L
88.52 103.5 L
89.64 103.5 L
90.76 103.5 L
91.88 103.5 L
93 103.5 L
94.12 103.5 L
95.24 103.5 L
96.36 103.5 L
97.48 103.5 L
98.6 103.5 L
99.72 103.5 L
100.84 103.5 L
101.96 103.5 L
103.08 103.5 L
104.2 103.5 L
105.32 103.5 L
106.44 103.5 L
107.56 103.5 L
108.68 103.5 L
109.8 103.5 L
110.92 103.5 L
112.04 103.5 L
113.16 103.5 L
114.28 103.5 L
115.4 103.5 L
116.52 103.5 L
117.64 103.5 L
118.76 103.5 L
119.88 103.5 L
121 103.5 L
122.12 103.5 L
123.24 103.5 L
124.36 103.5 L
125.48 103.5 L
126.6 103.5 L
127.72 103.5 L
128.84 103.5 L
129.96 103.5 L
131.08 103.5 L
132.2 103.5 L
133.32 103.5 L
134.44 103.5 L
135.56 103.5 L
136.68 103.5 L
137.8 103.5 L
138.92 103.5 L
140.04 103.5 L
141.16 103.5 L
142.28 103.5 L
143.4 103.5 L
144.52 103.5 L
145.64 103.5 L
146.76 103.5 L
147.88 103.5 L
149 103.5 L
150.12 103.5 L
151.24 103.5 L
152.36 103.5 L
153.48 103.5 L
154.6 103.5 L
155.72 103.5 L
156.84 103.5 L
157.96 103.5 L
159.08 103.5 L
160.2 103.5 L
161.32 103.5 L
162.44 103.5 L
163.56 103.5 L
164.68 103.5 L
165.8 103.5 L
166.92 103.5 L
168.04 103.5 L
169.16 103.5 L
170.28 103.5 L
171.4 103.5 L
172.52 103.5 L
173.64 103.5 L
174.76 103.5 L
175.88 103.5 L
177 103.5 L
178.12 103.5 L
179.24 103.5 L
180.36 103.5 L
181.48 103.5 L
182.6 103.5 L
183.72 103.5 L
184.84 103.5 L
185.96 103.5 L
187.08 103.5 L
188.2 103.5 L
189.32 103.5 L
190.44 103.5 L
191.56 103.5 L
192.68 103.5 L
193.8 103.5 L
194.92 103.5 L
196.04 103.5 L
197.16 103.5 L
198.28 103.5 L
199.4 103.5 L
200.52 103.5 L
201.64 103.5 L
202.76 103.5 L
203.88 103.5 L
205 103.5 L
206.12 103.5 L
207.24 103.5 L
208.36 103.5 L
209.48 103.5 L
210.6 103.5 L
211.72 103.5 L
212.84 103.5 L
213.96 103.5 L
215.08 103.5 L
216.2 103.5 L
217.32 103.5 L
218.44 103.5 L
219.56 103.5 L
220.68 103.5 L
221.8 103.5 L
222.92 103.5 L
224.04 103.5 L
225.16 103.5 L
226.28 103.5 L
227.4 103.5 L
228.52 103.5 L
229.64 103.5 L
230.76 103.5 L
231.88 103.5 L
233 103.5 L
234.12 103.5 L
235.24 103.5 L
236.36 103.5 L
237.48 103.5 L
238.6 103.5 L
239.72 103.5 L
240.84 103.5 L
241.96 103.5 L
243.08 103.5 L
244.2 103.5 L
245.32 103.5 L
246.44 103.5 L
247.56 103.5 L
248.68 103.5 L
249.8 103.5 L
250.92 103.5 L
252.04 103.5 L
253.16 103.5 L
254.28 103.5 L
255.4 103.5 L
256.52 103.5 L
257.64 103.5 L
258.76 103.5 L
259.88 103.5 L
261 103.5 L
S
GR
GS
0.851 0.325 0.098 RC
1 LJ
N
37 103.5 M
38.12 103.675 L
39.24 103.849 L
40.36 104.024 L
41.48 104.198 L
42.6 104.371 L
43.72 104.543 L
44.84 104.714 L
45.96 104.884 L
47.08 105.053 L
48.2 105.22 L
49.32 105.385 L
50.44 105.549 L
51.56 105.71 L
52.68 105.87 L
53.8 106.027 L
54.92 106.181 L
56.04 106.333 L
57.16 106.482 L
58.28 106.628 L
59.4 106.771 L
60.52 106.911 L
61.64 107.047 L
62.76 107.18 L
63.88 107.309 L
65 107.435 L
66.12 107.556 L
67.24 107.674 L
68.36 107.787 L
69.48 107.896 L
70.6 108.001 L
71.72 108.102 L
72.84 108.197 L
73.96 108.289 L
75.08 108.375 L
76.2 108.457 L
77.32 108.534 L
78.44 108.606 L
79.56 108.672 L
80.68 108.734 L
81.8 108.791 L
82.92 108.842 L
84.04 108.888 L
85.16 108.929 L
86.28 108.964 L
87.4 108.994 L
88.52 109.019 L
89.64 109.038 L
90.76 109.052 L
91.88 109.06 L
93 109.063 L
94.12 109.06 L
95.24 109.052 L
96.36 109.038 L
97.48 109.019 L
98.6 108.994 L
99.72 108.964 L
100.84 108.929 L
101.96 108.888 L
103.08 108.842 L
104.2 108.791 L
105.32 108.734 L
106.44 108.672 L
107.56 108.606 L
108.68 108.534 L
109.8 108.457 L
110.92 108.375 L
112.04 108.289 L
113.16 108.197 L
114.28 108.102 L
115.4 108.001 L
116.52 107.896 L
117.64 107.787 L
118.76 107.674 L
119.88 107.556 L
121 107.435 L
122.12 107.309 L
123.24 107.18 L
124.36 107.047 L
125.48 106.911 L
126.6 106.771 L
127.72 106.628 L
128.84 106.482 L
129.96 106.333 L
131.08 106.181 L
132.2 106.027 L
133.32 105.87 L
134.44 105.71 L
135.56 105.549 L
136.68 105.385 L
137.8 105.22 L
138.92 105.053 L
140.04 104.884 L
141.16 104.714 L
142.28 104.543 L
143.4 104.371 L
144.52 104.198 L
145.64 104.024 L
146.76 103.849 L
147.88 103.675 L
149 103.5 L
150.12 103.325 L
151.24 103.151 L
152.36 102.976 L
153.48 102.802 L
154.6 102.629 L
155.72 102.457 L
156.84 102.286 L
157.96 102.116 L
159.08 101.947 L
160.2 101.78 L
161.32 101.615 L
162.44 101.451 L
163.56 101.29 L
164.68 101.13 L
165.8 100.973 L
166.92 100.819 L
168.04 100.667 L
169.16 100.518 L
170.28 100.372 L
171.4 100.229 L
172.52 100.089 L
173.64 99.953 L
174.76 99.82 L
175.88 99.691 L
177 99.565 L
178.12 99.444 L
179.24 99.326 L
180.36 99.213 L
181.48 99.104 L
182.6 98.999 L
183.72 98.898 L
184.84 98.803 L
185.96 98.711 L
187.08 98.625 L
188.2 98.543 L
189.32 98.466 L
190.44 98.394 L
191.56 98.328 L
192.68 98.266 L
193.8 98.209 L
194.92 98.158 L
196.04 98.112 L
197.16 98.071 L
198.28 98.036 L
199.4 98.006 L
200.52 97.981 L
201.64 97.962 L
202.76 97.948 L
203.88 97.94 L
205 97.937 L
206.12 97.94 L
207.24 97.948 L
208.36 97.962 L
209.48 97.981 L
210.6 98.006 L
211.72 98.036 L
212.84 98.071 L
213.96 98.112 L
215.08 98.158 L
216.2 98.209 L
217.32 98.266 L
218.44 98.328 L
219.56 98.394 L
220.68 98.466 L
221.8 98.543 L
222.92 98.625 L
224.04 98.711 L
225.16 98.803 L
226.28 98.898 L
227.4 98.999 L
228.52 99.104 L
229.64 99.213 L
230.76 99.326 L
231.88 99.444 L
233 99.565 L
234.12 99.691 L
235.24 99.82 L
236.36 99.953 L
237.48 100.089 L
238.6 100.229 L
239.72 100.372 L
240.84 100.518 L
241.96 100.667 L
243.08 100.819 L
244.2 100.973 L
245.32 101.13 L
246.44 101.29 L
247.56 101.451 L
248.68 101.615 L
249.8 101.78 L
250.92 101.947 L
252.04 102.116 L
253.16 102.286 L
254.28 102.457 L
255.4 102.629 L
256.52 102.802 L
257.64 102.976 L
258.76 103.151 L
259.88 103.325 L
261 103.5 L
S
GR
GS
0.929 0.694 0.125 RC
1 LJ
N
37 103.5 M
38.12 105.124 L
39.24 106.746 L
40.36 108.364 L
41.48 109.975 L
42.6 111.578 L
43.72 113.171 L
44.84 114.751 L
45.96 116.317 L
47.08 117.867 L
48.2 119.399 L
49.32 120.91 L
50.44 122.4 L
51.56 123.867 L
52.68 125.308 L
53.8 126.723 L
54.92 128.11 L
56.04 129.468 L
57.16 130.794 L
58.28 132.089 L
59.4 133.35 L
60.52 134.577 L
61.64 135.768 L
62.76 136.924 L
63.88 138.042 L
65 139.122 L
66.12 140.163 L
67.24 141.165 L
68.36 142.128 L
69.48 143.049 L
70.6 143.93 L
71.72 144.769 L
72.84 145.567 L
73.96 146.322 L
75.08 147.035 L
76.2 147.706 L
77.32 148.334 L
78.44 148.919 L
79.56 149.461 L
80.68 149.96 L
81.8 150.415 L
82.92 150.828 L
84.04 151.197 L
85.16 151.522 L
86.28 151.805 L
87.4 152.043 L
88.52 152.239 L
89.64 152.391 L
90.76 152.499 L
91.88 152.564 L
93 152.586 L
94.12 152.564 L
95.24 152.499 L
96.36 152.391 L
97.48 152.239 L
98.6 152.043 L
99.72 151.805 L
100.84 151.522 L
101.96 151.197 L
103.08 150.828 L
104.2 150.415 L
105.32 149.96 L
106.44 149.461 L
107.56 148.919 L
108.68 148.334 L
109.8 147.706 L
110.92 147.035 L
112.04 146.322 L
113.16 145.567 L
114.28 144.769 L
115.4 143.93 L
116.52 143.049 L
117.64 142.128 L
118.76 141.165 L
119.88 140.163 L
121 139.122 L
122.12 138.042 L
123.24 136.924 L
124.36 135.768 L
125.48 134.577 L
126.6 133.35 L
127.72 132.089 L
128.84 130.794 L
129.96 129.468 L
131.08 128.11 L
132.2 126.723 L
133.32 125.308 L
134.44 123.867 L
135.56 122.4 L
136.68 120.91 L
137.8 119.399 L
138.92 117.867 L
140.04 116.317 L
141.16 114.751 L
142.28 113.171 L
143.4 111.578 L
144.52 109.975 L
145.64 108.364 L
146.76 106.746 L
147.88 105.124 L
149 103.5 L
150.12 101.876 L
151.24 100.254 L
152.36 98.636 L
153.48 97.025 L
154.6 95.422 L
155.72 93.829 L
156.84 92.249 L
157.96 90.683 L
159.08 89.133 L
160.2 87.601 L
161.32 86.09 L
162.44 84.6 L
163.56 83.133 L
164.68 81.692 L
165.8 80.277 L
166.92 78.89 L
168.04 77.532 L
169.16 76.206 L
170.28 74.911 L
171.4 73.65 L
172.52 72.423 L
173.64 71.232 L
174.76 70.076 L
175.88 68.958 L
177 67.878 L
178.12 66.837 L
179.24 65.835 L
180.36 64.872 L
181.48 63.951 L
182.6 63.07 L
183.72 62.231 L
184.84 61.433 L
185.96 60.678 L
187.08 59.965 L
188.2 59.294 L
189.32 58.666 L
190.44 58.081 L
191.56 57.539 L
192.68 57.04 L
193.8 56.585 L
194.92 56.172 L
196.04 55.803 L
197.16 55.478 L
198.28 55.195 L
199.4 54.957 L
200.52 54.761 L
201.64 54.609 L
202.76 54.501 L
203.88 54.436 L
205 54.414 L
206.12 54.436 L
207.24 54.501 L
208.36 54.609 L
209.48 54.761 L
210.6 54.957 L
211.72 55.195 L
212.84 55.478 L
213.96 55.803 L
215.08 56.172 L
216.2 56.585 L
217.32 57.04 L
218.44 57.539 L
219.56 58.081 L
220.68 58.666 L
221.8 59.294 L
222.92 59.965 L
224.04 60.678 L
225.16 61.433 L
226.28 62.231 L
227.4 63.07 L
228.52 63.951 L
229.64 64.872 L
230.76 65.835 L
231.88 66.837 L
233 67.878 L
234.12 68.958 L
235.24 70.076 L
236.36 71.232 L
237.48 72.423 L
238.6 73.65 L
239.72 74.911 L
240.84 76.206 L
241.96 77.532 L
243.08 78.89 L
244.2 80.277 L
245.32 81.692 L
246.44 83.133 L
247.56 84.6 L
248.68 86.09 L
249.8 87.601 L
250.92 89.133 L
252.04 90.683 L
253.16 92.249 L
254.28 93.829 L
255.4 95.422 L
256.52 97.025 L
257.64 98.636 L
258.76 100.254 L
259.88 101.876 L
261 103.5 L
S
GR
GS
0.494 0.184 0.557 RC
1 LJ
N
37 103.5 M
38.12 110.334 L
39.24 117.1 L
40.36 123.735 L
41.48 130.176 L
42.6 136.369 L
43.72 142.265 L
44.84 147.825 L
45.96 153.016 L
47.08 157.818 L
48.2 162.217 L
49.32 166.209 L
50.44 169.799 L
51.56 172.997 L
52.68 175.82 L
53.8 178.29 L
54.92 180.432 L
56.04 182.273 L
57.16 183.842 L
58.28 185.169 L
59.4 186.281 L
60.52 187.205 L
61.64 187.968 L
62.76 188.592 L
63.88 189.1 L
65 189.509 L
66.12 189.837 L
67.24 190.097 L
68.36 190.303 L
69.48 190.465 L
70.6 190.591 L
71.72 190.689 L
72.84 190.765 L
73.96 190.822 L
75.08 190.867 L
76.2 190.9 L
77.32 190.926 L
78.44 190.945 L
79.56 190.959 L
80.68 190.97 L
81.8 190.978 L
82.92 190.983 L
84.04 190.988 L
85.16 190.991 L
86.28 190.993 L
87.4 190.995 L
88.52 190.996 L
89.64 190.997 L
90.76 190.998 L
91.88 190.998 L
93 190.998 L
94.12 190.998 L
95.24 190.998 L
96.36 190.997 L
97.48 190.996 L
98.6 190.995 L
99.72 190.993 L
100.84 190.991 L
101.96 190.988 L
103.08 190.983 L
104.2 190.978 L
105.32 190.97 L
106.44 190.959 L
107.56 190.945 L
108.68 190.926 L
109.8 190.9 L
110.92 190.867 L
112.04 190.822 L
113.16 190.765 L
114.28 190.689 L
115.4 190.591 L
116.52 190.465 L
117.64 190.303 L
118.76 190.097 L
119.88 189.837 L
121 189.509 L
122.12 189.1 L
123.24 188.592 L
124.36 187.968 L
125.48 187.205 L
126.6 186.281 L
127.72 185.169 L
128.84 183.842 L
129.96 182.273 L
131.08 180.432 L
132.2 178.29 L
133.32 175.82 L
134.44 172.997 L
135.56 169.799 L
136.68 166.209 L
137.8 162.217 L
138.92 157.818 L
140.04 153.016 L
141.16 147.825 L
142.28 142.265 L
143.4 136.369 L
144.52 130.176 L
145.64 123.735 L
146.76 117.1 L
147.88 110.334 L
149 103.5 L
150.12 96.666 L
151.24 89.9 L
152.36 83.265 L
153.48 76.824 L
154.6 70.631 L
155.72 64.735 L
156.84 59.175 L
157.96 53.984 L
159.08 49.182 L
160.2 44.783 L
161.32 40.791 L
162.44 37.201 L
163.56 34.003 L
164.68 31.18 L
165.8 28.71 L
166.92 26.568 L
168.04 24.727 L
169.16 23.158 L
170.28 21.831 L
171.4 20.719 L
172.52 19.795 L
173.64 19.032 L
174.76 18.408 L
175.88 17.9 L
177 17.491 L
178.12 17.163 L
179.24 16.903 L
180.36 16.697 L
181.48 16.535 L
182.6 16.409 L
183.72 16.311 L
184.84 16.235 L
185.96 16.178 L
187.08 16.133 L
188.2 16.1 L
189.32 16.074 L
190.44 16.055 L
191.56 16.041 L
192.68 16.03 L
193.8 16.022 L
194.92 16.017 L
196.04 16.012 L
197.16 16.009 L
198.28 16.007 L
199.4 16.005 L
200.52 16.004 L
201.64 16.003 L
202.76 16.002 L
203.88 16.002 L
205 16.002 L
206.12 16.002 L
207.24 16.002 L
208.36 16.003 L
209.48 16.004 L
210.6 16.005 L
211.72 16.007 L
212.84 16.009 L
213.96 16.012 L
215.08 16.017 L
216.2 16.022 L
217.32 16.03 L
218.44 16.041 L
219.56 16.055 L
220.68 16.074 L
221.8 16.1 L
222.92 16.133 L
224.04 16.178 L
225.16 16.235 L
226.28 16.311 L
227.4 16.409 L
228.52 16.535 L
229.64 16.697 L
230.76 16.903 L
231.88 17.163 L
233 17.491 L
234.12 17.9 L
235.24 18.408 L
236.36 19.032 L
237.48 19.795 L
238.6 20.719 L
239.72 21.831 L
240.84 23.158 L
241.96 24.727 L
243.08 26.568 L
244.2 28.71 L
245.32 31.18 L
246.44 34.003 L
247.56 37.201 L
248.68 40.791 L
249.8 44.783 L
250.92 49.182 L
252.04 53.984 L
253.16 59.175 L
254.28 64.735 L
255.4 70.631 L
256.52 76.824 L
257.64 83.265 L
258.76 89.9 L
259.88 96.666 L
261 103.5 L
S
GR
GS
0.467 0.675 0.188 RC
1 LJ
N
37 103.5 M
38.12 125.05 L
39.24 144.592 L
40.36 160.661 L
41.48 172.646 L
42.6 180.757 L
43.72 185.738 L
44.84 188.516 L
45.96 189.924 L
47.08 190.572 L
48.2 190.844 L
49.32 190.948 L
50.44 190.984 L
51.56 190.996 L
52.68 190.999 L
53.8 191 L
54.92 191 L
56.04 191 L
57.16 191 L
58.28 191 L
59.4 191 L
60.52 191 L
61.64 191 L
62.76 191 L
63.88 191 L
65 191 L
66.12 191 L
67.24 191 L
68.36 191 L
69.48 191 L
70.6 191 L
71.72 191 L
72.84 191 L
73.96 191 L
75.08 191 L
76.2 191 L
77.32 191 L
78.44 191 L
79.56 191 L
80.68 191 L
81.8 191 L
82.92 191 L
84.04 191 L
85.16 191 L
86.28 191 L
87.4 191 L
88.52 191 L
89.64 191 L
90.76 191 L
91.88 191 L
93 191 L
94.12 191 L
95.24 191 L
96.36 191 L
97.48 191 L
98.6 191 L
99.72 191 L
100.84 191 L
101.96 191 L
103.08 191 L
104.2 191 L
105.32 191 L
106.44 191 L
107.56 191 L
108.68 191 L
109.8 191 L
110.92 191 L
112.04 191 L
113.16 191 L
114.28 191 L
115.4 191 L
116.52 191 L
117.64 191 L
118.76 191 L
119.88 191 L
121 191 L
122.12 191 L
123.24 191 L
124.36 191 L
125.48 191 L
126.6 191 L
127.72 191 L
128.84 191 L
129.96 191 L
131.08 191 L
132.2 191 L
133.32 190.999 L
134.44 190.996 L
135.56 190.984 L
136.68 190.948 L
137.8 190.844 L
138.92 190.572 L
140.04 189.924 L
141.16 188.516 L
142.28 185.738 L
143.4 180.757 L
144.52 172.646 L
145.64 160.661 L
146.76 144.592 L
147.88 125.05 L
149 103.5 L
150.12 81.95 L
151.24 62.408 L
152.36 46.339 L
153.48 34.354 L
154.6 26.243 L
155.72 21.262 L
156.84 18.484 L
157.96 17.076 L
159.08 16.428 L
160.2 16.156 L
161.32 16.052 L
162.44 16.016 L
163.56 16.004 L
164.68 16.001 L
165.8 16 L
166.92 16 L
168.04 16 L
169.16 16 L
170.28 16 L
171.4 16 L
172.52 16 L
173.64 16 L
174.76 16 L
175.88 16 L
177 16 L
178.12 16 L
179.24 16 L
180.36 16 L
181.48 16 L
182.6 16 L
183.72 16 L
184.84 16 L
185.96 16 L
187.08 16 L
188.2 16 L
189.32 16 L
190.44 16 L
191.56 16 L
192.68 16 L
193.8 16 L
194.92 16 L
196.04 16 L
197.16 16 L
198.28 16 L
199.4 16 L
200.52 16 L
201.64 16 L
202.76 16 L
203.88 16 L
205 16 L
206.12 16 L
207.24 16 L
208.36 16 L
209.48 16 L
210.6 16 L
211.72 16 L
212.84 16 L
213.96 16 L
215.08 16 L
216.2 16 L
217.32 16 L
218.44 16 L
219.56 16 L
220.68 16 L
221.8 16 L
222.92 16 L
224.04 16 L
225.16 16 L
226.28 16 L
227.4 16 L
228.52 16 L
229.64 16 L
230.76 16 L
231.88 16 L
233 16 L
234.12 16 L
235.24 16 L
236.36 16 L
237.48 16 L
238.6 16 L
239.72 16 L
240.84 16 L
241.96 16 L
243.08 16 L
244.2 16 L
245.32 16.001 L
246.44 16.004 L
247.56 16.016 L
248.68 16.052 L
249.8 16.156 L
250.92 16.428 L
252.04 17.076 L
253.16 18.484 L
254.28 21.262 L
255.4 26.243 L
256.52 34.354 L
257.64 46.339 L
258.76 62.408 L
259.88 81.95 L
261 103.5 L
S
GR
GS
1 GC
N
105 75 M
105 26 L
47 26 L
47 75 L
cp
f
GR
GS
[1 0 0 1 83.77916 32.29431] CT
N
0.375 1.603 M
0.375 1.572 0.375 1.54 QT
1.047 -1.147 L
1.078 -1.241 1.156 -1.303 QT
1.234 -1.366 1.344 -1.366 QT
1.438 -1.366 1.5 -1.311 QT
1.563 -1.256 1.563 -1.178 QT
1.563 -1.147 1.555 -1.139 QT
1.547 -1.131 1.547 -1.116 QT
1.297 -0.1 L
1.578 -0.194 2.039 -0.585 QT
2.5 -0.975 2.742 -1.131 QT
2.984 -1.288 3.328 -1.288 QT
3.438 -1.288 3.516 -1.217 QT
3.594 -1.147 3.594 -1.038 QT
3.594 -0.866 3.477 -0.749 QT
3.359 -0.631 3.188 -0.631 QT
3.078 -0.631 3 -0.71 QT
2.922 -0.788 2.922 -0.897 QT
2.922 -0.975 2.953 -1.038 QT
2.781 -0.96 2.609 -0.835 QT
2.438 -0.71 2.289 -0.585 QT
2.141 -0.46 1.945 -0.295 QT
1.75 -0.131 1.578 -0.038 QT
1.875 -0.038 2.172 0.025 QT
2.469 0.087 2.688 0.251 QT
2.906 0.415 2.906 0.697 QT
2.906 0.806 2.891 0.884 QT
2.813 1.165 2.813 1.306 QT
2.813 1.619 3.031 1.619 QT
3.281 1.619 3.422 1.345 QT
3.563 1.072 3.641 0.697 QT
3.656 0.665 3.688 0.665 QT
3.781 0.665 L
3.813 0.665 3.828 0.681 QT
3.844 0.697 3.844 0.712 QT
3.844 0.728 3.828 0.744 QT
3.578 1.806 3.031 1.806 QT
2.828 1.806 2.672 1.712 QT
2.516 1.619 2.438 1.462 QT
2.359 1.306 2.359 1.103 QT
2.359 0.978 2.391 0.869 QT
2.406 0.775 2.406 0.712 QT
2.406 0.494 2.211 0.361 QT
2.016 0.228 1.742 0.181 QT
1.469 0.134 1.234 0.134 QT
0.875 1.572 L
0.844 1.665 0.766 1.736 QT
0.688 1.806 0.578 1.806 QT
0.5 1.806 0.438 1.751 QT
0.375 1.697 0.375 1.603 QT
cp
f
GR
GS
[1 0 0 1 83.77916 32.29431] CT
N
6.68 0.79 M
6.617 0.79 6.578 0.751 QT
6.539 0.712 6.539 0.665 QT
6.539 0.603 6.578 0.564 QT
6.617 0.525 6.68 0.525 QT
11.07 0.525 L
11.117 0.525 11.156 0.564 QT
11.195 0.603 11.195 0.665 QT
11.195 0.712 11.156 0.751 QT
11.117 0.79 11.07 0.79 QT
6.68 0.79 L
cp
6.68 -0.569 M
6.617 -0.569 6.578 -0.608 QT
6.539 -0.647 6.539 -0.71 QT
6.539 -0.756 6.578 -0.803 QT
6.617 -0.85 6.68 -0.85 QT
11.07 -0.85 L
11.117 -0.85 11.156 -0.803 QT
11.195 -0.756 11.195 -0.71 QT
11.195 -0.647 11.156 -0.608 QT
11.117 -0.569 11.07 -0.569 QT
6.68 -0.569 L
cp
f
GR
GS
[1 0 0 1 83.77916 32.29431] CT
N
15.498 1.884 M
14.639 1.884 14.334 1.173 QT
14.03 0.462 14.03 -0.506 QT
14.03 -1.116 14.139 -1.647 QT
14.248 -2.178 14.576 -2.553 QT
14.905 -2.928 15.498 -2.928 QT
15.967 -2.928 16.256 -2.71 QT
16.545 -2.491 16.701 -2.131 QT
16.858 -1.772 16.912 -1.366 QT
16.967 -0.96 16.967 -0.506 QT
16.967 0.103 16.858 0.626 QT
16.748 1.15 16.42 1.517 QT
16.092 1.884 15.498 1.884 QT
cp
15.498 1.697 M
15.889 1.697 16.076 1.298 QT
16.264 0.9 16.311 0.415 QT
16.358 -0.069 16.358 -0.616 QT
16.358 -1.147 16.311 -1.592 QT
16.264 -2.038 16.076 -2.397 QT
15.889 -2.756 15.498 -2.756 QT
15.108 -2.756 14.912 -2.389 QT
14.717 -2.022 14.67 -1.585 QT
14.623 -1.147 14.623 -0.616 QT
14.623 -0.225 14.647 0.119 QT
14.67 0.462 14.748 0.83 QT
14.826 1.197 15.014 1.447 QT
15.201 1.697 15.498 1.697 QT
cp
f
GR
GS
0 0.447 0.741 RC
1 LJ
N
50.976 32.294 M
80.797 32.294 L
S
GR
GS
[1 0 0 1 83.77916 41.39716] CT
N
1.75 1.884 M
0.891 1.884 0.586 1.173 QT
0.281 0.462 0.281 -0.506 QT
0.281 -1.116 0.391 -1.647 QT
0.5 -2.178 0.828 -2.553 QT
1.156 -2.928 1.75 -2.928 QT
2.219 -2.928 2.508 -2.71 QT
2.797 -2.491 2.953 -2.131 QT
3.109 -1.772 3.164 -1.366 QT
3.219 -0.96 3.219 -0.506 QT
3.219 0.103 3.109 0.626 QT
3 1.15 2.672 1.517 QT
2.344 1.884 1.75 1.884 QT
cp
1.75 1.697 M
2.141 1.697 2.328 1.298 QT
2.516 0.9 2.563 0.415 QT
2.609 -0.069 2.609 -0.616 QT
2.609 -1.147 2.563 -1.592 QT
2.516 -2.038 2.328 -2.397 QT
2.141 -2.756 1.75 -2.756 QT
1.359 -2.756 1.164 -2.389 QT
0.969 -2.022 0.922 -1.585 QT
0.875 -1.147 0.875 -0.616 QT
0.875 -0.225 0.898 0.119 QT
0.922 0.462 1 0.83 QT
1.078 1.197 1.266 1.447 QT
1.453 1.697 1.75 1.697 QT
cp
f
GR
GS
[1 0 0 1 83.77916 41.39716] CT
N
4.194 1.337 M
4.194 1.181 4.311 1.072 QT
4.428 0.962 4.569 0.962 QT
4.663 0.962 4.756 1.009 QT
4.85 1.056 4.905 1.15 QT
4.959 1.244 4.959 1.337 QT
4.959 1.494 4.842 1.611 QT
4.725 1.728 4.569 1.728 QT
4.428 1.728 4.311 1.611 QT
4.194 1.494 4.194 1.337 QT
cp
f
GR
GS
[1 0 0 1 83.77916 41.39716] CT
N
6.256 1.728 M
6.256 1.478 L
7.131 1.478 7.131 1.259 QT
7.131 -2.413 L
6.756 -2.241 6.209 -2.241 QT
6.209 -2.491 L
7.069 -2.491 7.506 -2.928 QT
7.6 -2.928 L
7.631 -2.928 7.655 -2.913 QT
7.678 -2.897 7.678 -2.866 QT
7.678 1.259 L
7.678 1.478 8.553 1.478 QT
8.553 1.728 L
6.256 1.728 L
cp
f
GR
GS
0.851 0.325 0.098 RC
1 LJ
N
50.976 41.397 M
80.797 41.397 L
S
GR
GS
[1 0 0 1 83.77916 50.5] CT
N
0.656 1.728 M
0.656 1.478 L
1.531 1.478 1.531 1.259 QT
1.531 -2.413 L
1.156 -2.241 0.609 -2.241 QT
0.609 -2.491 L
1.469 -2.491 1.906 -2.928 QT
2 -2.928 L
2.031 -2.928 2.055 -2.913 QT
2.078 -2.897 2.078 -2.866 QT
2.078 1.259 L
2.078 1.478 2.953 1.478 QT
2.953 1.728 L
0.656 1.728 L
cp
f
GR
GS
0.929 0.694 0.125 RC
1 LJ
N
50.976 50.5 M
80.797 50.5 L
S
GR
GS
[1 0 0 1 83.77916 59.60284] CT
N
/f-337706809{0.656 1.728 M
0.656 1.478 L
1.531 1.478 1.531 1.259 QT
1.531 -2.413 L
1.156 -2.241 0.609 -2.241 QT
0.609 -2.491 L
1.469 -2.491 1.906 -2.928 QT
2 -2.928 L
2.031 -2.928 2.055 -2.913 QT
2.078 -2.897 2.078 -2.866 QT
2.078 1.259 L
2.078 1.478 2.953 1.478 QT
2.953 1.728 L
0.656 1.728 L
cp}def
f-337706809
f
GR
GS
[1 0 0 1 83.77916 59.60284] CT
N
/f1143816997{5.35 1.884 M
4.491 1.884 4.186 1.173 QT
3.881 0.462 3.881 -0.506 QT
3.881 -1.116 3.991 -1.647 QT
4.1 -2.178 4.428 -2.553 QT
4.756 -2.928 5.35 -2.928 QT
5.819 -2.928 6.108 -2.71 QT
6.397 -2.491 6.553 -2.131 QT
6.709 -1.772 6.764 -1.366 QT
6.819 -0.96 6.819 -0.506 QT
6.819 0.103 6.709 0.626 QT
6.6 1.15 6.272 1.517 QT
5.944 1.884 5.35 1.884 QT
cp
5.35 1.697 M
5.741 1.697 5.928 1.298 QT
6.116 0.9 6.163 0.415 QT
6.209 -0.069 6.209 -0.616 QT
6.209 -1.147 6.163 -1.592 QT
6.116 -2.038 5.928 -2.397 QT
5.741 -2.756 5.35 -2.756 QT
4.959 -2.756 4.764 -2.389 QT
4.569 -2.022 4.522 -1.585 QT
4.475 -1.147 4.475 -0.616 QT
4.475 -0.225 4.498 0.119 QT
4.522 0.462 4.6 0.83 QT
4.678 1.197 4.866 1.447 QT
5.053 1.697 5.35 1.697 QT
cp}def
f1143816997
f
GR
GS
0.494 0.184 0.557 RC
1 LJ
N
50.976 59.603 M
80.797 59.603 L
S
GR
GS
[1 0 0 1 83.77916 68.70569] CT
N
f-337706809
f
GR
GS
[1 0 0 1 83.77916 68.70569] CT
N
f1143816997
f
GR
GS
[1 0 0 1 83.77916 68.70569] CT
N
/f1134675100{8.95 1.884 M
8.091 1.884 7.786 1.173 QT
7.481 0.462 7.481 -0.506 QT
7.481 -1.116 7.591 -1.647 QT
7.7 -2.178 8.028 -2.553 QT
8.356 -2.928 8.95 -2.928 QT
9.419 -2.928 9.708 -2.71 QT
9.997 -2.491 10.153 -2.131 QT
10.309 -1.772 10.364 -1.366 QT
10.419 -0.96 10.419 -0.506 QT
10.419 0.103 10.309 0.626 QT
10.2 1.15 9.872 1.517 QT
9.544 1.884 8.95 1.884 QT
cp
8.95 1.697 M
9.341 1.697 9.528 1.298 QT
9.716 0.9 9.763 0.415 QT
9.809 -0.069 9.809 -0.616 QT
9.809 -1.147 9.763 -1.592 QT
9.716 -2.038 9.528 -2.397 QT
9.341 -2.756 8.95 -2.756 QT
8.559 -2.756 8.364 -2.389 QT
8.169 -2.022 8.122 -1.585 QT
8.075 -1.147 8.075 -0.616 QT
8.075 -0.225 8.098 0.119 QT
8.122 0.462 8.2 0.83 QT
8.278 1.197 8.466 1.447 QT
8.653 1.697 8.95 1.697 QT
cp}def
f1134675100
f
GR
GS
0.467 0.675 0.188 RC
1 LJ
N
50.976 68.706 M
80.797 68.706 L
S
GR
GS
0.149 GC
10.0 ML
0.5 LW
N
47 75 M
47 26 L
105 26 L
105 75 L
cp
S
GR
%%Trailer
%%Pages: 1
%%EOF
