%!PS-Adobe-3.0 EPSF-3.0
%%Creator: (MATLAB, The Mathworks, Inc. Version 9.3.0.713579 \(R2017b\). Operating System: Mac OS X)
%%Title: ./dnorm_dist.eps
%%CreationDate: 2018-08-06T00:14:12
%%Pages: (atend)
%%BoundingBox:    61     0   523   106
%%LanguageLevel: 3
%%EndComments
%%BeginProlog
%%BeginResource: procset (Apache XML Graphics Std ProcSet) 1.2 0
%%Version: 1.2 0
%%Copyright: (Copyright 2001-2003,2010 The Apache Software Foundation. License terms: http://www.apache.org/licenses/LICENSE-2.0)
/bd{bind def}bind def
/ld{load def}bd
/GR/grestore ld
/GS/gsave ld
/RM/rmoveto ld
/C/curveto ld
/t/show ld
/L/lineto ld
/ML/setmiterlimit ld
/CT/concat ld
/f/fill ld
/N/newpath ld
/S/stroke ld
/CC/setcmykcolor ld
/A/ashow ld
/cp/closepath ld
/RC/setrgbcolor ld
/LJ/setlinejoin ld
/GC/setgray ld
/LW/setlinewidth ld
/M/moveto ld
/re {4 2 roll M
1 index 0 rlineto
0 exch rlineto
neg 0 rlineto
cp } bd
/_ctm matrix def
/_tm matrix def
/BT { _ctm currentmatrix pop matrix _tm copy pop 0 0 moveto } bd
/ET { _ctm setmatrix } bd
/iTm { _ctm setmatrix _tm concat } bd
/Tm { _tm astore pop iTm 0 0 moveto } bd
/ux 0.0 def
/uy 0.0 def
/F {
  /Tp exch def
  /Tf exch def
  Tf findfont Tp scalefont setfont
  /cf Tf def  /cs Tp def
} bd
/ULS {currentpoint /uy exch def /ux exch def} bd
/ULE {
  /Tcx currentpoint pop def
  gsave
  newpath
  cf findfont cs scalefont dup
  /FontMatrix get 0 get /Ts exch def /FontInfo get dup
  /UnderlinePosition get Ts mul /To exch def
  /UnderlineThickness get Ts mul /Tt exch def
  ux uy To add moveto  Tcx uy To add lineto
  Tt setlinewidth stroke
  grestore
} bd
/OLE {
  /Tcx currentpoint pop def
  gsave
  newpath
  cf findfont cs scalefont dup
  /FontMatrix get 0 get /Ts exch def /FontInfo get dup
  /UnderlinePosition get Ts mul /To exch def
  /UnderlineThickness get Ts mul /Tt exch def
  ux uy To add cs add moveto Tcx uy To add cs add lineto
  Tt setlinewidth stroke
  grestore
} bd
/SOE {
  /Tcx currentpoint pop def
  gsave
  newpath
  cf findfont cs scalefont dup
  /FontMatrix get 0 get /Ts exch def /FontInfo get dup
  /UnderlinePosition get Ts mul /To exch def
  /UnderlineThickness get Ts mul /Tt exch def
  ux uy To add cs 10 mul 26 idiv add moveto Tcx uy To add cs 10 mul 26 idiv add lineto
  Tt setlinewidth stroke
  grestore
} bd
/QT {
/Y22 exch store
/X22 exch store
/Y21 exch store
/X21 exch store
currentpoint
/Y21 load 2 mul add 3 div exch
/X21 load 2 mul add 3 div exch
/X21 load 2 mul /X22 load add 3 div
/Y21 load 2 mul /Y22 load add 3 div
/X22 load /Y22 load curveto
} bd
/SSPD {
dup length /d exch dict def
{
/v exch def
/k exch def
currentpagedevice k known {
/cpdv currentpagedevice k get def
v cpdv ne {
/upd false def
/nullv v type /nulltype eq def
/nullcpdv cpdv type /nulltype eq def
nullv nullcpdv or
{
/upd true def
} {
/sametype v type cpdv type eq def
sametype {
v type /arraytype eq {
/vlen v length def
/cpdvlen cpdv length def
vlen cpdvlen eq {
0 1 vlen 1 sub {
/i exch def
/obj v i get def
/cpdobj cpdv i get def
obj cpdobj ne {
/upd true def
exit
} if
} for
} {
/upd true def
} ifelse
} {
v type /dicttype eq {
v {
/dv exch def
/dk exch def
/cpddv cpdv dk get def
dv cpddv ne {
/upd true def
exit
} if
} forall
} {
/upd true def
} ifelse
} ifelse
} if
} ifelse
upd true eq {
d k v put
} if
} if
} if
} forall
d length 0 gt {
d setpagedevice
} if
} bd
/RE { % /NewFontName [NewEncodingArray] /FontName RE -
  findfont dup length dict begin
  {
    1 index /FID ne
    {def} {pop pop} ifelse
  } forall
  /Encoding exch def
  /FontName 1 index def
  currentdict definefont pop
  end
} bind def
%%EndResource
%%BeginResource: procset (Apache XML Graphics EPS ProcSet) 1.0 0
%%Version: 1.0 0
%%Copyright: (Copyright 2002-2003 The Apache Software Foundation. License terms: http://www.apache.org/licenses/LICENSE-2.0)
/BeginEPSF { %def
/b4_Inc_state save def         % Save state for cleanup
/dict_count countdictstack def % Count objects on dict stack
/op_count count 1 sub def      % Count objects on operand stack
userdict begin                 % Push userdict on dict stack
/showpage { } def              % Redefine showpage, { } = null proc
0 setgray 0 setlinecap         % Prepare graphics state
1 setlinewidth 0 setlinejoin
10 setmiterlimit [ ] 0 setdash newpath
/languagelevel where           % If level not equal to 1 then
{pop languagelevel             % set strokeadjust and
1 ne                           % overprint to their defaults.
{false setstrokeadjust false setoverprint
} if
} if
} bd
/EndEPSF { %def
count op_count sub {pop} repeat            % Clean up stacks
countdictstack dict_count sub {end} repeat
b4_Inc_state restore
} bd
%%EndResource
%FOPBeginFontDict
%%IncludeResource: font Courier-Oblique
%%IncludeResource: font Courier-BoldOblique
%%IncludeResource: font Courier-Bold
%%IncludeResource: font ZapfDingbats
%%IncludeResource: font Symbol
%%IncludeResource: font Helvetica
%%IncludeResource: font Helvetica-Oblique
%%IncludeResource: font Helvetica-Bold
%%IncludeResource: font Helvetica-BoldOblique
%%IncludeResource: font Times-Roman
%%IncludeResource: font Times-Italic
%%IncludeResource: font Times-Bold
%%IncludeResource: font Times-BoldItalic
%%IncludeResource: font Courier
%FOPEndFontDict
%%BeginResource: encoding WinAnsiEncoding
/WinAnsiEncoding [
/.notdef /.notdef /.notdef /.notdef /.notdef
/.notdef /.notdef /.notdef /.notdef /.notdef
/.notdef /.notdef /.notdef /.notdef /.notdef
/.notdef /.notdef /.notdef /.notdef /.notdef
/.notdef /.notdef /.notdef /.notdef /.notdef
/.notdef /.notdef /.notdef /.notdef /.notdef
/.notdef /.notdef /space /exclam /quotedbl
/numbersign /dollar /percent /ampersand /quotesingle
/parenleft /parenright /asterisk /plus /comma
/hyphen /period /slash /zero /one
/two /three /four /five /six
/seven /eight /nine /colon /semicolon
/less /equal /greater /question /at
/A /B /C /D /E
/F /G /H /I /J
/K /L /M /N /O
/P /Q /R /S /T
/U /V /W /X /Y
/Z /bracketleft /backslash /bracketright /asciicircum
/underscore /quoteleft /a /b /c
/d /e /f /g /h
/i /j /k /l /m
/n /o /p /q /r
/s /t /u /v /w
/x /y /z /braceleft /bar
/braceright /asciitilde /bullet /Euro /bullet
/quotesinglbase /florin /quotedblbase /ellipsis /dagger
/daggerdbl /circumflex /perthousand /Scaron /guilsinglleft
/OE /bullet /Zcaron /bullet /bullet
/quoteleft /quoteright /quotedblleft /quotedblright /bullet
/endash /emdash /asciitilde /trademark /scaron
/guilsinglright /oe /bullet /zcaron /Ydieresis
/space /exclamdown /cent /sterling /currency
/yen /brokenbar /section /dieresis /copyright
/ordfeminine /guillemotleft /logicalnot /sfthyphen /registered
/macron /degree /plusminus /twosuperior /threesuperior
/acute /mu /paragraph /middot /cedilla
/onesuperior /ordmasculine /guillemotright /onequarter /onehalf
/threequarters /questiondown /Agrave /Aacute /Acircumflex
/Atilde /Adieresis /Aring /AE /Ccedilla
/Egrave /Eacute /Ecircumflex /Edieresis /Igrave
/Iacute /Icircumflex /Idieresis /Eth /Ntilde
/Ograve /Oacute /Ocircumflex /Otilde /Odieresis
/multiply /Oslash /Ugrave /Uacute /Ucircumflex
/Udieresis /Yacute /Thorn /germandbls /agrave
/aacute /acircumflex /atilde /adieresis /aring
/ae /ccedilla /egrave /eacute /ecircumflex
/edieresis /igrave /iacute /icircumflex /idieresis
/eth /ntilde /ograve /oacute /ocircumflex
/otilde /odieresis /divide /oslash /ugrave
/uacute /ucircumflex /udieresis /yacute /thorn
/ydieresis
] def
%%EndResource
%FOPBeginFontReencode
/Courier-Oblique findfont
dup length dict begin
  {1 index /FID ne {def} {pop pop} ifelse} forall
  /Encoding WinAnsiEncoding def
  currentdict
end
/Courier-Oblique exch definefont pop
/Courier-BoldOblique findfont
dup length dict begin
  {1 index /FID ne {def} {pop pop} ifelse} forall
  /Encoding WinAnsiEncoding def
  currentdict
end
/Courier-BoldOblique exch definefont pop
/Courier-Bold findfont
dup length dict begin
  {1 index /FID ne {def} {pop pop} ifelse} forall
  /Encoding WinAnsiEncoding def
  currentdict
end
/Courier-Bold exch definefont pop
/Helvetica findfont
dup length dict begin
  {1 index /FID ne {def} {pop pop} ifelse} forall
  /Encoding WinAnsiEncoding def
  currentdict
end
/Helvetica exch definefont pop
/Helvetica-Oblique findfont
dup length dict begin
  {1 index /FID ne {def} {pop pop} ifelse} forall
  /Encoding WinAnsiEncoding def
  currentdict
end
/Helvetica-Oblique exch definefont pop
/Helvetica-Bold findfont
dup length dict begin
  {1 index /FID ne {def} {pop pop} ifelse} forall
  /Encoding WinAnsiEncoding def
  currentdict
end
/Helvetica-Bold exch definefont pop
/Helvetica-BoldOblique findfont
dup length dict begin
  {1 index /FID ne {def} {pop pop} ifelse} forall
  /Encoding WinAnsiEncoding def
  currentdict
end
/Helvetica-BoldOblique exch definefont pop
/Times-Roman findfont
dup length dict begin
  {1 index /FID ne {def} {pop pop} ifelse} forall
  /Encoding WinAnsiEncoding def
  currentdict
end
/Times-Roman exch definefont pop
/Times-Italic findfont
dup length dict begin
  {1 index /FID ne {def} {pop pop} ifelse} forall
  /Encoding WinAnsiEncoding def
  currentdict
end
/Times-Italic exch definefont pop
/Times-Bold findfont
dup length dict begin
  {1 index /FID ne {def} {pop pop} ifelse} forall
  /Encoding WinAnsiEncoding def
  currentdict
end
/Times-Bold exch definefont pop
/Times-BoldItalic findfont
dup length dict begin
  {1 index /FID ne {def} {pop pop} ifelse} forall
  /Encoding WinAnsiEncoding def
  currentdict
end
/Times-BoldItalic exch definefont pop
/Courier findfont
dup length dict begin
  {1 index /FID ne {def} {pop pop} ifelse} forall
  /Encoding WinAnsiEncoding def
  currentdict
end
/Courier exch definefont pop
%FOPEndFontReencode
%%EndProlog
%%Page: 1 1
%%PageBoundingBox: 0 0 576 108
%%BeginPageSetup
[1 0 0 -1 0 108] CT
%%EndPageSetup
GS
1 GC
N
0 0 576 108 re
f
GR
GS
1 GC
N
0 0 576 108 re
f
GR
GS
1 GC
N
75 83.5 M
134 83.5 L
134 13 L
75 13 L
cp
f
GR
GS
[1 0 0 1 104.5001 11.9] CT
/Times-Bold 8.8 F
GS
[1 0 0 1 0 0] CT
-19.5 -2 moveto 
1 -1 scale
(Strategy 1) t 
GR
GR
GS
0.821 GC
N
77.832 83.5 M
77.832 67.867 L
75 67.867 L
75 83.5 L
cp
80.664 83.5 M
80.664 73.918 L
77.832 73.918 L
77.832 83.5 L
cp
83.496 83.5 M
83.496 74.423 L
80.664 74.423 L
80.664 83.5 L
cp
86.328 74.927 M
83.496 74.927 L
83.496 83.5 L
86.328 83.5 L
89.16 83.5 L
89.16 74.927 L
cp
91.992 83.5 M
91.992 70.388 L
89.16 70.388 L
89.16 83.5 L
cp
94.824 83.5 M
94.824 72.406 L
91.992 72.406 L
91.992 83.5 L
cp
97.656 83.5 M
97.656 73.414 L
94.824 73.414 L
94.824 83.5 L
cp
100.488 83.5 M
100.488 71.397 L
97.656 71.397 L
97.656 83.5 L
cp
103.32 83.5 M
103.32 67.867 L
100.488 67.867 L
100.488 83.5 L
cp
106.152 83.5 M
106.152 72.91 L
103.32 72.91 L
103.32 83.5 L
cp
108.984 83.5 M
108.984 70.893 L
106.152 70.893 L
106.152 83.5 L
cp
111.816 83.5 M
111.816 67.867 L
108.984 67.867 L
108.984 83.5 L
cp
114.648 83.5 M
114.648 70.388 L
111.816 70.388 L
111.816 83.5 L
cp
117.48 83.5 M
117.48 68.371 L
114.648 68.371 L
114.648 83.5 L
cp
120.312 65.345 M
117.48 65.345 L
117.48 83.5 L
120.312 83.5 L
123.144 83.5 L
123.144 65.345 L
cp
125.976 63.328 M
123.144 63.328 L
123.144 83.5 L
125.976 83.5 L
128.808 83.5 L
128.808 63.328 L
cp
131.64 83.5 M
131.64 56.268 L
128.808 56.268 L
128.808 83.5 L
cp
134 83.5 M
134 15.421 L
131.64 15.421 L
131.64 83.5 L
cp
f
GR
GS
2 setlinecap
10.0 ML
0.5 LW
N
75 83.5 M
75 67.867 L
77.832 67.867 L
77.832 83.5 L
77.832 83.5 L
S
GR
GS
2 setlinecap
10.0 ML
0.5 LW
N
77.832 73.918 M
80.664 73.918 L
80.664 83.5 L
80.664 83.5 L
S
GR
GS
2 setlinecap
10.0 ML
0.5 LW
N
80.664 74.423 M
83.496 74.423 L
83.496 83.5 L
83.496 83.5 L
S
GR
GS
2 setlinecap
10.0 ML
0.5 LW
N
83.496 74.927 M
86.328 74.927 L
86.328 83.5 L
86.328 83.5 L
S
GR
GS
2 setlinecap
10.0 ML
0.5 LW
N
86.328 74.927 M
89.16 74.927 L
S
GR
GS
2 setlinecap
10.0 ML
0.5 LW
N
89.16 83.5 M
89.16 83.5 L
89.16 70.388 L
91.992 70.388 L
91.992 83.5 L
91.992 83.5 L
S
GR
GS
2 setlinecap
10.0 ML
0.5 LW
N
91.992 72.406 M
94.824 72.406 L
94.824 83.5 L
94.824 83.5 L
S
GR
GS
2 setlinecap
10.0 ML
0.5 LW
N
94.824 73.414 M
97.656 73.414 L
S
GR
GS
2 setlinecap
10.0 ML
0.5 LW
N
97.656 83.5 M
97.656 83.5 L
97.656 71.397 L
100.488 71.397 L
S
GR
GS
2 setlinecap
10.0 ML
0.5 LW
N
100.488 83.5 M
100.488 83.5 L
100.488 67.867 L
103.32 67.867 L
103.32 83.5 L
103.32 83.5 L
S
GR
GS
2 setlinecap
10.0 ML
0.5 LW
N
103.32 72.91 M
106.152 72.91 L
S
GR
GS
2 setlinecap
10.0 ML
0.5 LW
N
106.152 83.5 M
106.152 83.5 L
106.152 70.893 L
108.984 70.893 L
S
GR
GS
2 setlinecap
10.0 ML
0.5 LW
N
108.984 83.5 M
108.984 83.5 L
108.984 67.867 L
111.816 67.867 L
111.816 83.5 L
111.816 83.5 L
S
GR
GS
2 setlinecap
10.0 ML
0.5 LW
N
111.816 70.388 M
114.648 70.388 L
S
GR
GS
2 setlinecap
10.0 ML
0.5 LW
N
114.648 83.5 M
114.648 83.5 L
114.648 68.371 L
117.48 68.371 L
S
GR
GS
2 setlinecap
10.0 ML
0.5 LW
N
117.48 83.5 M
117.48 83.5 L
117.48 65.345 L
120.312 65.345 L
120.312 83.5 L
120.312 83.5 L
S
GR
GS
2 setlinecap
10.0 ML
0.5 LW
N
120.312 65.345 M
123.144 65.345 L
S
GR
GS
2 setlinecap
10.0 ML
0.5 LW
N
123.144 83.5 M
123.144 83.5 L
123.144 63.328 L
125.976 63.328 L
125.976 83.5 L
125.976 83.5 L
S
GR
GS
2 setlinecap
10.0 ML
0.5 LW
N
125.976 63.328 M
128.808 63.328 L
S
GR
GS
2 setlinecap
10.0 ML
0.5 LW
N
128.808 83.5 M
128.808 83.5 L
128.808 56.268 L
131.64 56.268 L
S
GR
GS
2 setlinecap
10.0 ML
0.5 LW
N
131.64 83.5 M
131.64 83.5 L
131.64 15.421 L
134 15.421 L
134 83.5 L
S
GR
GS
0.149 GC
2 setlinecap
1 LJ
0.5 LW
N
75 83.5 M
134 83.5 L
S
GR
GS
0.149 GC
2 setlinecap
1 LJ
0.5 LW
N
75 13 M
134 13 L
S
GR
GS
0.149 GC
2 setlinecap
1 LJ
0.5 LW
N
75 83.5 M
75 82.795 L
S
GR
GS
0.149 GC
2 setlinecap
1 LJ
0.5 LW
N
104.5 83.5 M
104.5 82.795 L
S
GR
GS
0.149 GC
2 setlinecap
1 LJ
0.5 LW
N
134 83.5 M
134 82.795 L
S
GR
GS
0.149 GC
2 setlinecap
1 LJ
0.5 LW
N
75 13 M
75 13.705 L
S
GR
GS
0.149 GC
2 setlinecap
1 LJ
0.5 LW
N
104.5 13 M
104.5 13.705 L
S
GR
GS
0.149 GC
2 setlinecap
1 LJ
0.5 LW
N
134 13 M
134 13.705 L
S
GR
GS
[1 0 0 1 75 87.1] CT
0.149 GC
/Times-Roman 8 F
GS
[1 0 0 1 0 0] CT
-2 8 moveto 
1 -1 scale
(0) t 
GR
GR
GS
[1 0 0 1 104.5 87.1] CT
0.149 GC
/Times-Roman 8 F
GS
[1 0 0 1 0 0] CT
-5 8 moveto 
1 -1 scale
(0.5) t 
GR
GR
GS
[1 0 0 1 134 87.1] CT
0.149 GC
/Times-Roman 8 F
GS
[1 0 0 1 0 0] CT
-2 8 moveto 
1 -1 scale
(1) t 
GR
GR
GS
[1 0 0 1 104.50003 97.6] CT
0.149 GC
N
-13.049 7.392 M
-13.127 7.392 -13.127 7.267 QT
-13.127 7.251 -13.119 7.197 QT
-13.111 7.142 -13.08 7.111 QT
-13.049 7.079 -13.018 7.079 QT
-12.471 7.079 -12.252 7.017 QT
-12.143 6.97 -12.08 6.767 QT
-10.846 1.829 L
-10.83 1.736 -10.83 1.704 QT
-10.83 1.611 -10.939 1.595 QT
-11.111 1.564 -11.58 1.564 QT
-11.674 1.564 -11.674 1.439 QT
-11.674 1.423 -11.658 1.369 QT
-11.643 1.314 -11.619 1.283 QT
-11.596 1.251 -11.564 1.251 QT
-8.33 1.251 L
-7.705 1.251 -7.229 1.556 QT
-6.752 1.861 -6.502 2.376 QT
-6.252 2.892 -6.252 3.517 QT
-6.252 4.204 -6.541 4.892 QT
-6.83 5.579 -7.346 6.15 QT
-7.861 6.72 -8.518 7.056 QT
-9.174 7.392 -9.877 7.392 QT
-13.049 7.392 L
cp
-11.361 7.001 M
-11.361 7.079 -11.049 7.079 QT
-10.018 7.079 L
-9.502 7.079 -9.041 6.869 QT
-8.58 6.658 -8.205 6.298 QT
-7.877 5.97 -7.619 5.415 QT
-7.361 4.861 -7.213 4.267 QT
-7.064 3.673 -7.064 3.173 QT
-7.064 2.798 -7.174 2.509 QT
-7.283 2.22 -7.479 2.009 QT
-7.674 1.798 -7.971 1.681 QT
-8.268 1.564 -8.627 1.564 QT
-9.627 1.564 L
-9.877 1.564 -9.955 1.603 QT
-10.033 1.642 -10.096 1.861 QT
-11.33 6.814 L
-11.361 6.923 -11.361 7.001 QT
cp
f
GR
GS
[1 0 0 1 104.50003 97.6] CT
0.149 GC
N
-6.029 8.712 M
-6.029 8.493 L
-5.81 8.493 -5.685 8.462 QT
-5.56 8.431 -5.56 8.306 QT
-5.56 6.665 L
-5.56 6.509 -5.607 6.439 QT
-5.654 6.368 -5.74 6.353 QT
-5.826 6.337 -6.029 6.337 QT
-6.029 6.118 L
-5.154 6.056 L
-5.154 6.649 L
-5.029 6.384 -4.794 6.22 QT
-4.56 6.056 -4.279 6.056 QT
-3.591 6.056 -3.466 6.618 QT
-3.357 6.368 -3.123 6.212 QT
-2.888 6.056 -2.607 6.056 QT
-2.341 6.056 -2.154 6.149 QT
-1.966 6.243 -1.873 6.423 QT
-1.779 6.603 -1.779 6.868 QT
-1.779 8.306 L
-1.779 8.431 -1.646 8.462 QT
-1.513 8.493 -1.31 8.493 QT
-1.31 8.712 L
-2.685 8.712 L
-2.685 8.493 L
-2.482 8.493 -2.349 8.462 QT
-2.216 8.431 -2.216 8.306 QT
-2.216 6.884 L
-2.216 6.587 -2.302 6.399 QT
-2.388 6.212 -2.654 6.212 QT
-2.998 6.212 -3.224 6.493 QT
-3.451 6.774 -3.451 7.134 QT
-3.451 8.306 L
-3.451 8.431 -3.318 8.462 QT
-3.185 8.493 -2.982 8.493 QT
-2.982 8.712 L
-4.357 8.712 L
-4.357 8.493 L
-4.154 8.493 -4.021 8.462 QT
-3.888 8.431 -3.888 8.306 QT
-3.888 6.884 L
-3.888 6.587 -3.974 6.399 QT
-4.06 6.212 -4.31 6.212 QT
-4.669 6.212 -4.888 6.493 QT
-5.107 6.774 -5.107 7.134 QT
-5.107 8.306 L
-5.107 8.431 -4.982 8.462 QT
-4.857 8.493 -4.654 8.493 QT
-4.654 8.712 L
-6.029 8.712 L
cp
f
GR
GS
[1 0 0 1 104.50003 97.6] CT
0.149 GC
N
-0.88 8.712 M
-0.88 8.493 L
-0.677 8.493 -0.544 8.462 QT
-0.411 8.431 -0.411 8.306 QT
-0.411 6.665 L
-0.411 6.446 -0.505 6.392 QT
-0.599 6.337 -0.849 6.337 QT
-0.849 6.118 L
0.011 6.056 L
0.011 8.306 L
0.011 8.431 0.12 8.462 QT
0.23 8.493 0.433 8.493 QT
0.433 8.712 L
-0.88 8.712 L
cp
-0.63 5.024 M
-0.63 4.899 -0.528 4.798 QT
-0.427 4.696 -0.302 4.696 QT
-0.208 4.696 -0.13 4.743 QT
-0.052 4.79 -0.013 4.868 QT
0.026 4.946 0.026 5.024 QT
0.026 5.165 -0.067 5.259 QT
-0.161 5.353 -0.302 5.353 QT
-0.427 5.353 -0.528 5.259 QT
-0.63 5.165 -0.63 5.024 QT
cp
f
GR
GS
[1 0 0 1 104.50003 97.6] CT
0.149 GC
N
0.816 8.712 M
0.816 8.493 L
1.034 8.493 1.159 8.462 QT
1.284 8.431 1.284 8.306 QT
1.284 6.665 L
1.284 6.509 1.238 6.439 QT
1.191 6.368 1.105 6.353 QT
1.019 6.337 0.816 6.337 QT
0.816 6.118 L
1.691 6.056 L
1.691 6.649 L
1.816 6.384 2.05 6.22 QT
2.284 6.056 2.566 6.056 QT
2.972 6.056 3.183 6.259 QT
3.394 6.462 3.394 6.868 QT
3.394 8.306 L
3.394 8.431 3.527 8.462 QT
3.659 8.493 3.863 8.493 QT
3.863 8.712 L
2.488 8.712 L
2.488 8.493 L
2.691 8.493 2.823 8.462 QT
2.956 8.431 2.956 8.306 QT
2.956 6.884 L
2.956 6.587 2.87 6.399 QT
2.784 6.212 2.534 6.212 QT
2.175 6.212 1.956 6.493 QT
1.738 6.774 1.738 7.134 QT
1.738 8.306 L
1.738 8.431 1.863 8.462 QT
1.988 8.493 2.191 8.493 QT
2.191 8.712 L
0.816 8.712 L
cp
f
GR
GS
[1 0 0 1 104.50003 97.6] CT
0.149 GC
N
5.006 9.454 M
5.006 9.439 5.022 9.423 QT
8.147 0.751 L
8.162 0.704 8.209 0.673 QT
8.256 0.642 8.319 0.642 QT
8.397 0.642 8.444 0.689 QT
8.49 0.736 8.49 0.829 QT
8.49 0.861 L
5.365 9.533 L
5.303 9.642 5.194 9.642 QT
5.115 9.642 5.061 9.587 QT
5.006 9.533 5.006 9.454 QT
cp
f
GR
GS
[1 0 0 1 104.50003 97.6] CT
0.149 GC
N
10.469 7.486 M
9.906 7.486 9.578 7.064 QT
9.25 6.642 9.25 6.048 QT
9.25 5.47 9.547 4.853 QT
9.844 4.236 10.351 3.822 QT
10.859 3.408 11.453 3.408 QT
11.703 3.408 11.922 3.556 QT
12.14 3.704 12.25 3.954 QT
12.765 1.954 L
12.797 1.798 12.797 1.704 QT
12.797 1.564 12.219 1.564 QT
12.125 1.564 12.125 1.439 QT
12.125 1.423 12.14 1.361 QT
12.156 1.298 12.187 1.275 QT
12.219 1.251 12.25 1.251 QT
13.469 1.142 L
13.578 1.142 13.578 1.267 QT
12.281 6.439 L
12.219 6.595 12.219 6.876 QT
12.219 7.251 12.484 7.251 QT
12.765 7.251 12.914 6.892 QT
13.062 6.533 13.156 6.064 QT
13.172 6.017 13.219 6.017 QT
13.344 6.017 L
13.375 6.017 13.398 6.048 QT
13.422 6.079 13.422 6.111 QT
13.25 6.736 13.07 7.111 QT
12.89 7.486 12.469 7.486 QT
12.156 7.486 11.922 7.314 QT
11.687 7.142 11.64 6.845 QT
11.062 7.486 10.469 7.486 QT
cp
10.484 7.251 M
10.812 7.251 11.117 7.009 QT
11.422 6.767 11.64 6.439 QT
11.64 6.423 11.64 6.408 QT
12.14 4.423 L
12.078 4.111 11.898 3.876 QT
11.719 3.642 11.422 3.642 QT
11.125 3.642 10.859 3.892 QT
10.594 4.142 10.422 4.486 QT
10.25 4.845 10.086 5.47 QT
9.922 6.095 9.922 6.454 QT
9.922 6.751 10.054 7.001 QT
10.187 7.251 10.484 7.251 QT
cp
f
GR
GS
0.149 GC
2 setlinecap
1 LJ
0.5 LW
N
75 83.5 M
75 13 L
S
GR
GS
0.149 GC
2 setlinecap
1 LJ
0.5 LW
N
134 83.5 M
134 13 L
S
GR
GS
0.149 GC
2 setlinecap
1 LJ
0.5 LW
N
75 83.5 M
75.705 83.5 L
S
GR
GS
0.149 GC
2 setlinecap
1 LJ
0.5 LW
N
75 48.25 M
75.705 48.25 L
S
GR
GS
0.149 GC
2 setlinecap
1 LJ
0.5 LW
N
75 13 M
75.705 13 L
S
GR
GS
0.149 GC
2 setlinecap
1 LJ
0.5 LW
N
134 83.5 M
133.295 83.5 L
S
GR
GS
0.149 GC
2 setlinecap
1 LJ
0.5 LW
N
134 48.25 M
133.295 48.25 L
S
GR
GS
0.149 GC
2 setlinecap
1 LJ
0.5 LW
N
134 13 M
133.295 13 L
S
GR
GS
[1 0 0 1 71.4 83.5] CT
0.149 GC
/Times-Roman 8 F
GS
[1 0 0 1 0 0] CT
-4 3 moveto 
1 -1 scale
(0) t 
GR
GR
GS
[1 0 0 1 71.4 48.25] CT
0.149 GC
/Times-Roman 8 F
GS
[1 0 0 1 0 0] CT
-10 3 moveto 
1 -1 scale
(0.1) t 
GR
GR
GS
[1 0 0 1 71.4 13] CT
0.149 GC
/Times-Roman 8 F
GS
[1 0 0 1 0 0] CT
-10 3 moveto 
1 -1 scale
(0.2) t 
GR
GR
GS
1 GC
N
152.5 83.5 M
211.5 83.5 L
211.5 13 L
152.5 13 L
cp
f
GR
GS
[1 0 0 1 182.00017 11.9] CT
/Times-Bold 8.8 F
GS
[1 0 0 1 0 0] CT
-19.5 -2 moveto 
1 -1 scale
(Strategy 2) t 
GR
GR
GS
0.821 GC
N
155.332 83.5 M
155.332 73.078 L
152.5 73.078 L
152.5 83.5 L
cp
158.164 83.5 M
158.164 77.449 L
155.332 77.449 L
155.332 83.5 L
cp
160.996 83.5 M
160.996 78.121 L
158.164 78.121 L
158.164 83.5 L
cp
163.828 83.5 M
163.828 77.785 L
160.996 77.785 L
160.996 83.5 L
cp
166.66 83.5 M
166.66 78.121 L
163.828 78.121 L
163.828 83.5 L
cp
169.492 83.5 M
169.492 74.423 L
166.66 74.423 L
166.66 83.5 L
cp
172.324 83.5 M
172.324 75.768 L
169.492 75.768 L
169.492 83.5 L
cp
175.156 83.5 M
175.156 77.785 L
172.324 77.785 L
172.324 83.5 L
cp
177.988 83.5 M
177.988 75.095 L
175.156 75.095 L
175.156 83.5 L
cp
180.82 83.5 M
180.82 74.423 L
177.988 74.423 L
177.988 83.5 L
cp
183.652 83.5 M
183.652 74.087 L
180.82 74.087 L
180.82 83.5 L
cp
186.484 83.5 M
186.484 76.44 L
183.652 76.44 L
183.652 83.5 L
cp
189.316 83.5 M
189.316 75.095 L
186.484 75.095 L
186.484 83.5 L
cp
192.148 83.5 M
192.148 73.75 L
189.316 73.75 L
189.316 83.5 L
cp
194.98 83.5 M
194.98 74.423 L
192.148 74.423 L
192.148 83.5 L
cp
197.812 83.5 M
197.812 72.406 L
194.98 72.406 L
194.98 83.5 L
cp
200.644 83.5 M
200.644 71.061 L
197.812 71.061 L
197.812 83.5 L
cp
203.476 83.5 M
203.476 70.052 L
200.644 70.052 L
200.644 83.5 L
cp
206.308 83.5 M
206.308 71.061 L
203.476 71.061 L
203.476 83.5 L
cp
209.14 83.5 M
209.14 64.001 L
206.308 64.001 L
206.308 83.5 L
cp
211.5 83.5 M
211.5 34.079 L
209.14 34.079 L
209.14 83.5 L
cp
f
GR
GS
2 setlinecap
10.0 ML
0.5 LW
N
152.5 83.5 M
152.5 73.078 L
155.332 73.078 L
155.332 83.5 L
155.332 83.5 L
S
GR
GS
2 setlinecap
10.0 ML
0.5 LW
N
155.332 77.449 M
158.164 77.449 L
158.164 83.5 L
158.164 83.5 L
S
GR
GS
2 setlinecap
10.0 ML
0.5 LW
N
158.164 78.121 M
160.996 78.121 L
S
GR
GS
2 setlinecap
10.0 ML
0.5 LW
N
160.996 83.5 M
160.996 83.5 L
160.996 77.785 L
163.828 77.785 L
163.828 83.5 L
163.828 83.5 L
S
GR
GS
2 setlinecap
10.0 ML
0.5 LW
N
163.828 78.121 M
166.66 78.121 L
S
GR
GS
2 setlinecap
10.0 ML
0.5 LW
N
166.66 83.5 M
166.66 83.5 L
166.66 74.423 L
169.492 74.423 L
169.492 83.5 L
169.492 83.5 L
S
GR
GS
2 setlinecap
10.0 ML
0.5 LW
N
169.492 75.768 M
172.324 75.768 L
172.324 83.5 L
172.324 83.5 L
S
GR
GS
2 setlinecap
10.0 ML
0.5 LW
N
172.324 77.785 M
175.156 77.785 L
S
GR
GS
2 setlinecap
10.0 ML
0.5 LW
N
175.156 83.5 M
175.156 83.5 L
175.156 75.095 L
177.988 75.095 L
S
GR
GS
2 setlinecap
10.0 ML
0.5 LW
N
177.988 83.5 M
177.988 83.5 L
177.988 74.423 L
180.82 74.423 L
S
GR
GS
2 setlinecap
10.0 ML
0.5 LW
N
180.82 83.5 M
180.82 83.5 L
180.82 74.087 L
183.652 74.087 L
183.652 83.5 L
183.652 83.5 L
S
GR
GS
2 setlinecap
10.0 ML
0.5 LW
N
183.652 76.44 M
186.484 76.44 L
S
GR
GS
2 setlinecap
10.0 ML
0.5 LW
N
186.484 83.5 M
186.484 83.5 L
186.484 75.095 L
189.316 75.095 L
S
GR
GS
2 setlinecap
10.0 ML
0.5 LW
N
189.316 83.5 M
189.316 83.5 L
189.316 73.75 L
192.148 73.75 L
192.148 83.5 L
192.148 83.5 L
S
GR
GS
2 setlinecap
10.0 ML
0.5 LW
N
192.148 74.423 M
194.98 74.423 L
S
GR
GS
2 setlinecap
10.0 ML
0.5 LW
N
194.98 83.5 M
194.98 83.5 L
194.98 72.406 L
197.812 72.406 L
S
GR
GS
2 setlinecap
10.0 ML
0.5 LW
N
197.812 83.5 M
197.812 83.5 L
197.812 71.061 L
200.644 71.061 L
S
GR
GS
2 setlinecap
10.0 ML
0.5 LW
N
200.644 83.5 M
200.644 83.5 L
200.644 70.052 L
203.476 70.052 L
203.476 83.5 L
203.476 83.5 L
S
GR
GS
2 setlinecap
10.0 ML
0.5 LW
N
203.476 71.061 M
206.308 71.061 L
S
GR
GS
2 setlinecap
10.0 ML
0.5 LW
N
206.308 83.5 M
206.308 83.5 L
206.308 64.001 L
209.14 64.001 L
S
GR
GS
2 setlinecap
10.0 ML
0.5 LW
N
209.14 83.5 M
209.14 83.5 L
209.14 34.079 L
211.5 34.079 L
211.5 83.5 L
S
GR
GS
0.149 GC
2 setlinecap
1 LJ
0.5 LW
N
152.5 83.5 M
211.5 83.5 L
S
GR
GS
0.149 GC
2 setlinecap
1 LJ
0.5 LW
N
152.5 13 M
211.5 13 L
S
GR
GS
0.149 GC
2 setlinecap
1 LJ
0.5 LW
N
152.5 83.5 M
152.5 82.795 L
S
GR
GS
0.149 GC
2 setlinecap
1 LJ
0.5 LW
N
182 83.5 M
182 82.795 L
S
GR
GS
0.149 GC
2 setlinecap
1 LJ
0.5 LW
N
211.5 83.5 M
211.5 82.795 L
S
GR
GS
0.149 GC
2 setlinecap
1 LJ
0.5 LW
N
152.5 13 M
152.5 13.705 L
S
GR
GS
0.149 GC
2 setlinecap
1 LJ
0.5 LW
N
182 13 M
182 13.705 L
S
GR
GS
0.149 GC
2 setlinecap
1 LJ
0.5 LW
N
211.5 13 M
211.5 13.705 L
S
GR
GS
[1 0 0 1 152.5 87.1] CT
0.149 GC
/Times-Roman 8 F
GS
[1 0 0 1 0 0] CT
-2 8 moveto 
1 -1 scale
(0) t 
GR
GR
GS
[1 0 0 1 182 87.1] CT
0.149 GC
/Times-Roman 8 F
GS
[1 0 0 1 0 0] CT
-5 8 moveto 
1 -1 scale
(0.5) t 
GR
GR
GS
[1 0 0 1 211.5 87.1] CT
0.149 GC
/Times-Roman 8 F
GS
[1 0 0 1 0 0] CT
-2 8 moveto 
1 -1 scale
(1) t 
GR
GR
GS
[1 0 0 1 182.00003 97.6] CT
0.149 GC
N
/f366682041{-13.049 7.392 M
-13.127 7.392 -13.127 7.267 QT
-13.127 7.251 -13.119 7.197 QT
-13.111 7.142 -13.08 7.111 QT
-13.049 7.079 -13.018 7.079 QT
-12.471 7.079 -12.252 7.017 QT
-12.143 6.97 -12.08 6.767 QT
-10.846 1.829 L
-10.83 1.736 -10.83 1.704 QT
-10.83 1.611 -10.939 1.595 QT
-11.111 1.564 -11.58 1.564 QT
-11.674 1.564 -11.674 1.439 QT
-11.674 1.423 -11.658 1.369 QT
-11.643 1.314 -11.619 1.283 QT
-11.596 1.251 -11.564 1.251 QT
-8.33 1.251 L
-7.705 1.251 -7.229 1.556 QT
-6.752 1.861 -6.502 2.376 QT
-6.252 2.892 -6.252 3.517 QT
-6.252 4.204 -6.541 4.892 QT
-6.83 5.579 -7.346 6.15 QT
-7.861 6.72 -8.518 7.056 QT
-9.174 7.392 -9.877 7.392 QT
-13.049 7.392 L
cp
-11.361 7.001 M
-11.361 7.079 -11.049 7.079 QT
-10.018 7.079 L
-9.502 7.079 -9.041 6.869 QT
-8.58 6.658 -8.205 6.298 QT
-7.877 5.97 -7.619 5.415 QT
-7.361 4.861 -7.213 4.267 QT
-7.064 3.673 -7.064 3.173 QT
-7.064 2.798 -7.174 2.509 QT
-7.283 2.22 -7.479 2.009 QT
-7.674 1.798 -7.971 1.681 QT
-8.268 1.564 -8.627 1.564 QT
-9.627 1.564 L
-9.877 1.564 -9.955 1.603 QT
-10.033 1.642 -10.096 1.861 QT
-11.33 6.814 L
-11.361 6.923 -11.361 7.001 QT
cp}def
f366682041
f
GR
GS
[1 0 0 1 182.00003 97.6] CT
0.149 GC
N
/f-783774294{-6.029 8.712 M
-6.029 8.493 L
-5.81 8.493 -5.685 8.462 QT
-5.56 8.431 -5.56 8.306 QT
-5.56 6.665 L
-5.56 6.509 -5.607 6.439 QT
-5.654 6.368 -5.74 6.353 QT
-5.826 6.337 -6.029 6.337 QT
-6.029 6.118 L
-5.154 6.056 L
-5.154 6.649 L
-5.029 6.384 -4.794 6.22 QT
-4.56 6.056 -4.279 6.056 QT
-3.591 6.056 -3.466 6.618 QT
-3.357 6.368 -3.123 6.212 QT
-2.888 6.056 -2.607 6.056 QT
-2.341 6.056 -2.154 6.149 QT
-1.966 6.243 -1.873 6.423 QT
-1.779 6.603 -1.779 6.868 QT
-1.779 8.306 L
-1.779 8.431 -1.646 8.462 QT
-1.513 8.493 -1.31 8.493 QT
-1.31 8.712 L
-2.685 8.712 L
-2.685 8.493 L
-2.482 8.493 -2.349 8.462 QT
-2.216 8.431 -2.216 8.306 QT
-2.216 6.884 L
-2.216 6.587 -2.302 6.399 QT
-2.388 6.212 -2.654 6.212 QT
-2.998 6.212 -3.224 6.493 QT
-3.451 6.774 -3.451 7.134 QT
-3.451 8.306 L
-3.451 8.431 -3.318 8.462 QT
-3.185 8.493 -2.982 8.493 QT
-2.982 8.712 L
-4.357 8.712 L
-4.357 8.493 L
-4.154 8.493 -4.021 8.462 QT
-3.888 8.431 -3.888 8.306 QT
-3.888 6.884 L
-3.888 6.587 -3.974 6.399 QT
-4.06 6.212 -4.31 6.212 QT
-4.669 6.212 -4.888 6.493 QT
-5.107 6.774 -5.107 7.134 QT
-5.107 8.306 L
-5.107 8.431 -4.982 8.462 QT
-4.857 8.493 -4.654 8.493 QT
-4.654 8.712 L
-6.029 8.712 L
cp}def
f-783774294
f
GR
GS
[1 0 0 1 182.00003 97.6] CT
0.149 GC
N
/f1140189983{-0.88 8.712 M
-0.88 8.493 L
-0.677 8.493 -0.544 8.462 QT
-0.411 8.431 -0.411 8.306 QT
-0.411 6.665 L
-0.411 6.446 -0.505 6.392 QT
-0.599 6.337 -0.849 6.337 QT
-0.849 6.118 L
0.011 6.056 L
0.011 8.306 L
0.011 8.431 0.12 8.462 QT
0.23 8.493 0.433 8.493 QT
0.433 8.712 L
-0.88 8.712 L
cp
-0.63 5.024 M
-0.63 4.899 -0.528 4.798 QT
-0.427 4.696 -0.302 4.696 QT
-0.208 4.696 -0.13 4.743 QT
-0.052 4.79 -0.013 4.868 QT
0.026 4.946 0.026 5.024 QT
0.026 5.165 -0.067 5.259 QT
-0.161 5.353 -0.302 5.353 QT
-0.427 5.353 -0.528 5.259 QT
-0.63 5.165 -0.63 5.024 QT
cp}def
f1140189983
f
GR
GS
[1 0 0 1 182.00003 97.6] CT
0.149 GC
N
/f-130641992{0.816 8.712 M
0.816 8.493 L
1.034 8.493 1.159 8.462 QT
1.284 8.431 1.284 8.306 QT
1.284 6.665 L
1.284 6.509 1.238 6.439 QT
1.191 6.368 1.105 6.353 QT
1.019 6.337 0.816 6.337 QT
0.816 6.118 L
1.691 6.056 L
1.691 6.649 L
1.816 6.384 2.05 6.22 QT
2.284 6.056 2.566 6.056 QT
2.972 6.056 3.183 6.259 QT
3.394 6.462 3.394 6.868 QT
3.394 8.306 L
3.394 8.431 3.527 8.462 QT
3.659 8.493 3.863 8.493 QT
3.863 8.712 L
2.488 8.712 L
2.488 8.493 L
2.691 8.493 2.823 8.462 QT
2.956 8.431 2.956 8.306 QT
2.956 6.884 L
2.956 6.587 2.87 6.399 QT
2.784 6.212 2.534 6.212 QT
2.175 6.212 1.956 6.493 QT
1.738 6.774 1.738 7.134 QT
1.738 8.306 L
1.738 8.431 1.863 8.462 QT
1.988 8.493 2.191 8.493 QT
2.191 8.712 L
0.816 8.712 L
cp}def
f-130641992
f
GR
GS
[1 0 0 1 182.00003 97.6] CT
0.149 GC
N
/f-1696920094{5.006 9.454 M
5.006 9.439 5.022 9.423 QT
8.147 0.751 L
8.162 0.704 8.209 0.673 QT
8.256 0.642 8.319 0.642 QT
8.397 0.642 8.444 0.689 QT
8.49 0.736 8.49 0.829 QT
8.49 0.861 L
5.365 9.533 L
5.303 9.642 5.194 9.642 QT
5.115 9.642 5.061 9.587 QT
5.006 9.533 5.006 9.454 QT
cp}def
f-1696920094
f
GR
GS
[1 0 0 1 182.00003 97.6] CT
0.149 GC
N
/f-1302804042{10.469 7.486 M
9.906 7.486 9.578 7.064 QT
9.25 6.642 9.25 6.048 QT
9.25 5.47 9.547 4.853 QT
9.844 4.236 10.351 3.822 QT
10.859 3.408 11.453 3.408 QT
11.703 3.408 11.922 3.556 QT
12.14 3.704 12.25 3.954 QT
12.765 1.954 L
12.797 1.798 12.797 1.704 QT
12.797 1.564 12.219 1.564 QT
12.125 1.564 12.125 1.439 QT
12.125 1.423 12.14 1.361 QT
12.156 1.298 12.187 1.275 QT
12.219 1.251 12.25 1.251 QT
13.469 1.142 L
13.578 1.142 13.578 1.267 QT
12.281 6.439 L
12.219 6.595 12.219 6.876 QT
12.219 7.251 12.484 7.251 QT
12.765 7.251 12.914 6.892 QT
13.062 6.533 13.156 6.064 QT
13.172 6.017 13.219 6.017 QT
13.344 6.017 L
13.375 6.017 13.398 6.048 QT
13.422 6.079 13.422 6.111 QT
13.25 6.736 13.07 7.111 QT
12.89 7.486 12.469 7.486 QT
12.156 7.486 11.922 7.314 QT
11.687 7.142 11.64 6.845 QT
11.062 7.486 10.469 7.486 QT
cp
10.484 7.251 M
10.812 7.251 11.117 7.009 QT
11.422 6.767 11.64 6.439 QT
11.64 6.423 11.64 6.408 QT
12.14 4.423 L
12.078 4.111 11.898 3.876 QT
11.719 3.642 11.422 3.642 QT
11.125 3.642 10.859 3.892 QT
10.594 4.142 10.422 4.486 QT
10.25 4.845 10.086 5.47 QT
9.922 6.095 9.922 6.454 QT
9.922 6.751 10.054 7.001 QT
10.187 7.251 10.484 7.251 QT
cp}def
f-1302804042
f
GR
GS
0.149 GC
2 setlinecap
1 LJ
0.5 LW
N
152.5 83.5 M
152.5 13 L
S
GR
GS
0.149 GC
2 setlinecap
1 LJ
0.5 LW
N
211.5 83.5 M
211.5 13 L
S
GR
GS
0.149 GC
2 setlinecap
1 LJ
0.5 LW
N
152.5 83.5 M
153.205 83.5 L
S
GR
GS
0.149 GC
2 setlinecap
1 LJ
0.5 LW
N
152.5 60 M
153.205 60 L
S
GR
GS
0.149 GC
2 setlinecap
1 LJ
0.5 LW
N
152.5 36.5 M
153.205 36.5 L
S
GR
GS
0.149 GC
2 setlinecap
1 LJ
0.5 LW
N
152.5 13 M
153.205 13 L
S
GR
GS
0.149 GC
2 setlinecap
1 LJ
0.5 LW
N
211.5 83.5 M
210.795 83.5 L
S
GR
GS
0.149 GC
2 setlinecap
1 LJ
0.5 LW
N
211.5 60 M
210.795 60 L
S
GR
GS
0.149 GC
2 setlinecap
1 LJ
0.5 LW
N
211.5 36.5 M
210.795 36.5 L
S
GR
GS
0.149 GC
2 setlinecap
1 LJ
0.5 LW
N
211.5 13 M
210.795 13 L
S
GR
GS
[1 0 0 1 148.89999 83.5] CT
0.149 GC
/Times-Roman 8 F
GS
[1 0 0 1 0 0] CT
-4 3 moveto 
1 -1 scale
(0) t 
GR
GR
GS
[1 0 0 1 148.89999 60] CT
0.149 GC
/Times-Roman 8 F
GS
[1 0 0 1 0 0] CT
-10 3 moveto 
1 -1 scale
(0.1) t 
GR
GR
GS
[1 0 0 1 148.89999 36.5] CT
0.149 GC
/Times-Roman 8 F
GS
[1 0 0 1 0 0] CT
-10 3 moveto 
1 -1 scale
(0.2) t 
GR
GR
GS
[1 0 0 1 148.89999 13] CT
0.149 GC
/Times-Roman 8 F
GS
[1 0 0 1 0 0] CT
-10 3 moveto 
1 -1 scale
(0.3) t 
GR
GR
GS
1 GC
N
230 83.5 M
289 83.5 L
289 13 L
230 13 L
cp
f
GR
GS
[1 0 0 1 259.50024 11.9] CT
/Times-Bold 8.8 F
GS
[1 0 0 1 0 0] CT
-19.5 -2 moveto 
1 -1 scale
(Strategy 3) t 
GR
GR
GS
0.821 GC
N
232.832 76.104 M
230 76.104 L
230 83.5 L
232.832 83.5 L
235.664 83.5 L
235.664 76.104 L
cp
238.496 83.5 M
238.496 77.112 L
235.664 77.112 L
235.664 83.5 L
cp
241.328 83.5 M
241.328 78.457 L
238.496 78.457 L
238.496 83.5 L
cp
244.16 83.5 M
244.16 77.785 L
241.328 77.785 L
241.328 83.5 L
cp
246.992 83.5 M
246.992 75.431 L
244.16 75.431 L
244.16 83.5 L
cp
249.824 83.5 M
249.824 75.768 L
246.992 75.768 L
246.992 83.5 L
cp
252.656 83.5 M
252.656 76.44 L
249.824 76.44 L
249.824 83.5 L
cp
255.488 83.5 M
255.488 75.431 L
252.656 75.431 L
252.656 83.5 L
cp
258.32 83.5 M
258.32 74.087 L
255.488 74.087 L
255.488 83.5 L
cp
261.152 83.5 M
261.152 75.095 L
258.32 75.095 L
258.32 83.5 L
cp
263.984 83.5 M
263.984 75.768 L
261.152 75.768 L
261.152 83.5 L
cp
266.816 83.5 M
266.816 75.095 L
263.984 75.095 L
263.984 83.5 L
cp
269.648 83.5 M
269.648 74.087 L
266.816 74.087 L
266.816 83.5 L
cp
272.48 83.5 M
272.48 73.078 L
269.648 73.078 L
269.648 83.5 L
cp
275.312 83.5 M
275.312 72.742 L
272.48 72.742 L
272.48 83.5 L
cp
278.144 83.5 M
278.144 71.397 L
275.312 71.397 L
275.312 83.5 L
cp
280.976 83.5 M
280.976 69.716 L
278.144 69.716 L
278.144 83.5 L
cp
283.808 83.5 M
283.808 70.725 L
280.976 70.725 L
280.976 83.5 L
cp
286.64 83.5 M
286.64 64.001 L
283.808 64.001 L
283.808 83.5 L
cp
289 83.5 M
289 34.079 L
286.64 34.079 L
286.64 83.5 L
cp
f
GR
GS
2 setlinecap
10.0 ML
0.5 LW
N
230 83.5 M
230 76.104 L
232.832 76.104 L
232.832 83.5 L
232.832 83.5 L
S
GR
GS
2 setlinecap
10.0 ML
0.5 LW
N
232.832 76.104 M
235.664 76.104 L
235.664 83.5 L
235.664 83.5 L
S
GR
GS
2 setlinecap
10.0 ML
0.5 LW
N
235.664 77.112 M
238.496 77.112 L
238.496 83.5 L
238.496 83.5 L
S
GR
GS
2 setlinecap
10.0 ML
0.5 LW
N
238.496 78.457 M
241.328 78.457 L
S
GR
GS
2 setlinecap
10.0 ML
0.5 LW
N
241.328 83.5 M
241.328 83.5 L
241.328 77.785 L
244.16 77.785 L
S
GR
GS
2 setlinecap
10.0 ML
0.5 LW
N
244.16 83.5 M
244.16 83.5 L
244.16 75.431 L
246.992 75.431 L
246.992 83.5 L
246.992 83.5 L
S
GR
GS
2 setlinecap
10.0 ML
0.5 LW
N
246.992 75.768 M
249.824 75.768 L
249.824 83.5 L
249.824 83.5 L
S
GR
GS
2 setlinecap
10.0 ML
0.5 LW
N
249.824 76.44 M
252.656 76.44 L
S
GR
GS
2 setlinecap
10.0 ML
0.5 LW
N
252.656 83.5 M
252.656 83.5 L
252.656 75.431 L
255.488 75.431 L
S
GR
GS
2 setlinecap
10.0 ML
0.5 LW
N
255.488 83.5 M
255.488 83.5 L
255.488 74.087 L
258.32 74.087 L
258.32 83.5 L
258.32 83.5 L
S
GR
GS
2 setlinecap
10.0 ML
0.5 LW
N
258.32 75.095 M
261.152 75.095 L
261.152 83.5 L
261.152 83.5 L
S
GR
GS
2 setlinecap
10.0 ML
0.5 LW
N
261.152 75.768 M
263.984 75.768 L
S
GR
GS
2 setlinecap
10.0 ML
0.5 LW
N
263.984 83.5 M
263.984 83.5 L
263.984 75.095 L
266.816 75.095 L
S
GR
GS
2 setlinecap
10.0 ML
0.5 LW
N
266.816 83.5 M
266.816 83.5 L
266.816 74.087 L
269.648 74.087 L
S
GR
GS
2 setlinecap
10.0 ML
0.5 LW
N
269.648 83.5 M
269.648 83.5 L
269.648 73.078 L
272.48 73.078 L
S
GR
GS
2 setlinecap
10.0 ML
0.5 LW
N
272.48 83.5 M
272.48 83.5 L
272.48 72.742 L
275.312 72.742 L
S
GR
GS
2 setlinecap
10.0 ML
0.5 LW
N
275.312 83.5 M
275.312 83.5 L
275.312 71.397 L
278.144 71.397 L
S
GR
GS
2 setlinecap
10.0 ML
0.5 LW
N
278.144 83.5 M
278.144 83.5 L
278.144 69.716 L
280.976 69.716 L
280.976 83.5 L
280.976 83.5 L
S
GR
GS
2 setlinecap
10.0 ML
0.5 LW
N
280.976 70.725 M
283.808 70.725 L
S
GR
GS
2 setlinecap
10.0 ML
0.5 LW
N
283.808 83.5 M
283.808 83.5 L
283.808 64.001 L
286.64 64.001 L
S
GR
GS
2 setlinecap
10.0 ML
0.5 LW
N
286.64 83.5 M
286.64 83.5 L
286.64 34.079 L
289 34.079 L
289 83.5 L
S
GR
GS
0.149 GC
2 setlinecap
1 LJ
0.5 LW
N
230 83.5 M
289 83.5 L
S
GR
GS
0.149 GC
2 setlinecap
1 LJ
0.5 LW
N
230 13 M
289 13 L
S
GR
GS
0.149 GC
2 setlinecap
1 LJ
0.5 LW
N
230 83.5 M
230 82.795 L
S
GR
GS
0.149 GC
2 setlinecap
1 LJ
0.5 LW
N
259.5 83.5 M
259.5 82.795 L
S
GR
GS
0.149 GC
2 setlinecap
1 LJ
0.5 LW
N
289 83.5 M
289 82.795 L
S
GR
GS
0.149 GC
2 setlinecap
1 LJ
0.5 LW
N
230 13 M
230 13.705 L
S
GR
GS
0.149 GC
2 setlinecap
1 LJ
0.5 LW
N
259.5 13 M
259.5 13.705 L
S
GR
GS
0.149 GC
2 setlinecap
1 LJ
0.5 LW
N
289 13 M
289 13.705 L
S
GR
GS
[1 0 0 1 230 87.1] CT
0.149 GC
/Times-Roman 8 F
GS
[1 0 0 1 0 0] CT
-2 8 moveto 
1 -1 scale
(0) t 
GR
GR
GS
[1 0 0 1 259.5 87.1] CT
0.149 GC
/Times-Roman 8 F
GS
[1 0 0 1 0 0] CT
-5 8 moveto 
1 -1 scale
(0.5) t 
GR
GR
GS
[1 0 0 1 289 87.1] CT
0.149 GC
/Times-Roman 8 F
GS
[1 0 0 1 0 0] CT
-2 8 moveto 
1 -1 scale
(1) t 
GR
GR
GS
[1 0 0 1 259.50003 97.6] CT
0.149 GC
N
f366682041
f
GR
GS
[1 0 0 1 259.50003 97.6] CT
0.149 GC
N
f-783774294
f
GR
GS
[1 0 0 1 259.50003 97.6] CT
0.149 GC
N
f1140189983
f
GR
GS
[1 0 0 1 259.50003 97.6] CT
0.149 GC
N
f-130641992
f
GR
GS
[1 0 0 1 259.50003 97.6] CT
0.149 GC
N
f-1696920094
f
GR
GS
[1 0 0 1 259.50003 97.6] CT
0.149 GC
N
f-1302804042
f
GR
GS
0.149 GC
2 setlinecap
1 LJ
0.5 LW
N
230 83.5 M
230 13 L
S
GR
GS
0.149 GC
2 setlinecap
1 LJ
0.5 LW
N
289 83.5 M
289 13 L
S
GR
GS
0.149 GC
2 setlinecap
1 LJ
0.5 LW
N
230 83.5 M
230.705 83.5 L
S
GR
GS
0.149 GC
2 setlinecap
1 LJ
0.5 LW
N
230 60 M
230.705 60 L
S
GR
GS
0.149 GC
2 setlinecap
1 LJ
0.5 LW
N
230 36.5 M
230.705 36.5 L
S
GR
GS
0.149 GC
2 setlinecap
1 LJ
0.5 LW
N
230 13 M
230.705 13 L
S
GR
GS
0.149 GC
2 setlinecap
1 LJ
0.5 LW
N
289 83.5 M
288.295 83.5 L
S
GR
GS
0.149 GC
2 setlinecap
1 LJ
0.5 LW
N
289 60 M
288.295 60 L
S
GR
GS
0.149 GC
2 setlinecap
1 LJ
0.5 LW
N
289 36.5 M
288.295 36.5 L
S
GR
GS
0.149 GC
2 setlinecap
1 LJ
0.5 LW
N
289 13 M
288.295 13 L
S
GR
GS
[1 0 0 1 226.39999 83.5] CT
0.149 GC
/Times-Roman 8 F
GS
[1 0 0 1 0 0] CT
-4 3 moveto 
1 -1 scale
(0) t 
GR
GR
GS
[1 0 0 1 226.39999 60] CT
0.149 GC
/Times-Roman 8 F
GS
[1 0 0 1 0 0] CT
-10 3 moveto 
1 -1 scale
(0.1) t 
GR
GR
GS
[1 0 0 1 226.39999 36.5] CT
0.149 GC
/Times-Roman 8 F
GS
[1 0 0 1 0 0] CT
-10 3 moveto 
1 -1 scale
(0.2) t 
GR
GR
GS
[1 0 0 1 226.39999 13] CT
0.149 GC
/Times-Roman 8 F
GS
[1 0 0 1 0 0] CT
-10 3 moveto 
1 -1 scale
(0.3) t 
GR
GR
GS
1 GC
N
307.5 83.5 M
366.5 83.5 L
366.5 13 L
307.5 13 L
cp
f
GR
GS
[1 0 0 1 337.00034 11.9] CT
/Times-Bold 8.8 F
GS
[1 0 0 1 0 0] CT
-19.5 -2 moveto 
1 -1 scale
(Strategy 4) t 
GR
GR
GS
0.821 GC
N
310.332 76.104 M
307.5 76.104 L
307.5 83.5 L
310.332 83.5 L
313.164 83.5 L
313.164 76.104 L
cp
315.996 83.5 M
315.996 77.112 L
313.164 77.112 L
313.164 83.5 L
cp
318.828 83.5 M
318.828 78.457 L
315.996 78.457 L
315.996 83.5 L
cp
321.66 83.5 M
321.66 77.785 L
318.828 77.785 L
318.828 83.5 L
cp
324.492 83.5 M
324.492 75.431 L
321.66 75.431 L
321.66 83.5 L
cp
327.324 83.5 M
327.324 75.768 L
324.492 75.768 L
324.492 83.5 L
cp
330.156 83.5 M
330.156 76.44 L
327.324 76.44 L
327.324 83.5 L
cp
332.988 83.5 M
332.988 75.431 L
330.156 75.431 L
330.156 83.5 L
cp
335.82 83.5 M
335.82 74.087 L
332.988 74.087 L
332.988 83.5 L
cp
338.652 83.5 M
338.652 75.095 L
335.82 75.095 L
335.82 83.5 L
cp
341.484 83.5 M
341.484 75.768 L
338.652 75.768 L
338.652 83.5 L
cp
344.316 83.5 M
344.316 75.095 L
341.484 75.095 L
341.484 83.5 L
cp
347.148 83.5 M
347.148 74.087 L
344.316 74.087 L
344.316 83.5 L
cp
349.98 83.5 M
349.98 73.078 L
347.148 73.078 L
347.148 83.5 L
cp
352.812 83.5 M
352.812 72.742 L
349.98 72.742 L
349.98 83.5 L
cp
355.644 83.5 M
355.644 71.397 L
352.812 71.397 L
352.812 83.5 L
cp
358.476 83.5 M
358.476 69.716 L
355.644 69.716 L
355.644 83.5 L
cp
361.308 83.5 M
361.308 70.725 L
358.476 70.725 L
358.476 83.5 L
cp
364.14 83.5 M
364.14 64.001 L
361.308 64.001 L
361.308 83.5 L
cp
366.5 83.5 M
366.5 34.079 L
364.14 34.079 L
364.14 83.5 L
cp
f
GR
GS
2 setlinecap
10.0 ML
0.5 LW
N
307.5 83.5 M
307.5 76.104 L
310.332 76.104 L
310.332 83.5 L
310.332 83.5 L
S
GR
GS
2 setlinecap
10.0 ML
0.5 LW
N
310.332 76.104 M
313.164 76.104 L
313.164 83.5 L
313.164 83.5 L
S
GR
GS
2 setlinecap
10.0 ML
0.5 LW
N
313.164 77.112 M
315.996 77.112 L
315.996 83.5 L
315.996 83.5 L
S
GR
GS
2 setlinecap
10.0 ML
0.5 LW
N
315.996 78.457 M
318.828 78.457 L
S
GR
GS
2 setlinecap
10.0 ML
0.5 LW
N
318.828 83.5 M
318.828 83.5 L
318.828 77.785 L
321.66 77.785 L
S
GR
GS
2 setlinecap
10.0 ML
0.5 LW
N
321.66 83.5 M
321.66 83.5 L
321.66 75.431 L
324.492 75.431 L
324.492 83.5 L
324.492 83.5 L
S
GR
GS
2 setlinecap
10.0 ML
0.5 LW
N
324.492 75.768 M
327.324 75.768 L
327.324 83.5 L
327.324 83.5 L
S
GR
GS
2 setlinecap
10.0 ML
0.5 LW
N
327.324 76.44 M
330.156 76.44 L
S
GR
GS
2 setlinecap
10.0 ML
0.5 LW
N
330.156 83.5 M
330.156 83.5 L
330.156 75.431 L
332.988 75.431 L
S
GR
GS
2 setlinecap
10.0 ML
0.5 LW
N
332.988 83.5 M
332.988 83.5 L
332.988 74.087 L
335.82 74.087 L
335.82 83.5 L
335.82 83.5 L
S
GR
GS
2 setlinecap
10.0 ML
0.5 LW
N
335.82 75.095 M
338.652 75.095 L
338.652 83.5 L
338.652 83.5 L
S
GR
GS
2 setlinecap
10.0 ML
0.5 LW
N
338.652 75.768 M
341.484 75.768 L
S
GR
GS
2 setlinecap
10.0 ML
0.5 LW
N
341.484 83.5 M
341.484 83.5 L
341.484 75.095 L
344.316 75.095 L
S
GR
GS
2 setlinecap
10.0 ML
0.5 LW
N
344.316 83.5 M
344.316 83.5 L
344.316 74.087 L
347.148 74.087 L
S
GR
GS
2 setlinecap
10.0 ML
0.5 LW
N
347.148 83.5 M
347.148 83.5 L
347.148 73.078 L
349.98 73.078 L
S
GR
GS
2 setlinecap
10.0 ML
0.5 LW
N
349.98 83.5 M
349.98 83.5 L
349.98 72.742 L
352.812 72.742 L
S
GR
GS
2 setlinecap
10.0 ML
0.5 LW
N
352.812 83.5 M
352.812 83.5 L
352.812 71.397 L
355.644 71.397 L
S
GR
GS
2 setlinecap
10.0 ML
0.5 LW
N
355.644 83.5 M
355.644 83.5 L
355.644 69.716 L
358.476 69.716 L
358.476 83.5 L
358.476 83.5 L
S
GR
GS
2 setlinecap
10.0 ML
0.5 LW
N
358.476 70.725 M
361.308 70.725 L
S
GR
GS
2 setlinecap
10.0 ML
0.5 LW
N
361.308 83.5 M
361.308 83.5 L
361.308 64.001 L
364.14 64.001 L
S
GR
GS
2 setlinecap
10.0 ML
0.5 LW
N
364.14 83.5 M
364.14 83.5 L
364.14 34.079 L
366.5 34.079 L
366.5 83.5 L
S
GR
GS
0.149 GC
2 setlinecap
1 LJ
0.5 LW
N
307.5 83.5 M
366.5 83.5 L
S
GR
GS
0.149 GC
2 setlinecap
1 LJ
0.5 LW
N
307.5 13 M
366.5 13 L
S
GR
GS
0.149 GC
2 setlinecap
1 LJ
0.5 LW
N
307.5 83.5 M
307.5 82.795 L
S
GR
GS
0.149 GC
2 setlinecap
1 LJ
0.5 LW
N
337 83.5 M
337 82.795 L
S
GR
GS
0.149 GC
2 setlinecap
1 LJ
0.5 LW
N
366.5 83.5 M
366.5 82.795 L
S
GR
GS
0.149 GC
2 setlinecap
1 LJ
0.5 LW
N
307.5 13 M
307.5 13.705 L
S
GR
GS
0.149 GC
2 setlinecap
1 LJ
0.5 LW
N
337 13 M
337 13.705 L
S
GR
GS
0.149 GC
2 setlinecap
1 LJ
0.5 LW
N
366.5 13 M
366.5 13.705 L
S
GR
GS
[1 0 0 1 307.5 87.1] CT
0.149 GC
/Times-Roman 8 F
GS
[1 0 0 1 0 0] CT
-2 8 moveto 
1 -1 scale
(0) t 
GR
GR
GS
[1 0 0 1 337 87.1] CT
0.149 GC
/Times-Roman 8 F
GS
[1 0 0 1 0 0] CT
-5 8 moveto 
1 -1 scale
(0.5) t 
GR
GR
GS
[1 0 0 1 366.5 87.1] CT
0.149 GC
/Times-Roman 8 F
GS
[1 0 0 1 0 0] CT
-2 8 moveto 
1 -1 scale
(1) t 
GR
GR
GS
[1 0 0 1 337.00003 97.6] CT
0.149 GC
N
f366682041
f
GR
GS
[1 0 0 1 337.00003 97.6] CT
0.149 GC
N
f-783774294
f
GR
GS
[1 0 0 1 337.00003 97.6] CT
0.149 GC
N
f1140189983
f
GR
GS
[1 0 0 1 337.00003 97.6] CT
0.149 GC
N
f-130641992
f
GR
GS
[1 0 0 1 337.00003 97.6] CT
0.149 GC
N
f-1696920094
f
GR
GS
[1 0 0 1 337.00003 97.6] CT
0.149 GC
N
f-1302804042
f
GR
GS
0.149 GC
2 setlinecap
1 LJ
0.5 LW
N
307.5 83.5 M
307.5 13 L
S
GR
GS
0.149 GC
2 setlinecap
1 LJ
0.5 LW
N
366.5 83.5 M
366.5 13 L
S
GR
GS
0.149 GC
2 setlinecap
1 LJ
0.5 LW
N
307.5 83.5 M
308.205 83.5 L
S
GR
GS
0.149 GC
2 setlinecap
1 LJ
0.5 LW
N
307.5 60 M
308.205 60 L
S
GR
GS
0.149 GC
2 setlinecap
1 LJ
0.5 LW
N
307.5 36.5 M
308.205 36.5 L
S
GR
GS
0.149 GC
2 setlinecap
1 LJ
0.5 LW
N
307.5 13 M
308.205 13 L
S
GR
GS
0.149 GC
2 setlinecap
1 LJ
0.5 LW
N
366.5 83.5 M
365.795 83.5 L
S
GR
GS
0.149 GC
2 setlinecap
1 LJ
0.5 LW
N
366.5 60 M
365.795 60 L
S
GR
GS
0.149 GC
2 setlinecap
1 LJ
0.5 LW
N
366.5 36.5 M
365.795 36.5 L
S
GR
GS
0.149 GC
2 setlinecap
1 LJ
0.5 LW
N
366.5 13 M
365.795 13 L
S
GR
GS
[1 0 0 1 303.89999 83.5] CT
0.149 GC
/Times-Roman 8 F
GS
[1 0 0 1 0 0] CT
-4 3 moveto 
1 -1 scale
(0) t 
GR
GR
GS
[1 0 0 1 303.89999 60] CT
0.149 GC
/Times-Roman 8 F
GS
[1 0 0 1 0 0] CT
-10 3 moveto 
1 -1 scale
(0.1) t 
GR
GR
GS
[1 0 0 1 303.89999 36.5] CT
0.149 GC
/Times-Roman 8 F
GS
[1 0 0 1 0 0] CT
-10 3 moveto 
1 -1 scale
(0.2) t 
GR
GR
GS
[1 0 0 1 303.89999 13] CT
0.149 GC
/Times-Roman 8 F
GS
[1 0 0 1 0 0] CT
-10 3 moveto 
1 -1 scale
(0.3) t 
GR
GR
GS
1 GC
N
385 83.5 M
444 83.5 L
444 13 L
385 13 L
cp
f
GR
GS
[1 0 0 1 414.5004 11.9] CT
N
/f-451091077{-5.37 -3.168 M
-5.448 -3.168 -5.448 -3.246 QT
-5.433 -3.246 -5.433 -3.254 QT
-5.433 -3.262 -5.433 -3.262 QT
-2.339 -9.512 L
-2.292 -9.606 -2.167 -9.606 QT
-2.042 -9.606 L
-1.933 -9.606 -1.886 -9.512 QT
1.208 -3.262 L
1.224 -3.262 1.224 -3.254 QT
1.224 -3.246 1.224 -3.246 QT
1.224 -3.168 1.146 -3.168 QT
-5.37 -3.168 L
cp
-4.776 -3.887 M
-0.026 -3.887 L
-2.401 -8.668 L
-4.776 -3.887 L
cp}def
f-451091077
f
GR
GS
[1 0 0 1 414.5004 11.9] CT
N
/f748790405{2.932 -3.074 M
2.526 -3.074 2.276 -3.371 QT
2.026 -3.668 1.932 -4.09 QT
1.838 -4.512 1.838 -4.918 QT
1.838 -4.934 L
1.838 -5.371 1.924 -5.856 QT
2.01 -6.34 2.174 -6.824 QT
2.338 -7.309 2.526 -7.684 QT
2.651 -7.949 2.862 -8.277 QT
3.073 -8.606 3.33 -8.887 QT
3.588 -9.168 3.885 -9.34 QT
4.182 -9.512 4.479 -9.512 QT
4.495 -9.512 L
4.823 -9.512 5.041 -9.332 QT
5.26 -9.152 5.377 -8.871 QT
5.495 -8.59 5.541 -8.27 QT
5.588 -7.949 5.588 -7.652 QT
5.588 -6.981 5.409 -6.27 QT
5.229 -5.559 4.901 -4.902 QT
4.776 -4.652 4.557 -4.309 QT
4.338 -3.965 4.096 -3.699 QT
3.854 -3.434 3.549 -3.254 QT
3.245 -3.074 2.932 -3.074 QT
2.932 -3.074 L
cp
2.948 -3.309 M
3.245 -3.309 3.518 -3.629 QT
3.791 -3.949 4.002 -4.402 QT
4.213 -4.856 4.37 -5.332 QT
4.526 -5.809 4.588 -6.137 QT
2.76 -6.137 L
2.62 -5.574 2.541 -5.16 QT
2.463 -4.746 2.463 -4.356 QT
2.463 -3.309 2.948 -3.309 QT
cp
2.823 -6.449 M
4.666 -6.449 L
4.776 -6.856 4.83 -7.121 QT
4.885 -7.387 4.924 -7.676 QT
4.963 -7.965 4.963 -8.231 QT
4.963 -9.277 4.479 -9.277 QT
3.916 -9.277 3.502 -8.356 QT
3.088 -7.434 2.823 -6.449 QT
cp}def
f748790405
f
GR
GS
0.821 GC
N
387.832 83.5 M
387.832 72.742 L
385 72.742 L
385 83.5 L
cp
390.664 83.5 M
390.664 78.121 L
387.832 78.121 L
387.832 83.5 L
cp
393.496 77.449 M
390.664 77.449 L
390.664 83.5 L
393.496 83.5 L
396.328 83.5 L
396.328 77.449 L
cp
399.16 83.5 M
399.16 78.793 L
396.328 78.793 L
396.328 83.5 L
cp
401.992 83.5 M
401.992 74.759 L
399.16 74.759 L
399.16 83.5 L
cp
404.824 83.5 M
404.824 75.431 L
401.992 75.431 L
401.992 83.5 L
cp
407.656 83.5 M
407.656 77.449 L
404.824 77.449 L
404.824 83.5 L
cp
410.488 83.5 M
410.488 75.431 L
407.656 75.431 L
407.656 83.5 L
cp
413.32 83.5 M
413.32 73.75 L
410.488 73.75 L
410.488 83.5 L
cp
416.152 83.5 M
416.152 75.095 L
413.32 75.095 L
413.32 83.5 L
cp
418.984 83.5 M
418.984 75.768 L
416.152 75.768 L
416.152 83.5 L
cp
421.816 83.5 M
421.816 75.431 L
418.984 75.431 L
418.984 83.5 L
cp
424.648 83.5 M
424.648 74.087 L
421.816 74.087 L
421.816 83.5 L
cp
427.48 83.5 M
427.48 73.078 L
424.648 73.078 L
424.648 83.5 L
cp
430.312 83.5 M
430.312 71.733 L
427.48 71.733 L
427.48 83.5 L
cp
433.144 83.5 M
433.144 72.069 L
430.312 72.069 L
430.312 83.5 L
cp
435.976 83.5 M
435.976 69.38 L
433.144 69.38 L
433.144 83.5 L
cp
438.808 83.5 M
438.808 70.052 L
435.976 70.052 L
435.976 83.5 L
cp
441.64 83.5 M
441.64 65.682 L
438.808 65.682 L
438.808 83.5 L
cp
444 83.5 M
444 34.752 L
441.64 34.752 L
441.64 83.5 L
cp
f
GR
GS
2 setlinecap
10.0 ML
0.5 LW
N
385 83.5 M
385 72.742 L
387.832 72.742 L
387.832 83.5 L
387.832 83.5 L
S
GR
GS
2 setlinecap
10.0 ML
0.5 LW
N
387.832 78.121 M
390.664 78.121 L
S
GR
GS
2 setlinecap
10.0 ML
0.5 LW
N
390.664 83.5 M
390.664 83.5 L
390.664 77.449 L
393.496 77.449 L
393.496 83.5 L
393.496 83.5 L
S
GR
GS
2 setlinecap
10.0 ML
0.5 LW
N
393.496 77.449 M
396.328 77.449 L
396.328 83.5 L
396.328 83.5 L
S
GR
GS
2 setlinecap
10.0 ML
0.5 LW
N
396.328 78.793 M
399.16 78.793 L
S
GR
GS
2 setlinecap
10.0 ML
0.5 LW
N
399.16 83.5 M
399.16 83.5 L
399.16 74.759 L
401.992 74.759 L
401.992 83.5 L
401.992 83.5 L
S
GR
GS
2 setlinecap
10.0 ML
0.5 LW
N
401.992 75.431 M
404.824 75.431 L
404.824 83.5 L
404.824 83.5 L
S
GR
GS
2 setlinecap
10.0 ML
0.5 LW
N
404.824 77.449 M
407.656 77.449 L
S
GR
GS
2 setlinecap
10.0 ML
0.5 LW
N
407.656 83.5 M
407.656 83.5 L
407.656 75.431 L
410.488 75.431 L
S
GR
GS
2 setlinecap
10.0 ML
0.5 LW
N
410.488 83.5 M
410.488 83.5 L
410.488 73.75 L
413.32 73.75 L
413.32 83.5 L
413.32 83.5 L
S
GR
GS
2 setlinecap
10.0 ML
0.5 LW
N
413.32 75.095 M
416.152 75.095 L
416.152 83.5 L
416.152 83.5 L
S
GR
GS
2 setlinecap
10.0 ML
0.5 LW
N
416.152 75.768 M
418.984 75.768 L
S
GR
GS
2 setlinecap
10.0 ML
0.5 LW
N
418.984 83.5 M
418.984 83.5 L
418.984 75.431 L
421.816 75.431 L
S
GR
GS
2 setlinecap
10.0 ML
0.5 LW
N
421.816 83.5 M
421.816 83.5 L
421.816 74.087 L
424.648 74.087 L
S
GR
GS
2 setlinecap
10.0 ML
0.5 LW
N
424.648 83.5 M
424.648 83.5 L
424.648 73.078 L
427.48 73.078 L
S
GR
GS
2 setlinecap
10.0 ML
0.5 LW
N
427.48 83.5 M
427.48 83.5 L
427.48 71.733 L
430.312 71.733 L
430.312 83.5 L
430.312 83.5 L
S
GR
GS
2 setlinecap
10.0 ML
0.5 LW
N
430.312 72.069 M
433.144 72.069 L
S
GR
GS
2 setlinecap
10.0 ML
0.5 LW
N
433.144 83.5 M
433.144 83.5 L
433.144 69.38 L
435.976 69.38 L
435.976 83.5 L
435.976 83.5 L
S
GR
GS
2 setlinecap
10.0 ML
0.5 LW
N
435.976 70.052 M
438.808 70.052 L
S
GR
GS
2 setlinecap
10.0 ML
0.5 LW
N
438.808 83.5 M
438.808 83.5 L
438.808 65.682 L
441.64 65.682 L
S
GR
GS
2 setlinecap
10.0 ML
0.5 LW
N
441.64 83.5 M
441.64 83.5 L
441.64 34.752 L
444 34.752 L
444 83.5 L
S
GR
GS
0.149 GC
2 setlinecap
1 LJ
0.5 LW
N
385 83.5 M
444 83.5 L
S
GR
GS
0.149 GC
2 setlinecap
1 LJ
0.5 LW
N
385 13 M
444 13 L
S
GR
GS
0.149 GC
2 setlinecap
1 LJ
0.5 LW
N
385 83.5 M
385 82.795 L
S
GR
GS
0.149 GC
2 setlinecap
1 LJ
0.5 LW
N
414.5 83.5 M
414.5 82.795 L
S
GR
GS
0.149 GC
2 setlinecap
1 LJ
0.5 LW
N
444 83.5 M
444 82.795 L
S
GR
GS
0.149 GC
2 setlinecap
1 LJ
0.5 LW
N
385 13 M
385 13.705 L
S
GR
GS
0.149 GC
2 setlinecap
1 LJ
0.5 LW
N
414.5 13 M
414.5 13.705 L
S
GR
GS
0.149 GC
2 setlinecap
1 LJ
0.5 LW
N
444 13 M
444 13.705 L
S
GR
GS
[1 0 0 1 385 87.1] CT
0.149 GC
/Times-Roman 8 F
GS
[1 0 0 1 0 0] CT
-2 8 moveto 
1 -1 scale
(0) t 
GR
GR
GS
[1 0 0 1 414.5 87.1] CT
0.149 GC
/Times-Roman 8 F
GS
[1 0 0 1 0 0] CT
-5 8 moveto 
1 -1 scale
(0.5) t 
GR
GR
GS
[1 0 0 1 444 87.1] CT
0.149 GC
/Times-Roman 8 F
GS
[1 0 0 1 0 0] CT
-2 8 moveto 
1 -1 scale
(1) t 
GR
GR
GS
[1 0 0 1 414.50003 97.6] CT
0.149 GC
N
f366682041
f
GR
GS
[1 0 0 1 414.50003 97.6] CT
0.149 GC
N
f-783774294
f
GR
GS
[1 0 0 1 414.50003 97.6] CT
0.149 GC
N
f1140189983
f
GR
GS
[1 0 0 1 414.50003 97.6] CT
0.149 GC
N
f-130641992
f
GR
GS
[1 0 0 1 414.50003 97.6] CT
0.149 GC
N
f-1696920094
f
GR
GS
[1 0 0 1 414.50003 97.6] CT
0.149 GC
N
f-1302804042
f
GR
GS
0.149 GC
2 setlinecap
1 LJ
0.5 LW
N
385 83.5 M
385 13 L
S
GR
GS
0.149 GC
2 setlinecap
1 LJ
0.5 LW
N
444 83.5 M
444 13 L
S
GR
GS
0.149 GC
2 setlinecap
1 LJ
0.5 LW
N
385 83.5 M
385.705 83.5 L
S
GR
GS
0.149 GC
2 setlinecap
1 LJ
0.5 LW
N
385 60 M
385.705 60 L
S
GR
GS
0.149 GC
2 setlinecap
1 LJ
0.5 LW
N
385 36.5 M
385.705 36.5 L
S
GR
GS
0.149 GC
2 setlinecap
1 LJ
0.5 LW
N
385 13 M
385.705 13 L
S
GR
GS
0.149 GC
2 setlinecap
1 LJ
0.5 LW
N
444 83.5 M
443.295 83.5 L
S
GR
GS
0.149 GC
2 setlinecap
1 LJ
0.5 LW
N
444 60 M
443.295 60 L
S
GR
GS
0.149 GC
2 setlinecap
1 LJ
0.5 LW
N
444 36.5 M
443.295 36.5 L
S
GR
GS
0.149 GC
2 setlinecap
1 LJ
0.5 LW
N
444 13 M
443.295 13 L
S
GR
GS
[1 0 0 1 381.39999 83.5] CT
0.149 GC
/Times-Roman 8 F
GS
[1 0 0 1 0 0] CT
-4 3 moveto 
1 -1 scale
(0) t 
GR
GR
GS
[1 0 0 1 381.39999 60] CT
0.149 GC
/Times-Roman 8 F
GS
[1 0 0 1 0 0] CT
-10 3 moveto 
1 -1 scale
(0.1) t 
GR
GR
GS
[1 0 0 1 381.39999 36.5] CT
0.149 GC
/Times-Roman 8 F
GS
[1 0 0 1 0 0] CT
-10 3 moveto 
1 -1 scale
(0.2) t 
GR
GR
GS
[1 0 0 1 381.39999 13] CT
0.149 GC
/Times-Roman 8 F
GS
[1 0 0 1 0 0] CT
-10 3 moveto 
1 -1 scale
(0.3) t 
GR
GR
GS
1 GC
N
462.5 83.5 M
521.5 83.5 L
521.5 13 L
462.5 13 L
cp
f
GR
GS
[1 0 0 1 492.00046 11.9] CT
N
/f737393408{-0.325 -3.027 M
-0.638 -3.027 -0.903 -3.145 QT
-1.169 -3.262 -1.372 -3.481 QT
-1.575 -3.699 -1.669 -3.973 QT
-1.763 -4.246 -1.763 -4.559 QT
-1.763 -5.121 -1.497 -5.652 QT
-1.231 -6.184 -0.771 -6.566 QT
-0.31 -6.949 0.222 -7.09 QT
-0.028 -7.574 -0.169 -7.934 QT
-0.31 -8.293 -0.31 -8.652 QT
-0.31 -8.934 -0.185 -9.137 QT
-0.06 -9.34 0.167 -9.465 QT
0.394 -9.59 0.675 -9.59 QT
0.94 -9.59 1.737 -9.402 QT
1.94 -9.356 1.94 -9.168 QT
1.94 -9.012 1.831 -8.887 QT
1.722 -8.762 1.565 -8.762 QT
1.456 -8.762 1.37 -8.816 QT
1.284 -8.871 1.097 -8.996 QT
0.909 -9.121 0.761 -9.191 QT
0.612 -9.262 0.44 -9.262 QT
0.253 -9.262 0.112 -9.145 QT
-0.028 -9.027 -0.028 -8.856 QT
-0.028 -8.574 0.222 -8.199 QT
0.472 -7.824 0.94 -7.246 QT
1.472 -6.574 1.472 -5.746 QT
1.472 -5.356 1.354 -4.879 QT
1.237 -4.402 1.011 -3.988 QT
0.784 -3.574 0.44 -3.301 QT
0.097 -3.027 -0.325 -3.027 QT
cp
-0.31 -3.277 M
0.05 -3.277 0.3 -3.645 QT
0.55 -4.012 0.683 -4.512 QT
0.815 -5.012 0.815 -5.356 QT
0.815 -6.027 0.347 -6.871 QT
-0.138 -6.731 -0.474 -6.309 QT
-0.81 -5.887 -0.989 -5.34 QT
-1.169 -4.793 -1.169 -4.309 QT
-1.169 -3.871 -0.942 -3.574 QT
-0.716 -3.277 -0.31 -3.277 QT
cp}def
f737393408
f
GR
GS
0.821 GC
N
465.332 83.5 M
465.332 73.078 L
462.5 73.078 L
462.5 83.5 L
cp
468.164 83.5 M
468.164 78.121 L
465.332 78.121 L
465.332 83.5 L
cp
470.996 83.5 M
470.996 77.112 L
468.164 77.112 L
468.164 83.5 L
cp
473.828 83.5 M
473.828 78.121 L
470.996 78.121 L
470.996 83.5 L
cp
476.66 83.5 M
476.66 77.785 L
473.828 77.785 L
473.828 83.5 L
cp
479.492 83.5 M
479.492 75.095 L
476.66 75.095 L
476.66 83.5 L
cp
482.324 83.5 M
482.324 75.431 L
479.492 75.431 L
479.492 83.5 L
cp
485.156 83.5 M
485.156 77.449 L
482.324 77.449 L
482.324 83.5 L
cp
487.988 83.5 M
487.988 75.768 L
485.156 75.768 L
485.156 83.5 L
cp
490.82 83.5 M
490.82 74.087 L
487.988 74.087 L
487.988 83.5 L
cp
493.652 83.5 M
493.652 74.423 L
490.82 74.423 L
490.82 83.5 L
cp
496.484 75.768 M
493.652 75.768 L
493.652 83.5 L
496.484 83.5 L
499.316 83.5 L
499.316 75.768 L
cp
502.148 83.5 M
502.148 71.733 L
499.316 71.733 L
499.316 83.5 L
cp
504.98 83.5 M
504.98 74.087 L
502.148 74.087 L
502.148 83.5 L
cp
507.812 83.5 M
507.812 72.406 L
504.98 72.406 L
504.98 83.5 L
cp
510.644 83.5 M
510.644 71.061 L
507.812 71.061 L
507.812 83.5 L
cp
513.476 83.5 M
513.476 70.388 L
510.644 70.388 L
510.644 83.5 L
cp
516.308 83.5 M
516.308 70.725 L
513.476 70.725 L
513.476 83.5 L
cp
519.14 83.5 M
519.14 65.345 L
516.308 65.345 L
516.308 83.5 L
cp
521.5 83.5 M
521.5 34.752 L
519.14 34.752 L
519.14 83.5 L
cp
f
GR
GS
2 setlinecap
10.0 ML
0.5 LW
N
462.5 83.5 M
462.5 73.078 L
465.332 73.078 L
465.332 83.5 L
465.332 83.5 L
S
GR
GS
2 setlinecap
10.0 ML
0.5 LW
N
465.332 78.121 M
468.164 78.121 L
S
GR
GS
2 setlinecap
10.0 ML
0.5 LW
N
468.164 83.5 M
468.164 83.5 L
468.164 77.112 L
470.996 77.112 L
470.996 83.5 L
470.996 83.5 L
S
GR
GS
2 setlinecap
10.0 ML
0.5 LW
N
470.996 78.121 M
473.828 78.121 L
S
GR
GS
2 setlinecap
10.0 ML
0.5 LW
N
473.828 83.5 M
473.828 83.5 L
473.828 77.785 L
476.66 77.785 L
S
GR
GS
2 setlinecap
10.0 ML
0.5 LW
N
476.66 83.5 M
476.66 83.5 L
476.66 75.095 L
479.492 75.095 L
479.492 83.5 L
479.492 83.5 L
S
GR
GS
2 setlinecap
10.0 ML
0.5 LW
N
479.492 75.431 M
482.324 75.431 L
482.324 83.5 L
482.324 83.5 L
S
GR
GS
2 setlinecap
10.0 ML
0.5 LW
N
482.324 77.449 M
485.156 77.449 L
S
GR
GS
2 setlinecap
10.0 ML
0.5 LW
N
485.156 83.5 M
485.156 83.5 L
485.156 75.768 L
487.988 75.768 L
S
GR
GS
2 setlinecap
10.0 ML
0.5 LW
N
487.988 83.5 M
487.988 83.5 L
487.988 74.087 L
490.82 74.087 L
490.82 83.5 L
490.82 83.5 L
S
GR
GS
2 setlinecap
10.0 ML
0.5 LW
N
490.82 74.423 M
493.652 74.423 L
493.652 83.5 L
493.652 83.5 L
S
GR
GS
2 setlinecap
10.0 ML
0.5 LW
N
493.652 75.768 M
496.484 75.768 L
496.484 83.5 L
496.484 83.5 L
S
GR
GS
2 setlinecap
10.0 ML
0.5 LW
N
496.484 75.768 M
499.316 75.768 L
S
GR
GS
2 setlinecap
10.0 ML
0.5 LW
N
499.316 83.5 M
499.316 83.5 L
499.316 71.733 L
502.148 71.733 L
502.148 83.5 L
502.148 83.5 L
S
GR
GS
2 setlinecap
10.0 ML
0.5 LW
N
502.148 74.087 M
504.98 74.087 L
S
GR
GS
2 setlinecap
10.0 ML
0.5 LW
N
504.98 83.5 M
504.98 83.5 L
504.98 72.406 L
507.812 72.406 L
S
GR
GS
2 setlinecap
10.0 ML
0.5 LW
N
507.812 83.5 M
507.812 83.5 L
507.812 71.061 L
510.644 71.061 L
S
GR
GS
2 setlinecap
10.0 ML
0.5 LW
N
510.644 83.5 M
510.644 83.5 L
510.644 70.388 L
513.476 70.388 L
513.476 83.5 L
513.476 83.5 L
S
GR
GS
2 setlinecap
10.0 ML
0.5 LW
N
513.476 70.725 M
516.308 70.725 L
S
GR
GS
2 setlinecap
10.0 ML
0.5 LW
N
516.308 83.5 M
516.308 83.5 L
516.308 65.345 L
519.14 65.345 L
S
GR
GS
2 setlinecap
10.0 ML
0.5 LW
N
519.14 83.5 M
519.14 83.5 L
519.14 34.752 L
521.5 34.752 L
521.5 83.5 L
S
GR
GS
0.149 GC
2 setlinecap
1 LJ
0.5 LW
N
462.5 83.5 M
521.5 83.5 L
S
GR
GS
0.149 GC
2 setlinecap
1 LJ
0.5 LW
N
462.5 13 M
521.5 13 L
S
GR
GS
0.149 GC
2 setlinecap
1 LJ
0.5 LW
N
462.5 83.5 M
462.5 82.795 L
S
GR
GS
0.149 GC
2 setlinecap
1 LJ
0.5 LW
N
492 83.5 M
492 82.795 L
S
GR
GS
0.149 GC
2 setlinecap
1 LJ
0.5 LW
N
521.5 83.5 M
521.5 82.795 L
S
GR
GS
0.149 GC
2 setlinecap
1 LJ
0.5 LW
N
462.5 13 M
462.5 13.705 L
S
GR
GS
0.149 GC
2 setlinecap
1 LJ
0.5 LW
N
492 13 M
492 13.705 L
S
GR
GS
0.149 GC
2 setlinecap
1 LJ
0.5 LW
N
521.5 13 M
521.5 13.705 L
S
GR
GS
[1 0 0 1 462.5 87.1] CT
0.149 GC
/Times-Roman 8 F
GS
[1 0 0 1 0 0] CT
-2 8 moveto 
1 -1 scale
(0) t 
GR
GR
GS
[1 0 0 1 492 87.1] CT
0.149 GC
/Times-Roman 8 F
GS
[1 0 0 1 0 0] CT
-5 8 moveto 
1 -1 scale
(0.5) t 
GR
GR
GS
[1 0 0 1 521.5 87.1] CT
0.149 GC
/Times-Roman 8 F
GS
[1 0 0 1 0 0] CT
-2 8 moveto 
1 -1 scale
(1) t 
GR
GR
GS
[1 0 0 1 492.00003 97.6] CT
0.149 GC
N
f366682041
f
GR
GS
[1 0 0 1 492.00003 97.6] CT
0.149 GC
N
f-783774294
f
GR
GS
[1 0 0 1 492.00003 97.6] CT
0.149 GC
N
f1140189983
f
GR
GS
[1 0 0 1 492.00003 97.6] CT
0.149 GC
N
f-130641992
f
GR
GS
[1 0 0 1 492.00003 97.6] CT
0.149 GC
N
f-1696920094
f
GR
GS
[1 0 0 1 492.00003 97.6] CT
0.149 GC
N
f-1302804042
f
GR
GS
0.149 GC
2 setlinecap
1 LJ
0.5 LW
N
462.5 83.5 M
462.5 13 L
S
GR
GS
0.149 GC
2 setlinecap
1 LJ
0.5 LW
N
521.5 83.5 M
521.5 13 L
S
GR
GS
0.149 GC
2 setlinecap
1 LJ
0.5 LW
N
462.5 83.5 M
463.205 83.5 L
S
GR
GS
0.149 GC
2 setlinecap
1 LJ
0.5 LW
N
462.5 60 M
463.205 60 L
S
GR
GS
0.149 GC
2 setlinecap
1 LJ
0.5 LW
N
462.5 36.5 M
463.205 36.5 L
S
GR
GS
0.149 GC
2 setlinecap
1 LJ
0.5 LW
N
462.5 13 M
463.205 13 L
S
GR
GS
0.149 GC
2 setlinecap
1 LJ
0.5 LW
N
521.5 83.5 M
520.795 83.5 L
S
GR
GS
0.149 GC
2 setlinecap
1 LJ
0.5 LW
N
521.5 60 M
520.795 60 L
S
GR
GS
0.149 GC
2 setlinecap
1 LJ
0.5 LW
N
521.5 36.5 M
520.795 36.5 L
S
GR
GS
0.149 GC
2 setlinecap
1 LJ
0.5 LW
N
521.5 13 M
520.795 13 L
S
GR
GS
[1 0 0 1 458.89999 83.5] CT
0.149 GC
/Times-Roman 8 F
GS
[1 0 0 1 0 0] CT
-4 3 moveto 
1 -1 scale
(0) t 
GR
GR
GS
[1 0 0 1 458.89999 60] CT
0.149 GC
/Times-Roman 8 F
GS
[1 0 0 1 0 0] CT
-10 3 moveto 
1 -1 scale
(0.1) t 
GR
GR
GS
[1 0 0 1 458.89999 36.5] CT
0.149 GC
/Times-Roman 8 F
GS
[1 0 0 1 0 0] CT
-10 3 moveto 
1 -1 scale
(0.2) t 
GR
GR
GS
[1 0 0 1 458.89999 13] CT
0.149 GC
/Times-Roman 8 F
GS
[1 0 0 1 0 0] CT
-10 3 moveto 
1 -1 scale
(0.3) t 
GR
GR
%%Trailer
%%Pages: 1
%%EOF
