%!PS-Adobe-3.0 EPSF-3.0
%%Creator: (MATLAB, The Mathworks, Inc. Version 9.3.0.713579 \(R2017b\). Operating System: Mac OS X)
%%Title: ./dnorm_dist_pres.eps
%%CreationDate: 2018-08-06T01:03:14
%%Pages: (atend)
%%BoundingBox:   104     2   908   296
%%LanguageLevel: 3
%%EndComments
%%BeginProlog
%%BeginResource: procset (Apache XML Graphics Std ProcSet) 1.2 0
%%Version: 1.2 0
%%Copyright: (Copyright 2001-2003,2010 The Apache Software Foundation. License terms: http://www.apache.org/licenses/LICENSE-2.0)
/bd{bind def}bind def
/ld{load def}bd
/GR/grestore ld
/GS/gsave ld
/RM/rmoveto ld
/C/curveto ld
/t/show ld
/L/lineto ld
/ML/setmiterlimit ld
/CT/concat ld
/f/fill ld
/N/newpath ld
/S/stroke ld
/CC/setcmykcolor ld
/A/ashow ld
/cp/closepath ld
/RC/setrgbcolor ld
/LJ/setlinejoin ld
/GC/setgray ld
/LW/setlinewidth ld
/M/moveto ld
/re {4 2 roll M
1 index 0 rlineto
0 exch rlineto
neg 0 rlineto
cp } bd
/_ctm matrix def
/_tm matrix def
/BT { _ctm currentmatrix pop matrix _tm copy pop 0 0 moveto } bd
/ET { _ctm setmatrix } bd
/iTm { _ctm setmatrix _tm concat } bd
/Tm { _tm astore pop iTm 0 0 moveto } bd
/ux 0.0 def
/uy 0.0 def
/F {
  /Tp exch def
  /Tf exch def
  Tf findfont Tp scalefont setfont
  /cf Tf def  /cs Tp def
} bd
/ULS {currentpoint /uy exch def /ux exch def} bd
/ULE {
  /Tcx currentpoint pop def
  gsave
  newpath
  cf findfont cs scalefont dup
  /FontMatrix get 0 get /Ts exch def /FontInfo get dup
  /UnderlinePosition get Ts mul /To exch def
  /UnderlineThickness get Ts mul /Tt exch def
  ux uy To add moveto  Tcx uy To add lineto
  Tt setlinewidth stroke
  grestore
} bd
/OLE {
  /Tcx currentpoint pop def
  gsave
  newpath
  cf findfont cs scalefont dup
  /FontMatrix get 0 get /Ts exch def /FontInfo get dup
  /UnderlinePosition get Ts mul /To exch def
  /UnderlineThickness get Ts mul /Tt exch def
  ux uy To add cs add moveto Tcx uy To add cs add lineto
  Tt setlinewidth stroke
  grestore
} bd
/SOE {
  /Tcx currentpoint pop def
  gsave
  newpath
  cf findfont cs scalefont dup
  /FontMatrix get 0 get /Ts exch def /FontInfo get dup
  /UnderlinePosition get Ts mul /To exch def
  /UnderlineThickness get Ts mul /Tt exch def
  ux uy To add cs 10 mul 26 idiv add moveto Tcx uy To add cs 10 mul 26 idiv add lineto
  Tt setlinewidth stroke
  grestore
} bd
/QT {
/Y22 exch store
/X22 exch store
/Y21 exch store
/X21 exch store
currentpoint
/Y21 load 2 mul add 3 div exch
/X21 load 2 mul add 3 div exch
/X21 load 2 mul /X22 load add 3 div
/Y21 load 2 mul /Y22 load add 3 div
/X22 load /Y22 load curveto
} bd
/SSPD {
dup length /d exch dict def
{
/v exch def
/k exch def
currentpagedevice k known {
/cpdv currentpagedevice k get def
v cpdv ne {
/upd false def
/nullv v type /nulltype eq def
/nullcpdv cpdv type /nulltype eq def
nullv nullcpdv or
{
/upd true def
} {
/sametype v type cpdv type eq def
sametype {
v type /arraytype eq {
/vlen v length def
/cpdvlen cpdv length def
vlen cpdvlen eq {
0 1 vlen 1 sub {
/i exch def
/obj v i get def
/cpdobj cpdv i get def
obj cpdobj ne {
/upd true def
exit
} if
} for
} {
/upd true def
} ifelse
} {
v type /dicttype eq {
v {
/dv exch def
/dk exch def
/cpddv cpdv dk get def
dv cpddv ne {
/upd true def
exit
} if
} forall
} {
/upd true def
} ifelse
} ifelse
} if
} ifelse
upd true eq {
d k v put
} if
} if
} if
} forall
d length 0 gt {
d setpagedevice
} if
} bd
/RE { % /NewFontName [NewEncodingArray] /FontName RE -
  findfont dup length dict begin
  {
    1 index /FID ne
    {def} {pop pop} ifelse
  } forall
  /Encoding exch def
  /FontName 1 index def
  currentdict definefont pop
  end
} bind def
%%EndResource
%%BeginResource: procset (Apache XML Graphics EPS ProcSet) 1.0 0
%%Version: 1.0 0
%%Copyright: (Copyright 2002-2003 The Apache Software Foundation. License terms: http://www.apache.org/licenses/LICENSE-2.0)
/BeginEPSF { %def
/b4_Inc_state save def         % Save state for cleanup
/dict_count countdictstack def % Count objects on dict stack
/op_count count 1 sub def      % Count objects on operand stack
userdict begin                 % Push userdict on dict stack
/showpage { } def              % Redefine showpage, { } = null proc
0 setgray 0 setlinecap         % Prepare graphics state
1 setlinewidth 0 setlinejoin
10 setmiterlimit [ ] 0 setdash newpath
/languagelevel where           % If level not equal to 1 then
{pop languagelevel             % set strokeadjust and
1 ne                           % overprint to their defaults.
{false setstrokeadjust false setoverprint
} if
} if
} bd
/EndEPSF { %def
count op_count sub {pop} repeat            % Clean up stacks
countdictstack dict_count sub {end} repeat
b4_Inc_state restore
} bd
%%EndResource
%FOPBeginFontDict
%%IncludeResource: font Courier-Oblique
%%IncludeResource: font Courier-BoldOblique
%%IncludeResource: font Courier-Bold
%%IncludeResource: font ZapfDingbats
%%IncludeResource: font Symbol
%%IncludeResource: font Helvetica
%%IncludeResource: font Helvetica-Oblique
%%IncludeResource: font Helvetica-Bold
%%IncludeResource: font Helvetica-BoldOblique
%%IncludeResource: font Times-Roman
%%IncludeResource: font Times-Italic
%%IncludeResource: font Times-Bold
%%IncludeResource: font Times-BoldItalic
%%IncludeResource: font Courier
%FOPEndFontDict
%%BeginResource: encoding WinAnsiEncoding
/WinAnsiEncoding [
/.notdef /.notdef /.notdef /.notdef /.notdef
/.notdef /.notdef /.notdef /.notdef /.notdef
/.notdef /.notdef /.notdef /.notdef /.notdef
/.notdef /.notdef /.notdef /.notdef /.notdef
/.notdef /.notdef /.notdef /.notdef /.notdef
/.notdef /.notdef /.notdef /.notdef /.notdef
/.notdef /.notdef /space /exclam /quotedbl
/numbersign /dollar /percent /ampersand /quotesingle
/parenleft /parenright /asterisk /plus /comma
/hyphen /period /slash /zero /one
/two /three /four /five /six
/seven /eight /nine /colon /semicolon
/less /equal /greater /question /at
/A /B /C /D /E
/F /G /H /I /J
/K /L /M /N /O
/P /Q /R /S /T
/U /V /W /X /Y
/Z /bracketleft /backslash /bracketright /asciicircum
/underscore /quoteleft /a /b /c
/d /e /f /g /h
/i /j /k /l /m
/n /o /p /q /r
/s /t /u /v /w
/x /y /z /braceleft /bar
/braceright /asciitilde /bullet /Euro /bullet
/quotesinglbase /florin /quotedblbase /ellipsis /dagger
/daggerdbl /circumflex /perthousand /Scaron /guilsinglleft
/OE /bullet /Zcaron /bullet /bullet
/quoteleft /quoteright /quotedblleft /quotedblright /bullet
/endash /emdash /asciitilde /trademark /scaron
/guilsinglright /oe /bullet /zcaron /Ydieresis
/space /exclamdown /cent /sterling /currency
/yen /brokenbar /section /dieresis /copyright
/ordfeminine /guillemotleft /logicalnot /sfthyphen /registered
/macron /degree /plusminus /twosuperior /threesuperior
/acute /mu /paragraph /middot /cedilla
/onesuperior /ordmasculine /guillemotright /onequarter /onehalf
/threequarters /questiondown /Agrave /Aacute /Acircumflex
/Atilde /Adieresis /Aring /AE /Ccedilla
/Egrave /Eacute /Ecircumflex /Edieresis /Igrave
/Iacute /Icircumflex /Idieresis /Eth /Ntilde
/Ograve /Oacute /Ocircumflex /Otilde /Odieresis
/multiply /Oslash /Ugrave /Uacute /Ucircumflex
/Udieresis /Yacute /Thorn /germandbls /agrave
/aacute /acircumflex /atilde /adieresis /aring
/ae /ccedilla /egrave /eacute /ecircumflex
/edieresis /igrave /iacute /icircumflex /idieresis
/eth /ntilde /ograve /oacute /ocircumflex
/otilde /odieresis /divide /oslash /ugrave
/uacute /ucircumflex /udieresis /yacute /thorn
/ydieresis
] def
%%EndResource
%FOPBeginFontReencode
/Courier-Oblique findfont
dup length dict begin
  {1 index /FID ne {def} {pop pop} ifelse} forall
  /Encoding WinAnsiEncoding def
  currentdict
end
/Courier-Oblique exch definefont pop
/Courier-BoldOblique findfont
dup length dict begin
  {1 index /FID ne {def} {pop pop} ifelse} forall
  /Encoding WinAnsiEncoding def
  currentdict
end
/Courier-BoldOblique exch definefont pop
/Courier-Bold findfont
dup length dict begin
  {1 index /FID ne {def} {pop pop} ifelse} forall
  /Encoding WinAnsiEncoding def
  currentdict
end
/Courier-Bold exch definefont pop
/Helvetica findfont
dup length dict begin
  {1 index /FID ne {def} {pop pop} ifelse} forall
  /Encoding WinAnsiEncoding def
  currentdict
end
/Helvetica exch definefont pop
/Helvetica-Oblique findfont
dup length dict begin
  {1 index /FID ne {def} {pop pop} ifelse} forall
  /Encoding WinAnsiEncoding def
  currentdict
end
/Helvetica-Oblique exch definefont pop
/Helvetica-Bold findfont
dup length dict begin
  {1 index /FID ne {def} {pop pop} ifelse} forall
  /Encoding WinAnsiEncoding def
  currentdict
end
/Helvetica-Bold exch definefont pop
/Helvetica-BoldOblique findfont
dup length dict begin
  {1 index /FID ne {def} {pop pop} ifelse} forall
  /Encoding WinAnsiEncoding def
  currentdict
end
/Helvetica-BoldOblique exch definefont pop
/Times-Roman findfont
dup length dict begin
  {1 index /FID ne {def} {pop pop} ifelse} forall
  /Encoding WinAnsiEncoding def
  currentdict
end
/Times-Roman exch definefont pop
/Times-Italic findfont
dup length dict begin
  {1 index /FID ne {def} {pop pop} ifelse} forall
  /Encoding WinAnsiEncoding def
  currentdict
end
/Times-Italic exch definefont pop
/Times-Bold findfont
dup length dict begin
  {1 index /FID ne {def} {pop pop} ifelse} forall
  /Encoding WinAnsiEncoding def
  currentdict
end
/Times-Bold exch definefont pop
/Times-BoldItalic findfont
dup length dict begin
  {1 index /FID ne {def} {pop pop} ifelse} forall
  /Encoding WinAnsiEncoding def
  currentdict
end
/Times-BoldItalic exch definefont pop
/Courier findfont
dup length dict begin
  {1 index /FID ne {def} {pop pop} ifelse} forall
  /Encoding WinAnsiEncoding def
  currentdict
end
/Courier exch definefont pop
%FOPEndFontReencode
%%EndProlog
%%Page: 1 1
%%PageBoundingBox: 0 0 1000 300
%%BeginPageSetup
[1 0 0 -1 0 300] CT
%%EndPageSetup
GS
1 GC
N
0 0 1000 300 re
f
GR
GS
1 GC
N
0 0 1000 300 re
f
GR
GS
1 GC
N
130 254.5 M
232.5 254.5 L
232.5 25.5 L
130 25.5 L
cp
f
GR
GS
[1 0 0 1 181.25017 23.30001] CT
N
-3.822 -6.07 M
-4.447 -6.07 -4.986 -6.297 QT
-5.525 -6.524 -5.923 -6.969 QT
-6.322 -7.414 -6.517 -7.953 QT
-6.712 -8.492 -6.712 -9.117 QT
-6.712 -10.242 -6.181 -11.305 QT
-5.65 -12.367 -4.728 -13.141 QT
-3.806 -13.914 -2.728 -14.18 QT
-3.259 -15.164 -3.533 -15.867 QT
-3.806 -16.57 -3.806 -17.32 QT
-3.806 -17.852 -3.556 -18.274 QT
-3.306 -18.695 -2.853 -18.93 QT
-2.4 -19.164 -1.853 -19.164 QT
-1.306 -19.164 0.272 -18.805 QT
0.694 -18.711 0.694 -18.32 QT
0.694 -18.024 0.475 -17.781 QT
0.256 -17.539 -0.04 -17.539 QT
-0.275 -17.539 -0.447 -17.641 QT
-0.619 -17.742 -0.994 -17.992 QT
-1.369 -18.242 -1.673 -18.383 QT
-1.978 -18.524 -2.29 -18.524 QT
-2.665 -18.524 -2.962 -18.297 QT
-3.259 -18.07 -3.259 -17.711 QT
-3.259 -17.133 -2.751 -16.391 QT
-2.244 -15.649 -1.306 -14.492 QT
-0.244 -13.133 -0.244 -11.508 QT
-0.244 -10.695 -0.478 -9.758 QT
-0.712 -8.82 -1.158 -7.985 QT
-1.603 -7.149 -2.29 -6.61 QT
-2.978 -6.07 -3.822 -6.07 QT
cp
-3.79 -6.555 M
-3.087 -6.555 -2.58 -7.281 QT
-2.072 -8.008 -1.814 -9.016 QT
-1.556 -10.024 -1.556 -10.711 QT
-1.556 -12.055 -2.494 -13.742 QT
-3.447 -13.477 -4.134 -12.633 QT
-4.822 -11.789 -5.173 -10.688 QT
-5.525 -9.586 -5.525 -8.602 QT
-5.525 -7.742 -5.08 -7.149 QT
-4.634 -6.555 -3.79 -6.555 QT
cp
f
GR
GS
[1 0 0 1 181.25017 23.30001] CT
N
1.5 -3.696 M
1.5 -4.118 L
3 -4.118 3 -4.493 QT
3 -10.805 L
2.391 -10.493 1.438 -10.493 QT
1.438 -10.915 L
2.907 -10.915 3.657 -11.696 QT
3.829 -11.696 L
3.86 -11.696 3.899 -11.657 QT
3.938 -11.618 3.938 -11.587 QT
3.938 -4.493 L
3.938 -4.118 5.438 -4.118 QT
5.438 -3.696 L
1.5 -3.696 L
cp
f
GR
GS
0.821 GC
N
136.458 254.5 M
136.458 208.634 L
130 208.634 L
130 254.5 L
cp
142.915 254.5 M
142.915 217.808 L
136.458 217.808 L
136.458 254.5 L
cp
149.372 254.5 M
149.372 225.67 L
142.915 225.67 L
142.915 254.5 L
cp
155.83 254.5 M
155.83 226.981 L
149.372 226.981 L
149.372 254.5 L
cp
162.288 254.5 M
162.288 209.945 L
155.83 209.945 L
155.83 254.5 L
cp
168.745 254.5 M
168.745 219.118 L
162.288 219.118 L
162.288 254.5 L
cp
175.202 254.5 M
175.202 212.566 L
168.745 212.566 L
168.745 254.5 L
cp
181.66 254.5 M
181.66 211.255 L
175.202 211.255 L
175.202 254.5 L
cp
188.117 254.5 M
188.117 208.634 L
181.66 208.634 L
181.66 254.5 L
cp
194.575 254.5 M
194.575 202.082 L
188.117 202.082 L
188.117 254.5 L
cp
201.033 254.5 M
201.033 207.324 L
194.575 207.324 L
194.575 254.5 L
cp
207.49 254.5 M
207.49 199.461 L
201.033 199.461 L
201.033 254.5 L
cp
213.947 254.5 M
213.947 188.978 L
207.49 188.978 L
207.49 254.5 L
cp
220.405 254.5 M
220.405 195.53 L
213.947 195.53 L
213.947 254.5 L
cp
226.863 254.5 M
226.863 169.321 L
220.405 169.321 L
220.405 254.5 L
cp
232.5 254.5 M
232.5 52.692 L
226.863 52.692 L
226.863 254.5 L
cp
f
GR
GS
2 setlinecap
10.0 ML
0.5 LW
N
130 254.5 M
130 208.634 L
136.458 208.634 L
136.458 254.5 L
136.458 254.5 L
S
GR
GS
2 setlinecap
10.0 ML
0.5 LW
N
136.458 217.808 M
142.915 217.808 L
142.915 254.5 L
142.915 254.5 L
S
GR
GS
2 setlinecap
10.0 ML
0.5 LW
N
142.915 225.67 M
149.372 225.67 L
149.372 254.5 L
149.372 254.5 L
S
GR
GS
2 setlinecap
10.0 ML
0.5 LW
N
149.372 226.981 M
155.83 226.981 L
S
GR
GS
2 setlinecap
10.0 ML
0.5 LW
N
155.83 254.5 M
155.83 254.5 L
155.83 209.945 L
162.288 209.945 L
162.288 254.5 L
162.288 254.5 L
S
GR
GS
2 setlinecap
10.0 ML
0.5 LW
N
162.288 219.118 M
168.745 219.118 L
S
GR
GS
2 setlinecap
10.0 ML
0.5 LW
N
168.745 254.5 M
168.745 254.5 L
168.745 212.566 L
175.202 212.566 L
S
GR
GS
2 setlinecap
10.0 ML
0.5 LW
N
175.202 254.5 M
175.202 254.5 L
175.202 211.255 L
181.66 211.255 L
S
GR
GS
2 setlinecap
10.0 ML
0.5 LW
N
181.66 254.5 M
181.66 254.5 L
181.66 208.634 L
188.117 208.634 L
S
GR
GS
2 setlinecap
10.0 ML
0.5 LW
N
188.117 254.5 M
188.117 254.5 L
188.117 202.082 L
194.575 202.082 L
194.575 254.5 L
194.575 254.5 L
S
GR
GS
2 setlinecap
10.0 ML
0.5 LW
N
194.575 207.324 M
201.033 207.324 L
S
GR
GS
2 setlinecap
10.0 ML
0.5 LW
N
201.033 254.5 M
201.033 254.5 L
201.033 199.461 L
207.49 199.461 L
S
GR
GS
2 setlinecap
10.0 ML
0.5 LW
N
207.49 254.5 M
207.49 254.5 L
207.49 188.978 L
213.947 188.978 L
213.947 254.5 L
213.947 254.5 L
S
GR
GS
2 setlinecap
10.0 ML
0.5 LW
N
213.947 195.53 M
220.405 195.53 L
S
GR
GS
2 setlinecap
10.0 ML
0.5 LW
N
220.405 254.5 M
220.405 254.5 L
220.405 169.321 L
226.863 169.321 L
S
GR
GS
2 setlinecap
10.0 ML
0.5 LW
N
226.863 254.5 M
226.863 254.5 L
226.863 52.692 L
232.5 52.692 L
232.5 254.5 L
S
GR
GS
0.149 GC
2 setlinecap
1 LJ
0.5 LW
N
130 254.5 M
232.5 254.5 L
S
GR
GS
0.149 GC
2 setlinecap
1 LJ
0.5 LW
N
130 25.5 M
232.5 25.5 L
S
GR
GS
0.149 GC
2 setlinecap
1 LJ
0.5 LW
N
130 254.5 M
130 252.21 L
S
GR
GS
0.149 GC
2 setlinecap
1 LJ
0.5 LW
N
181.25 254.5 M
181.25 252.21 L
S
GR
GS
0.149 GC
2 setlinecap
1 LJ
0.5 LW
N
232.5 254.5 M
232.5 252.21 L
S
GR
GS
0.149 GC
2 setlinecap
1 LJ
0.5 LW
N
130 25.5 M
130 27.79 L
S
GR
GS
0.149 GC
2 setlinecap
1 LJ
0.5 LW
N
181.25 25.5 M
181.25 27.79 L
S
GR
GS
0.149 GC
2 setlinecap
1 LJ
0.5 LW
N
232.5 25.5 M
232.5 27.79 L
S
GR
GS
[1 0 0 1 130 259.70001] CT
0.149 GC
/Times-Roman 16 F
GS
[1 0 0 1 0 0] CT
-4 15 moveto 
1 -1 scale
(0) t 
GR
GR
GS
[1 0 0 1 181.25 259.70001] CT
0.149 GC
/Times-Roman 16 F
GS
[1 0 0 1 0 0] CT
-10 15 moveto 
1 -1 scale
(0.5) t 
GR
GR
GS
[1 0 0 1 232.5 259.70001] CT
0.149 GC
/Times-Roman 16 F
GS
[1 0 0 1 0 0] CT
-4 15 moveto 
1 -1 scale
(1) t 
GR
GR
GS
[1 0 0 1 181.25005 278.70001] CT
0.149 GC
N
-26.098 14.784 M
-26.27 14.784 -26.27 14.55 QT
-26.254 14.503 -26.23 14.393 QT
-26.207 14.284 -26.16 14.214 QT
-26.113 14.143 -26.035 14.143 QT
-24.941 14.143 -24.504 14.034 QT
-24.27 13.956 -24.176 13.55 QT
-21.691 3.659 L
-21.66 3.487 -21.66 3.409 QT
-21.66 3.221 -21.879 3.19 QT
-22.223 3.128 -23.176 3.128 QT
-23.348 3.128 -23.348 2.878 QT
-23.348 2.846 -23.316 2.729 QT
-23.285 2.612 -23.238 2.55 QT
-23.191 2.487 -23.129 2.487 QT
-16.66 2.487 L
-15.395 2.487 -14.457 3.096 QT
-13.52 3.706 -13.02 4.737 QT
-12.52 5.768 -12.52 7.018 QT
-12.52 8.409 -13.09 9.784 QT
-13.66 11.159 -14.684 12.3 QT
-15.707 13.44 -17.027 14.112 QT
-18.348 14.784 -19.738 14.784 QT
-26.098 14.784 L
cp
-22.723 14.003 M
-22.723 14.143 -22.113 14.143 QT
-20.02 14.143 L
-19.02 14.143 -18.09 13.737 QT
-17.16 13.331 -16.426 12.596 QT
-15.754 11.925 -15.23 10.831 QT
-14.707 9.737 -14.426 8.542 QT
-14.145 7.346 -14.145 6.331 QT
-14.145 5.612 -14.355 5.018 QT
-14.566 4.425 -14.957 4.003 QT
-15.348 3.581 -15.941 3.354 QT
-16.535 3.128 -17.27 3.128 QT
-19.254 3.128 L
-19.738 3.128 -19.895 3.206 QT
-20.051 3.284 -20.191 3.737 QT
-22.645 13.612 L
-22.723 13.831 -22.723 14.003 QT
cp
f
GR
GS
[1 0 0 1 181.25005 278.70001] CT
0.149 GC
N
-12.042 17.424 M
-12.042 17.002 L
-11.636 17.002 -11.37 16.94 QT
-11.104 16.877 -11.104 16.627 QT
-11.104 13.346 L
-11.104 13.018 -11.198 12.877 QT
-11.292 12.736 -11.479 12.705 QT
-11.667 12.674 -12.042 12.674 QT
-12.042 12.252 L
-10.308 12.127 L
-10.308 13.299 L
-10.058 12.783 -9.589 12.455 QT
-9.12 12.127 -8.558 12.127 QT
-7.183 12.127 -6.933 13.252 QT
-6.698 12.736 -6.237 12.432 QT
-5.776 12.127 -5.229 12.127 QT
-4.683 12.127 -4.308 12.299 QT
-3.933 12.471 -3.745 12.83 QT
-3.558 13.19 -3.558 13.736 QT
-3.558 16.627 L
-3.558 16.877 -3.292 16.94 QT
-3.026 17.002 -2.62 17.002 QT
-2.62 17.424 L
-5.37 17.424 L
-5.37 17.002 L
-4.964 17.002 -4.698 16.94 QT
-4.433 16.877 -4.433 16.627 QT
-4.433 13.768 L
-4.433 13.174 -4.604 12.799 QT
-4.776 12.424 -5.292 12.424 QT
-5.995 12.424 -6.44 12.986 QT
-6.886 13.549 -6.886 14.252 QT
-6.886 16.627 L
-6.886 16.877 -6.628 16.94 QT
-6.37 17.002 -5.948 17.002 QT
-5.948 17.424 L
-8.698 17.424 L
-8.698 17.002 L
-8.292 17.002 -8.026 16.94 QT
-7.761 16.877 -7.761 16.627 QT
-7.761 13.768 L
-7.761 13.19 -7.933 12.807 QT
-8.104 12.424 -8.636 12.424 QT
-9.323 12.424 -9.776 12.986 QT
-10.229 13.549 -10.229 14.252 QT
-10.229 16.627 L
-10.229 16.877 -9.964 16.94 QT
-9.698 17.002 -9.292 17.002 QT
-9.292 17.424 L
-12.042 17.424 L
cp
f
GR
GS
[1 0 0 1 181.25005 278.70001] CT
0.149 GC
N
-1.76 17.424 M
-1.76 17.002 L
-1.353 17.002 -1.088 16.94 QT
-0.822 16.877 -0.822 16.627 QT
-0.822 13.346 L
-0.822 12.877 -1.002 12.775 QT
-1.182 12.674 -1.713 12.674 QT
-1.713 12.252 L
0.022 12.127 L
0.022 16.627 L
0.022 16.877 0.248 16.94 QT
0.475 17.002 0.85 17.002 QT
0.85 17.424 L
-1.76 17.424 L
cp
-1.26 10.065 M
-1.26 9.799 -1.057 9.596 QT
-0.853 9.393 -0.603 9.393 QT
-0.432 9.393 -0.275 9.479 QT
-0.119 9.565 -0.025 9.729 QT
0.068 9.893 0.068 10.065 QT
0.068 10.315 -0.135 10.518 QT
-0.338 10.721 -0.603 10.721 QT
-0.853 10.721 -1.057 10.518 QT
-1.26 10.315 -1.26 10.065 QT
cp
f
GR
GS
[1 0 0 1 181.25005 278.70001] CT
0.149 GC
N
1.647 17.424 M
1.647 17.002 L
2.053 17.002 2.319 16.94 QT
2.584 16.877 2.584 16.627 QT
2.584 13.346 L
2.584 13.018 2.491 12.877 QT
2.397 12.736 2.209 12.705 QT
2.022 12.674 1.647 12.674 QT
1.647 12.252 L
3.381 12.127 L
3.381 13.299 L
3.631 12.783 4.1 12.455 QT
4.569 12.127 5.131 12.127 QT
5.959 12.127 6.381 12.525 QT
6.803 12.924 6.803 13.736 QT
6.803 16.627 L
6.803 16.877 7.061 16.94 QT
7.319 17.002 7.741 17.002 QT
7.741 17.424 L
4.991 17.424 L
4.991 17.002 L
5.397 17.002 5.663 16.94 QT
5.928 16.877 5.928 16.627 QT
5.928 13.768 L
5.928 13.19 5.756 12.807 QT
5.584 12.424 5.053 12.424 QT
4.366 12.424 3.913 12.986 QT
3.459 13.549 3.459 14.252 QT
3.459 16.627 L
3.459 16.877 3.725 16.94 QT
3.991 17.002 4.397 17.002 QT
4.397 17.424 L
1.647 17.424 L
cp
f
GR
GS
[1 0 0 1 181.25005 278.70001] CT
0.149 GC
N
10.028 18.925 M
10.028 18.878 10.043 18.846 QT
16.293 1.503 L
16.34 1.393 16.426 1.339 QT
16.512 1.284 16.621 1.284 QT
16.778 1.284 16.879 1.378 QT
16.981 1.471 16.981 1.643 QT
16.981 1.721 L
10.731 19.065 L
10.621 19.284 10.387 19.284 QT
10.231 19.284 10.129 19.182 QT
10.028 19.081 10.028 18.925 QT
cp
f
GR
GS
[1 0 0 1 181.25005 278.70001] CT
0.149 GC
N
20.937 14.987 M
19.812 14.987 19.156 14.128 QT
18.5 13.268 18.5 12.096 QT
18.5 10.956 19.093 9.714 QT
19.687 8.471 20.703 7.651 QT
21.718 6.831 22.89 6.831 QT
23.421 6.831 23.843 7.128 QT
24.265 7.425 24.515 7.909 QT
25.515 3.893 L
25.593 3.581 25.609 3.409 QT
25.609 3.128 24.437 3.128 QT
24.25 3.128 24.25 2.878 QT
24.265 2.846 24.296 2.729 QT
24.328 2.612 24.375 2.55 QT
24.421 2.487 24.515 2.487 QT
26.937 2.3 L
27.156 2.3 27.156 2.518 QT
24.562 12.878 L
24.437 13.175 24.437 13.737 QT
24.437 14.518 24.953 14.518 QT
25.515 14.518 25.812 13.8 QT
26.109 13.081 26.312 12.143 QT
26.343 12.034 26.453 12.034 QT
26.671 12.034 L
26.75 12.034 26.789 12.096 QT
26.828 12.159 26.828 12.206 QT
26.515 13.471 26.14 14.229 QT
25.765 14.987 24.921 14.987 QT
24.312 14.987 23.851 14.628 QT
23.39 14.268 23.265 13.69 QT
22.109 14.987 20.937 14.987 QT
cp
20.953 14.518 M
21.609 14.518 22.218 14.026 QT
22.828 13.534 23.265 12.878 QT
23.281 12.862 23.281 12.8 QT
24.265 8.846 L
24.171 8.206 23.812 7.753 QT
23.453 7.3 22.843 7.3 QT
22.25 7.3 21.726 7.792 QT
21.203 8.284 20.843 8.971 QT
20.484 9.69 20.164 10.948 QT
19.843 12.206 19.843 12.893 QT
19.843 13.518 20.109 14.018 QT
20.375 14.518 20.953 14.518 QT
cp
f
GR
GS
0.149 GC
2 setlinecap
1 LJ
0.5 LW
N
130 254.5 M
130 25.5 L
S
GR
GS
0.149 GC
2 setlinecap
1 LJ
0.5 LW
N
232.5 254.5 M
232.5 25.5 L
S
GR
GS
0.149 GC
2 setlinecap
1 LJ
0.5 LW
N
130 254.5 M
132.29 254.5 L
S
GR
GS
0.149 GC
2 setlinecap
1 LJ
0.5 LW
N
130 162.9 M
132.29 162.9 L
S
GR
GS
0.149 GC
2 setlinecap
1 LJ
0.5 LW
N
130 71.3 M
132.29 71.3 L
S
GR
GS
0.149 GC
2 setlinecap
1 LJ
0.5 LW
N
232.5 254.5 M
230.21 254.5 L
S
GR
GS
0.149 GC
2 setlinecap
1 LJ
0.5 LW
N
232.5 162.9 M
230.21 162.9 L
S
GR
GS
0.149 GC
2 setlinecap
1 LJ
0.5 LW
N
232.5 71.3 M
230.21 71.3 L
S
GR
GS
[1 0 0 1 124.8 254.5] CT
0.149 GC
/Times-Roman 16 F
GS
[1 0 0 1 0 0] CT
-8 5.5 moveto 
1 -1 scale
(0) t 
GR
GR
GS
[1 0 0 1 124.8 162.89999] CT
0.149 GC
/Times-Roman 16 F
GS
[1 0 0 1 0 0] CT
-20 5.5 moveto 
1 -1 scale
(0.1) t 
GR
GR
GS
[1 0 0 1 124.8 71.3] CT
0.149 GC
/Times-Roman 16 F
GS
[1 0 0 1 0 0] CT
-20 5.5 moveto 
1 -1 scale
(0.2) t 
GR
GR
GS
1 GC
N
264.5 254.5 M
367 254.5 L
367 25.5 L
264.5 25.5 L
cp
f
GR
GS
[1 0 0 1 315.75031 23.30001] CT
N
/f150823746{-3.822 -6.07 M
-4.447 -6.07 -4.986 -6.297 QT
-5.525 -6.524 -5.923 -6.969 QT
-6.322 -7.414 -6.517 -7.953 QT
-6.712 -8.492 -6.712 -9.117 QT
-6.712 -10.242 -6.181 -11.305 QT
-5.65 -12.367 -4.728 -13.141 QT
-3.806 -13.914 -2.728 -14.18 QT
-3.259 -15.164 -3.533 -15.867 QT
-3.806 -16.57 -3.806 -17.32 QT
-3.806 -17.852 -3.556 -18.274 QT
-3.306 -18.695 -2.853 -18.93 QT
-2.4 -19.164 -1.853 -19.164 QT
-1.306 -19.164 0.272 -18.805 QT
0.694 -18.711 0.694 -18.32 QT
0.694 -18.024 0.475 -17.781 QT
0.256 -17.539 -0.04 -17.539 QT
-0.275 -17.539 -0.447 -17.641 QT
-0.619 -17.742 -0.994 -17.992 QT
-1.369 -18.242 -1.673 -18.383 QT
-1.978 -18.524 -2.29 -18.524 QT
-2.665 -18.524 -2.962 -18.297 QT
-3.259 -18.07 -3.259 -17.711 QT
-3.259 -17.133 -2.751 -16.391 QT
-2.244 -15.649 -1.306 -14.492 QT
-0.244 -13.133 -0.244 -11.508 QT
-0.244 -10.695 -0.478 -9.758 QT
-0.712 -8.82 -1.158 -7.985 QT
-1.603 -7.149 -2.29 -6.61 QT
-2.978 -6.07 -3.822 -6.07 QT
cp
-3.79 -6.555 M
-3.087 -6.555 -2.58 -7.281 QT
-2.072 -8.008 -1.814 -9.016 QT
-1.556 -10.024 -1.556 -10.711 QT
-1.556 -12.055 -2.494 -13.742 QT
-3.447 -13.477 -4.134 -12.633 QT
-4.822 -11.789 -5.173 -10.688 QT
-5.525 -9.586 -5.525 -8.602 QT
-5.525 -7.742 -5.08 -7.149 QT
-4.634 -6.555 -3.79 -6.555 QT
cp}def
f150823746
f
GR
GS
[1 0 0 1 315.75031 23.30001] CT
N
/f-397920964{0.985 -3.696 M
0.985 -4.024 L
0.985 -4.055 1.016 -4.087 QT
2.875 -6.149 L
3.297 -6.602 3.563 -6.915 QT
3.829 -7.227 4.086 -7.634 QT
4.344 -8.04 4.493 -8.454 QT
4.641 -8.868 4.641 -9.337 QT
4.641 -9.837 4.461 -10.282 QT
4.282 -10.727 3.922 -11.001 QT
3.563 -11.274 3.047 -11.274 QT
2.532 -11.274 2.11 -10.954 QT
1.688 -10.634 1.516 -10.149 QT
1.563 -10.149 1.657 -10.149 QT
1.922 -10.149 2.11 -9.97 QT
2.297 -9.79 2.297 -9.509 QT
2.297 -9.227 2.11 -9.04 QT
1.922 -8.852 1.657 -8.852 QT
1.375 -8.852 1.18 -9.048 QT
0.985 -9.243 0.985 -9.509 QT
0.985 -9.962 1.157 -10.352 QT
1.329 -10.743 1.649 -11.055 QT
1.969 -11.368 2.368 -11.532 QT
2.766 -11.696 3.219 -11.696 QT
3.907 -11.696 4.5 -11.399 QT
5.094 -11.102 5.438 -10.579 QT
5.782 -10.055 5.782 -9.337 QT
5.782 -8.821 5.555 -8.352 QT
5.329 -7.884 4.969 -7.501 QT
4.61 -7.118 4.055 -6.626 QT
3.5 -6.134 3.329 -5.977 QT
1.969 -4.665 L
3.11 -4.665 L
3.969 -4.665 4.54 -4.68 QT
5.11 -4.696 5.141 -4.727 QT
5.282 -4.884 5.438 -5.837 QT
5.782 -5.837 L
5.438 -3.696 L
0.985 -3.696 L
cp}def
f-397920964
f
GR
GS
0.821 GC
N
270.957 254.5 M
270.957 208.634 L
264.5 208.634 L
264.5 254.5 L
cp
277.415 254.5 M
277.415 221.739 L
270.957 221.739 L
270.957 254.5 L
cp
283.872 254.5 M
283.872 225.67 L
277.415 225.67 L
277.415 254.5 L
cp
290.33 254.5 M
290.33 226.981 L
283.872 226.981 L
283.872 254.5 L
cp
296.788 254.5 M
296.788 207.324 L
290.33 207.324 L
290.33 254.5 L
cp
303.245 254.5 M
303.245 223.049 L
296.788 223.049 L
296.788 254.5 L
cp
309.703 254.5 M
309.703 217.808 L
303.245 217.808 L
303.245 254.5 L
cp
316.16 254.5 M
316.16 203.393 L
309.703 203.393 L
309.703 254.5 L
cp
322.617 254.5 M
322.617 209.945 L
316.16 209.945 L
316.16 254.5 L
cp
329.075 254.5 M
329.075 211.255 L
322.617 211.255 L
322.617 254.5 L
cp
335.533 254.5 M
335.533 202.082 L
329.075 202.082 L
329.075 254.5 L
cp
341.99 254.5 M
341.99 208.634 L
335.533 208.634 L
335.533 254.5 L
cp
348.448 188.978 M
341.99 188.978 L
341.99 254.5 L
348.448 254.5 L
354.905 254.5 L
354.905 188.978 L
cp
361.362 254.5 M
361.362 173.253 L
354.905 173.253 L
354.905 254.5 L
cp
367 254.5 M
367 38.277 L
361.362 38.277 L
361.362 254.5 L
cp
f
GR
GS
2 setlinecap
10.0 ML
0.5 LW
N
264.5 254.5 M
264.5 208.634 L
270.957 208.634 L
270.957 254.5 L
270.957 254.5 L
S
GR
GS
2 setlinecap
10.0 ML
0.5 LW
N
270.957 221.739 M
277.415 221.739 L
277.415 254.5 L
277.415 254.5 L
S
GR
GS
2 setlinecap
10.0 ML
0.5 LW
N
277.415 225.67 M
283.872 225.67 L
283.872 254.5 L
283.872 254.5 L
S
GR
GS
2 setlinecap
10.0 ML
0.5 LW
N
283.872 226.981 M
290.33 226.981 L
S
GR
GS
2 setlinecap
10.0 ML
0.5 LW
N
290.33 254.5 M
290.33 254.5 L
290.33 207.324 L
296.788 207.324 L
296.788 254.5 L
296.788 254.5 L
S
GR
GS
2 setlinecap
10.0 ML
0.5 LW
N
296.788 223.049 M
303.245 223.049 L
S
GR
GS
2 setlinecap
10.0 ML
0.5 LW
N
303.245 254.5 M
303.245 254.5 L
303.245 217.808 L
309.703 217.808 L
S
GR
GS
2 setlinecap
10.0 ML
0.5 LW
N
309.703 254.5 M
309.703 254.5 L
309.703 203.393 L
316.16 203.393 L
316.16 254.5 L
316.16 254.5 L
S
GR
GS
2 setlinecap
10.0 ML
0.5 LW
N
316.16 209.945 M
322.617 209.945 L
322.617 254.5 L
322.617 254.5 L
S
GR
GS
2 setlinecap
10.0 ML
0.5 LW
N
322.617 211.255 M
329.075 211.255 L
S
GR
GS
2 setlinecap
10.0 ML
0.5 LW
N
329.075 254.5 M
329.075 254.5 L
329.075 202.082 L
335.533 202.082 L
335.533 254.5 L
335.533 254.5 L
S
GR
GS
2 setlinecap
10.0 ML
0.5 LW
N
335.533 208.634 M
341.99 208.634 L
S
GR
GS
2 setlinecap
10.0 ML
0.5 LW
N
341.99 254.5 M
341.99 254.5 L
341.99 188.978 L
348.448 188.978 L
348.448 254.5 L
348.448 254.5 L
S
GR
GS
2 setlinecap
10.0 ML
0.5 LW
N
348.448 188.978 M
354.905 188.978 L
S
GR
GS
2 setlinecap
10.0 ML
0.5 LW
N
354.905 254.5 M
354.905 254.5 L
354.905 173.253 L
361.362 173.253 L
S
GR
GS
2 setlinecap
10.0 ML
0.5 LW
N
361.362 254.5 M
361.362 254.5 L
361.362 38.277 L
367 38.277 L
367 254.5 L
S
GR
GS
0.149 GC
2 setlinecap
1 LJ
0.5 LW
N
264.5 254.5 M
367 254.5 L
S
GR
GS
0.149 GC
2 setlinecap
1 LJ
0.5 LW
N
264.5 25.5 M
367 25.5 L
S
GR
GS
0.149 GC
2 setlinecap
1 LJ
0.5 LW
N
264.5 254.5 M
264.5 252.21 L
S
GR
GS
0.149 GC
2 setlinecap
1 LJ
0.5 LW
N
315.75 254.5 M
315.75 252.21 L
S
GR
GS
0.149 GC
2 setlinecap
1 LJ
0.5 LW
N
367 254.5 M
367 252.21 L
S
GR
GS
0.149 GC
2 setlinecap
1 LJ
0.5 LW
N
264.5 25.5 M
264.5 27.79 L
S
GR
GS
0.149 GC
2 setlinecap
1 LJ
0.5 LW
N
315.75 25.5 M
315.75 27.79 L
S
GR
GS
0.149 GC
2 setlinecap
1 LJ
0.5 LW
N
367 25.5 M
367 27.79 L
S
GR
GS
[1 0 0 1 264.5 259.70001] CT
0.149 GC
/Times-Roman 16 F
GS
[1 0 0 1 0 0] CT
-4 15 moveto 
1 -1 scale
(0) t 
GR
GR
GS
[1 0 0 1 315.75 259.70001] CT
0.149 GC
/Times-Roman 16 F
GS
[1 0 0 1 0 0] CT
-10 15 moveto 
1 -1 scale
(0.5) t 
GR
GR
GS
[1 0 0 1 367 259.70001] CT
0.149 GC
/Times-Roman 16 F
GS
[1 0 0 1 0 0] CT
-4 15 moveto 
1 -1 scale
(1) t 
GR
GR
GS
[1 0 0 1 315.75006 278.70001] CT
0.149 GC
N
/f1010015617{-26.098 14.784 M
-26.27 14.784 -26.27 14.55 QT
-26.254 14.503 -26.23 14.393 QT
-26.207 14.284 -26.16 14.214 QT
-26.113 14.143 -26.035 14.143 QT
-24.941 14.143 -24.504 14.034 QT
-24.27 13.956 -24.176 13.55 QT
-21.691 3.659 L
-21.66 3.487 -21.66 3.409 QT
-21.66 3.221 -21.879 3.19 QT
-22.223 3.128 -23.176 3.128 QT
-23.348 3.128 -23.348 2.878 QT
-23.348 2.846 -23.316 2.729 QT
-23.285 2.612 -23.238 2.55 QT
-23.191 2.487 -23.129 2.487 QT
-16.66 2.487 L
-15.395 2.487 -14.457 3.096 QT
-13.52 3.706 -13.02 4.737 QT
-12.52 5.768 -12.52 7.018 QT
-12.52 8.409 -13.09 9.784 QT
-13.66 11.159 -14.684 12.3 QT
-15.707 13.44 -17.027 14.112 QT
-18.348 14.784 -19.738 14.784 QT
-26.098 14.784 L
cp
-22.723 14.003 M
-22.723 14.143 -22.113 14.143 QT
-20.02 14.143 L
-19.02 14.143 -18.09 13.737 QT
-17.16 13.331 -16.426 12.596 QT
-15.754 11.925 -15.23 10.831 QT
-14.707 9.737 -14.426 8.542 QT
-14.145 7.346 -14.145 6.331 QT
-14.145 5.612 -14.355 5.018 QT
-14.566 4.425 -14.957 4.003 QT
-15.348 3.581 -15.941 3.354 QT
-16.535 3.128 -17.27 3.128 QT
-19.254 3.128 L
-19.738 3.128 -19.895 3.206 QT
-20.051 3.284 -20.191 3.737 QT
-22.645 13.612 L
-22.723 13.831 -22.723 14.003 QT
cp}def
f1010015617
f
GR
GS
[1 0 0 1 315.75006 278.70001] CT
0.149 GC
N
/f503329850{-12.042 17.424 M
-12.042 17.002 L
-11.636 17.002 -11.37 16.94 QT
-11.104 16.877 -11.104 16.627 QT
-11.104 13.346 L
-11.104 13.018 -11.198 12.877 QT
-11.292 12.736 -11.479 12.705 QT
-11.667 12.674 -12.042 12.674 QT
-12.042 12.252 L
-10.308 12.127 L
-10.308 13.299 L
-10.058 12.783 -9.589 12.455 QT
-9.12 12.127 -8.558 12.127 QT
-7.183 12.127 -6.933 13.252 QT
-6.698 12.736 -6.237 12.432 QT
-5.776 12.127 -5.229 12.127 QT
-4.683 12.127 -4.308 12.299 QT
-3.933 12.471 -3.745 12.83 QT
-3.558 13.19 -3.558 13.736 QT
-3.558 16.627 L
-3.558 16.877 -3.292 16.94 QT
-3.026 17.002 -2.62 17.002 QT
-2.62 17.424 L
-5.37 17.424 L
-5.37 17.002 L
-4.964 17.002 -4.698 16.94 QT
-4.433 16.877 -4.433 16.627 QT
-4.433 13.768 L
-4.433 13.174 -4.604 12.799 QT
-4.776 12.424 -5.292 12.424 QT
-5.995 12.424 -6.44 12.986 QT
-6.886 13.549 -6.886 14.252 QT
-6.886 16.627 L
-6.886 16.877 -6.628 16.94 QT
-6.37 17.002 -5.948 17.002 QT
-5.948 17.424 L
-8.698 17.424 L
-8.698 17.002 L
-8.292 17.002 -8.026 16.94 QT
-7.761 16.877 -7.761 16.627 QT
-7.761 13.768 L
-7.761 13.19 -7.933 12.807 QT
-8.104 12.424 -8.636 12.424 QT
-9.323 12.424 -9.776 12.986 QT
-10.229 13.549 -10.229 14.252 QT
-10.229 16.627 L
-10.229 16.877 -9.964 16.94 QT
-9.698 17.002 -9.292 17.002 QT
-9.292 17.424 L
-12.042 17.424 L
cp}def
f503329850
f
GR
GS
[1 0 0 1 315.75006 278.70001] CT
0.149 GC
N
/f-1993692509{-1.76 17.424 M
-1.76 17.002 L
-1.353 17.002 -1.088 16.94 QT
-0.822 16.877 -0.822 16.627 QT
-0.822 13.346 L
-0.822 12.877 -1.002 12.775 QT
-1.182 12.674 -1.713 12.674 QT
-1.713 12.252 L
0.022 12.127 L
0.022 16.627 L
0.022 16.877 0.248 16.94 QT
0.475 17.002 0.85 17.002 QT
0.85 17.424 L
-1.76 17.424 L
cp
-1.26 10.065 M
-1.26 9.799 -1.057 9.596 QT
-0.853 9.393 -0.603 9.393 QT
-0.432 9.393 -0.275 9.479 QT
-0.119 9.565 -0.025 9.729 QT
0.068 9.893 0.068 10.065 QT
0.068 10.315 -0.135 10.518 QT
-0.338 10.721 -0.603 10.721 QT
-0.853 10.721 -1.057 10.518 QT
-1.26 10.315 -1.26 10.065 QT
cp}def
f-1993692509
f
GR
GS
[1 0 0 1 315.75006 278.70001] CT
0.149 GC
N
/f-955245760{1.647 17.424 M
1.647 17.002 L
2.053 17.002 2.319 16.94 QT
2.584 16.877 2.584 16.627 QT
2.584 13.346 L
2.584 13.018 2.491 12.877 QT
2.397 12.736 2.209 12.705 QT
2.022 12.674 1.647 12.674 QT
1.647 12.252 L
3.381 12.127 L
3.381 13.299 L
3.631 12.783 4.1 12.455 QT
4.569 12.127 5.131 12.127 QT
5.959 12.127 6.381 12.525 QT
6.803 12.924 6.803 13.736 QT
6.803 16.627 L
6.803 16.877 7.061 16.94 QT
7.319 17.002 7.741 17.002 QT
7.741 17.424 L
4.991 17.424 L
4.991 17.002 L
5.397 17.002 5.663 16.94 QT
5.928 16.877 5.928 16.627 QT
5.928 13.768 L
5.928 13.19 5.756 12.807 QT
5.584 12.424 5.053 12.424 QT
4.366 12.424 3.913 12.986 QT
3.459 13.549 3.459 14.252 QT
3.459 16.627 L
3.459 16.877 3.725 16.94 QT
3.991 17.002 4.397 17.002 QT
4.397 17.424 L
1.647 17.424 L
cp}def
f-955245760
f
GR
GS
[1 0 0 1 315.75006 278.70001] CT
0.149 GC
N
/f-1676235986{10.028 18.925 M
10.028 18.878 10.043 18.846 QT
16.293 1.503 L
16.34 1.393 16.426 1.339 QT
16.512 1.284 16.621 1.284 QT
16.778 1.284 16.879 1.378 QT
16.981 1.471 16.981 1.643 QT
16.981 1.721 L
10.731 19.065 L
10.621 19.284 10.387 19.284 QT
10.231 19.284 10.129 19.182 QT
10.028 19.081 10.028 18.925 QT
cp}def
f-1676235986
f
GR
GS
[1 0 0 1 315.75006 278.70001] CT
0.149 GC
N
/f934592732{20.937 14.987 M
19.812 14.987 19.156 14.128 QT
18.5 13.268 18.5 12.096 QT
18.5 10.956 19.093 9.714 QT
19.687 8.471 20.703 7.651 QT
21.718 6.831 22.89 6.831 QT
23.421 6.831 23.843 7.128 QT
24.265 7.425 24.515 7.909 QT
25.515 3.893 L
25.593 3.581 25.609 3.409 QT
25.609 3.128 24.437 3.128 QT
24.25 3.128 24.25 2.878 QT
24.265 2.846 24.296 2.729 QT
24.328 2.612 24.375 2.55 QT
24.421 2.487 24.515 2.487 QT
26.937 2.3 L
27.156 2.3 27.156 2.518 QT
24.562 12.878 L
24.437 13.175 24.437 13.737 QT
24.437 14.518 24.953 14.518 QT
25.515 14.518 25.812 13.8 QT
26.109 13.081 26.312 12.143 QT
26.343 12.034 26.453 12.034 QT
26.671 12.034 L
26.75 12.034 26.789 12.096 QT
26.828 12.159 26.828 12.206 QT
26.515 13.471 26.14 14.229 QT
25.765 14.987 24.921 14.987 QT
24.312 14.987 23.851 14.628 QT
23.39 14.268 23.265 13.69 QT
22.109 14.987 20.937 14.987 QT
cp
20.953 14.518 M
21.609 14.518 22.218 14.026 QT
22.828 13.534 23.265 12.878 QT
23.281 12.862 23.281 12.8 QT
24.265 8.846 L
24.171 8.206 23.812 7.753 QT
23.453 7.3 22.843 7.3 QT
22.25 7.3 21.726 7.792 QT
21.203 8.284 20.843 8.971 QT
20.484 9.69 20.164 10.948 QT
19.843 12.206 19.843 12.893 QT
19.843 13.518 20.109 14.018 QT
20.375 14.518 20.953 14.518 QT
cp}def
f934592732
f
GR
GS
0.149 GC
2 setlinecap
1 LJ
0.5 LW
N
264.5 254.5 M
264.5 25.5 L
S
GR
GS
0.149 GC
2 setlinecap
1 LJ
0.5 LW
N
367 254.5 M
367 25.5 L
S
GR
GS
0.149 GC
2 setlinecap
1 LJ
0.5 LW
N
264.5 254.5 M
266.79 254.5 L
S
GR
GS
0.149 GC
2 setlinecap
1 LJ
0.5 LW
N
264.5 162.9 M
266.79 162.9 L
S
GR
GS
0.149 GC
2 setlinecap
1 LJ
0.5 LW
N
264.5 71.3 M
266.79 71.3 L
S
GR
GS
0.149 GC
2 setlinecap
1 LJ
0.5 LW
N
367 254.5 M
364.71 254.5 L
S
GR
GS
0.149 GC
2 setlinecap
1 LJ
0.5 LW
N
367 162.9 M
364.71 162.9 L
S
GR
GS
0.149 GC
2 setlinecap
1 LJ
0.5 LW
N
367 71.3 M
364.71 71.3 L
S
GR
GS
[1 0 0 1 259.29999 254.5] CT
0.149 GC
/Times-Roman 16 F
GS
[1 0 0 1 0 0] CT
-8 5.5 moveto 
1 -1 scale
(0) t 
GR
GR
GS
[1 0 0 1 259.29999 162.89999] CT
0.149 GC
/Times-Roman 16 F
GS
[1 0 0 1 0 0] CT
-20 5.5 moveto 
1 -1 scale
(0.1) t 
GR
GR
GS
[1 0 0 1 259.29999 71.3] CT
0.149 GC
/Times-Roman 16 F
GS
[1 0 0 1 0 0] CT
-20 5.5 moveto 
1 -1 scale
(0.2) t 
GR
GR
GS
1 GC
N
399 254.5 M
501.5 254.5 L
501.5 25.5 L
399 25.5 L
cp
f
GR
GS
[1 0 0 1 450.25043 23.30001] CT
N
f150823746
f
GR
GS
[1 0 0 1 450.25043 23.30001] CT
N
/f-1305881004{1.532 -4.618 M
1.813 -4.212 2.29 -4.016 QT
2.766 -3.821 3.313 -3.821 QT
4 -3.821 4.297 -4.415 QT
4.594 -5.009 4.594 -5.759 QT
4.594 -6.102 4.532 -6.438 QT
4.469 -6.774 4.321 -7.071 QT
4.172 -7.368 3.922 -7.54 QT
3.672 -7.712 3.297 -7.712 QT
2.5 -7.712 L
2.391 -7.712 2.391 -7.821 QT
2.391 -7.93 L
2.391 -8.024 2.5 -8.024 QT
3.157 -8.087 L
3.579 -8.087 3.86 -8.399 QT
4.141 -8.712 4.274 -9.165 QT
4.407 -9.618 4.407 -10.024 QT
4.407 -10.602 4.133 -10.97 QT
3.86 -11.337 3.313 -11.337 QT
2.86 -11.337 2.438 -11.165 QT
2.016 -10.993 1.782 -10.649 QT
1.797 -10.649 1.813 -10.657 QT
1.829 -10.665 1.86 -10.665 QT
2.125 -10.665 2.305 -10.477 QT
2.485 -10.29 2.485 -10.024 QT
2.485 -9.759 2.305 -9.571 QT
2.125 -9.384 1.86 -9.384 QT
1.594 -9.384 1.407 -9.571 QT
1.219 -9.759 1.219 -10.024 QT
1.219 -10.54 1.532 -10.915 QT
1.844 -11.29 2.329 -11.493 QT
2.813 -11.696 3.313 -11.696 QT
3.672 -11.696 4.079 -11.587 QT
4.485 -11.477 4.813 -11.274 QT
5.141 -11.071 5.344 -10.751 QT
5.547 -10.43 5.547 -10.024 QT
5.547 -9.524 5.329 -9.095 QT
5.11 -8.665 4.711 -8.36 QT
4.313 -8.055 3.844 -7.899 QT
4.375 -7.805 4.844 -7.509 QT
5.313 -7.212 5.594 -6.759 QT
5.875 -6.305 5.875 -5.774 QT
5.875 -5.102 5.516 -4.571 QT
5.157 -4.04 4.563 -3.735 QT
3.969 -3.43 3.313 -3.43 QT
2.75 -3.43 2.18 -3.649 QT
1.61 -3.868 1.25 -4.29 QT
0.891 -4.712 0.891 -5.321 QT
0.891 -5.618 1.094 -5.813 QT
1.297 -6.009 1.594 -6.009 QT
1.782 -6.009 1.946 -5.923 QT
2.11 -5.837 2.204 -5.673 QT
2.297 -5.509 2.297 -5.321 QT
2.297 -5.024 2.086 -4.821 QT
1.875 -4.618 1.594 -4.618 QT
1.532 -4.618 L
cp}def
f-1305881004
f
GR
GS
0.821 GC
N
405.457 254.5 M
405.457 216.497 L
399 216.497 L
399 254.5 L
cp
411.915 254.5 M
411.915 219.118 L
405.457 219.118 L
405.457 254.5 L
cp
418.372 254.5 M
418.372 226.981 L
411.915 226.981 L
411.915 254.5 L
cp
424.83 254.5 M
424.83 224.36 L
418.372 224.36 L
418.372 254.5 L
cp
431.288 254.5 M
431.288 208.634 L
424.83 208.634 L
424.83 254.5 L
cp
437.745 254.5 M
437.745 220.428 L
431.288 220.428 L
431.288 254.5 L
cp
444.203 254.5 M
444.203 217.808 L
437.745 217.808 L
437.745 254.5 L
cp
450.66 254.5 M
450.66 207.324 L
444.203 207.324 L
444.203 254.5 L
cp
457.117 254.5 M
457.117 208.634 L
450.66 208.634 L
450.66 254.5 L
cp
463.575 254.5 M
463.575 211.255 L
457.117 211.255 L
457.117 254.5 L
cp
470.033 254.5 M
470.033 199.461 L
463.575 199.461 L
463.575 254.5 L
cp
476.49 254.5 M
476.49 209.945 L
470.033 209.945 L
470.033 254.5 L
cp
482.948 254.5 M
482.948 187.667 L
476.49 187.667 L
476.49 254.5 L
cp
489.405 254.5 M
489.405 188.978 L
482.948 188.978 L
482.948 254.5 L
cp
495.862 254.5 M
495.862 170.632 L
489.405 170.632 L
489.405 254.5 L
cp
501.5 254.5 M
501.5 38.277 L
495.862 38.277 L
495.862 254.5 L
cp
f
GR
GS
2 setlinecap
10.0 ML
0.5 LW
N
399 254.5 M
399 216.497 L
405.457 216.497 L
405.457 254.5 L
405.457 254.5 L
S
GR
GS
2 setlinecap
10.0 ML
0.5 LW
N
405.457 219.118 M
411.915 219.118 L
411.915 254.5 L
411.915 254.5 L
S
GR
GS
2 setlinecap
10.0 ML
0.5 LW
N
411.915 226.981 M
418.372 226.981 L
S
GR
GS
2 setlinecap
10.0 ML
0.5 LW
N
418.372 254.5 M
418.372 254.5 L
418.372 224.36 L
424.83 224.36 L
S
GR
GS
2 setlinecap
10.0 ML
0.5 LW
N
424.83 254.5 M
424.83 254.5 L
424.83 208.634 L
431.288 208.634 L
431.288 254.5 L
431.288 254.5 L
S
GR
GS
2 setlinecap
10.0 ML
0.5 LW
N
431.288 220.428 M
437.745 220.428 L
S
GR
GS
2 setlinecap
10.0 ML
0.5 LW
N
437.745 254.5 M
437.745 254.5 L
437.745 217.808 L
444.203 217.808 L
S
GR
GS
2 setlinecap
10.0 ML
0.5 LW
N
444.203 254.5 M
444.203 254.5 L
444.203 207.324 L
450.66 207.324 L
450.66 254.5 L
450.66 254.5 L
S
GR
GS
2 setlinecap
10.0 ML
0.5 LW
N
450.66 208.634 M
457.117 208.634 L
457.117 254.5 L
457.117 254.5 L
S
GR
GS
2 setlinecap
10.0 ML
0.5 LW
N
457.117 211.255 M
463.575 211.255 L
S
GR
GS
2 setlinecap
10.0 ML
0.5 LW
N
463.575 254.5 M
463.575 254.5 L
463.575 199.461 L
470.033 199.461 L
470.033 254.5 L
470.033 254.5 L
S
GR
GS
2 setlinecap
10.0 ML
0.5 LW
N
470.033 209.945 M
476.49 209.945 L
S
GR
GS
2 setlinecap
10.0 ML
0.5 LW
N
476.49 254.5 M
476.49 254.5 L
476.49 187.667 L
482.948 187.667 L
482.948 254.5 L
482.948 254.5 L
S
GR
GS
2 setlinecap
10.0 ML
0.5 LW
N
482.948 188.978 M
489.405 188.978 L
S
GR
GS
2 setlinecap
10.0 ML
0.5 LW
N
489.405 254.5 M
489.405 254.5 L
489.405 170.632 L
495.862 170.632 L
S
GR
GS
2 setlinecap
10.0 ML
0.5 LW
N
495.862 254.5 M
495.862 254.5 L
495.862 38.277 L
501.5 38.277 L
501.5 254.5 L
S
GR
GS
0.149 GC
2 setlinecap
1 LJ
0.5 LW
N
399 254.5 M
501.5 254.5 L
S
GR
GS
0.149 GC
2 setlinecap
1 LJ
0.5 LW
N
399 25.5 M
501.5 25.5 L
S
GR
GS
0.149 GC
2 setlinecap
1 LJ
0.5 LW
N
399 254.5 M
399 252.21 L
S
GR
GS
0.149 GC
2 setlinecap
1 LJ
0.5 LW
N
450.25 254.5 M
450.25 252.21 L
S
GR
GS
0.149 GC
2 setlinecap
1 LJ
0.5 LW
N
501.5 254.5 M
501.5 252.21 L
S
GR
GS
0.149 GC
2 setlinecap
1 LJ
0.5 LW
N
399 25.5 M
399 27.79 L
S
GR
GS
0.149 GC
2 setlinecap
1 LJ
0.5 LW
N
450.25 25.5 M
450.25 27.79 L
S
GR
GS
0.149 GC
2 setlinecap
1 LJ
0.5 LW
N
501.5 25.5 M
501.5 27.79 L
S
GR
GS
[1 0 0 1 399 259.70001] CT
0.149 GC
/Times-Roman 16 F
GS
[1 0 0 1 0 0] CT
-4 15 moveto 
1 -1 scale
(0) t 
GR
GR
GS
[1 0 0 1 450.25 259.70001] CT
0.149 GC
/Times-Roman 16 F
GS
[1 0 0 1 0 0] CT
-10 15 moveto 
1 -1 scale
(0.5) t 
GR
GR
GS
[1 0 0 1 501.5 259.70001] CT
0.149 GC
/Times-Roman 16 F
GS
[1 0 0 1 0 0] CT
-4 15 moveto 
1 -1 scale
(1) t 
GR
GR
GS
[1 0 0 1 450.25006 278.70001] CT
0.149 GC
N
f1010015617
f
GR
GS
[1 0 0 1 450.25006 278.70001] CT
0.149 GC
N
f503329850
f
GR
GS
[1 0 0 1 450.25006 278.70001] CT
0.149 GC
N
f-1993692509
f
GR
GS
[1 0 0 1 450.25006 278.70001] CT
0.149 GC
N
f-955245760
f
GR
GS
[1 0 0 1 450.25006 278.70001] CT
0.149 GC
N
f-1676235986
f
GR
GS
[1 0 0 1 450.25006 278.70001] CT
0.149 GC
N
f934592732
f
GR
GS
0.149 GC
2 setlinecap
1 LJ
0.5 LW
N
399 254.5 M
399 25.5 L
S
GR
GS
0.149 GC
2 setlinecap
1 LJ
0.5 LW
N
501.5 254.5 M
501.5 25.5 L
S
GR
GS
0.149 GC
2 setlinecap
1 LJ
0.5 LW
N
399 254.5 M
401.29 254.5 L
S
GR
GS
0.149 GC
2 setlinecap
1 LJ
0.5 LW
N
399 162.9 M
401.29 162.9 L
S
GR
GS
0.149 GC
2 setlinecap
1 LJ
0.5 LW
N
399 71.3 M
401.29 71.3 L
S
GR
GS
0.149 GC
2 setlinecap
1 LJ
0.5 LW
N
501.5 254.5 M
499.21 254.5 L
S
GR
GS
0.149 GC
2 setlinecap
1 LJ
0.5 LW
N
501.5 162.9 M
499.21 162.9 L
S
GR
GS
0.149 GC
2 setlinecap
1 LJ
0.5 LW
N
501.5 71.3 M
499.21 71.3 L
S
GR
GS
[1 0 0 1 393.79999 254.5] CT
0.149 GC
/Times-Roman 16 F
GS
[1 0 0 1 0 0] CT
-8 5.5 moveto 
1 -1 scale
(0) t 
GR
GR
GS
[1 0 0 1 393.79999 162.89999] CT
0.149 GC
/Times-Roman 16 F
GS
[1 0 0 1 0 0] CT
-20 5.5 moveto 
1 -1 scale
(0.1) t 
GR
GR
GS
[1 0 0 1 393.79999 71.3] CT
0.149 GC
/Times-Roman 16 F
GS
[1 0 0 1 0 0] CT
-20 5.5 moveto 
1 -1 scale
(0.2) t 
GR
GR
GS
1 GC
N
533.5 254.5 M
636 254.5 L
636 25.5 L
533.5 25.5 L
cp
f
GR
GS
[1 0 0 1 584.75055 23.30001] CT
N
f150823746
f
GR
GS
[1 0 0 1 584.75055 23.30001] CT
N
/f-1378065461{0.719 -5.68 M
0.719 -6.102 L
4.438 -11.634 L
4.469 -11.696 4.563 -11.696 QT
4.735 -11.696 L
4.875 -11.696 4.875 -11.555 QT
4.875 -6.102 L
6.047 -6.102 L
6.047 -5.68 L
4.875 -5.68 L
4.875 -4.493 L
4.875 -4.259 5.227 -4.188 QT
5.579 -4.118 6.032 -4.118 QT
6.032 -3.696 L
2.735 -3.696 L
2.735 -4.118 L
3.188 -4.118 3.54 -4.188 QT
3.891 -4.259 3.891 -4.493 QT
3.891 -5.68 L
0.719 -5.68 L
cp
1.125 -6.102 M
3.969 -6.102 L
3.969 -10.352 L
1.125 -6.102 L
cp}def
f-1378065461
f
GR
GS
0.821 GC
N
539.958 254.5 M
539.958 216.497 L
533.5 216.497 L
533.5 254.5 L
cp
546.415 254.5 M
546.415 219.118 L
539.958 219.118 L
539.958 254.5 L
cp
552.872 254.5 M
552.872 226.981 L
546.415 226.981 L
546.415 254.5 L
cp
559.33 254.5 M
559.33 224.36 L
552.872 224.36 L
552.872 254.5 L
cp
565.787 254.5 M
565.787 208.634 L
559.33 208.634 L
559.33 254.5 L
cp
572.245 254.5 M
572.245 220.428 L
565.787 220.428 L
565.787 254.5 L
cp
578.703 254.5 M
578.703 217.808 L
572.245 217.808 L
572.245 254.5 L
cp
585.16 254.5 M
585.16 207.324 L
578.703 207.324 L
578.703 254.5 L
cp
591.617 254.5 M
591.617 208.634 L
585.16 208.634 L
585.16 254.5 L
cp
598.075 254.5 M
598.075 211.255 L
591.617 211.255 L
591.617 254.5 L
cp
604.533 254.5 M
604.533 199.461 L
598.075 199.461 L
598.075 254.5 L
cp
610.99 254.5 M
610.99 209.945 L
604.533 209.945 L
604.533 254.5 L
cp
617.448 254.5 M
617.448 187.667 L
610.99 187.667 L
610.99 254.5 L
cp
623.905 254.5 M
623.905 188.978 L
617.448 188.978 L
617.448 254.5 L
cp
630.362 254.5 M
630.362 170.632 L
623.905 170.632 L
623.905 254.5 L
cp
636 254.5 M
636 38.277 L
630.362 38.277 L
630.362 254.5 L
cp
f
GR
GS
2 setlinecap
10.0 ML
0.5 LW
N
533.5 254.5 M
533.5 216.497 L
539.958 216.497 L
539.958 254.5 L
539.958 254.5 L
S
GR
GS
2 setlinecap
10.0 ML
0.5 LW
N
539.958 219.118 M
546.415 219.118 L
546.415 254.5 L
546.415 254.5 L
S
GR
GS
2 setlinecap
10.0 ML
0.5 LW
N
546.415 226.981 M
552.872 226.981 L
S
GR
GS
2 setlinecap
10.0 ML
0.5 LW
N
552.872 254.5 M
552.872 254.5 L
552.872 224.36 L
559.33 224.36 L
S
GR
GS
2 setlinecap
10.0 ML
0.5 LW
N
559.33 254.5 M
559.33 254.5 L
559.33 208.634 L
565.787 208.634 L
565.787 254.5 L
565.787 254.5 L
S
GR
GS
2 setlinecap
10.0 ML
0.5 LW
N
565.787 220.428 M
572.245 220.428 L
S
GR
GS
2 setlinecap
10.0 ML
0.5 LW
N
572.245 254.5 M
572.245 254.5 L
572.245 217.808 L
578.703 217.808 L
S
GR
GS
2 setlinecap
10.0 ML
0.5 LW
N
578.703 254.5 M
578.703 254.5 L
578.703 207.324 L
585.16 207.324 L
585.16 254.5 L
585.16 254.5 L
S
GR
GS
2 setlinecap
10.0 ML
0.5 LW
N
585.16 208.634 M
591.617 208.634 L
591.617 254.5 L
591.617 254.5 L
S
GR
GS
2 setlinecap
10.0 ML
0.5 LW
N
591.617 211.255 M
598.075 211.255 L
S
GR
GS
2 setlinecap
10.0 ML
0.5 LW
N
598.075 254.5 M
598.075 254.5 L
598.075 199.461 L
604.533 199.461 L
604.533 254.5 L
604.533 254.5 L
S
GR
GS
2 setlinecap
10.0 ML
0.5 LW
N
604.533 209.945 M
610.99 209.945 L
S
GR
GS
2 setlinecap
10.0 ML
0.5 LW
N
610.99 254.5 M
610.99 254.5 L
610.99 187.667 L
617.448 187.667 L
617.448 254.5 L
617.448 254.5 L
S
GR
GS
2 setlinecap
10.0 ML
0.5 LW
N
617.448 188.978 M
623.905 188.978 L
S
GR
GS
2 setlinecap
10.0 ML
0.5 LW
N
623.905 254.5 M
623.905 254.5 L
623.905 170.632 L
630.362 170.632 L
S
GR
GS
2 setlinecap
10.0 ML
0.5 LW
N
630.362 254.5 M
630.362 254.5 L
630.362 38.277 L
636 38.277 L
636 254.5 L
S
GR
GS
0.149 GC
2 setlinecap
1 LJ
0.5 LW
N
533.5 254.5 M
636 254.5 L
S
GR
GS
0.149 GC
2 setlinecap
1 LJ
0.5 LW
N
533.5 25.5 M
636 25.5 L
S
GR
GS
0.149 GC
2 setlinecap
1 LJ
0.5 LW
N
533.5 254.5 M
533.5 252.21 L
S
GR
GS
0.149 GC
2 setlinecap
1 LJ
0.5 LW
N
584.75 254.5 M
584.75 252.21 L
S
GR
GS
0.149 GC
2 setlinecap
1 LJ
0.5 LW
N
636 254.5 M
636 252.21 L
S
GR
GS
0.149 GC
2 setlinecap
1 LJ
0.5 LW
N
533.5 25.5 M
533.5 27.79 L
S
GR
GS
0.149 GC
2 setlinecap
1 LJ
0.5 LW
N
584.75 25.5 M
584.75 27.79 L
S
GR
GS
0.149 GC
2 setlinecap
1 LJ
0.5 LW
N
636 25.5 M
636 27.79 L
S
GR
GS
[1 0 0 1 533.5 259.70001] CT
0.149 GC
/Times-Roman 16 F
GS
[1 0 0 1 0 0] CT
-4 15 moveto 
1 -1 scale
(0) t 
GR
GR
GS
[1 0 0 1 584.75 259.70001] CT
0.149 GC
/Times-Roman 16 F
GS
[1 0 0 1 0 0] CT
-10 15 moveto 
1 -1 scale
(0.5) t 
GR
GR
GS
[1 0 0 1 636 259.70001] CT
0.149 GC
/Times-Roman 16 F
GS
[1 0 0 1 0 0] CT
-4 15 moveto 
1 -1 scale
(1) t 
GR
GR
GS
[1 0 0 1 584.75006 278.70001] CT
0.149 GC
N
f1010015617
f
GR
GS
[1 0 0 1 584.75006 278.70001] CT
0.149 GC
N
f503329850
f
GR
GS
[1 0 0 1 584.75006 278.70001] CT
0.149 GC
N
f-1993692509
f
GR
GS
[1 0 0 1 584.75006 278.70001] CT
0.149 GC
N
f-955245760
f
GR
GS
[1 0 0 1 584.75006 278.70001] CT
0.149 GC
N
f-1676235986
f
GR
GS
[1 0 0 1 584.75006 278.70001] CT
0.149 GC
N
f934592732
f
GR
GS
0.149 GC
2 setlinecap
1 LJ
0.5 LW
N
533.5 254.5 M
533.5 25.5 L
S
GR
GS
0.149 GC
2 setlinecap
1 LJ
0.5 LW
N
636 254.5 M
636 25.5 L
S
GR
GS
0.149 GC
2 setlinecap
1 LJ
0.5 LW
N
533.5 254.5 M
535.79 254.5 L
S
GR
GS
0.149 GC
2 setlinecap
1 LJ
0.5 LW
N
533.5 162.9 M
535.79 162.9 L
S
GR
GS
0.149 GC
2 setlinecap
1 LJ
0.5 LW
N
533.5 71.3 M
535.79 71.3 L
S
GR
GS
0.149 GC
2 setlinecap
1 LJ
0.5 LW
N
636 254.5 M
633.71 254.5 L
S
GR
GS
0.149 GC
2 setlinecap
1 LJ
0.5 LW
N
636 162.9 M
633.71 162.9 L
S
GR
GS
0.149 GC
2 setlinecap
1 LJ
0.5 LW
N
636 71.3 M
633.71 71.3 L
S
GR
GS
[1 0 0 1 528.29999 254.5] CT
0.149 GC
/Times-Roman 16 F
GS
[1 0 0 1 0 0] CT
-8 5.5 moveto 
1 -1 scale
(0) t 
GR
GR
GS
[1 0 0 1 528.29999 162.89999] CT
0.149 GC
/Times-Roman 16 F
GS
[1 0 0 1 0 0] CT
-20 5.5 moveto 
1 -1 scale
(0.1) t 
GR
GR
GS
[1 0 0 1 528.29999 71.3] CT
0.149 GC
/Times-Roman 16 F
GS
[1 0 0 1 0 0] CT
-20 5.5 moveto 
1 -1 scale
(0.2) t 
GR
GR
GS
1 GC
N
668 254.5 M
770.5 254.5 L
770.5 25.5 L
668 25.5 L
cp
f
GR
GS
[1 0 0 1 719.25067 23.30001] CT
N
/f-557840966{-4.291 -6.07 M
-4.916 -6.07 -5.455 -6.297 QT
-5.994 -6.524 -6.392 -6.969 QT
-6.791 -7.414 -6.986 -7.953 QT
-7.181 -8.492 -7.181 -9.117 QT
-7.181 -10.242 -6.65 -11.305 QT
-6.119 -12.367 -5.197 -13.141 QT
-4.275 -13.914 -3.197 -14.18 QT
-3.728 -15.164 -4.002 -15.867 QT
-4.275 -16.57 -4.275 -17.32 QT
-4.275 -17.852 -4.025 -18.274 QT
-3.775 -18.695 -3.322 -18.93 QT
-2.869 -19.164 -2.322 -19.164 QT
-1.775 -19.164 -0.197 -18.805 QT
0.225 -18.711 0.225 -18.32 QT
0.225 -18.024 0.006 -17.781 QT
-0.213 -17.539 -0.51 -17.539 QT
-0.744 -17.539 -0.916 -17.641 QT
-1.088 -17.742 -1.463 -17.992 QT
-1.838 -18.242 -2.142 -18.383 QT
-2.447 -18.524 -2.76 -18.524 QT
-3.135 -18.524 -3.431 -18.297 QT
-3.728 -18.07 -3.728 -17.711 QT
-3.728 -17.133 -3.221 -16.391 QT
-2.713 -15.649 -1.775 -14.492 QT
-0.713 -13.133 -0.713 -11.508 QT
-0.713 -10.695 -0.947 -9.758 QT
-1.181 -8.82 -1.627 -7.985 QT
-2.072 -7.149 -2.76 -6.61 QT
-3.447 -6.07 -4.291 -6.07 QT
cp
-4.26 -6.555 M
-3.556 -6.555 -3.049 -7.281 QT
-2.541 -8.008 -2.283 -9.016 QT
-2.025 -10.024 -2.025 -10.711 QT
-2.025 -12.055 -2.963 -13.742 QT
-3.916 -13.477 -4.603 -12.633 QT
-5.291 -11.789 -5.642 -10.688 QT
-5.994 -9.586 -5.994 -8.602 QT
-5.994 -7.742 -5.549 -7.149 QT
-5.103 -6.555 -4.26 -6.555 QT
cp}def
f-557840966
f
GR
GS
[1 0 0 1 719.25067 23.30001] CT
N
/f-1003012638{0.563 -3.915 M
0.563 -3.977 0.578 -4.024 QT
2.313 -10.962 L
2.359 -11.165 2.375 -11.274 QT
2.375 -11.477 1.594 -11.477 QT
1.469 -11.477 1.469 -11.634 QT
1.469 -11.665 1.492 -11.735 QT
1.516 -11.805 1.547 -11.852 QT
1.578 -11.899 1.641 -11.899 QT
3.25 -12.024 L
3.297 -12.024 L
3.297 -12.009 3.336 -11.993 QT
3.375 -11.977 3.375 -11.962 QT
3.406 -11.899 3.406 -11.868 QT
2.469 -8.134 L
3.203 -8.993 4.219 -8.993 QT
4.641 -8.993 4.945 -8.852 QT
5.25 -8.712 5.422 -8.415 QT
5.594 -8.118 5.594 -7.712 QT
5.594 -7.212 5.375 -6.516 QT
5.156 -5.821 4.828 -4.962 QT
4.656 -4.571 4.656 -4.243 QT
4.656 -3.884 4.938 -3.884 QT
5.406 -3.884 5.719 -4.384 QT
6.031 -4.884 6.156 -5.462 QT
6.188 -5.524 6.25 -5.524 QT
6.406 -5.524 L
6.453 -5.524 6.484 -5.493 QT
6.516 -5.462 6.516 -5.43 QT
6.516 -5.415 6.5 -5.384 QT
6.391 -4.962 6.18 -4.54 QT
5.969 -4.118 5.656 -3.837 QT
5.344 -3.555 4.922 -3.555 QT
4.5 -3.555 4.195 -3.852 QT
3.891 -4.149 3.891 -4.555 QT
3.891 -4.774 3.984 -5.024 QT
4.328 -5.93 4.555 -6.641 QT
4.781 -7.352 4.781 -7.884 QT
4.781 -8.227 4.649 -8.462 QT
4.516 -8.696 4.188 -8.696 QT
3.547 -8.696 3.07 -8.298 QT
2.594 -7.899 2.234 -7.243 QT
1.422 -3.977 L
1.375 -3.79 1.242 -3.673 QT
1.109 -3.555 0.938 -3.555 QT
0.781 -3.555 0.672 -3.665 QT
0.563 -3.774 0.563 -3.915 QT
cp}def
f-1003012638
f
GR
GS
0.821 GC
N
674.458 254.5 M
674.458 208.634 L
668 208.634 L
668 254.5 L
cp
680.915 254.5 M
680.915 221.739 L
674.458 221.739 L
674.458 254.5 L
cp
687.372 224.36 M
680.915 224.36 L
680.915 254.5 L
687.372 254.5 L
693.83 254.5 L
693.83 224.36 L
cp
700.287 254.5 M
700.287 212.566 L
693.83 212.566 L
693.83 254.5 L
cp
706.745 219.118 M
700.287 219.118 L
700.287 254.5 L
706.745 254.5 L
713.203 254.5 L
713.203 219.118 L
cp
719.66 254.5 M
719.66 207.324 L
713.203 207.324 L
713.203 254.5 L
cp
726.117 254.5 M
726.117 206.014 L
719.66 206.014 L
719.66 254.5 L
cp
732.575 254.5 M
732.575 212.566 L
726.117 212.566 L
726.117 254.5 L
cp
739.033 254.5 M
739.033 199.461 L
732.575 199.461 L
732.575 254.5 L
cp
745.49 254.5 M
745.49 204.703 L
739.033 204.703 L
739.033 254.5 L
cp
751.948 254.5 M
751.948 191.599 L
745.49 191.599 L
745.49 254.5 L
cp
758.405 254.5 M
758.405 194.22 L
751.948 194.22 L
751.948 254.5 L
cp
764.862 254.5 M
764.862 171.942 L
758.405 171.942 L
758.405 254.5 L
cp
770.5 254.5 M
770.5 38.277 L
764.862 38.277 L
764.862 254.5 L
cp
f
GR
GS
2 setlinecap
10.0 ML
0.5 LW
N
668 254.5 M
668 208.634 L
674.458 208.634 L
674.458 254.5 L
674.458 254.5 L
S
GR
GS
2 setlinecap
10.0 ML
0.5 LW
N
674.458 221.739 M
680.915 221.739 L
680.915 254.5 L
680.915 254.5 L
S
GR
GS
2 setlinecap
10.0 ML
0.5 LW
N
680.915 224.36 M
687.372 224.36 L
687.372 254.5 L
687.372 254.5 L
S
GR
GS
2 setlinecap
10.0 ML
0.5 LW
N
687.372 224.36 M
693.83 224.36 L
S
GR
GS
2 setlinecap
10.0 ML
0.5 LW
N
693.83 254.5 M
693.83 254.5 L
693.83 212.566 L
700.287 212.566 L
700.287 254.5 L
700.287 254.5 L
S
GR
GS
2 setlinecap
10.0 ML
0.5 LW
N
700.287 219.118 M
706.745 219.118 L
706.745 254.5 L
706.745 254.5 L
S
GR
GS
2 setlinecap
10.0 ML
0.5 LW
N
706.745 219.118 M
713.203 219.118 L
S
GR
GS
2 setlinecap
10.0 ML
0.5 LW
N
713.203 254.5 M
713.203 254.5 L
713.203 207.324 L
719.66 207.324 L
S
GR
GS
2 setlinecap
10.0 ML
0.5 LW
N
719.66 254.5 M
719.66 254.5 L
719.66 206.014 L
726.117 206.014 L
726.117 254.5 L
726.117 254.5 L
S
GR
GS
2 setlinecap
10.0 ML
0.5 LW
N
726.117 212.566 M
732.575 212.566 L
S
GR
GS
2 setlinecap
10.0 ML
0.5 LW
N
732.575 254.5 M
732.575 254.5 L
732.575 199.461 L
739.033 199.461 L
739.033 254.5 L
739.033 254.5 L
S
GR
GS
2 setlinecap
10.0 ML
0.5 LW
N
739.033 204.703 M
745.49 204.703 L
S
GR
GS
2 setlinecap
10.0 ML
0.5 LW
N
745.49 254.5 M
745.49 254.5 L
745.49 191.599 L
751.948 191.599 L
751.948 254.5 L
751.948 254.5 L
S
GR
GS
2 setlinecap
10.0 ML
0.5 LW
N
751.948 194.22 M
758.405 194.22 L
S
GR
GS
2 setlinecap
10.0 ML
0.5 LW
N
758.405 254.5 M
758.405 254.5 L
758.405 171.942 L
764.862 171.942 L
S
GR
GS
2 setlinecap
10.0 ML
0.5 LW
N
764.862 254.5 M
764.862 254.5 L
764.862 38.277 L
770.5 38.277 L
770.5 254.5 L
S
GR
GS
0.149 GC
2 setlinecap
1 LJ
0.5 LW
N
668 254.5 M
770.5 254.5 L
S
GR
GS
0.149 GC
2 setlinecap
1 LJ
0.5 LW
N
668 25.5 M
770.5 25.5 L
S
GR
GS
0.149 GC
2 setlinecap
1 LJ
0.5 LW
N
668 254.5 M
668 252.21 L
S
GR
GS
0.149 GC
2 setlinecap
1 LJ
0.5 LW
N
719.25 254.5 M
719.25 252.21 L
S
GR
GS
0.149 GC
2 setlinecap
1 LJ
0.5 LW
N
770.5 254.5 M
770.5 252.21 L
S
GR
GS
0.149 GC
2 setlinecap
1 LJ
0.5 LW
N
668 25.5 M
668 27.79 L
S
GR
GS
0.149 GC
2 setlinecap
1 LJ
0.5 LW
N
719.25 25.5 M
719.25 27.79 L
S
GR
GS
0.149 GC
2 setlinecap
1 LJ
0.5 LW
N
770.5 25.5 M
770.5 27.79 L
S
GR
GS
[1 0 0 1 668 259.70001] CT
0.149 GC
/Times-Roman 16 F
GS
[1 0 0 1 0 0] CT
-4 15 moveto 
1 -1 scale
(0) t 
GR
GR
GS
[1 0 0 1 719.25 259.70001] CT
0.149 GC
/Times-Roman 16 F
GS
[1 0 0 1 0 0] CT
-10 15 moveto 
1 -1 scale
(0.5) t 
GR
GR
GS
[1 0 0 1 770.5 259.70001] CT
0.149 GC
/Times-Roman 16 F
GS
[1 0 0 1 0 0] CT
-4 15 moveto 
1 -1 scale
(1) t 
GR
GR
GS
[1 0 0 1 719.25006 278.70001] CT
0.149 GC
N
f1010015617
f
GR
GS
[1 0 0 1 719.25006 278.70001] CT
0.149 GC
N
f503329850
f
GR
GS
[1 0 0 1 719.25006 278.70001] CT
0.149 GC
N
f-1993692509
f
GR
GS
[1 0 0 1 719.25006 278.70001] CT
0.149 GC
N
f-955245760
f
GR
GS
[1 0 0 1 719.25006 278.70001] CT
0.149 GC
N
f-1676235986
f
GR
GS
[1 0 0 1 719.25006 278.70001] CT
0.149 GC
N
f934592732
f
GR
GS
0.149 GC
2 setlinecap
1 LJ
0.5 LW
N
668 254.5 M
668 25.5 L
S
GR
GS
0.149 GC
2 setlinecap
1 LJ
0.5 LW
N
770.5 254.5 M
770.5 25.5 L
S
GR
GS
0.149 GC
2 setlinecap
1 LJ
0.5 LW
N
668 254.5 M
670.29 254.5 L
S
GR
GS
0.149 GC
2 setlinecap
1 LJ
0.5 LW
N
668 162.9 M
670.29 162.9 L
S
GR
GS
0.149 GC
2 setlinecap
1 LJ
0.5 LW
N
668 71.3 M
670.29 71.3 L
S
GR
GS
0.149 GC
2 setlinecap
1 LJ
0.5 LW
N
770.5 254.5 M
768.21 254.5 L
S
GR
GS
0.149 GC
2 setlinecap
1 LJ
0.5 LW
N
770.5 162.9 M
768.21 162.9 L
S
GR
GS
0.149 GC
2 setlinecap
1 LJ
0.5 LW
N
770.5 71.3 M
768.21 71.3 L
S
GR
GS
[1 0 0 1 662.79999 254.5] CT
0.149 GC
/Times-Roman 16 F
GS
[1 0 0 1 0 0] CT
-8 5.5 moveto 
1 -1 scale
(0) t 
GR
GR
GS
[1 0 0 1 662.79999 162.89999] CT
0.149 GC
/Times-Roman 16 F
GS
[1 0 0 1 0 0] CT
-20 5.5 moveto 
1 -1 scale
(0.1) t 
GR
GR
GS
[1 0 0 1 662.79999 71.3] CT
0.149 GC
/Times-Roman 16 F
GS
[1 0 0 1 0 0] CT
-20 5.5 moveto 
1 -1 scale
(0.2) t 
GR
GR
GS
1 GC
N
802.5 254.5 M
905 254.5 L
905 25.5 L
802.5 25.5 L
cp
f
GR
GS
[1 0 0 1 853.75079 23.30001] CT
N
/f-340610139{-3.948 -6.07 M
-4.573 -6.07 -5.112 -6.297 QT
-5.651 -6.524 -6.049 -6.969 QT
-6.448 -7.414 -6.643 -7.953 QT
-6.839 -8.492 -6.839 -9.117 QT
-6.839 -10.242 -6.307 -11.305 QT
-5.776 -12.367 -4.854 -13.141 QT
-3.932 -13.914 -2.854 -14.18 QT
-3.385 -15.164 -3.659 -15.867 QT
-3.932 -16.57 -3.932 -17.32 QT
-3.932 -17.852 -3.682 -18.274 QT
-3.432 -18.695 -2.979 -18.93 QT
-2.526 -19.164 -1.979 -19.164 QT
-1.432 -19.164 0.146 -18.805 QT
0.568 -18.711 0.568 -18.32 QT
0.568 -18.024 0.349 -17.781 QT
0.13 -17.539 -0.167 -17.539 QT
-0.401 -17.539 -0.573 -17.641 QT
-0.745 -17.742 -1.12 -17.992 QT
-1.495 -18.242 -1.799 -18.383 QT
-2.104 -18.524 -2.417 -18.524 QT
-2.792 -18.524 -3.089 -18.297 QT
-3.385 -18.07 -3.385 -17.711 QT
-3.385 -17.133 -2.878 -16.391 QT
-2.37 -15.649 -1.432 -14.492 QT
-0.37 -13.133 -0.37 -11.508 QT
-0.37 -10.695 -0.604 -9.758 QT
-0.839 -8.82 -1.284 -7.985 QT
-1.729 -7.149 -2.417 -6.61 QT
-3.104 -6.07 -3.948 -6.07 QT
cp
-3.917 -6.555 M
-3.214 -6.555 -2.706 -7.281 QT
-2.198 -8.008 -1.94 -9.016 QT
-1.682 -10.024 -1.682 -10.711 QT
-1.682 -12.055 -2.62 -13.742 QT
-3.573 -13.477 -4.26 -12.633 QT
-4.948 -11.789 -5.299 -10.688 QT
-5.651 -9.586 -5.651 -8.602 QT
-5.651 -7.742 -5.206 -7.149 QT
-4.76 -6.555 -3.917 -6.555 QT
cp}def
f-340610139
f
GR
GS
[1 0 0 1 853.75079 23.30001] CT
N
/f1190866045{2.359 -3.555 M
1.593 -3.555 1.156 -4.134 QT
0.718 -4.712 0.718 -5.477 QT
0.718 -6.259 1.116 -7.079 QT
1.515 -7.899 2.195 -8.446 QT
2.874 -8.993 3.656 -8.993 QT
3.999 -8.993 4.288 -8.798 QT
4.577 -8.602 4.734 -8.274 QT
5.406 -10.962 L
5.452 -11.165 5.468 -11.274 QT
5.468 -11.477 4.687 -11.477 QT
4.562 -11.477 4.562 -11.634 QT
4.562 -11.665 4.585 -11.735 QT
4.609 -11.805 4.64 -11.852 QT
4.671 -11.899 4.734 -11.899 QT
6.343 -12.024 L
6.499 -12.024 6.499 -11.868 QT
4.765 -4.962 L
4.687 -4.774 4.687 -4.399 QT
4.687 -3.884 5.031 -3.884 QT
5.406 -3.884 5.601 -4.36 QT
5.796 -4.837 5.937 -5.462 QT
5.952 -5.524 6.031 -5.524 QT
6.171 -5.524 L
6.218 -5.524 6.249 -5.485 QT
6.281 -5.446 6.281 -5.415 QT
6.062 -4.571 5.812 -4.063 QT
5.562 -3.555 4.999 -3.555 QT
4.609 -3.555 4.296 -3.798 QT
3.984 -4.04 3.906 -4.43 QT
3.124 -3.555 2.359 -3.555 QT
cp
2.359 -3.884 M
2.796 -3.884 3.202 -4.204 QT
3.609 -4.524 3.906 -4.962 QT
3.921 -4.977 3.921 -5.009 QT
4.577 -7.665 L
4.499 -8.087 4.257 -8.391 QT
4.015 -8.696 3.624 -8.696 QT
3.218 -8.696 2.866 -8.36 QT
2.515 -8.024 2.281 -7.571 QT
2.046 -7.102 1.835 -6.259 QT
1.624 -5.415 1.624 -4.962 QT
1.624 -4.54 1.804 -4.212 QT
1.984 -3.884 2.359 -3.884 QT
cp}def
f1190866045
f
GR
GS
0.821 GC
N
808.958 254.5 M
808.958 208.634 L
802.5 208.634 L
802.5 254.5 L
cp
815.415 254.5 M
815.415 221.739 L
808.958 221.739 L
808.958 254.5 L
cp
821.872 254.5 M
821.872 228.291 L
815.415 228.291 L
815.415 254.5 L
cp
828.33 254.5 M
828.33 221.739 L
821.872 221.739 L
821.872 254.5 L
cp
834.787 254.5 M
834.787 212.566 L
828.33 212.566 L
828.33 254.5 L
cp
841.245 254.5 M
841.245 220.428 L
834.787 220.428 L
834.787 254.5 L
cp
847.703 254.5 M
847.703 217.808 L
841.245 217.808 L
841.245 254.5 L
cp
854.16 254.5 M
854.16 203.393 L
847.703 203.393 L
847.703 254.5 L
cp
860.617 254.5 M
860.617 208.634 L
854.16 208.634 L
854.16 254.5 L
cp
867.075 254.5 M
867.075 213.876 L
860.617 213.876 L
860.617 254.5 L
cp
873.533 254.5 M
873.533 196.84 L
867.075 196.84 L
867.075 254.5 L
cp
879.99 254.5 M
879.99 204.703 L
873.533 204.703 L
873.533 254.5 L
cp
886.448 254.5 M
886.448 190.288 L
879.99 190.288 L
879.99 254.5 L
cp
892.905 254.5 M
892.905 194.22 L
886.448 194.22 L
886.448 254.5 L
cp
899.362 254.5 M
899.362 171.942 L
892.905 171.942 L
892.905 254.5 L
cp
905 254.5 M
905 40.898 L
899.362 40.898 L
899.362 254.5 L
cp
f
GR
GS
2 setlinecap
10.0 ML
0.5 LW
N
802.5 254.5 M
802.5 208.634 L
808.958 208.634 L
808.958 254.5 L
808.958 254.5 L
S
GR
GS
2 setlinecap
10.0 ML
0.5 LW
N
808.958 221.739 M
815.415 221.739 L
815.415 254.5 L
815.415 254.5 L
S
GR
GS
2 setlinecap
10.0 ML
0.5 LW
N
815.415 228.291 M
821.872 228.291 L
S
GR
GS
2 setlinecap
10.0 ML
0.5 LW
N
821.872 254.5 M
821.872 254.5 L
821.872 221.739 L
828.33 221.739 L
S
GR
GS
2 setlinecap
10.0 ML
0.5 LW
N
828.33 254.5 M
828.33 254.5 L
828.33 212.566 L
834.787 212.566 L
834.787 254.5 L
834.787 254.5 L
S
GR
GS
2 setlinecap
10.0 ML
0.5 LW
N
834.787 220.428 M
841.245 220.428 L
S
GR
GS
2 setlinecap
10.0 ML
0.5 LW
N
841.245 254.5 M
841.245 254.5 L
841.245 217.808 L
847.703 217.808 L
S
GR
GS
2 setlinecap
10.0 ML
0.5 LW
N
847.703 254.5 M
847.703 254.5 L
847.703 203.393 L
854.16 203.393 L
854.16 254.5 L
854.16 254.5 L
S
GR
GS
2 setlinecap
10.0 ML
0.5 LW
N
854.16 208.634 M
860.617 208.634 L
860.617 254.5 L
860.617 254.5 L
S
GR
GS
2 setlinecap
10.0 ML
0.5 LW
N
860.617 213.876 M
867.075 213.876 L
S
GR
GS
2 setlinecap
10.0 ML
0.5 LW
N
867.075 254.5 M
867.075 254.5 L
867.075 196.84 L
873.533 196.84 L
873.533 254.5 L
873.533 254.5 L
S
GR
GS
2 setlinecap
10.0 ML
0.5 LW
N
873.533 204.703 M
879.99 204.703 L
S
GR
GS
2 setlinecap
10.0 ML
0.5 LW
N
879.99 254.5 M
879.99 254.5 L
879.99 190.288 L
886.448 190.288 L
886.448 254.5 L
886.448 254.5 L
S
GR
GS
2 setlinecap
10.0 ML
0.5 LW
N
886.448 194.22 M
892.905 194.22 L
S
GR
GS
2 setlinecap
10.0 ML
0.5 LW
N
892.905 254.5 M
892.905 254.5 L
892.905 171.942 L
899.362 171.942 L
S
GR
GS
2 setlinecap
10.0 ML
0.5 LW
N
899.362 254.5 M
899.362 254.5 L
899.362 40.898 L
905 40.898 L
905 254.5 L
S
GR
GS
0.149 GC
2 setlinecap
1 LJ
0.5 LW
N
802.5 254.5 M
905 254.5 L
S
GR
GS
0.149 GC
2 setlinecap
1 LJ
0.5 LW
N
802.5 25.5 M
905 25.5 L
S
GR
GS
0.149 GC
2 setlinecap
1 LJ
0.5 LW
N
802.5 254.5 M
802.5 252.21 L
S
GR
GS
0.149 GC
2 setlinecap
1 LJ
0.5 LW
N
853.75 254.5 M
853.75 252.21 L
S
GR
GS
0.149 GC
2 setlinecap
1 LJ
0.5 LW
N
905 254.5 M
905 252.21 L
S
GR
GS
0.149 GC
2 setlinecap
1 LJ
0.5 LW
N
802.5 25.5 M
802.5 27.79 L
S
GR
GS
0.149 GC
2 setlinecap
1 LJ
0.5 LW
N
853.75 25.5 M
853.75 27.79 L
S
GR
GS
0.149 GC
2 setlinecap
1 LJ
0.5 LW
N
905 25.5 M
905 27.79 L
S
GR
GS
[1 0 0 1 802.5 259.70001] CT
0.149 GC
/Times-Roman 16 F
GS
[1 0 0 1 0 0] CT
-4 15 moveto 
1 -1 scale
(0) t 
GR
GR
GS
[1 0 0 1 853.75 259.70001] CT
0.149 GC
/Times-Roman 16 F
GS
[1 0 0 1 0 0] CT
-10 15 moveto 
1 -1 scale
(0.5) t 
GR
GR
GS
[1 0 0 1 905 259.70001] CT
0.149 GC
/Times-Roman 16 F
GS
[1 0 0 1 0 0] CT
-4 15 moveto 
1 -1 scale
(1) t 
GR
GR
GS
[1 0 0 1 853.75006 278.70001] CT
0.149 GC
N
f1010015617
f
GR
GS
[1 0 0 1 853.75006 278.70001] CT
0.149 GC
N
f503329850
f
GR
GS
[1 0 0 1 853.75006 278.70001] CT
0.149 GC
N
f-1993692509
f
GR
GS
[1 0 0 1 853.75006 278.70001] CT
0.149 GC
N
f-955245760
f
GR
GS
[1 0 0 1 853.75006 278.70001] CT
0.149 GC
N
f-1676235986
f
GR
GS
[1 0 0 1 853.75006 278.70001] CT
0.149 GC
N
f934592732
f
GR
GS
0.149 GC
2 setlinecap
1 LJ
0.5 LW
N
802.5 254.5 M
802.5 25.5 L
S
GR
GS
0.149 GC
2 setlinecap
1 LJ
0.5 LW
N
905 254.5 M
905 25.5 L
S
GR
GS
0.149 GC
2 setlinecap
1 LJ
0.5 LW
N
802.5 254.5 M
804.79 254.5 L
S
GR
GS
0.149 GC
2 setlinecap
1 LJ
0.5 LW
N
802.5 162.9 M
804.79 162.9 L
S
GR
GS
0.149 GC
2 setlinecap
1 LJ
0.5 LW
N
802.5 71.3 M
804.79 71.3 L
S
GR
GS
0.149 GC
2 setlinecap
1 LJ
0.5 LW
N
905 254.5 M
902.71 254.5 L
S
GR
GS
0.149 GC
2 setlinecap
1 LJ
0.5 LW
N
905 162.9 M
902.71 162.9 L
S
GR
GS
0.149 GC
2 setlinecap
1 LJ
0.5 LW
N
905 71.3 M
902.71 71.3 L
S
GR
GS
[1 0 0 1 797.29999 254.5] CT
0.149 GC
/Times-Roman 16 F
GS
[1 0 0 1 0 0] CT
-8 5.5 moveto 
1 -1 scale
(0) t 
GR
GR
GS
[1 0 0 1 797.29999 162.89999] CT
0.149 GC
/Times-Roman 16 F
GS
[1 0 0 1 0 0] CT
-20 5.5 moveto 
1 -1 scale
(0.1) t 
GR
GR
GS
[1 0 0 1 797.29999 71.3] CT
0.149 GC
/Times-Roman 16 F
GS
[1 0 0 1 0 0] CT
-20 5.5 moveto 
1 -1 scale
(0.2) t 
GR
GR
%%Trailer
%%Pages: 1
%%EOF
