%!PS-Adobe-3.0 EPSF-3.0
%%Creator: (MATLAB, The Mathworks, Inc. Version 9.3.0.713579 \(R2017b\). Operating System: Mac OS X)
%%Title: ./dth_phi.eps
%%CreationDate: 2018-07-10T12:34:20
%%Pages: (atend)
%%BoundingBox:    49    62   332   335
%%LanguageLevel: 3
%%EndComments
%%BeginProlog
%%BeginResource: procset (Apache XML Graphics Std ProcSet) 1.2 0
%%Version: 1.2 0
%%Copyright: (Copyright 2001-2003,2010 The Apache Software Foundation. License terms: http://www.apache.org/licenses/LICENSE-2.0)
/bd{bind def}bind def
/ld{load def}bd
/GR/grestore ld
/GS/gsave ld
/RM/rmoveto ld
/C/curveto ld
/t/show ld
/L/lineto ld
/ML/setmiterlimit ld
/CT/concat ld
/f/fill ld
/N/newpath ld
/S/stroke ld
/CC/setcmykcolor ld
/A/ashow ld
/cp/closepath ld
/RC/setrgbcolor ld
/LJ/setlinejoin ld
/GC/setgray ld
/LW/setlinewidth ld
/M/moveto ld
/re {4 2 roll M
1 index 0 rlineto
0 exch rlineto
neg 0 rlineto
cp } bd
/_ctm matrix def
/_tm matrix def
/BT { _ctm currentmatrix pop matrix _tm copy pop 0 0 moveto } bd
/ET { _ctm setmatrix } bd
/iTm { _ctm setmatrix _tm concat } bd
/Tm { _tm astore pop iTm 0 0 moveto } bd
/ux 0.0 def
/uy 0.0 def
/F {
  /Tp exch def
  /Tf exch def
  Tf findfont Tp scalefont setfont
  /cf Tf def  /cs Tp def
} bd
/ULS {currentpoint /uy exch def /ux exch def} bd
/ULE {
  /Tcx currentpoint pop def
  gsave
  newpath
  cf findfont cs scalefont dup
  /FontMatrix get 0 get /Ts exch def /FontInfo get dup
  /UnderlinePosition get Ts mul /To exch def
  /UnderlineThickness get Ts mul /Tt exch def
  ux uy To add moveto  Tcx uy To add lineto
  Tt setlinewidth stroke
  grestore
} bd
/OLE {
  /Tcx currentpoint pop def
  gsave
  newpath
  cf findfont cs scalefont dup
  /FontMatrix get 0 get /Ts exch def /FontInfo get dup
  /UnderlinePosition get Ts mul /To exch def
  /UnderlineThickness get Ts mul /Tt exch def
  ux uy To add cs add moveto Tcx uy To add cs add lineto
  Tt setlinewidth stroke
  grestore
} bd
/SOE {
  /Tcx currentpoint pop def
  gsave
  newpath
  cf findfont cs scalefont dup
  /FontMatrix get 0 get /Ts exch def /FontInfo get dup
  /UnderlinePosition get Ts mul /To exch def
  /UnderlineThickness get Ts mul /Tt exch def
  ux uy To add cs 10 mul 26 idiv add moveto Tcx uy To add cs 10 mul 26 idiv add lineto
  Tt setlinewidth stroke
  grestore
} bd
/QT {
/Y22 exch store
/X22 exch store
/Y21 exch store
/X21 exch store
currentpoint
/Y21 load 2 mul add 3 div exch
/X21 load 2 mul add 3 div exch
/X21 load 2 mul /X22 load add 3 div
/Y21 load 2 mul /Y22 load add 3 div
/X22 load /Y22 load curveto
} bd
/SSPD {
dup length /d exch dict def
{
/v exch def
/k exch def
currentpagedevice k known {
/cpdv currentpagedevice k get def
v cpdv ne {
/upd false def
/nullv v type /nulltype eq def
/nullcpdv cpdv type /nulltype eq def
nullv nullcpdv or
{
/upd true def
} {
/sametype v type cpdv type eq def
sametype {
v type /arraytype eq {
/vlen v length def
/cpdvlen cpdv length def
vlen cpdvlen eq {
0 1 vlen 1 sub {
/i exch def
/obj v i get def
/cpdobj cpdv i get def
obj cpdobj ne {
/upd true def
exit
} if
} for
} {
/upd true def
} ifelse
} {
v type /dicttype eq {
v {
/dv exch def
/dk exch def
/cpddv cpdv dk get def
dv cpddv ne {
/upd true def
exit
} if
} forall
} {
/upd true def
} ifelse
} ifelse
} if
} ifelse
upd true eq {
d k v put
} if
} if
} if
} forall
d length 0 gt {
d setpagedevice
} if
} bd
/RE { % /NewFontName [NewEncodingArray] /FontName RE -
  findfont dup length dict begin
  {
    1 index /FID ne
    {def} {pop pop} ifelse
  } forall
  /Encoding exch def
  /FontName 1 index def
  currentdict definefont pop
  end
} bind def
%%EndResource
%%BeginResource: procset (Apache XML Graphics EPS ProcSet) 1.0 0
%%Version: 1.0 0
%%Copyright: (Copyright 2002-2003 The Apache Software Foundation. License terms: http://www.apache.org/licenses/LICENSE-2.0)
/BeginEPSF { %def
/b4_Inc_state save def         % Save state for cleanup
/dict_count countdictstack def % Count objects on dict stack
/op_count count 1 sub def      % Count objects on operand stack
userdict begin                 % Push userdict on dict stack
/showpage { } def              % Redefine showpage, { } = null proc
0 setgray 0 setlinecap         % Prepare graphics state
1 setlinewidth 0 setlinejoin
10 setmiterlimit [ ] 0 setdash newpath
/languagelevel where           % If level not equal to 1 then
{pop languagelevel             % set strokeadjust and
1 ne                           % overprint to their defaults.
{false setstrokeadjust false setoverprint
} if
} if
} bd
/EndEPSF { %def
count op_count sub {pop} repeat            % Clean up stacks
countdictstack dict_count sub {end} repeat
b4_Inc_state restore
} bd
%%EndResource
%FOPBeginFontDict
%%IncludeResource: font Courier-Oblique
%%IncludeResource: font Courier-BoldOblique
%%IncludeResource: font Courier-Bold
%%IncludeResource: font ZapfDingbats
%%IncludeResource: font Symbol
%%IncludeResource: font Helvetica
%%IncludeResource: font Helvetica-Oblique
%%IncludeResource: font Helvetica-Bold
%%IncludeResource: font Helvetica-BoldOblique
%%IncludeResource: font Times-Roman
%%IncludeResource: font Times-Italic
%%IncludeResource: font Times-Bold
%%IncludeResource: font Times-BoldItalic
%%IncludeResource: font Courier
%FOPEndFontDict
%%BeginResource: encoding WinAnsiEncoding
/WinAnsiEncoding [
/.notdef /.notdef /.notdef /.notdef /.notdef
/.notdef /.notdef /.notdef /.notdef /.notdef
/.notdef /.notdef /.notdef /.notdef /.notdef
/.notdef /.notdef /.notdef /.notdef /.notdef
/.notdef /.notdef /.notdef /.notdef /.notdef
/.notdef /.notdef /.notdef /.notdef /.notdef
/.notdef /.notdef /space /exclam /quotedbl
/numbersign /dollar /percent /ampersand /quotesingle
/parenleft /parenright /asterisk /plus /comma
/hyphen /period /slash /zero /one
/two /three /four /five /six
/seven /eight /nine /colon /semicolon
/less /equal /greater /question /at
/A /B /C /D /E
/F /G /H /I /J
/K /L /M /N /O
/P /Q /R /S /T
/U /V /W /X /Y
/Z /bracketleft /backslash /bracketright /asciicircum
/underscore /quoteleft /a /b /c
/d /e /f /g /h
/i /j /k /l /m
/n /o /p /q /r
/s /t /u /v /w
/x /y /z /braceleft /bar
/braceright /asciitilde /bullet /Euro /bullet
/quotesinglbase /florin /quotedblbase /ellipsis /dagger
/daggerdbl /circumflex /perthousand /Scaron /guilsinglleft
/OE /bullet /Zcaron /bullet /bullet
/quoteleft /quoteright /quotedblleft /quotedblright /bullet
/endash /emdash /asciitilde /trademark /scaron
/guilsinglright /oe /bullet /zcaron /Ydieresis
/space /exclamdown /cent /sterling /currency
/yen /brokenbar /section /dieresis /copyright
/ordfeminine /guillemotleft /logicalnot /sfthyphen /registered
/macron /degree /plusminus /twosuperior /threesuperior
/acute /mu /paragraph /middot /cedilla
/onesuperior /ordmasculine /guillemotright /onequarter /onehalf
/threequarters /questiondown /Agrave /Aacute /Acircumflex
/Atilde /Adieresis /Aring /AE /Ccedilla
/Egrave /Eacute /Ecircumflex /Edieresis /Igrave
/Iacute /Icircumflex /Idieresis /Eth /Ntilde
/Ograve /Oacute /Ocircumflex /Otilde /Odieresis
/multiply /Oslash /Ugrave /Uacute /Ucircumflex
/Udieresis /Yacute /Thorn /germandbls /agrave
/aacute /acircumflex /atilde /adieresis /aring
/ae /ccedilla /egrave /eacute /ecircumflex
/edieresis /igrave /iacute /icircumflex /idieresis
/eth /ntilde /ograve /oacute /ocircumflex
/otilde /odieresis /divide /oslash /ugrave
/uacute /ucircumflex /udieresis /yacute /thorn
/ydieresis
] def
%%EndResource
%FOPBeginFontReencode
/Courier-Oblique findfont
dup length dict begin
  {1 index /FID ne {def} {pop pop} ifelse} forall
  /Encoding WinAnsiEncoding def
  currentdict
end
/Courier-Oblique exch definefont pop
/Courier-BoldOblique findfont
dup length dict begin
  {1 index /FID ne {def} {pop pop} ifelse} forall
  /Encoding WinAnsiEncoding def
  currentdict
end
/Courier-BoldOblique exch definefont pop
/Courier-Bold findfont
dup length dict begin
  {1 index /FID ne {def} {pop pop} ifelse} forall
  /Encoding WinAnsiEncoding def
  currentdict
end
/Courier-Bold exch definefont pop
/Helvetica findfont
dup length dict begin
  {1 index /FID ne {def} {pop pop} ifelse} forall
  /Encoding WinAnsiEncoding def
  currentdict
end
/Helvetica exch definefont pop
/Helvetica-Oblique findfont
dup length dict begin
  {1 index /FID ne {def} {pop pop} ifelse} forall
  /Encoding WinAnsiEncoding def
  currentdict
end
/Helvetica-Oblique exch definefont pop
/Helvetica-Bold findfont
dup length dict begin
  {1 index /FID ne {def} {pop pop} ifelse} forall
  /Encoding WinAnsiEncoding def
  currentdict
end
/Helvetica-Bold exch definefont pop
/Helvetica-BoldOblique findfont
dup length dict begin
  {1 index /FID ne {def} {pop pop} ifelse} forall
  /Encoding WinAnsiEncoding def
  currentdict
end
/Helvetica-BoldOblique exch definefont pop
/Times-Roman findfont
dup length dict begin
  {1 index /FID ne {def} {pop pop} ifelse} forall
  /Encoding WinAnsiEncoding def
  currentdict
end
/Times-Roman exch definefont pop
/Times-Italic findfont
dup length dict begin
  {1 index /FID ne {def} {pop pop} ifelse} forall
  /Encoding WinAnsiEncoding def
  currentdict
end
/Times-Italic exch definefont pop
/Times-Bold findfont
dup length dict begin
  {1 index /FID ne {def} {pop pop} ifelse} forall
  /Encoding WinAnsiEncoding def
  currentdict
end
/Times-Bold exch definefont pop
/Times-BoldItalic findfont
dup length dict begin
  {1 index /FID ne {def} {pop pop} ifelse} forall
  /Encoding WinAnsiEncoding def
  currentdict
end
/Times-BoldItalic exch definefont pop
/Courier findfont
dup length dict begin
  {1 index /FID ne {def} {pop pop} ifelse} forall
  /Encoding WinAnsiEncoding def
  currentdict
end
/Courier exch definefont pop
%FOPEndFontReencode
%%EndProlog
%%Page: 1 1
%%PageBoundingBox: 0 0 360 360
%%BeginPageSetup
[1 0 0 -1 0 360] CT
%%EndPageSetup
GS
1 GC
N
0 0 360 360 re
f
GR
GS
1 GC
N
0 0 360 360 re
f
GR
GS
1 GC
N
132 218 M
132 27 L
95 27 L
95 218 L
cp
f
GR
GS
0.149 GC
2 setlinecap
1 LJ
0.5 LW
N
95 218 M
95 27 L
S
GR
GS
0.149 GC
2 setlinecap
1 LJ
0.5 LW
N
132 218 M
132 27 L
S
GR
GS
0.149 GC
2 setlinecap
1 LJ
0.5 LW
N
95 218 M
96.91 218 L
S
GR
GS
0.149 GC
2 setlinecap
1 LJ
0.5 LW
N
95 170.25 M
96.91 170.25 L
S
GR
GS
0.149 GC
2 setlinecap
1 LJ
0.5 LW
N
95 122.5 M
96.91 122.5 L
S
GR
GS
0.149 GC
2 setlinecap
1 LJ
0.5 LW
N
95 74.75 M
96.91 74.75 L
S
GR
GS
0.149 GC
2 setlinecap
1 LJ
0.5 LW
N
95 27 M
96.91 27 L
S
GR
GS
0.149 GC
2 setlinecap
1 LJ
0.5 LW
N
132 218 M
130.09 218 L
S
GR
GS
0.149 GC
2 setlinecap
1 LJ
0.5 LW
N
132 170.25 M
130.09 170.25 L
S
GR
GS
0.149 GC
2 setlinecap
1 LJ
0.5 LW
N
132 122.5 M
130.09 122.5 L
S
GR
GS
0.149 GC
2 setlinecap
1 LJ
0.5 LW
N
132 74.75 M
130.09 74.75 L
S
GR
GS
0.149 GC
2 setlinecap
1 LJ
0.5 LW
N
132 27 M
130.09 27 L
S
GR
GS
[1 0 0 1 91 218] CT
0.149 GC
N
-12.821 0.103 M
-12.899 0.103 -12.954 0.041 QT
-13.009 -0.022 -13.009 -0.1 QT
-13.009 -0.178 -12.954 -0.241 QT
-12.899 -0.303 -12.821 -0.303 QT
-7.071 -0.303 L
-6.993 -0.303 -6.946 -0.241 QT
-6.899 -0.178 -6.899 -0.1 QT
-6.899 -0.022 -6.946 0.041 QT
-6.993 0.103 -7.071 0.103 QT
-12.821 0.103 L
cp
f
GR
GS
[1 0 0 1 91 218] CT
0.149 GC
N
-5.043 2.228 M
-5.043 2.181 -5.012 2.072 QT
-4.731 1.494 -4.489 0.931 QT
-4.247 0.369 -4.051 -0.163 QT
-3.856 -0.694 -3.7 -1.288 QT
-4.34 -1.288 L
-4.7 -1.288 -5.02 -1.061 QT
-5.34 -0.834 -5.543 -0.475 QT
-5.575 -0.444 -5.606 -0.444 QT
-5.731 -0.444 L
-5.825 -0.444 -5.825 -0.538 QT
-5.825 -0.553 -5.793 -0.6 QT
-5.465 -1.163 -5.098 -1.538 QT
-4.731 -1.913 -4.262 -1.913 QT
-0.622 -1.913 L
-0.528 -1.913 -0.457 -1.842 QT
-0.387 -1.772 -0.387 -1.663 QT
-0.387 -1.506 -0.489 -1.397 QT
-0.59 -1.288 -0.731 -1.288 QT
-2.012 -1.288 L
-2.168 -0.506 -2.184 0.244 QT
-2.184 1.197 -1.856 1.978 QT
-1.825 2.041 -1.825 2.103 QT
-1.825 2.212 -1.887 2.306 QT
-1.95 2.4 -2.051 2.455 QT
-2.153 2.509 -2.262 2.509 QT
-2.528 2.509 -2.622 2.08 QT
-2.715 1.65 -2.715 1.244 QT
-2.715 0.681 -2.622 0.15 QT
-2.528 -0.381 -2.309 -1.288 QT
-3.403 -1.288 L
-4.184 1.916 -4.356 2.244 QT
-4.497 2.509 -4.747 2.509 QT
-4.856 2.509 -4.95 2.431 QT
-5.043 2.353 -5.043 2.228 QT
cp
f
GR
GS
[1 0 0 1 91 170.25] CT
0.149 GC
N
-25.599 0.103 M
-25.677 0.103 -25.732 0.041 QT
-25.787 -0.022 -25.787 -0.1 QT
-25.787 -0.178 -25.732 -0.241 QT
-25.677 -0.303 -25.599 -0.303 QT
-19.849 -0.303 L
-19.771 -0.303 -19.724 -0.241 QT
-19.677 -0.178 -19.677 -0.1 QT
-19.677 -0.022 -19.724 0.041 QT
-19.771 0.103 -19.849 0.103 QT
-25.599 0.103 L
cp
f
GR
GS
[1 0 0 1 91 170.25] CT
0.149 GC
N
-16.337 2.619 M
-17.556 2.619 -18.001 1.611 QT
-18.446 0.603 -18.446 -0.788 QT
-18.446 -1.663 -18.29 -2.428 QT
-18.134 -3.194 -17.657 -3.725 QT
-17.181 -4.256 -16.337 -4.256 QT
-15.681 -4.256 -15.259 -3.936 QT
-14.837 -3.616 -14.618 -3.108 QT
-14.399 -2.6 -14.321 -2.014 QT
-14.243 -1.428 -14.243 -0.788 QT
-14.243 0.072 -14.399 0.822 QT
-14.556 1.572 -15.017 2.095 QT
-15.477 2.619 -16.337 2.619 QT
cp
-16.337 2.353 M
-15.774 2.353 -15.501 1.783 QT
-15.227 1.212 -15.165 0.525 QT
-15.102 -0.163 -15.102 -0.944 QT
-15.102 -1.709 -15.165 -2.342 QT
-15.227 -2.975 -15.501 -3.491 QT
-15.774 -4.006 -16.337 -4.006 QT
-16.899 -4.006 -17.173 -3.483 QT
-17.446 -2.959 -17.509 -2.334 QT
-17.571 -1.709 -17.571 -0.944 QT
-17.571 -0.397 -17.548 0.095 QT
-17.524 0.587 -17.407 1.119 QT
-17.29 1.65 -17.024 2.002 QT
-16.759 2.353 -16.337 2.353 QT
cp
f
GR
GS
[1 0 0 1 91 170.25] CT
0.149 GC
N
-12.993 1.853 M
-12.993 1.619 -12.829 1.462 QT
-12.665 1.306 -12.446 1.306 QT
-12.306 1.306 -12.173 1.377 QT
-12.04 1.447 -11.97 1.58 QT
-11.899 1.712 -11.899 1.853 QT
-11.899 2.072 -12.063 2.236 QT
-12.227 2.4 -12.446 2.4 QT
-12.665 2.4 -12.829 2.236 QT
-12.993 2.072 -12.993 1.853 QT
cp
f
GR
GS
[1 0 0 1 91 170.25] CT
0.149 GC
N
-10.184 1.259 M
-10.09 1.556 -9.879 1.798 QT
-9.668 2.041 -9.372 2.173 QT
-9.075 2.306 -8.762 2.306 QT
-8.043 2.306 -7.77 1.744 QT
-7.497 1.181 -7.497 0.384 QT
-7.497 0.025 -7.512 -0.209 QT
-7.528 -0.444 -7.575 -0.663 QT
-7.668 -1.006 -7.903 -1.272 QT
-8.137 -1.538 -8.465 -1.538 QT
-8.809 -1.538 -9.051 -1.436 QT
-9.293 -1.334 -9.442 -1.202 QT
-9.59 -1.069 -9.708 -0.913 QT
-9.825 -0.756 -9.856 -0.756 QT
-9.965 -0.756 L
-9.997 -0.756 -10.036 -0.788 QT
-10.075 -0.819 -10.075 -0.85 QT
-10.075 -4.178 L
-10.075 -4.209 -10.036 -4.233 QT
-9.997 -4.256 -9.965 -4.256 QT
-9.934 -4.256 L
-9.262 -3.944 -8.512 -3.944 QT
-7.762 -3.944 -7.075 -4.256 QT
-7.043 -4.256 L
-7.012 -4.256 -6.981 -4.233 QT
-6.95 -4.209 -6.95 -4.178 QT
-6.95 -4.084 L
-6.95 -4.038 -6.981 -4.038 QT
-7.325 -3.584 -7.84 -3.334 QT
-8.356 -3.084 -8.903 -3.084 QT
-9.293 -3.084 -9.715 -3.194 QT
-9.715 -1.303 L
-9.387 -1.569 -9.129 -1.686 QT
-8.872 -1.803 -8.465 -1.803 QT
-7.903 -1.803 -7.465 -1.483 QT
-7.028 -1.163 -6.793 -0.655 QT
-6.559 -0.147 -6.559 0.384 QT
-6.559 0.994 -6.856 1.502 QT
-7.153 2.009 -7.661 2.314 QT
-8.168 2.619 -8.762 2.619 QT
-9.262 2.619 -9.676 2.369 QT
-10.09 2.119 -10.325 1.689 QT
-10.559 1.259 -10.559 0.775 QT
-10.559 0.541 -10.411 0.4 QT
-10.262 0.259 -10.043 0.259 QT
-9.825 0.259 -9.676 0.408 QT
-9.528 0.556 -9.528 0.775 QT
-9.528 0.978 -9.676 1.127 QT
-9.825 1.275 -10.043 1.275 QT
-10.075 1.275 -10.122 1.267 QT
-10.168 1.259 -10.184 1.259 QT
cp
f
GR
GS
[1 0 0 1 91 170.25] CT
0.149 GC
N
/f183725701{-5.043 2.228 M
-5.043 2.181 -5.012 2.072 QT
-4.731 1.494 -4.489 0.931 QT
-4.247 0.369 -4.051 -0.163 QT
-3.856 -0.694 -3.7 -1.288 QT
-4.34 -1.288 L
-4.7 -1.288 -5.02 -1.061 QT
-5.34 -0.834 -5.543 -0.475 QT
-5.575 -0.444 -5.606 -0.444 QT
-5.731 -0.444 L
-5.825 -0.444 -5.825 -0.538 QT
-5.825 -0.553 -5.793 -0.6 QT
-5.465 -1.163 -5.098 -1.538 QT
-4.731 -1.913 -4.262 -1.913 QT
-0.622 -1.913 L
-0.528 -1.913 -0.457 -1.842 QT
-0.387 -1.772 -0.387 -1.663 QT
-0.387 -1.506 -0.489 -1.397 QT
-0.59 -1.288 -0.731 -1.288 QT
-2.012 -1.288 L
-2.168 -0.506 -2.184 0.244 QT
-2.184 1.197 -1.856 1.978 QT
-1.825 2.041 -1.825 2.103 QT
-1.825 2.212 -1.887 2.306 QT
-1.95 2.4 -2.051 2.455 QT
-2.153 2.509 -2.262 2.509 QT
-2.528 2.509 -2.622 2.08 QT
-2.715 1.65 -2.715 1.244 QT
-2.715 0.681 -2.622 0.15 QT
-2.528 -0.381 -2.309 -1.288 QT
-3.403 -1.288 L
-4.184 1.916 -4.356 2.244 QT
-4.497 2.509 -4.747 2.509 QT
-4.856 2.509 -4.95 2.431 QT
-5.043 2.353 -5.043 2.228 QT
cp}def
f183725701
f
GR
GS
[1 0 0 1 91 122.5] CT
0.149 GC
N
/f218240023{-2.5 2.619 M
-3.719 2.619 -4.164 1.611 QT
-4.609 0.603 -4.609 -0.788 QT
-4.609 -1.663 -4.453 -2.428 QT
-4.297 -3.194 -3.82 -3.725 QT
-3.344 -4.256 -2.5 -4.256 QT
-1.844 -4.256 -1.422 -3.936 QT
-1 -3.616 -0.781 -3.108 QT
-0.563 -2.6 -0.484 -2.014 QT
-0.406 -1.428 -0.406 -0.788 QT
-0.406 0.072 -0.563 0.822 QT
-0.719 1.572 -1.18 2.095 QT
-1.641 2.619 -2.5 2.619 QT
cp
-2.5 2.353 M
-1.938 2.353 -1.664 1.783 QT
-1.391 1.212 -1.328 0.525 QT
-1.266 -0.163 -1.266 -0.944 QT
-1.266 -1.709 -1.328 -2.342 QT
-1.391 -2.975 -1.664 -3.491 QT
-1.938 -4.006 -2.5 -4.006 QT
-3.063 -4.006 -3.336 -3.483 QT
-3.609 -2.959 -3.672 -2.334 QT
-3.734 -1.709 -3.734 -0.944 QT
-3.734 -0.397 -3.711 0.095 QT
-3.688 0.587 -3.57 1.119 QT
-3.453 1.65 -3.188 2.002 QT
-2.922 2.353 -2.5 2.353 QT
cp}def
f218240023
f
GR
GS
[1 0 0 1 91 74.75] CT
0.149 GC
N
/f-1860464567{-16.337 2.619 M
-17.556 2.619 -18.001 1.611 QT
-18.446 0.603 -18.446 -0.788 QT
-18.446 -1.663 -18.29 -2.428 QT
-18.134 -3.194 -17.657 -3.725 QT
-17.181 -4.256 -16.337 -4.256 QT
-15.681 -4.256 -15.259 -3.936 QT
-14.837 -3.616 -14.618 -3.108 QT
-14.399 -2.6 -14.321 -2.014 QT
-14.243 -1.428 -14.243 -0.788 QT
-14.243 0.072 -14.399 0.822 QT
-14.556 1.572 -15.017 2.095 QT
-15.477 2.619 -16.337 2.619 QT
cp
-16.337 2.353 M
-15.774 2.353 -15.501 1.783 QT
-15.227 1.212 -15.165 0.525 QT
-15.102 -0.163 -15.102 -0.944 QT
-15.102 -1.709 -15.165 -2.342 QT
-15.227 -2.975 -15.501 -3.491 QT
-15.774 -4.006 -16.337 -4.006 QT
-16.899 -4.006 -17.173 -3.483 QT
-17.446 -2.959 -17.509 -2.334 QT
-17.571 -1.709 -17.571 -0.944 QT
-17.571 -0.397 -17.548 0.095 QT
-17.524 0.587 -17.407 1.119 QT
-17.29 1.65 -17.024 2.002 QT
-16.759 2.353 -16.337 2.353 QT
cp}def
f-1860464567
f
GR
GS
[1 0 0 1 91 74.75] CT
0.149 GC
N
/f-711540231{-12.993 1.853 M
-12.993 1.619 -12.829 1.462 QT
-12.665 1.306 -12.446 1.306 QT
-12.306 1.306 -12.173 1.377 QT
-12.04 1.447 -11.97 1.58 QT
-11.899 1.712 -11.899 1.853 QT
-11.899 2.072 -12.063 2.236 QT
-12.227 2.4 -12.446 2.4 QT
-12.665 2.4 -12.829 2.236 QT
-12.993 2.072 -12.993 1.853 QT
cp}def
f-711540231
f
GR
GS
[1 0 0 1 91 74.75] CT
0.149 GC
N
/f353734786{-10.184 1.259 M
-10.09 1.556 -9.879 1.798 QT
-9.668 2.041 -9.372 2.173 QT
-9.075 2.306 -8.762 2.306 QT
-8.043 2.306 -7.77 1.744 QT
-7.497 1.181 -7.497 0.384 QT
-7.497 0.025 -7.512 -0.209 QT
-7.528 -0.444 -7.575 -0.663 QT
-7.668 -1.006 -7.903 -1.272 QT
-8.137 -1.538 -8.465 -1.538 QT
-8.809 -1.538 -9.051 -1.436 QT
-9.293 -1.334 -9.442 -1.202 QT
-9.59 -1.069 -9.708 -0.913 QT
-9.825 -0.756 -9.856 -0.756 QT
-9.965 -0.756 L
-9.997 -0.756 -10.036 -0.788 QT
-10.075 -0.819 -10.075 -0.85 QT
-10.075 -4.178 L
-10.075 -4.209 -10.036 -4.233 QT
-9.997 -4.256 -9.965 -4.256 QT
-9.934 -4.256 L
-9.262 -3.944 -8.512 -3.944 QT
-7.762 -3.944 -7.075 -4.256 QT
-7.043 -4.256 L
-7.012 -4.256 -6.981 -4.233 QT
-6.95 -4.209 -6.95 -4.178 QT
-6.95 -4.084 L
-6.95 -4.038 -6.981 -4.038 QT
-7.325 -3.584 -7.84 -3.334 QT
-8.356 -3.084 -8.903 -3.084 QT
-9.293 -3.084 -9.715 -3.194 QT
-9.715 -1.303 L
-9.387 -1.569 -9.129 -1.686 QT
-8.872 -1.803 -8.465 -1.803 QT
-7.903 -1.803 -7.465 -1.483 QT
-7.028 -1.163 -6.793 -0.655 QT
-6.559 -0.147 -6.559 0.384 QT
-6.559 0.994 -6.856 1.502 QT
-7.153 2.009 -7.661 2.314 QT
-8.168 2.619 -8.762 2.619 QT
-9.262 2.619 -9.676 2.369 QT
-10.09 2.119 -10.325 1.689 QT
-10.559 1.259 -10.559 0.775 QT
-10.559 0.541 -10.411 0.4 QT
-10.262 0.259 -10.043 0.259 QT
-9.825 0.259 -9.676 0.408 QT
-9.528 0.556 -9.528 0.775 QT
-9.528 0.978 -9.676 1.127 QT
-9.825 1.275 -10.043 1.275 QT
-10.075 1.275 -10.122 1.267 QT
-10.168 1.259 -10.184 1.259 QT
cp}def
f353734786
f
GR
GS
[1 0 0 1 91 74.75] CT
0.149 GC
N
f183725701
f
GR
GS
[1 0 0 1 91 27] CT
0.149 GC
N
f183725701
f
GR
GS
[0 -1 1 0 61.38533 122.49991] CT
0.149 GC
N
/f2077318969{-6.724 -3.96 M
-6.818 -3.96 -6.818 -4.054 QT
-6.802 -4.054 -6.802 -4.062 QT
-6.802 -4.069 -6.802 -4.085 QT
-3.021 -11.71 L
-2.974 -11.835 -2.818 -11.835 QT
-2.662 -11.835 L
-2.521 -11.835 -2.474 -11.71 QT
1.323 -4.085 L
1.323 -4.069 1.323 -4.062 QT
1.323 -4.054 1.323 -4.054 QT
1.323 -3.96 1.244 -3.96 QT
-6.724 -3.96 L
cp
-5.99 -4.835 M
-0.209 -4.835 L
-3.099 -10.679 L
-5.99 -4.835 L
cp}def
f2077318969
f
GR
GS
[0 -1 1 0 61.38533 122.49991] CT
0.149 GC
N
/f-389438575{3.614 -3.835 M
3.114 -3.835 2.817 -4.202 QT
2.521 -4.569 2.403 -5.085 QT
2.286 -5.601 2.286 -6.101 QT
2.286 -6.116 L
2.286 -6.663 2.396 -7.257 QT
2.505 -7.851 2.7 -8.437 QT
2.896 -9.023 3.13 -9.476 QT
3.286 -9.804 3.544 -10.202 QT
3.802 -10.601 4.114 -10.944 QT
4.427 -11.288 4.786 -11.499 QT
5.146 -11.71 5.521 -11.71 QT
5.536 -11.71 L
5.927 -11.71 6.192 -11.491 QT
6.458 -11.273 6.606 -10.929 QT
6.755 -10.585 6.817 -10.194 QT
6.88 -9.804 6.88 -9.444 QT
6.88 -8.616 6.653 -7.749 QT
6.427 -6.882 6.021 -6.069 QT
5.88 -5.773 5.614 -5.358 QT
5.349 -4.944 5.052 -4.616 QT
4.755 -4.288 4.38 -4.062 QT
4.005 -3.835 3.63 -3.835 QT
3.614 -3.835 L
cp
3.646 -4.132 M
4.005 -4.132 4.341 -4.523 QT
4.677 -4.913 4.927 -5.468 QT
5.177 -6.023 5.372 -6.601 QT
5.567 -7.179 5.661 -7.585 QT
3.411 -7.585 L
3.239 -6.898 3.146 -6.398 QT
3.052 -5.898 3.052 -5.413 QT
3.052 -4.132 3.646 -4.132 QT
cp
3.505 -7.976 M
5.755 -7.976 L
5.864 -8.46 5.935 -8.788 QT
6.005 -9.116 6.06 -9.476 QT
6.114 -9.835 6.114 -10.148 QT
6.114 -11.429 5.521 -11.429 QT
4.817 -11.429 4.31 -10.304 QT
3.802 -9.179 3.505 -7.976 QT
cp}def
f-389438575
f
GR
GS
0.149 GC
2 setlinecap
1 LJ
0.5 LW
N
95 218 M
132 218 L
S
GR
GS
0.149 GC
2 setlinecap
1 LJ
0.5 LW
N
95 27 M
132 27 L
S
GR
GS
0.149 GC
2 setlinecap
1 LJ
0.5 LW
N
95 218 M
95 216.09 L
S
GR
GS
0.149 GC
2 setlinecap
1 LJ
0.5 LW
N
132 218 M
132 216.09 L
S
GR
GS
0.149 GC
2 setlinecap
1 LJ
0.5 LW
N
95 27 M
95 28.91 L
S
GR
GS
0.149 GC
2 setlinecap
1 LJ
0.5 LW
N
132 27 M
132 28.91 L
S
GR
GS
0.88 GC
N
95 213.696 M
95.72 213.696 L
95.72 209.258 L
95 209.258 L
cp
95 209.258 M
97.16 209.258 L
97.16 204.819 L
95 204.819 L
cp
95 204.819 M
100.04 204.819 L
100.04 200.381 L
95 200.381 L
cp
95 200.381 M
99.32 200.381 L
99.32 195.943 L
95 195.943 L
cp
95 195.943 M
97.88 195.943 L
97.88 191.505 L
95 191.505 L
cp
95 191.505 M
100.04 191.505 L
100.04 187.067 L
95 187.067 L
cp
95 187.067 M
103.639 187.067 L
103.639 182.628 L
95 182.628 L
cp
95 182.628 M
100.76 182.628 L
100.76 178.19 L
95 178.19 L
cp
95 178.19 M
103.639 178.19 L
103.639 173.752 L
95 173.752 L
cp
95 173.752 M
109.399 173.752 L
109.399 169.314 L
95 169.314 L
cp
95 169.314 M
111.559 169.314 L
111.559 164.876 L
95 164.876 L
cp
95 164.876 M
108.679 164.876 L
108.679 160.437 L
95 160.437 L
cp
95 160.437 M
110.119 160.437 L
110.119 155.999 L
110.119 151.561 L
95 151.561 L
95 155.999 L
cp
95 151.561 M
112.999 151.561 L
112.999 147.123 L
95 147.123 L
cp
95 147.123 M
114.439 147.123 L
114.439 142.685 L
95 142.685 L
cp
95 142.685 M
120.918 142.685 L
120.918 138.246 L
95 138.246 L
cp
95 138.246 M
118.039 138.246 L
118.039 133.808 L
95 133.808 L
cp
95 133.808 M
120.918 133.808 L
120.918 129.37 L
95 129.37 L
cp
95 129.37 M
113.719 129.37 L
113.719 124.932 L
95 124.932 L
cp
95 124.932 M
125.958 124.932 L
125.958 120.494 L
95 120.494 L
cp
95 120.494 M
123.078 120.494 L
123.078 116.055 L
95 116.055 L
cp
95 116.055 M
119.479 116.055 L
119.479 111.617 L
95 111.617 L
cp
95 111.617 M
115.879 111.617 L
115.879 107.179 L
95 107.179 L
cp
95 107.179 M
114.439 107.179 L
114.439 102.741 L
95 102.741 L
cp
95 102.741 M
112.279 102.741 L
112.279 98.303 L
95 98.303 L
cp
95 98.303 M
108.679 98.303 L
108.679 93.865 L
95 93.865 L
cp
95 93.865 M
110.839 93.865 L
110.839 89.426 L
95 89.426 L
cp
95 89.426 M
105.799 89.426 L
105.799 84.988 L
105.799 80.55 L
95 80.55 L
95 84.988 L
cp
95 80.55 M
105.079 80.55 L
105.079 76.112 L
105.079 71.674 L
95 71.674 L
95 76.112 L
cp
95 71.674 M
105.799 71.674 L
105.799 67.235 L
95 67.235 L
cp
95 67.235 M
102.92 67.235 L
102.92 62.797 L
95 62.797 L
cp
95 62.797 M
103.639 62.797 L
103.639 58.359 L
95 58.359 L
cp
95 58.359 M
101.48 58.359 L
101.48 53.921 L
95 53.921 L
cp
95 53.921 M
98.6 53.921 L
98.6 49.483 L
95 49.483 L
cp
95 49.483 M
95.72 49.483 L
95.72 45.044 L
95 45.044 L
cp
95 45.044 M
99.32 45.044 L
99.32 40.606 L
95 40.606 L
cp
95 40.606 M
95.72 40.606 L
95.72 36.168 L
95 36.168 L
cp
95 36.168 M
97.16 36.168 L
97.16 31.73 L
95 31.73 L
cp
f
GR
GS
2 setlinecap
10.0 ML
0.5 LW
N
95 213.696 M
95.72 213.696 L
95.72 209.258 L
S
GR
GS
2 setlinecap
10.0 ML
0.5 LW
N
95 209.258 M
95 209.258 L
97.16 209.258 L
97.16 204.819 L
S
GR
GS
2 setlinecap
10.0 ML
0.5 LW
N
95 204.819 M
95 204.819 L
100.04 204.819 L
100.04 200.381 L
95 200.381 L
95 200.381 L
S
GR
GS
2 setlinecap
10.0 ML
0.5 LW
N
99.32 200.381 M
99.32 195.943 L
95 195.943 L
95 195.943 L
S
GR
GS
2 setlinecap
10.0 ML
0.5 LW
N
97.88 195.943 M
97.88 191.505 L
S
GR
GS
2 setlinecap
10.0 ML
0.5 LW
N
95 191.505 M
95 191.505 L
100.04 191.505 L
100.04 187.067 L
S
GR
GS
2 setlinecap
10.0 ML
0.5 LW
N
95 187.067 M
95 187.067 L
103.639 187.067 L
103.639 182.628 L
95 182.628 L
95 182.628 L
S
GR
GS
2 setlinecap
10.0 ML
0.5 LW
N
100.76 182.628 M
100.76 178.19 L
S
GR
GS
2 setlinecap
10.0 ML
0.5 LW
N
95 178.19 M
95 178.19 L
103.639 178.19 L
103.639 173.752 L
S
GR
GS
2 setlinecap
10.0 ML
0.5 LW
N
95 173.752 M
95 173.752 L
109.399 173.752 L
109.399 169.314 L
S
GR
GS
2 setlinecap
10.0 ML
0.5 LW
N
95 169.314 M
95 169.314 L
111.559 169.314 L
111.559 164.876 L
95 164.876 L
95 164.876 L
S
GR
GS
2 setlinecap
10.0 ML
0.5 LW
N
108.679 164.876 M
108.679 160.437 L
S
GR
GS
2 setlinecap
10.0 ML
0.5 LW
N
95 160.437 M
95 160.437 L
110.119 160.437 L
110.119 155.999 L
95 155.999 L
95 155.999 L
S
GR
GS
2 setlinecap
10.0 ML
0.5 LW
N
110.119 155.999 M
110.119 151.561 L
S
GR
GS
2 setlinecap
10.0 ML
0.5 LW
N
95 151.561 M
95 151.561 L
112.999 151.561 L
112.999 147.123 L
S
GR
GS
2 setlinecap
10.0 ML
0.5 LW
N
95 147.123 M
95 147.123 L
114.439 147.123 L
114.439 142.685 L
S
GR
GS
2 setlinecap
10.0 ML
0.5 LW
N
95 142.685 M
95 142.685 L
120.918 142.685 L
120.918 138.246 L
95 138.246 L
95 138.246 L
S
GR
GS
2 setlinecap
10.0 ML
0.5 LW
N
118.039 138.246 M
118.039 133.808 L
S
GR
GS
2 setlinecap
10.0 ML
0.5 LW
N
95 133.808 M
95 133.808 L
120.918 133.808 L
120.918 129.37 L
95 129.37 L
95 129.37 L
S
GR
GS
2 setlinecap
10.0 ML
0.5 LW
N
113.719 129.37 M
113.719 124.932 L
S
GR
GS
2 setlinecap
10.0 ML
0.5 LW
N
95 124.932 M
95 124.932 L
125.958 124.932 L
125.958 120.494 L
95 120.494 L
95 120.494 L
S
GR
GS
2 setlinecap
10.0 ML
0.5 LW
N
123.078 120.494 M
123.078 116.055 L
95 116.055 L
95 116.055 L
S
GR
GS
2 setlinecap
10.0 ML
0.5 LW
N
119.479 116.055 M
119.479 111.617 L
95 111.617 L
95 111.617 L
S
GR
GS
2 setlinecap
10.0 ML
0.5 LW
N
115.879 111.617 M
115.879 107.179 L
95 107.179 L
95 107.179 L
S
GR
GS
2 setlinecap
10.0 ML
0.5 LW
N
114.439 107.179 M
114.439 102.741 L
95 102.741 L
95 102.741 L
S
GR
GS
2 setlinecap
10.0 ML
0.5 LW
N
112.279 102.741 M
112.279 98.303 L
95 98.303 L
95 98.303 L
S
GR
GS
2 setlinecap
10.0 ML
0.5 LW
N
108.679 98.303 M
108.679 93.865 L
S
GR
GS
2 setlinecap
10.0 ML
0.5 LW
N
95 93.865 M
95 93.865 L
110.839 93.865 L
110.839 89.426 L
95 89.426 L
95 89.426 L
S
GR
GS
2 setlinecap
10.0 ML
0.5 LW
N
105.799 89.426 M
105.799 84.988 L
95 84.988 L
95 84.988 L
S
GR
GS
2 setlinecap
10.0 ML
0.5 LW
N
105.799 84.988 M
105.799 80.55 L
95 80.55 L
95 80.55 L
S
GR
GS
2 setlinecap
10.0 ML
0.5 LW
N
105.079 80.55 M
105.079 76.112 L
95 76.112 L
95 76.112 L
S
GR
GS
2 setlinecap
10.0 ML
0.5 LW
N
105.079 76.112 M
105.079 71.674 L
S
GR
GS
2 setlinecap
10.0 ML
0.5 LW
N
95 71.674 M
95 71.674 L
105.799 71.674 L
105.799 67.235 L
95 67.235 L
95 67.235 L
S
GR
GS
2 setlinecap
10.0 ML
0.5 LW
N
102.92 67.235 M
102.92 62.797 L
S
GR
GS
2 setlinecap
10.0 ML
0.5 LW
N
95 62.797 M
95 62.797 L
103.639 62.797 L
103.639 58.359 L
95 58.359 L
95 58.359 L
S
GR
GS
2 setlinecap
10.0 ML
0.5 LW
N
101.48 58.359 M
101.48 53.921 L
95 53.921 L
95 53.921 L
S
GR
GS
2 setlinecap
10.0 ML
0.5 LW
N
98.6 53.921 M
98.6 49.483 L
95 49.483 L
95 49.483 L
S
GR
GS
2 setlinecap
10.0 ML
0.5 LW
N
95.72 49.483 M
95.72 45.044 L
S
GR
GS
2 setlinecap
10.0 ML
0.5 LW
N
95 45.044 M
95 45.044 L
99.32 45.044 L
99.32 40.606 L
95 40.606 L
95 40.606 L
S
GR
GS
2 setlinecap
10.0 ML
0.5 LW
N
95.72 40.606 M
95.72 36.168 L
S
GR
GS
2 setlinecap
10.0 ML
0.5 LW
N
95 36.168 M
95 36.168 L
97.16 36.168 L
97.16 31.73 L
95 31.73 L
S
GR
GS
1 GC
N
143.5 269 M
326 269 L
326 232 L
143.5 232 L
cp
f
GR
GS
0.149 GC
2 setlinecap
1 LJ
0.5 LW
N
143.5 269 M
326 269 L
S
GR
GS
0.149 GC
2 setlinecap
1 LJ
0.5 LW
N
143.5 232 M
326 232 L
S
GR
GS
0.149 GC
2 setlinecap
1 LJ
0.5 LW
N
143.5 269 M
143.5 267.175 L
S
GR
GS
0.149 GC
2 setlinecap
1 LJ
0.5 LW
N
189.125 269 M
189.125 267.175 L
S
GR
GS
0.149 GC
2 setlinecap
1 LJ
0.5 LW
N
234.75 269 M
234.75 267.175 L
S
GR
GS
0.149 GC
2 setlinecap
1 LJ
0.5 LW
N
280.375 269 M
280.375 267.175 L
S
GR
GS
0.149 GC
2 setlinecap
1 LJ
0.5 LW
N
326 269 M
326 267.175 L
S
GR
GS
0.149 GC
2 setlinecap
1 LJ
0.5 LW
N
143.5 232 M
143.5 233.825 L
S
GR
GS
0.149 GC
2 setlinecap
1 LJ
0.5 LW
N
189.125 232 M
189.125 233.825 L
S
GR
GS
0.149 GC
2 setlinecap
1 LJ
0.5 LW
N
234.75 232 M
234.75 233.825 L
S
GR
GS
0.149 GC
2 setlinecap
1 LJ
0.5 LW
N
280.375 232 M
280.375 233.825 L
S
GR
GS
0.149 GC
2 setlinecap
1 LJ
0.5 LW
N
326 232 M
326 233.825 L
S
GR
GS
[1 0 0 1 143.5 273] CT
0.149 GC
N
/f365287046{0 8.619 M
-1.219 8.619 -1.664 7.611 QT
-2.109 6.603 -2.109 5.212 QT
-2.109 4.337 -1.953 3.572 QT
-1.797 2.806 -1.32 2.275 QT
-0.844 1.744 0 1.744 QT
0.656 1.744 1.078 2.064 QT
1.5 2.384 1.719 2.892 QT
1.938 3.4 2.016 3.986 QT
2.094 4.572 2.094 5.212 QT
2.094 6.072 1.938 6.822 QT
1.781 7.572 1.32 8.095 QT
0.859 8.619 0 8.619 QT
cp
0 8.353 M
0.563 8.353 0.836 7.783 QT
1.109 7.212 1.172 6.525 QT
1.234 5.837 1.234 5.056 QT
1.234 4.291 1.172 3.658 QT
1.109 3.025 0.836 2.509 QT
0.563 1.994 0 1.994 QT
-0.563 1.994 -0.836 2.517 QT
-1.109 3.041 -1.172 3.666 QT
-1.234 4.291 -1.234 5.056 QT
-1.234 5.603 -1.211 6.095 QT
-1.188 6.587 -1.07 7.119 QT
-0.953 7.65 -0.688 8.002 QT
-0.422 8.353 0 8.353 QT
cp}def
f365287046
f
GR
GS
[1 0 0 1 189.125 273] CT
0.149 GC
N
/f668698095{-6.918 8.619 M
-8.137 8.619 -8.582 7.611 QT
-9.028 6.603 -9.028 5.212 QT
-9.028 4.337 -8.872 3.572 QT
-8.715 2.806 -8.239 2.275 QT
-7.762 1.744 -6.918 1.744 QT
-6.262 1.744 -5.84 2.064 QT
-5.418 2.384 -5.2 2.892 QT
-4.981 3.4 -4.903 3.986 QT
-4.825 4.572 -4.825 5.212 QT
-4.825 6.072 -4.981 6.822 QT
-5.137 7.572 -5.598 8.095 QT
-6.059 8.619 -6.918 8.619 QT
cp
-6.918 8.353 M
-6.356 8.353 -6.082 7.783 QT
-5.809 7.212 -5.747 6.525 QT
-5.684 5.837 -5.684 5.056 QT
-5.684 4.291 -5.747 3.658 QT
-5.809 3.025 -6.082 2.509 QT
-6.356 1.994 -6.918 1.994 QT
-7.481 1.994 -7.754 2.517 QT
-8.028 3.041 -8.09 3.666 QT
-8.153 4.291 -8.153 5.056 QT
-8.153 5.603 -8.129 6.095 QT
-8.106 6.587 -7.989 7.119 QT
-7.872 7.65 -7.606 8.002 QT
-7.34 8.353 -6.918 8.353 QT
cp}def
f668698095
f
GR
GS
[1 0 0 1 189.125 273] CT
0.149 GC
N
/f-1664080999{-3.575 7.853 M
-3.575 7.619 -3.411 7.462 QT
-3.247 7.306 -3.028 7.306 QT
-2.887 7.306 -2.754 7.377 QT
-2.622 7.447 -2.551 7.58 QT
-2.481 7.712 -2.481 7.853 QT
-2.481 8.072 -2.645 8.236 QT
-2.809 8.4 -3.028 8.4 QT
-3.247 8.4 -3.411 8.236 QT
-3.575 8.072 -3.575 7.853 QT
cp}def
f-1664080999
f
GR
GS
[1 0 0 1 189.125 273] CT
0.149 GC
N
/f1511736146{-0.766 7.259 M
-0.672 7.556 -0.461 7.798 QT
-0.25 8.041 0.047 8.173 QT
0.344 8.306 0.656 8.306 QT
1.375 8.306 1.648 7.744 QT
1.922 7.181 1.922 6.384 QT
1.922 6.025 1.906 5.791 QT
1.891 5.556 1.844 5.337 QT
1.75 4.994 1.516 4.728 QT
1.281 4.462 0.953 4.462 QT
0.609 4.462 0.367 4.564 QT
0.125 4.666 -0.023 4.798 QT
-0.172 4.931 -0.289 5.087 QT
-0.406 5.244 -0.438 5.244 QT
-0.547 5.244 L
-0.578 5.244 -0.617 5.212 QT
-0.656 5.181 -0.656 5.15 QT
-0.656 1.822 L
-0.656 1.791 -0.617 1.767 QT
-0.578 1.744 -0.547 1.744 QT
-0.516 1.744 L
0.156 2.056 0.906 2.056 QT
1.656 2.056 2.344 1.744 QT
2.375 1.744 L
2.406 1.744 2.438 1.767 QT
2.469 1.791 2.469 1.822 QT
2.469 1.916 L
2.469 1.962 2.438 1.962 QT
2.094 2.416 1.578 2.666 QT
1.063 2.916 0.516 2.916 QT
0.125 2.916 -0.297 2.806 QT
-0.297 4.697 L
0.031 4.431 0.289 4.314 QT
0.547 4.197 0.953 4.197 QT
1.516 4.197 1.953 4.517 QT
2.391 4.837 2.625 5.345 QT
2.859 5.853 2.859 6.384 QT
2.859 6.994 2.563 7.502 QT
2.266 8.009 1.758 8.314 QT
1.25 8.619 0.656 8.619 QT
0.156 8.619 -0.258 8.369 QT
-0.672 8.119 -0.906 7.689 QT
-1.141 7.259 -1.141 6.775 QT
-1.141 6.541 -0.992 6.4 QT
-0.844 6.259 -0.625 6.259 QT
-0.406 6.259 -0.258 6.408 QT
-0.109 6.556 -0.109 6.775 QT
-0.109 6.978 -0.258 7.127 QT
-0.406 7.275 -0.625 7.275 QT
-0.656 7.275 -0.703 7.267 QT
-0.75 7.259 -0.766 7.259 QT
cp}def
f1511736146
f
GR
GS
[1 0 0 1 189.125 273] CT
0.149 GC
N
/f1803605107{4.375 8.228 M
4.375 8.181 4.406 8.072 QT
4.688 7.494 4.93 6.931 QT
5.172 6.369 5.367 5.837 QT
5.563 5.306 5.719 4.712 QT
5.078 4.712 L
4.719 4.712 4.398 4.939 QT
4.078 5.166 3.875 5.525 QT
3.844 5.556 3.813 5.556 QT
3.688 5.556 L
3.594 5.556 3.594 5.462 QT
3.594 5.447 3.625 5.4 QT
3.953 4.837 4.32 4.462 QT
4.688 4.087 5.156 4.087 QT
8.797 4.087 L
8.891 4.087 8.961 4.158 QT
9.031 4.228 9.031 4.337 QT
9.031 4.494 8.93 4.603 QT
8.828 4.712 8.688 4.712 QT
7.406 4.712 L
7.25 5.494 7.234 6.244 QT
7.234 7.197 7.563 7.978 QT
7.594 8.041 7.594 8.103 QT
7.594 8.212 7.531 8.306 QT
7.469 8.4 7.367 8.455 QT
7.266 8.509 7.156 8.509 QT
6.891 8.509 6.797 8.08 QT
6.703 7.65 6.703 7.244 QT
6.703 6.681 6.797 6.15 QT
6.891 5.619 7.109 4.712 QT
6.016 4.712 L
5.234 7.916 5.063 8.244 QT
4.922 8.509 4.672 8.509 QT
4.563 8.509 4.469 8.431 QT
4.375 8.353 4.375 8.228 QT
cp}def
f1803605107
f
GR
GS
[1 0 0 1 234.75 273] CT
0.149 GC
N
/f1778835136{-2.014 8.228 M
-2.014 8.181 -1.983 8.072 QT
-1.701 7.494 -1.459 6.931 QT
-1.217 6.369 -1.022 5.837 QT
-0.826 5.306 -0.67 4.712 QT
-1.311 4.712 L
-1.67 4.712 -1.99 4.939 QT
-2.311 5.166 -2.514 5.525 QT
-2.545 5.556 -2.576 5.556 QT
-2.701 5.556 L
-2.795 5.556 -2.795 5.462 QT
-2.795 5.447 -2.764 5.4 QT
-2.436 4.837 -2.069 4.462 QT
-1.701 4.087 -1.233 4.087 QT
2.408 4.087 L
2.502 4.087 2.572 4.158 QT
2.642 4.228 2.642 4.337 QT
2.642 4.494 2.541 4.603 QT
2.439 4.712 2.299 4.712 QT
1.017 4.712 L
0.861 5.494 0.845 6.244 QT
0.845 7.197 1.174 7.978 QT
1.205 8.041 1.205 8.103 QT
1.205 8.212 1.142 8.306 QT
1.08 8.4 0.978 8.455 QT
0.877 8.509 0.767 8.509 QT
0.502 8.509 0.408 8.08 QT
0.314 7.65 0.314 7.244 QT
0.314 6.681 0.408 6.15 QT
0.502 5.619 0.72 4.712 QT
-0.373 4.712 L
-1.155 7.916 -1.326 8.244 QT
-1.467 8.509 -1.717 8.509 QT
-1.826 8.509 -1.92 8.431 QT
-2.014 8.353 -2.014 8.228 QT
cp}def
f1778835136
f
GR
GS
[1 0 0 1 280.375 273] CT
0.149 GC
N
/f306294935{-8.497 8.4 M
-8.497 8.041 L
-7.247 8.041 -7.247 7.728 QT
-7.247 2.478 L
-7.762 2.728 -8.543 2.728 QT
-8.543 2.384 L
-7.325 2.384 -6.7 1.744 QT
-6.559 1.744 L
-6.528 1.744 -6.497 1.767 QT
-6.465 1.791 -6.465 1.822 QT
-6.465 7.728 L
-6.465 8.041 -5.215 8.041 QT
-5.215 8.4 L
-8.497 8.4 L
cp}def
f306294935
f
GR
GS
[1 0 0 1 280.375 273] CT
0.149 GC
N
f-1664080999
f
GR
GS
[1 0 0 1 280.375 273] CT
0.149 GC
N
f1511736146
f
GR
GS
[1 0 0 1 280.375 273] CT
0.149 GC
N
f1803605107
f
GR
GS
[1 0 0 1 326 273] CT
0.149 GC
N
/f881210254{-5.03 8.4 M
-5.03 8.134 L
-5.03 8.103 -5.014 8.072 QT
-3.451 6.353 L
-3.108 5.978 -2.889 5.72 QT
-2.67 5.462 -2.451 5.127 QT
-2.233 4.791 -2.108 4.439 QT
-1.983 4.087 -1.983 3.697 QT
-1.983 3.291 -2.139 2.916 QT
-2.295 2.541 -2.592 2.314 QT
-2.889 2.087 -3.311 2.087 QT
-3.748 2.087 -4.1 2.353 QT
-4.451 2.619 -4.592 3.025 QT
-4.545 3.025 -4.483 3.025 QT
-4.248 3.025 -4.092 3.173 QT
-3.936 3.322 -3.936 3.556 QT
-3.936 3.791 -4.092 3.947 QT
-4.248 4.103 -4.483 4.103 QT
-4.717 4.103 -4.873 3.939 QT
-5.03 3.775 -5.03 3.556 QT
-5.03 3.181 -4.889 2.853 QT
-4.748 2.525 -4.483 2.267 QT
-4.217 2.009 -3.881 1.877 QT
-3.545 1.744 -3.17 1.744 QT
-2.592 1.744 -2.1 1.986 QT
-1.608 2.228 -1.319 2.666 QT
-1.03 3.103 -1.03 3.697 QT
-1.03 4.134 -1.225 4.525 QT
-1.42 4.916 -1.717 5.236 QT
-2.014 5.556 -2.475 5.962 QT
-2.936 6.369 -3.092 6.494 QT
-4.217 7.587 L
-3.264 7.587 L
-2.545 7.587 -2.069 7.58 QT
-1.592 7.572 -1.576 7.541 QT
-1.451 7.416 -1.326 6.619 QT
-1.03 6.619 L
-1.326 8.4 L
-5.03 8.4 L
cp}def
f881210254
f
GR
GS
[1 0 0 1 326 273] CT
0.149 GC
N
/f1130178499{0.486 8.228 M
0.486 8.181 0.517 8.072 QT
0.799 7.494 1.041 6.931 QT
1.283 6.369 1.478 5.837 QT
1.674 5.306 1.83 4.712 QT
1.189 4.712 L
0.83 4.712 0.51 4.939 QT
0.189 5.166 -0.014 5.525 QT
-0.045 5.556 -0.076 5.556 QT
-0.201 5.556 L
-0.295 5.556 -0.295 5.462 QT
-0.295 5.447 -0.264 5.4 QT
0.064 4.837 0.431 4.462 QT
0.799 4.087 1.267 4.087 QT
4.908 4.087 L
5.002 4.087 5.072 4.158 QT
5.142 4.228 5.142 4.337 QT
5.142 4.494 5.041 4.603 QT
4.939 4.712 4.799 4.712 QT
3.517 4.712 L
3.361 5.494 3.345 6.244 QT
3.345 7.197 3.674 7.978 QT
3.705 8.041 3.705 8.103 QT
3.705 8.212 3.642 8.306 QT
3.58 8.4 3.478 8.455 QT
3.377 8.509 3.267 8.509 QT
3.002 8.509 2.908 8.08 QT
2.814 7.65 2.814 7.244 QT
2.814 6.681 2.908 6.15 QT
3.002 5.619 3.22 4.712 QT
2.127 4.712 L
1.345 7.916 1.174 8.244 QT
1.033 8.509 0.783 8.509 QT
0.674 8.509 0.58 8.431 QT
0.486 8.353 0.486 8.228 QT
cp}def
f1130178499
f
GR
GS
[1 0 0 1 234.75009 286] CT
0.149 GC
N
/f-1977375229{-1.152 11.381 M
-0.652 9.396 L
-1.215 9.396 -1.699 9.138 QT
-2.183 8.881 -2.472 8.412 QT
-2.761 7.943 -2.761 7.396 QT
-2.761 6.802 -2.465 6.256 QT
-2.168 5.709 -1.66 5.263 QT
-1.152 4.818 -0.558 4.584 QT
0.035 4.349 0.614 4.349 QT
1.285 1.677 L
1.301 1.615 1.364 1.615 QT
1.504 1.615 L
1.535 1.615 1.567 1.646 QT
1.598 1.677 1.598 1.709 QT
0.942 4.349 L
1.348 4.349 1.731 4.498 QT
2.114 4.646 2.418 4.92 QT
2.723 5.193 2.887 5.56 QT
3.051 5.927 3.051 6.349 QT
3.051 6.943 2.754 7.482 QT
2.457 8.021 1.957 8.459 QT
1.457 8.896 0.84 9.146 QT
0.223 9.396 -0.324 9.396 QT
-0.84 11.427 L
-0.855 11.49 -0.918 11.49 QT
-1.058 11.49 L
-1.09 11.49 -1.121 11.451 QT
-1.152 11.412 -1.152 11.381 QT
cp
-0.574 9.099 M
0.535 4.631 L
0.27 4.631 -0.043 4.74 QT
-0.355 4.849 -0.621 5.021 QT
-0.886 5.193 -1.105 5.427 QT
-1.386 5.693 -1.59 6.06 QT
-1.793 6.427 -1.894 6.826 QT
-1.996 7.224 -1.996 7.631 QT
-1.996 8.037 -1.816 8.373 QT
-1.636 8.709 -1.316 8.904 QT
-0.996 9.099 -0.574 9.099 QT
cp
-0.246 9.099 M
0.16 9.099 0.629 8.865 QT
1.098 8.631 1.395 8.318 QT
1.817 7.912 2.051 7.318 QT
2.285 6.724 2.285 6.115 QT
2.285 5.709 2.106 5.365 QT
1.926 5.021 1.606 4.826 QT
1.285 4.631 0.864 4.631 QT
-0.246 9.099 L
cp}def
f-1977375229
f
GR
GS
0.149 GC
2 setlinecap
1 LJ
0.5 LW
N
143.5 269 M
143.5 232 L
S
GR
GS
0.149 GC
2 setlinecap
1 LJ
0.5 LW
N
326 269 M
326 232 L
S
GR
GS
0.149 GC
2 setlinecap
1 LJ
0.5 LW
N
143.5 269 M
145.325 269 L
S
GR
GS
0.149 GC
2 setlinecap
1 LJ
0.5 LW
N
143.5 250.5 M
145.325 250.5 L
S
GR
GS
0.149 GC
2 setlinecap
1 LJ
0.5 LW
N
143.5 232 M
145.325 232 L
S
GR
GS
0.149 GC
2 setlinecap
1 LJ
0.5 LW
N
326 269 M
324.175 269 L
S
GR
GS
0.149 GC
2 setlinecap
1 LJ
0.5 LW
N
326 250.5 M
324.175 250.5 L
S
GR
GS
0.149 GC
2 setlinecap
1 LJ
0.5 LW
N
326 232 M
324.175 232 L
S
GR
GS
0.88 GC
N
147.944 265.565 M
143.5 265.565 L
143.5 269 L
147.944 269 L
152.388 269 L
152.388 265.565 L
cp
156.832 269 M
156.832 257.836 L
152.388 257.836 L
152.388 269 L
cp
161.276 269 M
161.276 259.554 L
156.832 259.554 L
156.832 269 L
cp
165.72 269 M
165.72 262.989 L
161.276 262.989 L
161.276 269 L
cp
170.164 269 M
170.164 262.13 L
165.72 262.13 L
165.72 269 L
cp
174.608 269 M
174.608 252.683 L
170.164 252.683 L
170.164 269 L
cp
179.052 269 M
179.052 256.118 L
174.608 256.118 L
174.608 269 L
cp
183.496 269 M
183.496 262.13 L
179.052 262.13 L
179.052 269 L
cp
187.94 269 M
187.94 260.412 L
183.496 260.412 L
183.496 269 L
cp
192.384 269 M
192.384 250.966 L
187.94 250.966 L
187.94 269 L
cp
196.828 269 M
196.828 243.237 L
192.384 243.237 L
192.384 269 L
cp
201.272 250.966 M
196.828 250.966 L
196.828 269 L
201.272 269 L
205.716 269 L
205.716 250.966 L
cp
210.16 269 M
210.16 250.107 L
205.716 250.107 L
205.716 269 L
cp
214.604 269 M
214.604 253.542 L
210.16 253.542 L
210.16 269 L
cp
219.048 269 M
219.048 245.813 L
214.604 245.813 L
214.604 269 L
cp
223.492 269 M
223.492 249.248 L
219.048 249.248 L
219.048 269 L
cp
227.936 269 M
227.936 248.389 L
223.492 248.389 L
223.492 269 L
cp
232.38 269 M
232.38 252.683 L
227.936 252.683 L
227.936 269 L
cp
236.824 269 M
236.824 244.954 L
232.38 244.954 L
232.38 269 L
cp
241.268 269 M
241.268 247.531 L
236.824 247.531 L
236.824 269 L
cp
245.712 269 M
245.712 251.825 L
241.268 251.825 L
241.268 269 L
cp
250.156 269 M
250.156 238.943 L
245.712 238.943 L
245.712 269 L
cp
254.6 269 M
254.6 240.661 L
250.156 240.661 L
250.156 269 L
cp
259.044 269 M
259.044 244.096 L
254.6 244.096 L
254.6 269 L
cp
263.488 269 M
263.488 249.248 L
259.044 249.248 L
259.044 269 L
cp
267.932 269 M
267.932 245.813 L
263.488 245.813 L
263.488 269 L
cp
272.376 269 M
272.376 244.096 L
267.932 244.096 L
267.932 269 L
cp
276.82 269 M
276.82 251.825 L
272.376 251.825 L
272.376 269 L
cp
281.264 269 M
281.264 253.542 L
276.82 253.542 L
276.82 269 L
cp
285.708 269 M
285.708 259.554 L
281.264 259.554 L
281.264 269 L
cp
290.152 269 M
290.152 252.683 L
285.708 252.683 L
285.708 269 L
cp
294.596 257.836 M
290.152 257.836 L
290.152 269 L
294.596 269 L
299.04 269 L
299.04 257.836 L
cp
303.484 262.989 M
299.04 262.989 L
299.04 269 L
303.484 269 L
307.928 269 L
307.928 262.989 L
cp
312.372 269 M
312.372 264.706 L
307.928 264.706 L
307.928 269 L
cp
316.816 263.847 M
312.372 263.847 L
312.372 269 L
316.816 269 L
321.26 269 L
321.26 263.847 L
cp
325.704 269 M
325.704 264.706 L
321.26 264.706 L
321.26 269 L
cp
f
GR
GS
2 setlinecap
10.0 ML
0.5 LW
N
143.5 269 M
143.5 265.565 L
147.944 265.565 L
147.944 269 L
147.944 269 L
S
GR
GS
2 setlinecap
10.0 ML
0.5 LW
N
147.944 265.565 M
152.388 265.565 L
S
GR
GS
2 setlinecap
10.0 ML
0.5 LW
N
152.388 269 M
152.388 269 L
152.388 257.836 L
156.832 257.836 L
156.832 269 L
156.832 269 L
S
GR
GS
2 setlinecap
10.0 ML
0.5 LW
N
156.832 259.554 M
161.276 259.554 L
161.276 269 L
161.276 269 L
S
GR
GS
2 setlinecap
10.0 ML
0.5 LW
N
161.276 262.989 M
165.72 262.989 L
S
GR
GS
2 setlinecap
10.0 ML
0.5 LW
N
165.72 269 M
165.72 269 L
165.72 262.13 L
170.164 262.13 L
S
GR
GS
2 setlinecap
10.0 ML
0.5 LW
N
170.164 269 M
170.164 269 L
170.164 252.683 L
174.608 252.683 L
174.608 269 L
174.608 269 L
S
GR
GS
2 setlinecap
10.0 ML
0.5 LW
N
174.608 256.118 M
179.052 256.118 L
179.052 269 L
179.052 269 L
S
GR
GS
2 setlinecap
10.0 ML
0.5 LW
N
179.052 262.13 M
183.496 262.13 L
S
GR
GS
2 setlinecap
10.0 ML
0.5 LW
N
183.496 269 M
183.496 269 L
183.496 260.412 L
187.94 260.412 L
S
GR
GS
2 setlinecap
10.0 ML
0.5 LW
N
187.94 269 M
187.94 269 L
187.94 250.966 L
192.384 250.966 L
S
GR
GS
2 setlinecap
10.0 ML
0.5 LW
N
192.384 269 M
192.384 269 L
192.384 243.237 L
196.828 243.237 L
196.828 269 L
196.828 269 L
S
GR
GS
2 setlinecap
10.0 ML
0.5 LW
N
196.828 250.966 M
201.272 250.966 L
201.272 269 L
201.272 269 L
S
GR
GS
2 setlinecap
10.0 ML
0.5 LW
N
201.272 250.966 M
205.716 250.966 L
S
GR
GS
2 setlinecap
10.0 ML
0.5 LW
N
205.716 269 M
205.716 269 L
205.716 250.107 L
210.16 250.107 L
210.16 269 L
210.16 269 L
S
GR
GS
2 setlinecap
10.0 ML
0.5 LW
N
210.16 253.542 M
214.604 253.542 L
S
GR
GS
2 setlinecap
10.0 ML
0.5 LW
N
214.604 269 M
214.604 269 L
214.604 245.813 L
219.048 245.813 L
219.048 269 L
219.048 269 L
S
GR
GS
2 setlinecap
10.0 ML
0.5 LW
N
219.048 249.248 M
223.492 249.248 L
S
GR
GS
2 setlinecap
10.0 ML
0.5 LW
N
223.492 269 M
223.492 269 L
223.492 248.389 L
227.936 248.389 L
227.936 269 L
227.936 269 L
S
GR
GS
2 setlinecap
10.0 ML
0.5 LW
N
227.936 252.683 M
232.38 252.683 L
S
GR
GS
2 setlinecap
10.0 ML
0.5 LW
N
232.38 269 M
232.38 269 L
232.38 244.954 L
236.824 244.954 L
236.824 269 L
236.824 269 L
S
GR
GS
2 setlinecap
10.0 ML
0.5 LW
N
236.824 247.531 M
241.268 247.531 L
241.268 269 L
241.268 269 L
S
GR
GS
2 setlinecap
10.0 ML
0.5 LW
N
241.268 251.825 M
245.712 251.825 L
S
GR
GS
2 setlinecap
10.0 ML
0.5 LW
N
245.712 269 M
245.712 269 L
245.712 238.943 L
250.156 238.943 L
250.156 269 L
250.156 269 L
S
GR
GS
2 setlinecap
10.0 ML
0.5 LW
N
250.156 240.661 M
254.6 240.661 L
254.6 269 L
254.6 269 L
S
GR
GS
2 setlinecap
10.0 ML
0.5 LW
N
254.6 244.096 M
259.044 244.096 L
259.044 269 L
259.044 269 L
S
GR
GS
2 setlinecap
10.0 ML
0.5 LW
N
259.044 249.248 M
263.488 249.248 L
S
GR
GS
2 setlinecap
10.0 ML
0.5 LW
N
263.488 269 M
263.488 269 L
263.488 245.813 L
267.932 245.813 L
S
GR
GS
2 setlinecap
10.0 ML
0.5 LW
N
267.932 269 M
267.932 269 L
267.932 244.096 L
272.376 244.096 L
272.376 269 L
272.376 269 L
S
GR
GS
2 setlinecap
10.0 ML
0.5 LW
N
272.376 251.825 M
276.82 251.825 L
276.82 269 L
276.82 269 L
S
GR
GS
2 setlinecap
10.0 ML
0.5 LW
N
276.82 253.542 M
281.264 253.542 L
281.264 269 L
281.264 269 L
S
GR
GS
2 setlinecap
10.0 ML
0.5 LW
N
281.264 259.554 M
285.708 259.554 L
S
GR
GS
2 setlinecap
10.0 ML
0.5 LW
N
285.708 269 M
285.708 269 L
285.708 252.683 L
290.152 252.683 L
290.152 269 L
290.152 269 L
S
GR
GS
2 setlinecap
10.0 ML
0.5 LW
N
290.152 257.836 M
294.596 257.836 L
S
GR
GS
2 setlinecap
10.0 ML
0.5 LW
N
294.596 269 M
294.596 269 L
294.596 257.836 L
299.04 257.836 L
299.04 269 L
299.04 269 L
S
GR
GS
2 setlinecap
10.0 ML
0.5 LW
N
299.04 262.989 M
303.484 262.989 L
S
GR
GS
2 setlinecap
10.0 ML
0.5 LW
N
303.484 269 M
303.484 269 L
303.484 262.989 L
307.928 262.989 L
307.928 269 L
307.928 269 L
S
GR
GS
2 setlinecap
10.0 ML
0.5 LW
N
307.928 264.706 M
312.372 264.706 L
S
GR
GS
2 setlinecap
10.0 ML
0.5 LW
N
312.372 269 M
312.372 269 L
312.372 263.847 L
316.816 263.847 L
316.816 269 L
316.816 269 L
S
GR
GS
2 setlinecap
10.0 ML
0.5 LW
N
316.816 263.847 M
321.26 263.847 L
321.26 269 L
321.26 269 L
S
GR
GS
2 setlinecap
10.0 ML
0.5 LW
N
321.26 264.706 M
325.704 264.706 L
325.704 269 L
S
GR
GS
0.8 0 0 RC
1 LJ
2 LW
N
143.5 262.073 M
145.325 262.083 L
147.15 262.074 L
148.975 262.048 L
150.8 262.004 L
152.625 261.942 L
154.45 261.862 L
156.275 261.762 L
158.1 261.644 L
159.925 261.507 L
161.75 261.35 L
163.575 261.172 L
165.4 260.974 L
167.225 260.754 L
169.05 260.512 L
170.875 260.248 L
172.7 259.961 L
174.525 259.65 L
176.35 259.315 L
178.175 258.955 L
180 258.571 L
181.825 258.161 L
183.65 257.727 L
185.475 257.268 L
187.3 256.784 L
189.125 256.275 L
190.95 255.744 L
192.775 255.19 L
194.6 254.615 L
196.425 254.021 L
198.25 253.41 L
200.075 252.785 L
201.9 252.147 L
203.725 251.502 L
205.55 250.851 L
207.375 250.199 L
209.2 249.55 L
211.025 248.91 L
212.85 248.282 L
214.675 247.672 L
216.5 247.085 L
218.325 246.526 L
220.15 246.002 L
221.975 245.516 L
223.8 245.073 L
225.625 244.679 L
227.45 244.337 L
229.275 244.052 L
231.1 243.826 L
232.925 243.662 L
234.75 243.562 L
236.575 243.527 L
238.4 243.558 L
240.225 243.653 L
242.05 243.813 L
243.875 244.035 L
245.7 244.317 L
247.525 244.655 L
249.35 245.045 L
251.175 245.485 L
253 245.968 L
254.825 246.491 L
256.65 247.047 L
258.475 247.632 L
260.3 248.241 L
262.125 248.868 L
263.95 249.508 L
265.775 250.156 L
267.6 250.808 L
269.425 251.459 L
271.25 252.105 L
273.075 252.743 L
274.9 253.37 L
276.725 253.982 L
278.55 254.577 L
280.375 255.153 L
282.2 255.708 L
284.025 256.241 L
285.85 256.751 L
287.675 257.236 L
289.5 257.697 L
291.325 258.134 L
293.15 258.545 L
294.975 258.93 L
296.8 259.292 L
298.625 259.628 L
300.45 259.941 L
302.275 260.23 L
304.1 260.495 L
305.925 260.739 L
307.75 260.96 L
309.575 261.16 L
311.4 261.339 L
313.225 261.497 L
315.05 261.636 L
316.875 261.755 L
318.7 261.856 L
320.525 261.937 L
322.35 262.001 L
324.175 262.046 L
326 262.073 L
S
GR
GS
1 GC
N
143.5 218 M
326 218 L
326 27 L
143.5 27 L
cp
f
GR
GS
0.149 GC
2 setlinecap
1 LJ
0.5 LW
N
143.5 218 M
326 218 L
S
GR
GS
0.149 GC
2 setlinecap
1 LJ
0.5 LW
N
143.5 27 M
326 27 L
S
GR
GS
0.149 GC
2 setlinecap
1 LJ
0.5 LW
N
143.5 218 M
143.5 216.09 L
S
GR
GS
0.149 GC
2 setlinecap
1 LJ
0.5 LW
N
189.125 218 M
189.125 216.09 L
S
GR
GS
0.149 GC
2 setlinecap
1 LJ
0.5 LW
N
234.75 218 M
234.75 216.09 L
S
GR
GS
0.149 GC
2 setlinecap
1 LJ
0.5 LW
N
280.375 218 M
280.375 216.09 L
S
GR
GS
0.149 GC
2 setlinecap
1 LJ
0.5 LW
N
326 218 M
326 216.09 L
S
GR
GS
0.149 GC
2 setlinecap
1 LJ
0.5 LW
N
143.5 27 M
143.5 28.91 L
S
GR
GS
0.149 GC
2 setlinecap
1 LJ
0.5 LW
N
189.125 27 M
189.125 28.91 L
S
GR
GS
0.149 GC
2 setlinecap
1 LJ
0.5 LW
N
234.75 27 M
234.75 28.91 L
S
GR
GS
0.149 GC
2 setlinecap
1 LJ
0.5 LW
N
280.375 27 M
280.375 28.91 L
S
GR
GS
0.149 GC
2 setlinecap
1 LJ
0.5 LW
N
326 27 M
326 28.91 L
S
GR
GS
0.149 GC
2 setlinecap
1 LJ
0.5 LW
N
143.5 218 M
143.5 27 L
S
GR
GS
0.149 GC
2 setlinecap
1 LJ
0.5 LW
N
326 218 M
326 27 L
S
GR
GS
0.149 GC
2 setlinecap
1 LJ
0.5 LW
N
143.5 218 M
145.41 218 L
S
GR
GS
0.149 GC
2 setlinecap
1 LJ
0.5 LW
N
143.5 170.25 M
145.41 170.25 L
S
GR
GS
0.149 GC
2 setlinecap
1 LJ
0.5 LW
N
143.5 122.5 M
145.41 122.5 L
S
GR
GS
0.149 GC
2 setlinecap
1 LJ
0.5 LW
N
143.5 74.75 M
145.41 74.75 L
S
GR
GS
0.149 GC
2 setlinecap
1 LJ
0.5 LW
N
143.5 27 M
145.41 27 L
S
GR
GS
0.149 GC
2 setlinecap
1 LJ
0.5 LW
N
326 218 M
324.09 218 L
S
GR
GS
0.149 GC
2 setlinecap
1 LJ
0.5 LW
N
326 170.25 M
324.09 170.25 L
S
GR
GS
0.149 GC
2 setlinecap
1 LJ
0.5 LW
N
326 122.5 M
324.09 122.5 L
S
GR
GS
0.149 GC
2 setlinecap
1 LJ
0.5 LW
N
326 74.75 M
324.09 74.75 L
S
GR
GS
0.149 GC
2 setlinecap
1 LJ
0.5 LW
N
326 27 M
324.09 27 L
S
GR
GS
[1 0 0 1 256.13287 169.19562] CT
N
1 0 M
1 0.552 0.552 1 0 1 C
-0.552 1 -1 0.552 -1 0 C
-1 -0.552 -0.552 -1 0 -1 C
0.552 -1 1 -0.552 1 0 C
cp
f
GR
GS
[1 0 0 1 171.85213 169.95341] CT
N
/f-891180347{1 0 M
1 0.552 0.552 1 0 1 C
-0.552 1 -1 0.552 -1 0 C
-1 -0.552 -0.552 -1 0 -1 C
0.552 -1 1 -0.552 1 0 C
cp}def
f-891180347
f
GR
GS
[1 0 0 1 165.22151 142.05042] CT
N
f-891180347
f
GR
GS
[1 0 0 1 178.54799 136.05405] CT
N
f-891180347
f
GR
GS
[1 0 0 1 267.80905 110.48809] CT
N
f-891180347
f
GR
GS
[1 0 0 1 316.5546 153.49294] CT
N
f-891180347
f
GR
GS
[1 0 0 1 242.84888 134.23698] CT
N
f-891180347
f
GR
GS
[1 0 0 1 252.38661 119.3127] CT
N
f-891180347
f
GR
GS
[1 0 0 1 253.85718 113.83557] CT
N
f-891180347
f
GR
GS
[1 0 0 1 197.67079 132.86008] CT
N
f-891180347
f
GR
GS
[1 0 0 1 217.11348 116.23418] CT
N
f-891180347
f
GR
GS
[1 0 0 1 286.6192 98.09629] CT
N
f-891180347
f
GR
GS
[1 0 0 1 152.29228 50.31615] CT
N
f-891180347
f
GR
GS
[1 0 0 1 215.48993 157.16406] CT
N
f-891180347
f
GR
GS
[1 0 0 1 211.37076 101.99178] CT
N
f-891180347
f
GR
GS
[1 0 0 1 235.12854 74.2953] CT
N
f-891180347
f
GR
GS
[1 0 0 1 273.5575 110.81776] CT
N
f-891180347
f
GR
GS
[1 0 0 1 306.77609 186.51073] CT
N
f-891180347
f
GR
GS
[1 0 0 1 220.82761 169.12679] CT
N
f-891180347
f
GR
GS
[1 0 0 1 184.24358 175.39104] CT
N
f-891180347
f
GR
GS
[1 0 0 1 236.47107 144.14977] CT
N
f-891180347
f
GR
GS
[1 0 0 1 272.06369 115.07407] CT
N
f-891180347
f
GR
GS
[1 0 0 1 251.86263 122.87158] CT
N
f-891180347
f
GR
GS
[1 0 0 1 228.81836 133.63936] CT
N
f-891180347
f
GR
GS
[1 0 0 1 201.40186 156.75641] CT
N
f-891180347
f
GR
GS
[1 0 0 1 159.3382 143.02859] CT
N
f-891180347
f
GR
GS
[1 0 0 1 268.95767 142.99744] CT
N
f-891180347
f
GR
GS
[1 0 0 1 238.46849 134.93645] CT
N
f-891180347
f
GR
GS
[1 0 0 1 224.97179 185.57077] CT
N
f-891180347
f
GR
GS
[1 0 0 1 170.28719 171.01498] CT
N
f-891180347
f
GR
GS
[1 0 0 1 200.09373 169.15985] CT
N
f-891180347
f
GR
GS
[1 0 0 1 292.77484 200.43808] CT
N
f-891180347
f
GR
GS
[1 0 0 1 217.47658 171.17657] CT
N
f-891180347
f
GR
GS
[1 0 0 1 273.30252 120.68973] CT
N
f-891180347
f
GR
GS
[1 0 0 1 252.83665 120.19991] CT
N
f-891180347
f
GR
GS
[1 0 0 1 255.4391 114.76831] CT
N
f-891180347
f
GR
GS
[1 0 0 1 215.14111 89.44334] CT
N
f-891180347
f
GR
GS
[1 0 0 1 280.63013 115.43153] CT
N
f-891180347
f
GR
GS
[1 0 0 1 247.41849 104.65392] CT
N
f-891180347
f
GR
GS
[1 0 0 1 190.02734 120.07417] CT
N
f-891180347
f
GR
GS
[1 0 0 1 268.47195 106.76287] CT
N
f-891180347
f
GR
GS
[1 0 0 1 176.67993 202.46698] CT
N
f-891180347
f
GR
GS
[1 0 0 1 153.52634 68.78186] CT
N
f-891180347
f
GR
GS
[1 0 0 1 262.78098 105.25609] CT
N
f-891180347
f
GR
GS
[1 0 0 1 213.95937 147.23128] CT
N
f-891180347
f
GR
GS
[1 0 0 1 227.20551 149.46844] CT
N
f-891180347
f
GR
GS
[1 0 0 1 205.92395 116.80577] CT
N
f-891180347
f
GR
GS
[1 0 0 1 237.47395 91.37595] CT
N
f-891180347
f
GR
GS
[1 0 0 1 221.22246 154.02632] CT
N
f-891180347
f
GR
GS
[1 0 0 1 219.54137 142.56792] CT
N
f-891180347
f
GR
GS
[1 0 0 1 248.24811 102.57708] CT
N
f-891180347
f
GR
GS
[1 0 0 1 239.13652 70.80036] CT
N
f-891180347
f
GR
GS
[1 0 0 1 271.88882 64.33987] CT
N
f-891180347
f
GR
GS
[1 0 0 1 248.44693 128.00699] CT
N
f-891180347
f
GR
GS
[1 0 0 1 230.13586 57.99818] CT
N
f-891180347
f
GR
GS
[1 0 0 1 262.96399 33.86892] CT
N
f-891180347
f
GR
GS
[1 0 0 1 159.75514 78.98231] CT
N
f-891180347
f
GR
GS
[1 0 0 1 170.89014 207.4312] CT
N
f-891180347
f
GR
GS
[1 0 0 1 253.59851 109.4472] CT
N
f-891180347
f
GR
GS
[1 0 0 1 290.02621 125.9358] CT
N
f-891180347
f
GR
GS
[1 0 0 1 153.73291 154.59842] CT
N
f-891180347
f
GR
GS
[1 0 0 1 191.08461 96.60767] CT
N
f-891180347
f
GR
GS
[1 0 0 1 214.8623 109.64172] CT
N
f-891180347
f
GR
GS
[1 0 0 1 199.78998 127.7877] CT
N
f-891180347
f
GR
GS
[1 0 0 1 274.48328 69.56946] CT
N
f-891180347
f
GR
GS
[1 0 0 1 157.8203 72.77473] CT
N
f-891180347
f
GR
GS
[1 0 0 1 240.15936 97.8192] CT
N
f-891180347
f
GR
GS
[1 0 0 1 235.96738 131.96893] CT
N
f-891180347
f
GR
GS
[1 0 0 1 192.05156 146.10042] CT
N
f-891180347
f
GR
GS
[1 0 0 1 273.1889 98.38795] CT
N
f-891180347
f
GR
GS
[1 0 0 1 325.28543 170.98895] CT
N
f-891180347
f
GR
GS
[1 0 0 1 259.80862 82.87787] CT
N
f-891180347
f
GR
GS
[1 0 0 1 269.82709 115.57466] CT
N
f-891180347
f
GR
GS
[1 0 0 1 217.6351 122.68304] CT
N
f-891180347
f
GR
GS
[1 0 0 1 217.75681 165.69646] CT
N
f-891180347
f
GR
GS
[1 0 0 1 263.01465 116.02373] CT
N
f-891180347
f
GR
GS
[1 0 0 1 206.60405 134.10406] CT
N
f-891180347
f
GR
GS
[1 0 0 1 192.85992 124.40527] CT
N
f-891180347
f
GR
GS
[1 0 0 1 229.74168 142.10754] CT
N
f-891180347
f
GR
GS
[1 0 0 1 274.46094 116.44167] CT
N
f-891180347
f
GR
GS
[1 0 0 1 256.5791 135.75172] CT
N
f-891180347
f
GR
GS
[1 0 0 1 248.52391 151.96475] CT
N
f-891180347
f
GR
GS
[1 0 0 1 223.57082 199.01047] CT
N
f-891180347
f
GR
GS
[1 0 0 1 223.74663 100.86634] CT
N
f-891180347
f
GR
GS
[1 0 0 1 218.55048 118.16422] CT
N
f-891180347
f
GR
GS
[1 0 0 1 205.78587 80.78441] CT
N
f-891180347
f
GR
GS
[1 0 0 1 210.724 146.89468] CT
N
f-891180347
f
GR
GS
[1 0 0 1 255.30284 111.07507] CT
N
f-891180347
f
GR
GS
[1 0 0 1 284.20364 59.58896] CT
N
f-891180347
f
GR
GS
[1 0 0 1 203.66461 157.81311] CT
N
f-891180347
f
GR
GS
[1 0 0 1 262.9632 114.73825] CT
N
f-891180347
f
GR
GS
[1 0 0 1 227.47458 131.315] CT
N
f-891180347
f
GR
GS
[1 0 0 1 244.32851 138.72549] CT
N
f-891180347
f
GR
GS
[1 0 0 1 216.83374 145.97581] CT
N
f-891180347
f
GR
GS
[1 0 0 1 284.01569 88.68148] CT
N
f-891180347
f
GR
GS
[1 0 0 1 293.42944 129.22226] CT
N
f-891180347
f
GR
GS
[1 0 0 1 248.00182 141.29196] CT
N
f-891180347
f
GR
GS
[1 0 0 1 225.99994 130.71017] CT
N
f-891180347
f
GR
GS
[1 0 0 1 252.70894 129.01302] CT
N
f-891180347
f
GR
GS
[1 0 0 1 206.79234 131.92804] CT
N
f-891180347
f
GR
GS
[1 0 0 1 269.96396 83.44803] CT
N
f-891180347
f
GR
GS
[1 0 0 1 263.99136 109.76975] CT
N
f-891180347
f
GR
GS
[1 0 0 1 261.86551 115.3201] CT
N
f-891180347
f
GR
GS
[1 0 0 1 226.49585 129.49492] CT
N
f-891180347
f
GR
GS
[1 0 0 1 225.3644 126.24072] CT
N
f-891180347
f
GR
GS
[1 0 0 1 195.16246 124.62051] CT
N
f-891180347
f
GR
GS
[1 0 0 1 245.91394 126.56279] CT
N
f-891180347
f
GR
GS
[1 0 0 1 193.29626 164.72697] CT
N
f-891180347
f
GR
GS
[1 0 0 1 239.53175 135.37253] CT
N
f-891180347
f
GR
GS
[1 0 0 1 198.55469 107.10593] CT
N
f-891180347
f
GR
GS
[1 0 0 1 207.92197 132.20728] CT
N
f-891180347
f
GR
GS
[1 0 0 1 192.6891 138.26898] CT
N
f-891180347
f
GR
GS
[1 0 0 1 197.11919 58.32113] CT
N
f-891180347
f
GR
GS
[1 0 0 1 315.36438 184.13913] CT
N
f-891180347
f
GR
GS
[1 0 0 1 171.09801 174.97762] CT
N
f-891180347
f
GR
GS
[1 0 0 1 161.2908 62.399] CT
N
f-891180347
f
GR
GS
[1 0 0 1 221.24913 153.57631] CT
N
f-891180347
f
GR
GS
[1 0 0 1 261.29849 120.68201] CT
N
f-891180347
f
GR
GS
[1 0 0 1 304.75211 163.53397] CT
N
f-891180347
f
GR
GS
[1 0 0 1 247.17229 131.93224] CT
N
f-891180347
f
GR
GS
[1 0 0 1 215.42636 165.16751] CT
N
f-891180347
f
GR
GS
[1 0 0 1 188.0295 141.28108] CT
N
f-891180347
f
GR
GS
[1 0 0 1 281.29132 133.69707] CT
N
f-891180347
f
GR
GS
[1 0 0 1 284.85275 125.69199] CT
N
f-891180347
f
GR
GS
[1 0 0 1 274.36429 118.40081] CT
N
f-891180347
f
GR
GS
[1 0 0 1 286.59363 78.31297] CT
N
f-891180347
f
GR
GS
[1 0 0 1 234.71994 129.4375] CT
N
f-891180347
f
GR
GS
[1 0 0 1 170.41449 142.60811] CT
N
f-891180347
f
GR
GS
[1 0 0 1 291.79568 67.32977] CT
N
f-891180347
f
GR
GS
[1 0 0 1 215.73647 82.84193] CT
N
f-891180347
f
GR
GS
[1 0 0 1 216.89481 102.99643] CT
N
f-891180347
f
GR
GS
[1 0 0 1 271.60999 92.4921] CT
N
f-891180347
f
GR
GS
[1 0 0 1 216.89452 153.22917] CT
N
f-891180347
f
GR
GS
[1 0 0 1 211.42928 161.41438] CT
N
f-891180347
f
GR
GS
[1 0 0 1 243.98425 123.48009] CT
N
f-891180347
f
GR
GS
[1 0 0 1 278.20612 59.89594] CT
N
f-891180347
f
GR
GS
[1 0 0 1 205.78584 150.188] CT
N
f-891180347
f
GR
GS
[1 0 0 1 232.13783 133.43088] CT
N
f-891180347
f
GR
GS
[1 0 0 1 278.5174 100.2892] CT
N
f-891180347
f
GR
GS
[1 0 0 1 239.34245 90.66416] CT
N
f-891180347
f
GR
GS
[1 0 0 1 210.6734 169.12096] CT
N
f-891180347
f
GR
GS
[1 0 0 1 193.68343 155.99605] CT
N
f-891180347
f
GR
GS
[1 0 0 1 275.21454 112.31661] CT
N
f-891180347
f
GR
GS
[1 0 0 1 245.83699 128.25894] CT
N
f-891180347
f
GR
GS
[1 0 0 1 266.52542 104.78361] CT
N
f-891180347
f
GR
GS
[1 0 0 1 211.1707 202.66052] CT
N
f-891180347
f
GR
GS
[1 0 0 1 252.92265 141.088] CT
N
f-891180347
f
GR
GS
[1 0 0 1 195.34604 183.36285] CT
N
f-891180347
f
GR
GS
[1 0 0 1 240.65271 116.4502] CT
N
f-891180347
f
GR
GS
[1 0 0 1 171.20621 111.27275] CT
N
f-891180347
f
GR
GS
[1 0 0 1 225.98801 136.52197] CT
N
f-891180347
f
GR
GS
[1 0 0 1 261.42242 81.04082] CT
N
f-891180347
f
GR
GS
[1 0 0 1 213.43289 140.95058] CT
N
f-891180347
f
GR
GS
[1 0 0 1 233.4057 158.61295] CT
N
f-891180347
f
GR
GS
[1 0 0 1 194.29025 175.52655] CT
N
f-891180347
f
GR
GS
[1 0 0 1 242.90312 134.28915] CT
N
f-891180347
f
GR
GS
[1 0 0 1 243.56366 92.82475] CT
N
f-891180347
f
GR
GS
[1 0 0 1 236.04529 133.28226] CT
N
f-891180347
f
GR
GS
[1 0 0 1 210.19972 157.90198] CT
N
f-891180347
f
GR
GS
[1 0 0 1 236.99692 109.45526] CT
N
f-891180347
f
GR
GS
[1 0 0 1 208.41432 139.71936] CT
N
f-891180347
f
GR
GS
[1 0 0 1 269.09976 50.35998] CT
N
f-891180347
f
GR
GS
[1 0 0 1 234.89156 107.44201] CT
N
f-891180347
f
GR
GS
[1 0 0 1 308.87308 171.41949] CT
N
f-891180347
f
GR
GS
[1 0 0 1 227.69136 112.61935] CT
N
f-891180347
f
GR
GS
[1 0 0 1 174.41249 124.38248] CT
N
f-891180347
f
GR
GS
[1 0 0 1 318.4176 148.09863] CT
N
f-891180347
f
GR
GS
[1 0 0 1 264.25241 93.17253] CT
N
f-891180347
f
GR
GS
[1 0 0 1 255.629 102.69804] CT
N
f-891180347
f
GR
GS
[1 0 0 1 242.52618 131.72562] CT
N
f-891180347
f
GR
GS
[1 0 0 1 278.14484 86.90631] CT
N
f-891180347
f
GR
GS
[1 0 0 1 296.92642 176.29233] CT
N
f-891180347
f
GR
GS
[1 0 0 1 216.6949 94.38972] CT
N
f-891180347
f
GR
GS
[1 0 0 1 278.6019 74.40003] CT
N
f-891180347
f
GR
GS
[1 0 0 1 168.02289 182.80777] CT
N
f-891180347
f
GR
GS
[1 0 0 1 296.90634 118.23969] CT
N
f-891180347
f
GR
GS
[1 0 0 1 280.81589 142.65907] CT
N
f-891180347
f
GR
GS
[1 0 0 1 244.37727 149.47466] CT
N
f-891180347
f
GR
GS
[1 0 0 1 255.78305 121.39024] CT
N
f-891180347
f
GR
GS
[1 0 0 1 229.96706 123.006] CT
N
f-891180347
f
GR
GS
[1 0 0 1 270.70334 118.5149] CT
N
f-891180347
f
GR
GS
[1 0 0 1 251.899 153.10876] CT
N
f-891180347
f
GR
GS
[1 0 0 1 268.07501 126.43398] CT
N
f-891180347
f
GR
GS
[1 0 0 1 253.83923 141.51747] CT
N
f-891180347
f
GR
GS
[1 0 0 1 264.56488 138.49675] CT
N
f-891180347
f
GR
GS
[1 0 0 1 223.34235 134.79158] CT
N
f-891180347
f
GR
GS
[1 0 0 1 243.39401 149.2955] CT
N
f-891180347
f
GR
GS
[1 0 0 1 250.29831 121.53497] CT
N
f-891180347
f
GR
GS
[1 0 0 1 253.01727 115.45319] CT
N
f-891180347
f
GR
GS
[1 0 0 1 305.7254 189.13101] CT
N
f-891180347
f
GR
GS
[1 0 0 1 251.56647 125.40848] CT
N
f-891180347
f
GR
GS
[1 0 0 1 305.11432 61.43854] CT
N
f-891180347
f
GR
GS
[1 0 0 1 245.6425 112.42651] CT
N
f-891180347
f
GR
GS
[1 0 0 1 258.80112 117.1379] CT
N
f-891180347
f
GR
GS
[1 0 0 1 153.80406 172.56477] CT
N
f-891180347
f
GR
GS
[1 0 0 1 145.26665 159.733] CT
N
f-891180347
f
GR
GS
[1 0 0 1 156.8246 59.18479] CT
N
f-891180347
f
GR
GS
[1 0 0 1 265.00027 65.17345] CT
N
f-891180347
f
GR
GS
[1 0 0 1 212.00728 139.94833] CT
N
f-891180347
f
GR
GS
[1 0 0 1 232.59741 111.60635] CT
N
f-891180347
f
GR
GS
[1 0 0 1 204.21361 136.61342] CT
N
f-891180347
f
GR
GS
[1 0 0 1 264.35352 85.93572] CT
N
f-891180347
f
GR
GS
[1 0 0 1 203.47537 156.57277] CT
N
f-891180347
f
GR
GS
[1 0 0 1 266.63388 136.26015] CT
N
f-891180347
f
GR
GS
[1 0 0 1 238.89066 130.20245] CT
N
f-891180347
f
GR
GS
[1 0 0 1 240.04523 130.44121] CT
N
f-891180347
f
GR
GS
[1 0 0 1 228.86649 142.82782] CT
N
f-891180347
f
GR
GS
[1 0 0 1 191.59082 135.0907] CT
N
f-891180347
f
GR
GS
[1 0 0 1 188.97861 124.0693] CT
N
f-891180347
f
GR
GS
[1 0 0 1 243.73689 109.29435] CT
N
f-891180347
f
GR
GS
[1 0 0 1 195.43056 137.19806] CT
N
f-891180347
f
GR
GS
[1 0 0 1 249.81042 99.52274] CT
N
f-891180347
f
GR
GS
[1 0 0 1 248.48866 61.00851] CT
N
f-891180347
f
GR
GS
[1 0 0 1 220.39101 155.55606] CT
N
f-891180347
f
GR
GS
[1 0 0 1 245.1568 124.58576] CT
N
f-891180347
f
GR
GS
[1 0 0 1 196.85143 147.88472] CT
N
f-891180347
f
GR
GS
[1 0 0 1 233.46877 130.14241] CT
N
f-891180347
f
GR
GS
[1 0 0 1 251.41037 106.6747] CT
N
f-891180347
f
GR
GS
[1 0 0 1 299.23645 70.71388] CT
N
f-891180347
f
GR
GS
[1 0 0 1 231.08247 150.20055] CT
N
f-891180347
f
GR
GS
[1 0 0 1 258.53665 66.79657] CT
N
f-891180347
f
GR
GS
[1 0 0 1 241.45419 137.38916] CT
N
f-891180347
f
GR
GS
[1 0 0 1 203.31871 159.71538] CT
N
f-891180347
f
GR
GS
[1 0 0 1 159.18901 141.79527] CT
N
f-891180347
f
GR
GS
[1 0 0 1 281.47745 79.55498] CT
N
f-891180347
f
GR
GS
[1 0 0 1 204.87595 111.10098] CT
N
f-891180347
f
GR
GS
[1 0 0 1 229.44965 104.4935] CT
N
f-891180347
f
GR
GS
[1 0 0 1 208.17976 167.21797] CT
N
f-891180347
f
GR
GS
[1 0 0 1 208.50035 147.65767] CT
N
f-891180347
f
GR
GS
[1 0 0 1 230.42181 119.8843] CT
N
f-891180347
f
GR
GS
[1 0 0 1 237.08292 152.09512] CT
N
f-891180347
f
GR
GS
[1 0 0 1 226.38501 96.58153] CT
N
f-891180347
f
GR
GS
[1 0 0 1 169.95554 133.67209] CT
N
f-891180347
f
GR
GS
[1 0 0 1 202.1673 99.48318] CT
N
f-891180347
f
GR
GS
[1 0 0 1 249.50439 41.98168] CT
N
f-891180347
f
GR
GS
[1 0 0 1 151.83092 176.37764] CT
N
f-891180347
f
GR
GS
[1 0 0 1 205.47882 113.86047] CT
N
f-891180347
f
GR
GS
[1 0 0 1 264.4166 120.16206] CT
N
f-891180347
f
GR
GS
[1 0 0 1 252.71365 110.31806] CT
N
f-891180347
f
GR
GS
[1 0 0 1 248.11253 96.44759] CT
N
f-891180347
f
GR
GS
[1 0 0 1 318.0578 159.92096] CT
N
f-891180347
f
GR
GS
[1 0 0 1 254.41159 121.80109] CT
N
f-891180347
f
GR
GS
[1 0 0 1 158.82187 179.18895] CT
N
f-891180347
f
GR
GS
[1 0 0 1 189.69022 120.64574] CT
N
f-891180347
f
GR
GS
[1 0 0 1 198.85843 119.2467] CT
N
f-891180347
f
GR
GS
[1 0 0 1 220.51265 98.41771] CT
N
f-891180347
f
GR
GS
[1 0 0 1 226.75374 114.49711] CT
N
f-891180347
f
GR
GS
[1 0 0 1 219.10274 162.18266] CT
N
f-891180347
f
GR
GS
[1 0 0 1 265.93628 88.58945] CT
N
f-891180347
f
GR
GS
[1 0 0 1 264.90442 81.92596] CT
N
f-891180347
f
GR
GS
[1 0 0 1 196.53758 144.92615] CT
N
f-891180347
f
GR
GS
[1 0 0 1 196.47429 144.26321] CT
N
f-891180347
f
GR
GS
[1 0 0 1 270.57596 138.93173] CT
N
f-891180347
f
GR
GS
[1 0 0 1 162.74419 198.03825] CT
N
f-891180347
f
GR
GS
[1 0 0 1 177.51743 161.9397] CT
N
f-891180347
f
GR
GS
[1 0 0 1 273.94632 97.74424] CT
N
f-891180347
f
GR
GS
[1 0 0 1 298.55386 99.48494] CT
N
f-891180347
f
GR
GS
[1 0 0 1 254.65645 173.03305] CT
N
f-891180347
f
GR
GS
[1 0 0 1 154.98364 146.28456] CT
N
f-891180347
f
GR
GS
[1 0 0 1 262.30753 75.45918] CT
N
f-891180347
f
GR
GS
[1 0 0 1 185.32567 201.36934] CT
N
f-891180347
f
GR
GS
[1 0 0 1 256.14856 109.24854] CT
N
f-891180347
f
GR
GS
[1 0 0 1 267.11404 70.44593] CT
N
f-891180347
f
GR
GS
[1 0 0 1 302.01266 79.38076] CT
N
f-891180347
f
GR
GS
[1 0 0 1 224.076 156.32671] CT
N
f-891180347
f
GR
GS
[1 0 0 1 202.69923 122.91208] CT
N
f-891180347
f
GR
GS
[1 0 0 1 198.29082 158.33328] CT
N
f-891180347
f
GR
GS
[1 0 0 1 253.91638 106.74493] CT
N
f-891180347
f
GR
GS
[1 0 0 1 246.92775 146.28439] CT
N
f-891180347
f
GR
GS
[1 0 0 1 213.1447 152.7018] CT
N
f-891180347
f
GR
GS
[1 0 0 1 264.17593 151.07579] CT
N
f-891180347
f
GR
GS
[1 0 0 1 246.22919 132.40454] CT
N
f-891180347
f
GR
GS
[1 0 0 1 256.33762 141.31694] CT
N
f-891180347
f
GR
GS
[1 0 0 1 283.71918 76.31214] CT
N
f-891180347
f
GR
GS
[1 0 0 1 174.66962 141.34015] CT
N
f-891180347
f
GR
GS
[1 0 0 1 232.53069 149.76605] CT
N
f-891180347
f
GR
GS
[1 0 0 1 255.06947 142.50494] CT
N
f-891180347
f
GR
GS
[1 0 0 1 272.59192 130.43109] CT
N
f-891180347
f
GR
GS
[1 0 0 1 207.62584 113.47408] CT
N
f-891180347
f
GR
GS
[1 0 0 1 226.59309 84.70882] CT
N
f-891180347
f
GR
GS
[1 0 0 1 191.37863 130.91118] CT
N
f-891180347
f
GR
GS
[1 0 0 1 279.02795 115.26595] CT
N
f-891180347
f
GR
GS
[1 0 0 1 246.88792 122.06979] CT
N
f-891180347
f
GR
GS
[1 0 0 1 245.03201 105.53499] CT
N
f-891180347
f
GR
GS
[1 0 0 1 232.16367 102.01609] CT
N
f-891180347
f
GR
GS
[1 0 0 1 224.02724 133.44215] CT
N
f-891180347
f
GR
GS
[1 0 0 1 276.22842 89.46455] CT
N
f-891180347
f
GR
GS
[1 0 0 1 145.96603 71.64803] CT
N
f-891180347
f
GR
GS
[1 0 0 1 275.55682 124.14768] CT
N
f-891180347
f
GR
GS
[1 0 0 1 294.15036 93.19489] CT
N
f-891180347
f
GR
GS
[1 0 0 1 249.67146 119.44412] CT
N
f-891180347
f
GR
GS
[1 0 0 1 237.42566 165.49597] CT
N
f-891180347
f
GR
GS
[1 0 0 1 271.4628 77.44554] CT
N
f-891180347
f
GR
GS
[1 0 0 1 195.71854 140.79727] CT
N
f-891180347
f
GR
GS
[1 0 0 1 252.42166 130.18759] CT
N
f-891180347
f
GR
GS
[1 0 0 1 193.13153 138.36977] CT
N
f-891180347
f
GR
GS
[1 0 0 1 240.72997 150.03835] CT
N
f-891180347
f
GR
GS
[1 0 0 1 193.68521 114.95249] CT
N
f-891180347
f
GR
GS
[1 0 0 1 166.91629 126.03341] CT
N
f-891180347
f
GR
GS
[1 0 0 1 235.17798 198.41225] CT
N
f-891180347
f
GR
GS
[1 0 0 1 183.57616 111.3476] CT
N
f-891180347
f
GR
GS
[1 0 0 1 257.53458 136.76447] CT
N
f-891180347
f
GR
GS
[1 0 0 1 155.25186 55.26252] CT
N
f-891180347
f
GR
GS
[1 0 0 1 187.46631 163.17485] CT
N
f-891180347
f
GR
GS
[1 0 0 1 274.85236 99.8808] CT
N
f-891180347
f
GR
GS
[1 0 0 1 228.71411 78.64806] CT
N
f-891180347
f
GR
GS
[1 0 0 1 222.84441 117.35256] CT
N
f-891180347
f
GR
GS
[1 0 0 1 235.77007 179.65294] CT
N
f-891180347
f
GR
GS
[1 0 0 1 256.36874 146.27306] CT
N
f-891180347
f
GR
GS
[1 0 0 1 220.16325 144.19714] CT
N
f-891180347
f
GR
GS
[1 0 0 1 265.72467 109.44329] CT
N
f-891180347
f
GR
GS
[1 0 0 1 233.29922 131.6198] CT
N
f-891180347
f
GR
GS
[1 0 0 1 184.1357 113.74596] CT
N
f-891180347
f
GR
GS
[1 0 0 1 289.17447 117.67094] CT
N
f-891180347
f
GR
GS
[1 0 0 1 245.75383 129.72765] CT
N
f-891180347
f
GR
GS
[1 0 0 1 200.71475 123.38061] CT
N
f-891180347
f
GR
GS
[1 0 0 1 313.97653 203.58617] CT
N
f-891180347
f
GR
GS
[1 0 0 1 247.06322 109.84441] CT
N
f-891180347
f
GR
GS
[1 0 0 1 247.76563 122.57465] CT
N
f-891180347
f
GR
GS
[1 0 0 1 213.09848 117.58344] CT
N
f-891180347
f
GR
GS
[1 0 0 1 298.84351 98.34148] CT
N
f-891180347
f
GR
GS
[1 0 0 1 159.75774 150.63168] CT
N
f-891180347
f
GR
GS
[1 0 0 1 189.19473 104.71739] CT
N
f-891180347
f
GR
GS
[1 0 0 1 274.75024 71.16768] CT
N
f-891180347
f
GR
GS
[1 0 0 1 279.94217 98.81396] CT
N
f-891180347
f
GR
GS
[1 0 0 1 288.42987 161.32503] CT
N
f-891180347
f
GR
GS
[1 0 0 1 224.4369 146.94292] CT
N
f-891180347
f
GR
GS
[1 0 0 1 252.36438 70.95505] CT
N
f-891180347
f
GR
GS
[1 0 0 1 269.46677 146.98175] CT
N
f-891180347
f
GR
GS
[1 0 0 1 155.34337 119.58731] CT
N
f-891180347
f
GR
GS
[1 0 0 1 270.88907 133.30424] CT
N
f-891180347
f
GR
GS
[1 0 0 1 237.18169 121.95951] CT
N
f-891180347
f
GR
GS
[1 0 0 1 286.49948 71.56669] CT
N
f-891180347
f
GR
GS
[1 0 0 1 285.73834 76.12422] CT
N
f-891180347
f
GR
GS
[1 0 0 1 145.27596 193.14536] CT
N
f-891180347
f
GR
GS
[1 0 0 1 260.7981 95.4313] CT
N
f-891180347
f
GR
GS
[1 0 0 1 205.12915 149.86807] CT
N
f-891180347
f
GR
GS
[1 0 0 1 193.96414 135.02119] CT
N
f-891180347
f
GR
GS
[1 0 0 1 226.44638 137.68927] CT
N
f-891180347
f
GR
GS
[1 0 0 1 190.29794 179.29913] CT
N
f-891180347
f
GR
GS
[1 0 0 1 246.81505 139.69427] CT
N
f-891180347
f
GR
GS
[1 0 0 1 198.8335 163.29427] CT
N
f-891180347
f
GR
GS
[1 0 0 1 233.01373 122.24738] CT
N
f-891180347
f
GR
GS
[1 0 0 1 263.00464 134.09557] CT
N
f-891180347
f
GR
GS
[1 0 0 1 280.72925 205.27608] CT
N
f-891180347
f
GR
GS
[1 0 0 1 274.91321 106.46467] CT
N
f-891180347
f
GR
GS
[1 0 0 1 266.91342 79.46853] CT
N
f-891180347
f
GR
GS
[1 0 0 1 199.02705 117.11639] CT
N
f-891180347
f
GR
GS
[1 0 0 1 182.82799 172.89078] CT
N
f-891180347
f
GR
GS
[1 0 0 1 298.03406 97.75256] CT
N
f-891180347
f
GR
GS
[1 0 0 1 264.26907 112.43061] CT
N
f-891180347
f
GR
GS
[1 0 0 1 216.9525 143.88013] CT
N
f-891180347
f
GR
GS
[1 0 0 1 249.68443 115.13783] CT
N
f-891180347
f
GR
GS
[1 0 0 1 196.01266 166.43004] CT
N
f-891180347
f
GR
GS
[1 0 0 1 256.29034 136.20493] CT
N
f-891180347
f
GR
GS
[1 0 0 1 179.99387 166.85641] CT
N
f-891180347
f
GR
GS
[1 0 0 1 249.59705 106.01086] CT
N
f-891180347
f
GR
GS
[1 0 0 1 206.86832 151.22092] CT
N
f-891180347
f
GR
GS
[1 0 0 1 195.93192 137.68779] CT
N
f-891180347
f
GR
GS
[1 0 0 1 203.87358 145.91608] CT
N
f-891180347
f
GR
GS
[1 0 0 1 199.82365 180.15013] CT
N
f-891180347
f
GR
GS
[1 0 0 1 232.62354 117.54286] CT
N
f-891180347
f
GR
GS
[1 0 0 1 178.76323 154.24156] CT
N
f-891180347
f
GR
GS
[1 0 0 1 290.86584 109.57371] CT
N
f-891180347
f
GR
GS
[1 0 0 1 247.84013 105.63591] CT
N
f-891180347
f
GR
GS
[1 0 0 1 181.48146 115.35152] CT
N
f-891180347
f
GR
GS
[1 0 0 1 262.23254 139.92116] CT
N
f-891180347
f
GR
GS
[1 0 0 1 251.75728 116.54915] CT
N
f-891180347
f
GR
GS
[1 0 0 1 249.34898 105.76176] CT
N
f-891180347
f
GR
GS
[1 0 0 1 229.69122 123.26608] CT
N
f-891180347
f
GR
GS
[1 0 0 1 246.09818 127.15303] CT
N
f-891180347
f
GR
GS
[1 0 0 1 193.64116 187.35315] CT
N
f-891180347
f
GR
GS
[1 0 0 1 223.21071 186.18242] CT
N
f-891180347
f
GR
GS
[1 0 0 1 245.62582 127.59626] CT
N
f-891180347
f
GR
GS
[1 0 0 1 259.00815 72.12212] CT
N
f-891180347
f
GR
GS
[1 0 0 1 253.35371 84.10243] CT
N
f-891180347
f
GR
GS
[1 0 0 1 275.24866 121.77551] CT
N
f-891180347
f
GR
GS
[1 0 0 1 157.90302 119.60223] CT
N
f-891180347
f
GR
GS
[1 0 0 1 230.04561 135.31239] CT
N
f-891180347
f
GR
GS
[1 0 0 1 157.3786 95.9164] CT
N
f-891180347
f
GR
GS
[1 0 0 1 171.84691 169.6283] CT
N
f-891180347
f
GR
GS
[1 0 0 1 173.78647 190.58025] CT
N
f-891180347
f
GR
GS
[1 0 0 1 155.24234 87.91256] CT
N
f-891180347
f
GR
GS
[1 0 0 1 193.8045 169.23245] CT
N
f-891180347
f
GR
GS
[1 0 0 1 317.15851 79.32928] CT
N
f-891180347
f
GR
GS
[1 0 0 1 249.92194 144.91965] CT
N
f-891180347
f
GR
GS
[1 0 0 1 209.88583 151.12416] CT
N
f-891180347
f
GR
GS
[1 0 0 1 257.0148 96.49236] CT
N
f-891180347
f
GR
GS
[1 0 0 1 165.70941 150.35753] CT
N
f-891180347
f
GR
GS
[1 0 0 1 260.05167 78.86312] CT
N
f-891180347
f
GR
GS
[1 0 0 1 181.08614 125.60766] CT
N
f-891180347
f
GR
GS
[1 0 0 1 284.63086 82.16798] CT
N
f-891180347
f
GR
GS
[1 0 0 1 293.31308 126.4521] CT
N
f-891180347
f
GR
GS
[1 0 0 1 233.6133 150.35155] CT
N
f-891180347
f
GR
GS
[1 0 0 1 197.36555 170.66368] CT
N
f-891180347
f
GR
GS
[1 0 0 1 240.92033 199.73564] CT
N
f-891180347
f
GR
GS
[1 0 0 1 296.17029 40.43442] CT
N
f-891180347
f
GR
GS
[1 0 0 1 234.36934 120.7896] CT
N
f-891180347
f
GR
GS
[1 0 0 1 302.80624 80.61317] CT
N
f-891180347
f
GR
GS
[1 0 0 1 218.64825 107.92638] CT
N
f-891180347
f
GR
GS
[1 0 0 1 298.91379 117.97636] CT
N
f-891180347
f
GR
GS
[1 0 0 1 269.78165 136.29445] CT
N
f-891180347
f
GR
GS
[1 0 0 1 267.25482 89.97246] CT
N
f-891180347
f
GR
GS
[1 0 0 1 224.77367 108.1756] CT
N
f-891180347
f
GR
GS
[1 0 0 1 269.49451 78.14889] CT
N
f-891180347
f
GR
GS
[1 0 0 1 236.52008 84.72193] CT
N
f-891180347
f
GR
GS
[1 0 0 1 293.81845 103.01419] CT
N
f-891180347
f
GR
GS
[1 0 0 1 192.20432 211.93967] CT
N
f-891180347
f
GR
GS
[1 0 0 1 234.28752 100.7179] CT
N
f-891180347
f
GR
GS
[1 0 0 1 211.35345 119.92926] CT
N
f-891180347
f
GR
GS
[1 0 0 1 222.34366 96.94926] CT
N
f-891180347
f
GR
GS
[1 0 0 1 196.17821 134.61351] CT
N
f-891180347
f
GR
GS
[1 0 0 1 187.97931 128.25177] CT
N
f-891180347
f
GR
GS
[1 0 0 1 215.68893 153.04185] CT
N
f-891180347
f
GR
GS
[1 0 0 1 251.95898 127.87479] CT
N
f-891180347
f
GR
GS
[1 0 0 1 204.06506 136.37706] CT
N
f-891180347
f
GR
GS
[1 0 0 1 237.33484 146.02625] CT
N
f-891180347
f
GR
GS
[1 0 0 1 287.10373 107.466] CT
N
f-891180347
f
GR
GS
[1 0 0 1 258.87466 69.77898] CT
N
f-891180347
f
GR
GS
[1 0 0 1 219.78366 138.90056] CT
N
f-891180347
f
GR
GS
[1 0 0 1 255.6886 90.11993] CT
N
f-891180347
f
GR
GS
[1 0 0 1 268.16748 120.27866] CT
N
f-891180347
f
GR
GS
[1 0 0 1 256.11765 147.07053] CT
N
f-891180347
f
GR
GS
[1 0 0 1 207.66035 175.4165] CT
N
f-891180347
f
GR
GS
[1 0 0 1 235.41597 87.26918] CT
N
f-891180347
f
GR
GS
[1 0 0 1 285.85321 66.66004] CT
N
f-891180347
f
GR
GS
[1 0 0 1 195.34387 194.08449] CT
N
f-891180347
f
GR
GS
[1 0 0 1 264.76791 32.30615] CT
N
f-891180347
f
GR
GS
[1 0 0 1 246.82298 122.97726] CT
N
f-891180347
f
GR
GS
[1 0 0 1 297.47891 95.65881] CT
N
f-891180347
f
GR
GS
[1 0 0 1 221.95984 138.35188] CT
N
f-891180347
f
GR
GS
[1 0 0 1 228.38251 157.52061] CT
N
f-891180347
f
GR
GS
[1 0 0 1 259.31863 68.55528] CT
N
f-891180347
f
GR
GS
[1 0 0 1 253.93501 118.30647] CT
N
f-891180347
f
GR
GS
[1 0 0 1 259.7843 133.349] CT
N
f-891180347
f
GR
GS
[1 0 0 1 268.20554 93.54426] CT
N
f-891180347
f
GR
GS
[1 0 0 1 285.71078 54.88798] CT
N
f-891180347
f
GR
GS
[1 0 0 1 249.88438 146.48532] CT
N
f-891180347
f
GR
GS
[1 0 0 1 243.29037 105.03345] CT
N
f-891180347
f
GR
GS
[1 0 0 1 213.94185 167.12181] CT
N
f-891180347
f
GR
GS
[1 0 0 1 217.88742 169.73116] CT
N
f-891180347
f
GR
GS
[1 0 0 1 256.70621 83.99201] CT
N
f-891180347
f
GR
GS
[1 0 0 1 256.20438 93.39128] CT
N
f-891180347
f
GR
GS
[1 0 0 1 220.34651 136.91187] CT
N
f-891180347
f
GR
GS
[1 0 0 1 253.55795 89.28181] CT
N
f-891180347
f
GR
GS
[1 0 0 1 255.59158 118.96712] CT
N
f-891180347
f
GR
GS
[1 0 0 1 233.52885 126.12902] CT
N
f-891180347
f
GR
GS
[1 0 0 1 322.75519 138.2724] CT
N
f-891180347
f
GR
GS
[1 0 0 1 268.32211 55.49028] CT
N
f-891180347
f
GR
GS
[1 0 0 1 243.85181 129.98059] CT
N
f-891180347
f
GR
GS
[1 0 0 1 222.53682 131.49477] CT
N
f-891180347
f
GR
GS
[1 0 0 1 251.94287 148.32986] CT
N
f-891180347
f
GR
GS
[1 0 0 1 267.58017 74.39247] CT
N
f-891180347
f
GR
GS
[1 0 0 1 184.31999 165.53014] CT
N
f-891180347
f
GR
GS
[1 0 0 1 172.69377 176.10768] CT
N
f-891180347
f
GR
GS
[1 0 0 1 165.83997 40.77558] CT
N
f-891180347
f
GR
GS
[1 0 0 1 275.53387 99.06717] CT
N
f-891180347
f
GR
GS
[1 0 0 1 206.6879 138.72099] CT
N
f-891180347
f
GR
GS
[1 0 0 1 202.89804 121.21846] CT
N
f-891180347
f
GR
GS
[1 0 0 1 270.78503 135.94345] CT
N
f-891180347
f
GR
GS
[1 0 0 1 268.14658 170.76015] CT
N
f-891180347
f
GR
GS
[1 0 0 1 176.09 193.89008] CT
N
f-891180347
f
GR
GS
[1 0 0 1 174.88258 81.56908] CT
N
f-891180347
f
GR
GS
[1 0 0 1 300.01993 93.08804] CT
N
f-891180347
f
GR
GS
[1 0 0 1 275.21188 88.62203] CT
N
f-891180347
f
GR
GS
[1 0 0 1 251.34894 122.12042] CT
N
f-891180347
f
GR
GS
[1 0 0 1 195.28828 183.58344] CT
N
f-891180347
f
GR
GS
[1 0 0 1 243.76767 139.47046] CT
N
f-891180347
f
GR
GS
[1 0 0 1 239.83765 126.32735] CT
N
f-891180347
f
GR
GS
[1 0 0 1 283.54172 118.66125] CT
N
f-891180347
f
GR
GS
[1 0 0 1 271.36575 112.72841] CT
N
f-891180347
f
GR
GS
[1 0 0 1 224.23134 164.30138] CT
N
f-891180347
f
GR
GS
[1 0 0 1 259.68677 110.01025] CT
N
f-891180347
f
GR
GS
[1 0 0 1 254.36594 125.85844] CT
N
f-891180347
f
GR
GS
[1 0 0 1 259.0878 113.14221] CT
N
f-891180347
f
GR
GS
[1 0 0 1 202.24991 131.87784] CT
N
f-891180347
f
GR
GS
[1 0 0 1 242.94775 122.26691] CT
N
f-891180347
f
GR
GS
[1 0 0 1 286.96634 114.45303] CT
N
f-891180347
f
GR
GS
[1 0 0 1 250.00066 93.03358] CT
N
f-891180347
f
GR
GS
[1 0 0 1 272.9212 74.75623] CT
N
f-891180347
f
GR
GS
[1 0 0 1 205.06715 180.37216] CT
N
f-891180347
f
GR
GS
[1 0 0 1 240.10059 81.26083] CT
N
f-891180347
f
GR
GS
[1 0 0 1 221.92342 122.95827] CT
N
f-891180347
f
GR
GS
[1 0 0 1 293.34351 105.97021] CT
N
f-891180347
f
GR
GS
[1 0 0 1 188.47098 177.11349] CT
N
f-891180347
f
GR
GS
[1 0 0 1 175.15842 186.23177] CT
N
f-891180347
f
GR
GS
[1 0 0 1 275.51999 77.66071] CT
N
f-891180347
f
GR
GS
[1 0 0 1 307.03806 82.84151] CT
N
f-891180347
f
GR
GS
[1 0 0 1 253.53624 114.04102] CT
N
f-891180347
f
GR
GS
[1 0 0 1 278.8891 96.48185] CT
N
f-891180347
f
GR
GS
[1 0 0 1 182.78864 196.46278] CT
N
f-891180347
f
GR
GS
[1 0 0 1 148.44847 160.48785] CT
N
f-891180347
f
GR
GS
[1 0 0 1 203.95862 129.71158] CT
N
f-891180347
f
GR
GS
[1 0 0 1 283.40414 98.73965] CT
N
f-891180347
f
GR
GS
[1 0 0 1 216.39236 119.37723] CT
N
f-891180347
f
GR
GS
[1 0 0 1 179.49777 154.28467] CT
N
f-891180347
f
GR
GS
[1 0 0 1 258.20804 175.10368] CT
N
f-891180347
f
GR
GS
[1 0 0 1 311.09808 107.77237] CT
N
f-891180347
f
GR
GS
[1 0 0 1 197.79463 146.61905] CT
N
f-891180347
f
GR
GS
[1 0 0 1 192.22502 161.74187] CT
N
f-891180347
f
GR
GS
[1 0 0 1 255.89063 134.13817] CT
N
f-891180347
f
GR
GS
[1 0 0 1 223.04832 130.29359] CT
N
f-891180347
f
GR
GS
[1 0 0 1 171.07953 138.81779] CT
N
f-891180347
f
GR
GS
[1 0 0 1 241.63139 115.67848] CT
N
f-891180347
f
GR
GS
[1 0 0 1 271.6506 53.30681] CT
N
f-891180347
f
GR
GS
[1 0 0 1 278.68964 85.80396] CT
N
f-891180347
f
GR
GS
[1 0 0 1 172.42993 153.11368] CT
N
f-891180347
f
GR
GS
[1 0 0 1 285.88971 106.21078] CT
N
f-891180347
f
GR
GS
[1 0 0 1 245.94147 98.6236] CT
N
f-891180347
f
GR
GS
[1 0 0 1 262.44287 62.9911] CT
N
f-891180347
f
GR
GS
[1 0 0 1 196.67805 171.85399] CT
N
f-891180347
f
GR
GS
[1 0 0 1 200.9812 109.34381] CT
N
f-891180347
f
GR
GS
[1 0 0 1 219.87311 150.87935] CT
N
f-891180347
f
GR
GS
[1 0 0 1 237.0824 68.92627] CT
N
f-891180347
f
GR
GS
[1 0 0 1 260.66293 88.41858] CT
N
f-891180347
f
GR
GS
[1 0 0 1 243.92784 103.01048] CT
N
f-891180347
f
GR
GS
[1 0 0 1 157.36224 190.29727] CT
N
f-891180347
f
GR
GS
[1 0 0 1 233.65242 113.88272] CT
N
f-891180347
f
GR
GS
[1 0 0 1 222.24387 105.22321] CT
N
f-891180347
f
GR
GS
[1 0 0 1 297.27585 43.46474] CT
N
f-891180347
f
GR
GS
[1 0 0 1 249.46906 113.04414] CT
N
f-891180347
f
GR
GS
[1 0 0 1 167.10886 149.66457] CT
N
f-891180347
f
GR
GS
[1 0 0 1 176.68556 130.17664] CT
N
f-891180347
f
GR
GS
[1 0 0 1 316.18008 70.81006] CT
N
f-891180347
f
GR
GS
[1 0 0 1 270.95898 110.20765] CT
N
f-891180347
f
GR
GS
[1 0 0 1 252.80786 138.7227] CT
N
f-891180347
f
GR
GS
[1 0 0 1 271.11481 186.30678] CT
N
f-891180347
f
GR
GS
[1 0 0 1 239.3017 142.74255] CT
N
f-891180347
f
GR
GS
[1 0 0 1 293.74124 85.74798] CT
N
f-891180347
f
GR
GS
[1 0 0 1 227.6465 95.03909] CT
N
f-891180347
f
GR
GS
[1 0 0 1 257.45511 121.21114] CT
N
f-891180347
f
GR
GS
[1 0 0 1 296.70102 72.72819] CT
N
f-891180347
f
GR
GS
[1 0 0 1 297.22772 139.80899] CT
N
f-891180347
f
GR
GS
[1 0 0 1 228.4286 142.25745] CT
N
f-891180347
f
GR
GS
[1 0 0 1 248.20045 109.45271] CT
N
f-891180347
f
GR
GS
[1 0 0 1 233.79733 193.35091] CT
N
f-891180347
f
GR
GS
[1 0 0 1 199.61316 114.37058] CT
N
f-891180347
f
GR
GS
[1 0 0 1 222.90355 122.30058] CT
N
f-891180347
f
GR
GS
[1 0 0 1 184.56664 125.20163] CT
N
f-891180347
f
GR
GS
[1 0 0 1 205.11821 181.44203] CT
N
f-891180347
f
GR
GS
[1 0 0 1 297.50214 100.80744] CT
N
f-891180347
f
GR
GS
[1 0 0 1 190.91414 135.02342] CT
N
f-891180347
f
GR
GS
[1 0 0 1 237.68903 123.17514] CT
N
f-891180347
f
GR
GS
[1 0 0 1 278.15503 40.82664] CT
N
f-891180347
f
GR
GS
[1 0 0 1 212.78609 113.5181] CT
N
f-891180347
f
GR
GS
[1 0 0 1 286.90274 63.34264] CT
N
f-891180347
f
GR
GS
[1 0 0 1 154.33072 62.52804] CT
N
f-891180347
f
GR
GS
[1 0 0 1 163.73563 183.832] CT
N
f-891180347
f
GR
GS
[1 0 0 1 225.24097 120.25204] CT
N
f-891180347
f
GR
GS
[1 0 0 1 324.9183 172.67966] CT
N
f-891180347
f
GR
GS
[1 0 0 1 209.98036 157.43849] CT
N
f-891180347
f
GR
GS
[1 0 0 1 169.53006 153.03717] CT
N
f-891180347
f
GR
GS
[1 0 0 1 265.48587 105.52374] CT
N
f-891180347
f
GR
GS
[1 0 0 1 194.653 44.34173] CT
N
f-891180347
f
GR
GS
[1 0 0 1 320.57843 173.54047] CT
N
f-891180347
f
GR
GS
[1 0 0 1 218.31641 151.98524] CT
N
f-891180347
f
GR
GS
[1 0 0 1 278.79605 119.55117] CT
N
f-891180347
f
GR
GS
[1 0 0 1 310.59464 90.28444] CT
N
f-891180347
f
GR
GS
[1 0 0 1 181.16295 163.68781] CT
N
f-891180347
f
GR
GS
[1 0 0 1 165.3562 144.20865] CT
N
f-891180347
f
GR
GS
[1 0 0 1 215.86281 160.08675] CT
N
f-891180347
f
GR
GS
[1 0 0 1 291.87018 92.23479] CT
N
f-891180347
f
GR
GS
[1 0 0 1 253.92169 105.77881] CT
N
f-891180347
f
GR
GS
[1 0 0 1 216.99133 165.15442] CT
N
f-891180347
f
GR
GS
[1 0 0 1 201.39131 138.46255] CT
N
f-891180347
f
GR
GS
[1 0 0 1 207.84998 141.64063] CT
N
f-891180347
f
GR
GS
[1 0 0 1 310.86517 95.62907] CT
N
f-891180347
f
GR
GS
[1 0 0 1 170.86342 122.53081] CT
N
f-891180347
f
GR
GS
[1 0 0 1 184.44609 159.86943] CT
N
f-891180347
f
GR
GS
[1 0 0 1 278.80783 117.99457] CT
N
f-891180347
f
GR
GS
[1 0 0 1 302.10083 116.79325] CT
N
f-891180347
f
GR
GS
[1 0 0 1 196.54483 187.90517] CT
N
f-891180347
f
GR
GS
[1 0 0 1 236.57896 165.19356] CT
N
f-891180347
f
GR
GS
[1 0 0 1 303.61829 123.24591] CT
N
f-891180347
f
GR
GS
[1 0 0 1 200.29651 102.94324] CT
N
f-891180347
f
GR
GS
[1 0 0 1 156.08041 69.78748] CT
N
f-891180347
f
GR
GS
[1 0 0 1 169.83208 152.26233] CT
N
f-891180347
f
GR
GS
[1 0 0 1 207.04347 93.84818] CT
N
f-891180347
f
GR
GS
[1 0 0 1 248.81691 87.94547] CT
N
f-891180347
f
GR
GS
[1 0 0 1 151.91209 148.03517] CT
N
f-891180347
f
GR
GS
[1 0 0 1 188.73274 164.25017] CT
N
f-891180347
f
GR
GS
[1 0 0 1 177.5421 158.90248] CT
N
f-891180347
f
GR
GS
[1 0 0 1 302.53482 93.80155] CT
N
f-891180347
f
GR
GS
[1 0 0 1 251.7986 123.14664] CT
N
f-891180347
f
GR
GS
[1 0 0 1 206.31674 145.9893] CT
N
f-891180347
f
GR
GS
[1 0 0 1 217.35567 111.88544] CT
N
f-891180347
f
GR
GS
[1 0 0 1 276.77771 131.91029] CT
N
f-891180347
f
GR
GS
[1 0 0 1 189.42836 177.28162] CT
N
f-891180347
f
GR
GS
[1 0 0 1 237.35121 117.2643] CT
N
f-891180347
f
GR
GS
[1 0 0 1 309.72717 173.78171] CT
N
f-891180347
f
GR
GS
[1 0 0 1 215.57414 137.93942] CT
N
f-891180347
f
GR
GS
[1 0 0 1 278.55624 75.96412] CT
N
f-891180347
f
GR
GS
[1 0 0 1 159.61784 166.47282] CT
N
f-891180347
f
GR
GS
[1 0 0 1 231.16763 169.65535] CT
N
f-891180347
f
GR
GS
[1 0 0 1 272.07928 86.39016] CT
N
f-891180347
f
GR
GS
[1 0 0 1 287.88174 76.5797] CT
N
f-891180347
f
GR
GS
[1 0 0 1 240.64084 123.66085] CT
N
f-891180347
f
GR
GS
[1 0 0 1 234.54211 142.46953] CT
N
f-891180347
f
GR
GS
[1 0 0 1 251.64354 109.0497] CT
N
f-891180347
f
GR
GS
[1 0 0 1 249.01814 93.79423] CT
N
f-891180347
f
GR
GS
[1 0 0 1 278.38052 56.63975] CT
N
f-891180347
f
GR
GS
[1 0 0 1 207.43784 97.25366] CT
N
f-891180347
f
GR
GS
[1 0 0 1 266.83966 54.41949] CT
N
f-891180347
f
GR
GS
[1 0 0 1 266.87784 52.55338] CT
N
f-891180347
f
GR
GS
[1 0 0 1 257.84137 125.60475] CT
N
f-891180347
f
GR
GS
[1 0 0 1 299.47552 62.86829] CT
N
f-891180347
f
GR
GS
[1 0 0 1 278.39539 74.00356] CT
N
f-891180347
f
GR
GS
[1 0 0 1 287.49826 41.29859] CT
N
f-891180347
f
GR
GS
[1 0 0 1 321.09628 60.69029] CT
N
f-891180347
f
GR
GS
[1 0 0 1 205.19679 163.09619] CT
N
f-891180347
f
GR
GS
[1 0 0 1 264.62256 56.03197] CT
N
f-891180347
f
GR
GS
[1 0 0 1 324.76642 86.69347] CT
N
f-891180347
f
GR
GS
[1 0 0 1 314.42642 167.79494] CT
N
f-891180347
f
GR
GS
[1 0 0 1 172.05684 145.79445] CT
N
f-891180347
f
GR
GS
[1 0 0 1 206.60115 157.3744] CT
N
f-891180347
f
GR
GS
[1 0 0 1 263.8913 124.1636] CT
N
f-891180347
f
GR
GS
[1 0 0 1 202.03227 162.01956] CT
N
f-891180347
f
GR
GS
[1 0 0 1 265.9303 74.69659] CT
N
f-891180347
f
GR
GS
[1 0 0 1 257.49918 95.61435] CT
N
f-891180347
f
GR
GS
[1 0 0 1 170.45097 153.89] CT
N
f-891180347
f
GR
GS
[1 0 0 1 288.4585 119.84304] CT
N
f-891180347
f
GR
GS
[1 0 0 1 230.42923 138.15868] CT
N
f-891180347
f
GR
GS
[1 0 0 1 176.25932 164.94676] CT
N
f-891180347
f
GR
GS
[1 0 0 1 232.92488 133.01741] CT
N
f-891180347
f
GR
GS
[1 0 0 1 175.36745 199.41037] CT
N
f-891180347
f
GR
GS
[1 0 0 1 185.91209 201.22446] CT
N
f-891180347
f
GR
GS
[1 0 0 1 231.21011 187.41106] CT
N
f-891180347
f
GR
GS
[1 0 0 1 317.32745 74.39484] CT
N
f-891180347
f
GR
GS
[1 0 0 1 257.46643 97.29756] CT
N
f-891180347
f
GR
GS
[1 0 0 1 290.4072 108.07678] CT
N
f-891180347
f
GR
GS
[1 0 0 1 263.02063 125.32278] CT
N
f-891180347
f
GR
GS
[1 0 0 1 170.51778 185.41606] CT
N
f-891180347
f
GR
GS
[1 0 0 1 260.34613 49.33348] CT
N
f-891180347
f
GR
GS
[1 0 0 1 193.30392 164.56494] CT
N
f-891180347
f
GR
GS
[1 0 0 1 216.67599 116.95797] CT
N
f-891180347
f
GR
GS
[1 0 0 1 305.43109 60.79126] CT
N
f-891180347
f
GR
GS
[1 0 0 1 246.40813 100.64768] CT
N
f-891180347
f
GR
GS
[1 0 0 1 212.55615 99.99638] CT
N
f-891180347
f
GR
GS
[1 0 0 1 157.36307 58.22916] CT
N
f-891180347
f
GR
GS
[1 0 0 1 170.62195 147.96945] CT
N
f-891180347
f
GR
GS
[1 0 0 1 238.81221 98.66954] CT
N
f-891180347
f
GR
GS
[1 0 0 1 268.24048 146.50513] CT
N
f-891180347
f
GR
GS
[1 0 0 1 205.12305 124.74184] CT
N
f-891180347
f
GR
GS
[1 0 0 1 212.68076 167.27888] CT
N
f-891180347
f
GR
GS
[1 0 0 1 213.60289 118.55565] CT
N
f-891180347
f
GR
GS
[1 0 0 1 215.1329 156.39548] CT
N
f-891180347
f
GR
GS
[1 0 0 1 178.64282 204.65921] CT
N
f-891180347
f
GR
GS
[1 0 0 1 196.20059 171.1013] CT
N
f-891180347
f
GR
GS
[1 0 0 1 152.54028 74.18471] CT
N
f-891180347
f
GR
GS
[1 0 0 1 291.15842 58.36408] CT
N
f-891180347
f
GR
GS
[1 0 0 1 189.66794 166.60635] CT
N
f-891180347
f
GR
GS
[1 0 0 1 177.06764 156.87251] CT
N
f-891180347
f
GR
GS
[1 0 0 1 280.14014 62.96276] CT
N
f-891180347
f
GR
GS
[1 0 0 1 222.64009 122.28281] CT
N
f-891180347
f
GR
GS
[1 0 0 1 225.2464 89.35907] CT
N
f-891180347
f
GR
GS
[1 0 0 1 153.12032 32.62329] CT
N
f-891180347
f
GR
GS
[1 0 0 1 186.99324 113.05733] CT
N
f-891180347
f
GR
GS
[1 0 0 1 191.62703 180.04453] CT
N
f-891180347
f
GR
GS
[1 0 0 1 224.01703 105.51128] CT
N
f-891180347
f
GR
GS
[1 0 0 1 230.65965 115.75623] CT
N
f-891180347
f
GR
GS
[1 0 0 1 182.08173 206.32594] CT
N
f-891180347
f
GR
GS
[1 0 0 1 288.12759 182.90974] CT
N
f-891180347
f
GR
GS
[1 0 0 1 286.50073 90.82608] CT
N
f-891180347
f
GR
GS
[1 0 0 1 295.77069 52.00837] CT
N
f-891180347
f
GR
GS
[1 0 0 1 269.14252 113.90193] CT
N
f-891180347
f
GR
GS
[1 0 0 1 192.77597 148.41478] CT
N
f-891180347
f
GR
GS
[1 0 0 1 154.12143 64.82883] CT
N
f-891180347
f
GR
GS
[1 0 0 1 166.06496 92.48465] CT
N
f-891180347
f
GR
GS
[1 0 0 1 290.47076 106.85231] CT
N
f-891180347
f
GR
GS
[1 0 0 1 209.11023 153.33034] CT
N
f-891180347
f
GR
GS
[1 0 0 1 322.66574 62.99702] CT
N
f-891180347
f
GR
GS
[1 0 0 1 194.56863 181.36737] CT
N
f-891180347
f
GR
GS
[1 0 0 1 200.34717 173.32188] CT
N
f-891180347
f
GR
GS
[1 0 0 1 288.01117 100.89057] CT
N
f-891180347
f
GR
GS
[1 0 0 1 259.96844 92.34995] CT
N
f-891180347
f
GR
GS
[1 0 0 1 221.37827 128.75566] CT
N
f-891180347
f
GR
GS
[1 0 0 1 165.48544 59.51214] CT
N
f-891180347
f
GR
GS
[1 0 0 1 234.03783 135.23019] CT
N
f-891180347
f
GR
GS
[1 0 0 1 198.79007 173.33653] CT
N
f-891180347
f
GR
GS
[1 0 0 1 177.55963 122.09116] CT
N
f-891180347
f
GR
GS
[1 0 0 1 250.28828 64.34559] CT
N
f-891180347
f
GR
GS
[1 0 0 1 268.6825 160.67252] CT
N
f-891180347
f
GR
GS
[1 0 0 1 315.69693 123.20898] CT
N
f-891180347
f
GR
GS
[1 0 0 1 207.20859 147.17053] CT
N
f-891180347
f
GR
GS
[1 0 0 1 197.18964 167.33661] CT
N
f-891180347
f
GR
GS
[1 0 0 1 196.78134 110.34582] CT
N
f-891180347
f
GR
GS
[1 0 0 1 236.49869 137.52132] CT
N
f-891180347
f
GR
GS
[1 0 0 1 147.77019 62.30189] CT
N
f-891180347
f
GR
GS
[1 0 0 1 190.56453 171.81653] CT
N
f-891180347
f
GR
GS
[1 0 0 1 212.9735 163.59856] CT
N
f-891180347
f
GR
GS
[1 0 0 1 215.56918 101.96938] CT
N
f-891180347
f
GR
GS
[1 0 0 1 190.64558 159.32558] CT
N
f-891180347
f
GR
GS
[1 0 0 1 239.98309 73.8717] CT
N
f-891180347
f
GR
GS
[1 0 0 1 283.75543 156.20056] CT
N
f-891180347
f
GR
GS
[1 0 0 1 285.07306 104.85767] CT
N
f-891180347
f
GR
GS
[1 0 0 1 265.41626 122.14314] CT
N
f-891180347
f
GR
GS
[1 0 0 1 264.98022 127.11158] CT
N
f-891180347
f
GR
GS
[1 0 0 1 251.73158 154.09053] CT
N
f-891180347
f
GR
GS
[1 0 0 1 193.75874 188.67169] CT
N
f-891180347
f
GR
GS
[1 0 0 1 197.28104 167.69371] CT
N
f-891180347
f
GR
GS
[1 0 0 1 171.12067 168.09232] CT
N
f-891180347
f
GR
GS
[1 0 0 1 259.75888 133.38835] CT
N
f-891180347
f
GR
GS
[1 0 0 1 227.50215 161.72018] CT
N
f-891180347
f
GR
GS
[1 0 0 1 174.32118 174.91911] CT
N
f-891180347
f
GR
%%Trailer
%%Pages: 1
%%EOF
