%!PS-Adobe-3.0 EPSF-3.0
%%Creator: (MATLAB, The Mathworks, Inc. Version 9.3.0.713579 \(R2017b\). Operating System: Mac OS X)
%%Title: ./dth_phi_blank.eps
%%CreationDate: 2018-06-29T02:19:38
%%Pages: (atend)
%%BoundingBox:    98   113   332   335
%%LanguageLevel: 3
%%EndComments
%%BeginProlog
%%BeginResource: procset (Apache XML Graphics Std ProcSet) 1.2 0
%%Version: 1.2 0
%%Copyright: (Copyright 2001-2003,2010 The Apache Software Foundation. License terms: http://www.apache.org/licenses/LICENSE-2.0)
/bd{bind def}bind def
/ld{load def}bd
/GR/grestore ld
/GS/gsave ld
/RM/rmoveto ld
/C/curveto ld
/t/show ld
/L/lineto ld
/ML/setmiterlimit ld
/CT/concat ld
/f/fill ld
/N/newpath ld
/S/stroke ld
/CC/setcmykcolor ld
/A/ashow ld
/cp/closepath ld
/RC/setrgbcolor ld
/LJ/setlinejoin ld
/GC/setgray ld
/LW/setlinewidth ld
/M/moveto ld
/re {4 2 roll M
1 index 0 rlineto
0 exch rlineto
neg 0 rlineto
cp } bd
/_ctm matrix def
/_tm matrix def
/BT { _ctm currentmatrix pop matrix _tm copy pop 0 0 moveto } bd
/ET { _ctm setmatrix } bd
/iTm { _ctm setmatrix _tm concat } bd
/Tm { _tm astore pop iTm 0 0 moveto } bd
/ux 0.0 def
/uy 0.0 def
/F {
  /Tp exch def
  /Tf exch def
  Tf findfont Tp scalefont setfont
  /cf Tf def  /cs Tp def
} bd
/ULS {currentpoint /uy exch def /ux exch def} bd
/ULE {
  /Tcx currentpoint pop def
  gsave
  newpath
  cf findfont cs scalefont dup
  /FontMatrix get 0 get /Ts exch def /FontInfo get dup
  /UnderlinePosition get Ts mul /To exch def
  /UnderlineThickness get Ts mul /Tt exch def
  ux uy To add moveto  Tcx uy To add lineto
  Tt setlinewidth stroke
  grestore
} bd
/OLE {
  /Tcx currentpoint pop def
  gsave
  newpath
  cf findfont cs scalefont dup
  /FontMatrix get 0 get /Ts exch def /FontInfo get dup
  /UnderlinePosition get Ts mul /To exch def
  /UnderlineThickness get Ts mul /Tt exch def
  ux uy To add cs add moveto Tcx uy To add cs add lineto
  Tt setlinewidth stroke
  grestore
} bd
/SOE {
  /Tcx currentpoint pop def
  gsave
  newpath
  cf findfont cs scalefont dup
  /FontMatrix get 0 get /Ts exch def /FontInfo get dup
  /UnderlinePosition get Ts mul /To exch def
  /UnderlineThickness get Ts mul /Tt exch def
  ux uy To add cs 10 mul 26 idiv add moveto Tcx uy To add cs 10 mul 26 idiv add lineto
  Tt setlinewidth stroke
  grestore
} bd
/QT {
/Y22 exch store
/X22 exch store
/Y21 exch store
/X21 exch store
currentpoint
/Y21 load 2 mul add 3 div exch
/X21 load 2 mul add 3 div exch
/X21 load 2 mul /X22 load add 3 div
/Y21 load 2 mul /Y22 load add 3 div
/X22 load /Y22 load curveto
} bd
/SSPD {
dup length /d exch dict def
{
/v exch def
/k exch def
currentpagedevice k known {
/cpdv currentpagedevice k get def
v cpdv ne {
/upd false def
/nullv v type /nulltype eq def
/nullcpdv cpdv type /nulltype eq def
nullv nullcpdv or
{
/upd true def
} {
/sametype v type cpdv type eq def
sametype {
v type /arraytype eq {
/vlen v length def
/cpdvlen cpdv length def
vlen cpdvlen eq {
0 1 vlen 1 sub {
/i exch def
/obj v i get def
/cpdobj cpdv i get def
obj cpdobj ne {
/upd true def
exit
} if
} for
} {
/upd true def
} ifelse
} {
v type /dicttype eq {
v {
/dv exch def
/dk exch def
/cpddv cpdv dk get def
dv cpddv ne {
/upd true def
exit
} if
} forall
} {
/upd true def
} ifelse
} ifelse
} if
} ifelse
upd true eq {
d k v put
} if
} if
} if
} forall
d length 0 gt {
d setpagedevice
} if
} bd
/RE { % /NewFontName [NewEncodingArray] /FontName RE -
  findfont dup length dict begin
  {
    1 index /FID ne
    {def} {pop pop} ifelse
  } forall
  /Encoding exch def
  /FontName 1 index def
  currentdict definefont pop
  end
} bind def
%%EndResource
%%BeginResource: procset (Apache XML Graphics EPS ProcSet) 1.0 0
%%Version: 1.0 0
%%Copyright: (Copyright 2002-2003 The Apache Software Foundation. License terms: http://www.apache.org/licenses/LICENSE-2.0)
/BeginEPSF { %def
/b4_Inc_state save def         % Save state for cleanup
/dict_count countdictstack def % Count objects on dict stack
/op_count count 1 sub def      % Count objects on operand stack
userdict begin                 % Push userdict on dict stack
/showpage { } def              % Redefine showpage, { } = null proc
0 setgray 0 setlinecap         % Prepare graphics state
1 setlinewidth 0 setlinejoin
10 setmiterlimit [ ] 0 setdash newpath
/languagelevel where           % If level not equal to 1 then
{pop languagelevel             % set strokeadjust and
1 ne                           % overprint to their defaults.
{false setstrokeadjust false setoverprint
} if
} if
} bd
/EndEPSF { %def
count op_count sub {pop} repeat            % Clean up stacks
countdictstack dict_count sub {end} repeat
b4_Inc_state restore
} bd
%%EndResource
%FOPBeginFontDict
%%IncludeResource: font Courier-Oblique
%%IncludeResource: font Courier-BoldOblique
%%IncludeResource: font Courier-Bold
%%IncludeResource: font ZapfDingbats
%%IncludeResource: font Symbol
%%IncludeResource: font Helvetica
%%IncludeResource: font Helvetica-Oblique
%%IncludeResource: font Helvetica-Bold
%%IncludeResource: font Helvetica-BoldOblique
%%IncludeResource: font Times-Roman
%%IncludeResource: font Times-Italic
%%IncludeResource: font Times-Bold
%%IncludeResource: font Times-BoldItalic
%%IncludeResource: font Courier
%FOPEndFontDict
%%BeginResource: encoding WinAnsiEncoding
/WinAnsiEncoding [
/.notdef /.notdef /.notdef /.notdef /.notdef
/.notdef /.notdef /.notdef /.notdef /.notdef
/.notdef /.notdef /.notdef /.notdef /.notdef
/.notdef /.notdef /.notdef /.notdef /.notdef
/.notdef /.notdef /.notdef /.notdef /.notdef
/.notdef /.notdef /.notdef /.notdef /.notdef
/.notdef /.notdef /space /exclam /quotedbl
/numbersign /dollar /percent /ampersand /quotesingle
/parenleft /parenright /asterisk /plus /comma
/hyphen /period /slash /zero /one
/two /three /four /five /six
/seven /eight /nine /colon /semicolon
/less /equal /greater /question /at
/A /B /C /D /E
/F /G /H /I /J
/K /L /M /N /O
/P /Q /R /S /T
/U /V /W /X /Y
/Z /bracketleft /backslash /bracketright /asciicircum
/underscore /quoteleft /a /b /c
/d /e /f /g /h
/i /j /k /l /m
/n /o /p /q /r
/s /t /u /v /w
/x /y /z /braceleft /bar
/braceright /asciitilde /bullet /Euro /bullet
/quotesinglbase /florin /quotedblbase /ellipsis /dagger
/daggerdbl /circumflex /perthousand /Scaron /guilsinglleft
/OE /bullet /Zcaron /bullet /bullet
/quoteleft /quoteright /quotedblleft /quotedblright /bullet
/endash /emdash /asciitilde /trademark /scaron
/guilsinglright /oe /bullet /zcaron /Ydieresis
/space /exclamdown /cent /sterling /currency
/yen /brokenbar /section /dieresis /copyright
/ordfeminine /guillemotleft /logicalnot /sfthyphen /registered
/macron /degree /plusminus /twosuperior /threesuperior
/acute /mu /paragraph /middot /cedilla
/onesuperior /ordmasculine /guillemotright /onequarter /onehalf
/threequarters /questiondown /Agrave /Aacute /Acircumflex
/Atilde /Adieresis /Aring /AE /Ccedilla
/Egrave /Eacute /Ecircumflex /Edieresis /Igrave
/Iacute /Icircumflex /Idieresis /Eth /Ntilde
/Ograve /Oacute /Ocircumflex /Otilde /Odieresis
/multiply /Oslash /Ugrave /Uacute /Ucircumflex
/Udieresis /Yacute /Thorn /germandbls /agrave
/aacute /acircumflex /atilde /adieresis /aring
/ae /ccedilla /egrave /eacute /ecircumflex
/edieresis /igrave /iacute /icircumflex /idieresis
/eth /ntilde /ograve /oacute /ocircumflex
/otilde /odieresis /divide /oslash /ugrave
/uacute /ucircumflex /udieresis /yacute /thorn
/ydieresis
] def
%%EndResource
%FOPBeginFontReencode
/Courier-Oblique findfont
dup length dict begin
  {1 index /FID ne {def} {pop pop} ifelse} forall
  /Encoding WinAnsiEncoding def
  currentdict
end
/Courier-Oblique exch definefont pop
/Courier-BoldOblique findfont
dup length dict begin
  {1 index /FID ne {def} {pop pop} ifelse} forall
  /Encoding WinAnsiEncoding def
  currentdict
end
/Courier-BoldOblique exch definefont pop
/Courier-Bold findfont
dup length dict begin
  {1 index /FID ne {def} {pop pop} ifelse} forall
  /Encoding WinAnsiEncoding def
  currentdict
end
/Courier-Bold exch definefont pop
/Helvetica findfont
dup length dict begin
  {1 index /FID ne {def} {pop pop} ifelse} forall
  /Encoding WinAnsiEncoding def
  currentdict
end
/Helvetica exch definefont pop
/Helvetica-Oblique findfont
dup length dict begin
  {1 index /FID ne {def} {pop pop} ifelse} forall
  /Encoding WinAnsiEncoding def
  currentdict
end
/Helvetica-Oblique exch definefont pop
/Helvetica-Bold findfont
dup length dict begin
  {1 index /FID ne {def} {pop pop} ifelse} forall
  /Encoding WinAnsiEncoding def
  currentdict
end
/Helvetica-Bold exch definefont pop
/Helvetica-BoldOblique findfont
dup length dict begin
  {1 index /FID ne {def} {pop pop} ifelse} forall
  /Encoding WinAnsiEncoding def
  currentdict
end
/Helvetica-BoldOblique exch definefont pop
/Times-Roman findfont
dup length dict begin
  {1 index /FID ne {def} {pop pop} ifelse} forall
  /Encoding WinAnsiEncoding def
  currentdict
end
/Times-Roman exch definefont pop
/Times-Italic findfont
dup length dict begin
  {1 index /FID ne {def} {pop pop} ifelse} forall
  /Encoding WinAnsiEncoding def
  currentdict
end
/Times-Italic exch definefont pop
/Times-Bold findfont
dup length dict begin
  {1 index /FID ne {def} {pop pop} ifelse} forall
  /Encoding WinAnsiEncoding def
  currentdict
end
/Times-Bold exch definefont pop
/Times-BoldItalic findfont
dup length dict begin
  {1 index /FID ne {def} {pop pop} ifelse} forall
  /Encoding WinAnsiEncoding def
  currentdict
end
/Times-BoldItalic exch definefont pop
/Courier findfont
dup length dict begin
  {1 index /FID ne {def} {pop pop} ifelse} forall
  /Encoding WinAnsiEncoding def
  currentdict
end
/Courier exch definefont pop
%FOPEndFontReencode
%%EndProlog
%%Page: 1 1
%%PageBoundingBox: 0 0 360 360
%%BeginPageSetup
[1 0 0 -1 0 360] CT
%%EndPageSetup
GS
1 GC
N
0 0 360 360 re
f
GR
GS
1 GC
N
0 0 360 360 re
f
GR
GS
1 GC
N
143.5 218 M
326 218 L
326 27 L
143.5 27 L
cp
f
GR
GS
0.149 GC
2 setlinecap
1 LJ
0.5 LW
N
143.5 218 M
326 218 L
S
GR
GS
0.149 GC
2 setlinecap
1 LJ
0.5 LW
N
143.5 27 M
326 27 L
S
GR
GS
0.149 GC
2 setlinecap
1 LJ
0.5 LW
N
143.5 218 M
143.5 216.09 L
S
GR
GS
0.149 GC
2 setlinecap
1 LJ
0.5 LW
N
189.125 218 M
189.125 216.09 L
S
GR
GS
0.149 GC
2 setlinecap
1 LJ
0.5 LW
N
234.75 218 M
234.75 216.09 L
S
GR
GS
0.149 GC
2 setlinecap
1 LJ
0.5 LW
N
280.375 218 M
280.375 216.09 L
S
GR
GS
0.149 GC
2 setlinecap
1 LJ
0.5 LW
N
326 218 M
326 216.09 L
S
GR
GS
0.149 GC
2 setlinecap
1 LJ
0.5 LW
N
143.5 27 M
143.5 28.91 L
S
GR
GS
0.149 GC
2 setlinecap
1 LJ
0.5 LW
N
189.125 27 M
189.125 28.91 L
S
GR
GS
0.149 GC
2 setlinecap
1 LJ
0.5 LW
N
234.75 27 M
234.75 28.91 L
S
GR
GS
0.149 GC
2 setlinecap
1 LJ
0.5 LW
N
280.375 27 M
280.375 28.91 L
S
GR
GS
0.149 GC
2 setlinecap
1 LJ
0.5 LW
N
326 27 M
326 28.91 L
S
GR
GS
[1 0 0 1 143.5 222] CT
0.149 GC
N
0 8.619 M
-1.219 8.619 -1.664 7.611 QT
-2.109 6.603 -2.109 5.212 QT
-2.109 4.337 -1.953 3.572 QT
-1.797 2.806 -1.32 2.275 QT
-0.844 1.744 0 1.744 QT
0.656 1.744 1.078 2.064 QT
1.5 2.384 1.719 2.892 QT
1.938 3.4 2.016 3.986 QT
2.094 4.572 2.094 5.212 QT
2.094 6.072 1.938 6.822 QT
1.781 7.572 1.32 8.095 QT
0.859 8.619 0 8.619 QT
cp
0 8.353 M
0.563 8.353 0.836 7.783 QT
1.109 7.212 1.172 6.525 QT
1.234 5.837 1.234 5.056 QT
1.234 4.291 1.172 3.658 QT
1.109 3.025 0.836 2.509 QT
0.563 1.994 0 1.994 QT
-0.563 1.994 -0.836 2.517 QT
-1.109 3.041 -1.172 3.666 QT
-1.234 4.291 -1.234 5.056 QT
-1.234 5.603 -1.211 6.095 QT
-1.188 6.587 -1.07 7.119 QT
-0.953 7.65 -0.688 8.002 QT
-0.422 8.353 0 8.353 QT
cp
f
GR
GS
[1 0 0 1 189.125 222] CT
0.149 GC
N
-6.918 8.619 M
-8.137 8.619 -8.582 7.611 QT
-9.028 6.603 -9.028 5.212 QT
-9.028 4.337 -8.872 3.572 QT
-8.715 2.806 -8.239 2.275 QT
-7.762 1.744 -6.918 1.744 QT
-6.262 1.744 -5.84 2.064 QT
-5.418 2.384 -5.2 2.892 QT
-4.981 3.4 -4.903 3.986 QT
-4.825 4.572 -4.825 5.212 QT
-4.825 6.072 -4.981 6.822 QT
-5.137 7.572 -5.598 8.095 QT
-6.059 8.619 -6.918 8.619 QT
cp
-6.918 8.353 M
-6.356 8.353 -6.082 7.783 QT
-5.809 7.212 -5.747 6.525 QT
-5.684 5.837 -5.684 5.056 QT
-5.684 4.291 -5.747 3.658 QT
-5.809 3.025 -6.082 2.509 QT
-6.356 1.994 -6.918 1.994 QT
-7.481 1.994 -7.754 2.517 QT
-8.028 3.041 -8.09 3.666 QT
-8.153 4.291 -8.153 5.056 QT
-8.153 5.603 -8.129 6.095 QT
-8.106 6.587 -7.989 7.119 QT
-7.872 7.65 -7.606 8.002 QT
-7.34 8.353 -6.918 8.353 QT
cp
f
GR
GS
[1 0 0 1 189.125 222] CT
0.149 GC
N
-3.575 7.853 M
-3.575 7.619 -3.411 7.462 QT
-3.247 7.306 -3.028 7.306 QT
-2.887 7.306 -2.754 7.377 QT
-2.622 7.447 -2.551 7.58 QT
-2.481 7.712 -2.481 7.853 QT
-2.481 8.072 -2.645 8.236 QT
-2.809 8.4 -3.028 8.4 QT
-3.247 8.4 -3.411 8.236 QT
-3.575 8.072 -3.575 7.853 QT
cp
f
GR
GS
[1 0 0 1 189.125 222] CT
0.149 GC
N
-0.766 7.259 M
-0.672 7.556 -0.461 7.798 QT
-0.25 8.041 0.047 8.173 QT
0.344 8.306 0.656 8.306 QT
1.375 8.306 1.648 7.744 QT
1.922 7.181 1.922 6.384 QT
1.922 6.025 1.906 5.791 QT
1.891 5.556 1.844 5.337 QT
1.75 4.994 1.516 4.728 QT
1.281 4.462 0.953 4.462 QT
0.609 4.462 0.367 4.564 QT
0.125 4.666 -0.023 4.798 QT
-0.172 4.931 -0.289 5.087 QT
-0.406 5.244 -0.438 5.244 QT
-0.547 5.244 L
-0.578 5.244 -0.617 5.212 QT
-0.656 5.181 -0.656 5.15 QT
-0.656 1.822 L
-0.656 1.791 -0.617 1.767 QT
-0.578 1.744 -0.547 1.744 QT
-0.516 1.744 L
0.156 2.056 0.906 2.056 QT
1.656 2.056 2.344 1.744 QT
2.375 1.744 L
2.406 1.744 2.438 1.767 QT
2.469 1.791 2.469 1.822 QT
2.469 1.916 L
2.469 1.962 2.438 1.962 QT
2.094 2.416 1.578 2.666 QT
1.063 2.916 0.516 2.916 QT
0.125 2.916 -0.297 2.806 QT
-0.297 4.697 L
0.031 4.431 0.289 4.314 QT
0.547 4.197 0.953 4.197 QT
1.516 4.197 1.953 4.517 QT
2.391 4.837 2.625 5.345 QT
2.859 5.853 2.859 6.384 QT
2.859 6.994 2.563 7.502 QT
2.266 8.009 1.758 8.314 QT
1.25 8.619 0.656 8.619 QT
0.156 8.619 -0.258 8.369 QT
-0.672 8.119 -0.906 7.689 QT
-1.141 7.259 -1.141 6.775 QT
-1.141 6.541 -0.992 6.4 QT
-0.844 6.259 -0.625 6.259 QT
-0.406 6.259 -0.258 6.408 QT
-0.109 6.556 -0.109 6.775 QT
-0.109 6.978 -0.258 7.127 QT
-0.406 7.275 -0.625 7.275 QT
-0.656 7.275 -0.703 7.267 QT
-0.75 7.259 -0.766 7.259 QT
cp
f
GR
GS
[1 0 0 1 189.125 222] CT
0.149 GC
N
4.375 8.228 M
4.375 8.181 4.406 8.072 QT
4.688 7.494 4.93 6.931 QT
5.172 6.369 5.367 5.837 QT
5.563 5.306 5.719 4.712 QT
5.078 4.712 L
4.719 4.712 4.398 4.939 QT
4.078 5.166 3.875 5.525 QT
3.844 5.556 3.813 5.556 QT
3.688 5.556 L
3.594 5.556 3.594 5.462 QT
3.594 5.447 3.625 5.4 QT
3.953 4.837 4.32 4.462 QT
4.688 4.087 5.156 4.087 QT
8.797 4.087 L
8.891 4.087 8.961 4.158 QT
9.031 4.228 9.031 4.337 QT
9.031 4.494 8.93 4.603 QT
8.828 4.712 8.688 4.712 QT
7.406 4.712 L
7.25 5.494 7.234 6.244 QT
7.234 7.197 7.563 7.978 QT
7.594 8.041 7.594 8.103 QT
7.594 8.212 7.531 8.306 QT
7.469 8.4 7.367 8.455 QT
7.266 8.509 7.156 8.509 QT
6.891 8.509 6.797 8.08 QT
6.703 7.65 6.703 7.244 QT
6.703 6.681 6.797 6.15 QT
6.891 5.619 7.109 4.712 QT
6.016 4.712 L
5.234 7.916 5.063 8.244 QT
4.922 8.509 4.672 8.509 QT
4.563 8.509 4.469 8.431 QT
4.375 8.353 4.375 8.228 QT
cp
f
GR
GS
[1 0 0 1 234.75 222] CT
0.149 GC
N
-2.014 8.228 M
-2.014 8.181 -1.983 8.072 QT
-1.701 7.494 -1.459 6.931 QT
-1.217 6.369 -1.022 5.837 QT
-0.826 5.306 -0.67 4.712 QT
-1.311 4.712 L
-1.67 4.712 -1.99 4.939 QT
-2.311 5.166 -2.514 5.525 QT
-2.545 5.556 -2.576 5.556 QT
-2.701 5.556 L
-2.795 5.556 -2.795 5.462 QT
-2.795 5.447 -2.764 5.4 QT
-2.436 4.837 -2.069 4.462 QT
-1.701 4.087 -1.233 4.087 QT
2.408 4.087 L
2.502 4.087 2.572 4.158 QT
2.642 4.228 2.642 4.337 QT
2.642 4.494 2.541 4.603 QT
2.439 4.712 2.299 4.712 QT
1.017 4.712 L
0.861 5.494 0.845 6.244 QT
0.845 7.197 1.174 7.978 QT
1.205 8.041 1.205 8.103 QT
1.205 8.212 1.142 8.306 QT
1.08 8.4 0.978 8.455 QT
0.877 8.509 0.767 8.509 QT
0.502 8.509 0.408 8.08 QT
0.314 7.65 0.314 7.244 QT
0.314 6.681 0.408 6.15 QT
0.502 5.619 0.72 4.712 QT
-0.373 4.712 L
-1.155 7.916 -1.326 8.244 QT
-1.467 8.509 -1.717 8.509 QT
-1.826 8.509 -1.92 8.431 QT
-2.014 8.353 -2.014 8.228 QT
cp
f
GR
GS
[1 0 0 1 280.375 222] CT
0.149 GC
N
-8.497 8.4 M
-8.497 8.041 L
-7.247 8.041 -7.247 7.728 QT
-7.247 2.478 L
-7.762 2.728 -8.543 2.728 QT
-8.543 2.384 L
-7.325 2.384 -6.7 1.744 QT
-6.559 1.744 L
-6.528 1.744 -6.497 1.767 QT
-6.465 1.791 -6.465 1.822 QT
-6.465 7.728 L
-6.465 8.041 -5.215 8.041 QT
-5.215 8.4 L
-8.497 8.4 L
cp
f
GR
GS
[1 0 0 1 280.375 222] CT
0.149 GC
N
/f-1664080999{-3.575 7.853 M
-3.575 7.619 -3.411 7.462 QT
-3.247 7.306 -3.028 7.306 QT
-2.887 7.306 -2.754 7.377 QT
-2.622 7.447 -2.551 7.58 QT
-2.481 7.712 -2.481 7.853 QT
-2.481 8.072 -2.645 8.236 QT
-2.809 8.4 -3.028 8.4 QT
-3.247 8.4 -3.411 8.236 QT
-3.575 8.072 -3.575 7.853 QT
cp}def
f-1664080999
f
GR
GS
[1 0 0 1 280.375 222] CT
0.149 GC
N
/f1511736146{-0.766 7.259 M
-0.672 7.556 -0.461 7.798 QT
-0.25 8.041 0.047 8.173 QT
0.344 8.306 0.656 8.306 QT
1.375 8.306 1.648 7.744 QT
1.922 7.181 1.922 6.384 QT
1.922 6.025 1.906 5.791 QT
1.891 5.556 1.844 5.337 QT
1.75 4.994 1.516 4.728 QT
1.281 4.462 0.953 4.462 QT
0.609 4.462 0.367 4.564 QT
0.125 4.666 -0.023 4.798 QT
-0.172 4.931 -0.289 5.087 QT
-0.406 5.244 -0.438 5.244 QT
-0.547 5.244 L
-0.578 5.244 -0.617 5.212 QT
-0.656 5.181 -0.656 5.15 QT
-0.656 1.822 L
-0.656 1.791 -0.617 1.767 QT
-0.578 1.744 -0.547 1.744 QT
-0.516 1.744 L
0.156 2.056 0.906 2.056 QT
1.656 2.056 2.344 1.744 QT
2.375 1.744 L
2.406 1.744 2.438 1.767 QT
2.469 1.791 2.469 1.822 QT
2.469 1.916 L
2.469 1.962 2.438 1.962 QT
2.094 2.416 1.578 2.666 QT
1.063 2.916 0.516 2.916 QT
0.125 2.916 -0.297 2.806 QT
-0.297 4.697 L
0.031 4.431 0.289 4.314 QT
0.547 4.197 0.953 4.197 QT
1.516 4.197 1.953 4.517 QT
2.391 4.837 2.625 5.345 QT
2.859 5.853 2.859 6.384 QT
2.859 6.994 2.563 7.502 QT
2.266 8.009 1.758 8.314 QT
1.25 8.619 0.656 8.619 QT
0.156 8.619 -0.258 8.369 QT
-0.672 8.119 -0.906 7.689 QT
-1.141 7.259 -1.141 6.775 QT
-1.141 6.541 -0.992 6.4 QT
-0.844 6.259 -0.625 6.259 QT
-0.406 6.259 -0.258 6.408 QT
-0.109 6.556 -0.109 6.775 QT
-0.109 6.978 -0.258 7.127 QT
-0.406 7.275 -0.625 7.275 QT
-0.656 7.275 -0.703 7.267 QT
-0.75 7.259 -0.766 7.259 QT
cp}def
f1511736146
f
GR
GS
[1 0 0 1 280.375 222] CT
0.149 GC
N
/f1803605107{4.375 8.228 M
4.375 8.181 4.406 8.072 QT
4.688 7.494 4.93 6.931 QT
5.172 6.369 5.367 5.837 QT
5.563 5.306 5.719 4.712 QT
5.078 4.712 L
4.719 4.712 4.398 4.939 QT
4.078 5.166 3.875 5.525 QT
3.844 5.556 3.813 5.556 QT
3.688 5.556 L
3.594 5.556 3.594 5.462 QT
3.594 5.447 3.625 5.4 QT
3.953 4.837 4.32 4.462 QT
4.688 4.087 5.156 4.087 QT
8.797 4.087 L
8.891 4.087 8.961 4.158 QT
9.031 4.228 9.031 4.337 QT
9.031 4.494 8.93 4.603 QT
8.828 4.712 8.688 4.712 QT
7.406 4.712 L
7.25 5.494 7.234 6.244 QT
7.234 7.197 7.563 7.978 QT
7.594 8.041 7.594 8.103 QT
7.594 8.212 7.531 8.306 QT
7.469 8.4 7.367 8.455 QT
7.266 8.509 7.156 8.509 QT
6.891 8.509 6.797 8.08 QT
6.703 7.65 6.703 7.244 QT
6.703 6.681 6.797 6.15 QT
6.891 5.619 7.109 4.712 QT
6.016 4.712 L
5.234 7.916 5.063 8.244 QT
4.922 8.509 4.672 8.509 QT
4.563 8.509 4.469 8.431 QT
4.375 8.353 4.375 8.228 QT
cp}def
f1803605107
f
GR
GS
[1 0 0 1 326 222] CT
0.149 GC
N
/f881210254{-5.03 8.4 M
-5.03 8.134 L
-5.03 8.103 -5.014 8.072 QT
-3.451 6.353 L
-3.108 5.978 -2.889 5.72 QT
-2.67 5.462 -2.451 5.127 QT
-2.233 4.791 -2.108 4.439 QT
-1.983 4.087 -1.983 3.697 QT
-1.983 3.291 -2.139 2.916 QT
-2.295 2.541 -2.592 2.314 QT
-2.889 2.087 -3.311 2.087 QT
-3.748 2.087 -4.1 2.353 QT
-4.451 2.619 -4.592 3.025 QT
-4.545 3.025 -4.483 3.025 QT
-4.248 3.025 -4.092 3.173 QT
-3.936 3.322 -3.936 3.556 QT
-3.936 3.791 -4.092 3.947 QT
-4.248 4.103 -4.483 4.103 QT
-4.717 4.103 -4.873 3.939 QT
-5.03 3.775 -5.03 3.556 QT
-5.03 3.181 -4.889 2.853 QT
-4.748 2.525 -4.483 2.267 QT
-4.217 2.009 -3.881 1.877 QT
-3.545 1.744 -3.17 1.744 QT
-2.592 1.744 -2.1 1.986 QT
-1.608 2.228 -1.319 2.666 QT
-1.03 3.103 -1.03 3.697 QT
-1.03 4.134 -1.225 4.525 QT
-1.42 4.916 -1.717 5.236 QT
-2.014 5.556 -2.475 5.962 QT
-2.936 6.369 -3.092 6.494 QT
-4.217 7.587 L
-3.264 7.587 L
-2.545 7.587 -2.069 7.58 QT
-1.592 7.572 -1.576 7.541 QT
-1.451 7.416 -1.326 6.619 QT
-1.03 6.619 L
-1.326 8.4 L
-5.03 8.4 L
cp}def
f881210254
f
GR
GS
[1 0 0 1 326 222] CT
0.149 GC
N
/f1130178499{0.486 8.228 M
0.486 8.181 0.517 8.072 QT
0.799 7.494 1.041 6.931 QT
1.283 6.369 1.478 5.837 QT
1.674 5.306 1.83 4.712 QT
1.189 4.712 L
0.83 4.712 0.51 4.939 QT
0.189 5.166 -0.014 5.525 QT
-0.045 5.556 -0.076 5.556 QT
-0.201 5.556 L
-0.295 5.556 -0.295 5.462 QT
-0.295 5.447 -0.264 5.4 QT
0.064 4.837 0.431 4.462 QT
0.799 4.087 1.267 4.087 QT
4.908 4.087 L
5.002 4.087 5.072 4.158 QT
5.142 4.228 5.142 4.337 QT
5.142 4.494 5.041 4.603 QT
4.939 4.712 4.799 4.712 QT
3.517 4.712 L
3.361 5.494 3.345 6.244 QT
3.345 7.197 3.674 7.978 QT
3.705 8.041 3.705 8.103 QT
3.705 8.212 3.642 8.306 QT
3.58 8.4 3.478 8.455 QT
3.377 8.509 3.267 8.509 QT
3.002 8.509 2.908 8.08 QT
2.814 7.65 2.814 7.244 QT
2.814 6.681 2.908 6.15 QT
3.002 5.619 3.22 4.712 QT
2.127 4.712 L
1.345 7.916 1.174 8.244 QT
1.033 8.509 0.783 8.509 QT
0.674 8.509 0.58 8.431 QT
0.486 8.353 0.486 8.228 QT
cp}def
f1130178499
f
GR
GS
[1 0 0 1 234.75009 235] CT
0.149 GC
N
/f-1977375229{-1.152 11.381 M
-0.652 9.396 L
-1.215 9.396 -1.699 9.138 QT
-2.183 8.881 -2.472 8.412 QT
-2.761 7.943 -2.761 7.396 QT
-2.761 6.802 -2.465 6.256 QT
-2.168 5.709 -1.66 5.263 QT
-1.152 4.818 -0.558 4.584 QT
0.035 4.349 0.614 4.349 QT
1.285 1.677 L
1.301 1.615 1.364 1.615 QT
1.504 1.615 L
1.535 1.615 1.567 1.646 QT
1.598 1.677 1.598 1.709 QT
0.942 4.349 L
1.348 4.349 1.731 4.498 QT
2.114 4.646 2.418 4.92 QT
2.723 5.193 2.887 5.56 QT
3.051 5.927 3.051 6.349 QT
3.051 6.943 2.754 7.482 QT
2.457 8.021 1.957 8.459 QT
1.457 8.896 0.84 9.146 QT
0.223 9.396 -0.324 9.396 QT
-0.84 11.427 L
-0.855 11.49 -0.918 11.49 QT
-1.058 11.49 L
-1.09 11.49 -1.121 11.451 QT
-1.152 11.412 -1.152 11.381 QT
cp
-0.574 9.099 M
0.535 4.631 L
0.27 4.631 -0.043 4.74 QT
-0.355 4.849 -0.621 5.021 QT
-0.886 5.193 -1.105 5.427 QT
-1.386 5.693 -1.59 6.06 QT
-1.793 6.427 -1.894 6.826 QT
-1.996 7.224 -1.996 7.631 QT
-1.996 8.037 -1.816 8.373 QT
-1.636 8.709 -1.316 8.904 QT
-0.996 9.099 -0.574 9.099 QT
cp
-0.246 9.099 M
0.16 9.099 0.629 8.865 QT
1.098 8.631 1.395 8.318 QT
1.817 7.912 2.051 7.318 QT
2.285 6.724 2.285 6.115 QT
2.285 5.709 2.106 5.365 QT
1.926 5.021 1.606 4.826 QT
1.285 4.631 0.864 4.631 QT
-0.246 9.099 L
cp}def
f-1977375229
f
GR
GS
0.149 GC
2 setlinecap
1 LJ
0.5 LW
N
143.5 218 M
143.5 27 L
S
GR
GS
0.149 GC
2 setlinecap
1 LJ
0.5 LW
N
326 218 M
326 27 L
S
GR
GS
0.149 GC
2 setlinecap
1 LJ
0.5 LW
N
143.5 218 M
145.41 218 L
S
GR
GS
0.149 GC
2 setlinecap
1 LJ
0.5 LW
N
143.5 170.25 M
145.41 170.25 L
S
GR
GS
0.149 GC
2 setlinecap
1 LJ
0.5 LW
N
143.5 122.5 M
145.41 122.5 L
S
GR
GS
0.149 GC
2 setlinecap
1 LJ
0.5 LW
N
143.5 74.75 M
145.41 74.75 L
S
GR
GS
0.149 GC
2 setlinecap
1 LJ
0.5 LW
N
143.5 27 M
145.41 27 L
S
GR
GS
0.149 GC
2 setlinecap
1 LJ
0.5 LW
N
326 218 M
324.09 218 L
S
GR
GS
0.149 GC
2 setlinecap
1 LJ
0.5 LW
N
326 170.25 M
324.09 170.25 L
S
GR
GS
0.149 GC
2 setlinecap
1 LJ
0.5 LW
N
326 122.5 M
324.09 122.5 L
S
GR
GS
0.149 GC
2 setlinecap
1 LJ
0.5 LW
N
326 74.75 M
324.09 74.75 L
S
GR
GS
0.149 GC
2 setlinecap
1 LJ
0.5 LW
N
326 27 M
324.09 27 L
S
GR
GS
[1 0 0 1 139.5 218] CT
0.149 GC
N
/f-936410320{-12.821 0.103 M
-12.899 0.103 -12.954 0.041 QT
-13.009 -0.022 -13.009 -0.1 QT
-13.009 -0.178 -12.954 -0.241 QT
-12.899 -0.303 -12.821 -0.303 QT
-7.071 -0.303 L
-6.993 -0.303 -6.946 -0.241 QT
-6.899 -0.178 -6.899 -0.1 QT
-6.899 -0.022 -6.946 0.041 QT
-6.993 0.103 -7.071 0.103 QT
-12.821 0.103 L
cp}def
f-936410320
f
GR
GS
[1 0 0 1 139.5 218] CT
0.149 GC
N
/f183725701{-5.043 2.228 M
-5.043 2.181 -5.012 2.072 QT
-4.731 1.494 -4.489 0.931 QT
-4.247 0.369 -4.051 -0.163 QT
-3.856 -0.694 -3.7 -1.288 QT
-4.34 -1.288 L
-4.7 -1.288 -5.02 -1.061 QT
-5.34 -0.834 -5.543 -0.475 QT
-5.575 -0.444 -5.606 -0.444 QT
-5.731 -0.444 L
-5.825 -0.444 -5.825 -0.538 QT
-5.825 -0.553 -5.793 -0.6 QT
-5.465 -1.163 -5.098 -1.538 QT
-4.731 -1.913 -4.262 -1.913 QT
-0.622 -1.913 L
-0.528 -1.913 -0.457 -1.842 QT
-0.387 -1.772 -0.387 -1.663 QT
-0.387 -1.506 -0.489 -1.397 QT
-0.59 -1.288 -0.731 -1.288 QT
-2.012 -1.288 L
-2.168 -0.506 -2.184 0.244 QT
-2.184 1.197 -1.856 1.978 QT
-1.825 2.041 -1.825 2.103 QT
-1.825 2.212 -1.887 2.306 QT
-1.95 2.4 -2.051 2.455 QT
-2.153 2.509 -2.262 2.509 QT
-2.528 2.509 -2.622 2.08 QT
-2.715 1.65 -2.715 1.244 QT
-2.715 0.681 -2.622 0.15 QT
-2.528 -0.381 -2.309 -1.288 QT
-3.403 -1.288 L
-4.184 1.916 -4.356 2.244 QT
-4.497 2.509 -4.747 2.509 QT
-4.856 2.509 -4.95 2.431 QT
-5.043 2.353 -5.043 2.228 QT
cp}def
f183725701
f
GR
GS
[1 0 0 1 139.5 170.25] CT
0.149 GC
N
/f-1330530326{-25.599 0.103 M
-25.677 0.103 -25.732 0.041 QT
-25.787 -0.022 -25.787 -0.1 QT
-25.787 -0.178 -25.732 -0.241 QT
-25.677 -0.303 -25.599 -0.303 QT
-19.849 -0.303 L
-19.771 -0.303 -19.724 -0.241 QT
-19.677 -0.178 -19.677 -0.1 QT
-19.677 -0.022 -19.724 0.041 QT
-19.771 0.103 -19.849 0.103 QT
-25.599 0.103 L
cp}def
f-1330530326
f
GR
GS
[1 0 0 1 139.5 170.25] CT
0.149 GC
N
/f-1860464567{-16.337 2.619 M
-17.556 2.619 -18.001 1.611 QT
-18.446 0.603 -18.446 -0.788 QT
-18.446 -1.663 -18.29 -2.428 QT
-18.134 -3.194 -17.657 -3.725 QT
-17.181 -4.256 -16.337 -4.256 QT
-15.681 -4.256 -15.259 -3.936 QT
-14.837 -3.616 -14.618 -3.108 QT
-14.399 -2.6 -14.321 -2.014 QT
-14.243 -1.428 -14.243 -0.788 QT
-14.243 0.072 -14.399 0.822 QT
-14.556 1.572 -15.017 2.095 QT
-15.477 2.619 -16.337 2.619 QT
cp
-16.337 2.353 M
-15.774 2.353 -15.501 1.783 QT
-15.227 1.212 -15.165 0.525 QT
-15.102 -0.163 -15.102 -0.944 QT
-15.102 -1.709 -15.165 -2.342 QT
-15.227 -2.975 -15.501 -3.491 QT
-15.774 -4.006 -16.337 -4.006 QT
-16.899 -4.006 -17.173 -3.483 QT
-17.446 -2.959 -17.509 -2.334 QT
-17.571 -1.709 -17.571 -0.944 QT
-17.571 -0.397 -17.548 0.095 QT
-17.524 0.587 -17.407 1.119 QT
-17.29 1.65 -17.024 2.002 QT
-16.759 2.353 -16.337 2.353 QT
cp}def
f-1860464567
f
GR
GS
[1 0 0 1 139.5 170.25] CT
0.149 GC
N
/f-711540231{-12.993 1.853 M
-12.993 1.619 -12.829 1.462 QT
-12.665 1.306 -12.446 1.306 QT
-12.306 1.306 -12.173 1.377 QT
-12.04 1.447 -11.97 1.58 QT
-11.899 1.712 -11.899 1.853 QT
-11.899 2.072 -12.063 2.236 QT
-12.227 2.4 -12.446 2.4 QT
-12.665 2.4 -12.829 2.236 QT
-12.993 2.072 -12.993 1.853 QT
cp}def
f-711540231
f
GR
GS
[1 0 0 1 139.5 170.25] CT
0.149 GC
N
/f353734786{-10.184 1.259 M
-10.09 1.556 -9.879 1.798 QT
-9.668 2.041 -9.372 2.173 QT
-9.075 2.306 -8.762 2.306 QT
-8.043 2.306 -7.77 1.744 QT
-7.497 1.181 -7.497 0.384 QT
-7.497 0.025 -7.512 -0.209 QT
-7.528 -0.444 -7.575 -0.663 QT
-7.668 -1.006 -7.903 -1.272 QT
-8.137 -1.538 -8.465 -1.538 QT
-8.809 -1.538 -9.051 -1.436 QT
-9.293 -1.334 -9.442 -1.202 QT
-9.59 -1.069 -9.708 -0.913 QT
-9.825 -0.756 -9.856 -0.756 QT
-9.965 -0.756 L
-9.997 -0.756 -10.036 -0.788 QT
-10.075 -0.819 -10.075 -0.85 QT
-10.075 -4.178 L
-10.075 -4.209 -10.036 -4.233 QT
-9.997 -4.256 -9.965 -4.256 QT
-9.934 -4.256 L
-9.262 -3.944 -8.512 -3.944 QT
-7.762 -3.944 -7.075 -4.256 QT
-7.043 -4.256 L
-7.012 -4.256 -6.981 -4.233 QT
-6.95 -4.209 -6.95 -4.178 QT
-6.95 -4.084 L
-6.95 -4.038 -6.981 -4.038 QT
-7.325 -3.584 -7.84 -3.334 QT
-8.356 -3.084 -8.903 -3.084 QT
-9.293 -3.084 -9.715 -3.194 QT
-9.715 -1.303 L
-9.387 -1.569 -9.129 -1.686 QT
-8.872 -1.803 -8.465 -1.803 QT
-7.903 -1.803 -7.465 -1.483 QT
-7.028 -1.163 -6.793 -0.655 QT
-6.559 -0.147 -6.559 0.384 QT
-6.559 0.994 -6.856 1.502 QT
-7.153 2.009 -7.661 2.314 QT
-8.168 2.619 -8.762 2.619 QT
-9.262 2.619 -9.676 2.369 QT
-10.09 2.119 -10.325 1.689 QT
-10.559 1.259 -10.559 0.775 QT
-10.559 0.541 -10.411 0.4 QT
-10.262 0.259 -10.043 0.259 QT
-9.825 0.259 -9.676 0.408 QT
-9.528 0.556 -9.528 0.775 QT
-9.528 0.978 -9.676 1.127 QT
-9.825 1.275 -10.043 1.275 QT
-10.075 1.275 -10.122 1.267 QT
-10.168 1.259 -10.184 1.259 QT
cp}def
f353734786
f
GR
GS
[1 0 0 1 139.5 170.25] CT
0.149 GC
N
f183725701
f
GR
GS
[1 0 0 1 139.5 122.5] CT
0.149 GC
N
/f218240023{-2.5 2.619 M
-3.719 2.619 -4.164 1.611 QT
-4.609 0.603 -4.609 -0.788 QT
-4.609 -1.663 -4.453 -2.428 QT
-4.297 -3.194 -3.82 -3.725 QT
-3.344 -4.256 -2.5 -4.256 QT
-1.844 -4.256 -1.422 -3.936 QT
-1 -3.616 -0.781 -3.108 QT
-0.563 -2.6 -0.484 -2.014 QT
-0.406 -1.428 -0.406 -0.788 QT
-0.406 0.072 -0.563 0.822 QT
-0.719 1.572 -1.18 2.095 QT
-1.641 2.619 -2.5 2.619 QT
cp
-2.5 2.353 M
-1.938 2.353 -1.664 1.783 QT
-1.391 1.212 -1.328 0.525 QT
-1.266 -0.163 -1.266 -0.944 QT
-1.266 -1.709 -1.328 -2.342 QT
-1.391 -2.975 -1.664 -3.491 QT
-1.938 -4.006 -2.5 -4.006 QT
-3.063 -4.006 -3.336 -3.483 QT
-3.609 -2.959 -3.672 -2.334 QT
-3.734 -1.709 -3.734 -0.944 QT
-3.734 -0.397 -3.711 0.095 QT
-3.688 0.587 -3.57 1.119 QT
-3.453 1.65 -3.188 2.002 QT
-2.922 2.353 -2.5 2.353 QT
cp}def
f218240023
f
GR
GS
[1 0 0 1 139.5 74.75] CT
0.149 GC
N
f-1860464567
f
GR
GS
[1 0 0 1 139.5 74.75] CT
0.149 GC
N
f-711540231
f
GR
GS
[1 0 0 1 139.5 74.75] CT
0.149 GC
N
f353734786
f
GR
GS
[1 0 0 1 139.5 74.75] CT
0.149 GC
N
f183725701
f
GR
GS
[1 0 0 1 139.5 27] CT
0.149 GC
N
f183725701
f
GR
GS
[0 -1 1 0 109.88533 122.49991] CT
0.149 GC
N
/f2077318969{-6.724 -3.96 M
-6.818 -3.96 -6.818 -4.054 QT
-6.802 -4.054 -6.802 -4.062 QT
-6.802 -4.069 -6.802 -4.085 QT
-3.021 -11.71 L
-2.974 -11.835 -2.818 -11.835 QT
-2.662 -11.835 L
-2.521 -11.835 -2.474 -11.71 QT
1.323 -4.085 L
1.323 -4.069 1.323 -4.062 QT
1.323 -4.054 1.323 -4.054 QT
1.323 -3.96 1.244 -3.96 QT
-6.724 -3.96 L
cp
-5.99 -4.835 M
-0.209 -4.835 L
-3.099 -10.679 L
-5.99 -4.835 L
cp}def
f2077318969
f
GR
GS
[0 -1 1 0 109.88533 122.49991] CT
0.149 GC
N
/f-389438575{3.614 -3.835 M
3.114 -3.835 2.817 -4.202 QT
2.521 -4.569 2.403 -5.085 QT
2.286 -5.601 2.286 -6.101 QT
2.286 -6.116 L
2.286 -6.663 2.396 -7.257 QT
2.505 -7.851 2.7 -8.437 QT
2.896 -9.023 3.13 -9.476 QT
3.286 -9.804 3.544 -10.202 QT
3.802 -10.601 4.114 -10.944 QT
4.427 -11.288 4.786 -11.499 QT
5.146 -11.71 5.521 -11.71 QT
5.536 -11.71 L
5.927 -11.71 6.192 -11.491 QT
6.458 -11.273 6.606 -10.929 QT
6.755 -10.585 6.817 -10.194 QT
6.88 -9.804 6.88 -9.444 QT
6.88 -8.616 6.653 -7.749 QT
6.427 -6.882 6.021 -6.069 QT
5.88 -5.773 5.614 -5.358 QT
5.349 -4.944 5.052 -4.616 QT
4.755 -4.288 4.38 -4.062 QT
4.005 -3.835 3.63 -3.835 QT
3.614 -3.835 L
cp
3.646 -4.132 M
4.005 -4.132 4.341 -4.523 QT
4.677 -4.913 4.927 -5.468 QT
5.177 -6.023 5.372 -6.601 QT
5.567 -7.179 5.661 -7.585 QT
3.411 -7.585 L
3.239 -6.898 3.146 -6.398 QT
3.052 -5.898 3.052 -5.413 QT
3.052 -4.132 3.646 -4.132 QT
cp
3.505 -7.976 M
5.755 -7.976 L
5.864 -8.46 5.935 -8.788 QT
6.005 -9.116 6.06 -9.476 QT
6.114 -9.835 6.114 -10.148 QT
6.114 -11.429 5.521 -11.429 QT
4.817 -11.429 4.31 -10.304 QT
3.802 -9.179 3.505 -7.976 QT
cp}def
f-389438575
f
GR
GS
0.8 0 0 RC
1 LJ
N
143.5 218 M
145.325 216.09 L
147.15 214.18 L
148.975 212.27 L
150.8 210.36 L
152.625 208.45 L
154.45 206.54 L
156.275 204.63 L
158.1 202.72 L
159.925 200.81 L
161.75 198.9 L
163.575 196.99 L
165.4 195.08 L
167.225 193.17 L
169.05 191.26 L
170.875 189.35 L
172.7 187.44 L
174.525 185.53 L
176.35 183.62 L
178.175 181.71 L
180 179.8 L
181.825 177.89 L
183.65 175.98 L
185.475 174.07 L
187.3 172.16 L
189.125 170.25 L
190.95 168.34 L
192.775 166.43 L
194.6 164.52 L
196.425 162.61 L
198.25 160.7 L
200.075 158.79 L
201.9 156.88 L
203.725 154.97 L
205.55 153.06 L
207.375 151.15 L
209.2 149.24 L
211.025 147.33 L
212.85 145.42 L
214.675 143.51 L
216.5 141.6 L
218.325 139.69 L
220.15 137.78 L
221.975 135.87 L
223.8 133.96 L
225.625 132.05 L
227.45 130.14 L
229.275 128.23 L
231.1 126.32 L
232.925 124.41 L
234.75 122.5 L
236.575 120.59 L
238.4 118.68 L
240.225 116.77 L
242.05 114.86 L
243.875 112.95 L
245.7 111.04 L
247.525 109.13 L
249.35 107.22 L
251.175 105.31 L
253 103.4 L
254.825 101.49 L
256.65 99.58 L
258.475 97.67 L
260.3 95.76 L
262.125 93.85 L
263.95 91.94 L
265.775 90.03 L
267.6 88.12 L
269.425 86.21 L
271.25 84.3 L
273.075 82.39 L
274.9 80.48 L
276.725 78.57 L
278.55 76.66 L
280.375 74.75 L
282.2 72.84 L
284.025 70.93 L
285.85 69.02 L
287.675 67.11 L
289.5 65.2 L
291.325 63.29 L
293.15 61.38 L
294.975 59.47 L
296.8 57.56 L
298.625 55.65 L
300.45 53.74 L
302.275 51.83 L
304.1 49.92 L
305.925 48.01 L
307.75 46.1 L
309.575 44.19 L
311.4 42.28 L
313.225 40.37 L
315.05 38.46 L
316.875 36.55 L
318.7 34.64 L
320.525 32.73 L
322.35 30.82 L
324.175 28.91 L
326 27 L
S
GR
%%Trailer
%%Pages: 1
%%EOF
