%!PS-Adobe-3.0 EPSF-3.0
%%Creator: (MATLAB, The Mathworks, Inc. Version 9.3.0.713579 \(R2017b\). Operating System: Mac OS X)
%%Title: ./dth_thp.eps
%%CreationDate: 2018-06-29T09:47:24
%%Pages: (atend)
%%BoundingBox:    49    61   332   335
%%LanguageLevel: 3
%%EndComments
%%BeginProlog
%%BeginResource: procset (Apache XML Graphics Std ProcSet) 1.2 0
%%Version: 1.2 0
%%Copyright: (Copyright 2001-2003,2010 The Apache Software Foundation. License terms: http://www.apache.org/licenses/LICENSE-2.0)
/bd{bind def}bind def
/ld{load def}bd
/GR/grestore ld
/GS/gsave ld
/RM/rmoveto ld
/C/curveto ld
/t/show ld
/L/lineto ld
/ML/setmiterlimit ld
/CT/concat ld
/f/fill ld
/N/newpath ld
/S/stroke ld
/CC/setcmykcolor ld
/A/ashow ld
/cp/closepath ld
/RC/setrgbcolor ld
/LJ/setlinejoin ld
/GC/setgray ld
/LW/setlinewidth ld
/M/moveto ld
/re {4 2 roll M
1 index 0 rlineto
0 exch rlineto
neg 0 rlineto
cp } bd
/_ctm matrix def
/_tm matrix def
/BT { _ctm currentmatrix pop matrix _tm copy pop 0 0 moveto } bd
/ET { _ctm setmatrix } bd
/iTm { _ctm setmatrix _tm concat } bd
/Tm { _tm astore pop iTm 0 0 moveto } bd
/ux 0.0 def
/uy 0.0 def
/F {
  /Tp exch def
  /Tf exch def
  Tf findfont Tp scalefont setfont
  /cf Tf def  /cs Tp def
} bd
/ULS {currentpoint /uy exch def /ux exch def} bd
/ULE {
  /Tcx currentpoint pop def
  gsave
  newpath
  cf findfont cs scalefont dup
  /FontMatrix get 0 get /Ts exch def /FontInfo get dup
  /UnderlinePosition get Ts mul /To exch def
  /UnderlineThickness get Ts mul /Tt exch def
  ux uy To add moveto  Tcx uy To add lineto
  Tt setlinewidth stroke
  grestore
} bd
/OLE {
  /Tcx currentpoint pop def
  gsave
  newpath
  cf findfont cs scalefont dup
  /FontMatrix get 0 get /Ts exch def /FontInfo get dup
  /UnderlinePosition get Ts mul /To exch def
  /UnderlineThickness get Ts mul /Tt exch def
  ux uy To add cs add moveto Tcx uy To add cs add lineto
  Tt setlinewidth stroke
  grestore
} bd
/SOE {
  /Tcx currentpoint pop def
  gsave
  newpath
  cf findfont cs scalefont dup
  /FontMatrix get 0 get /Ts exch def /FontInfo get dup
  /UnderlinePosition get Ts mul /To exch def
  /UnderlineThickness get Ts mul /Tt exch def
  ux uy To add cs 10 mul 26 idiv add moveto Tcx uy To add cs 10 mul 26 idiv add lineto
  Tt setlinewidth stroke
  grestore
} bd
/QT {
/Y22 exch store
/X22 exch store
/Y21 exch store
/X21 exch store
currentpoint
/Y21 load 2 mul add 3 div exch
/X21 load 2 mul add 3 div exch
/X21 load 2 mul /X22 load add 3 div
/Y21 load 2 mul /Y22 load add 3 div
/X22 load /Y22 load curveto
} bd
/SSPD {
dup length /d exch dict def
{
/v exch def
/k exch def
currentpagedevice k known {
/cpdv currentpagedevice k get def
v cpdv ne {
/upd false def
/nullv v type /nulltype eq def
/nullcpdv cpdv type /nulltype eq def
nullv nullcpdv or
{
/upd true def
} {
/sametype v type cpdv type eq def
sametype {
v type /arraytype eq {
/vlen v length def
/cpdvlen cpdv length def
vlen cpdvlen eq {
0 1 vlen 1 sub {
/i exch def
/obj v i get def
/cpdobj cpdv i get def
obj cpdobj ne {
/upd true def
exit
} if
} for
} {
/upd true def
} ifelse
} {
v type /dicttype eq {
v {
/dv exch def
/dk exch def
/cpddv cpdv dk get def
dv cpddv ne {
/upd true def
exit
} if
} forall
} {
/upd true def
} ifelse
} ifelse
} if
} ifelse
upd true eq {
d k v put
} if
} if
} if
} forall
d length 0 gt {
d setpagedevice
} if
} bd
/RE { % /NewFontName [NewEncodingArray] /FontName RE -
  findfont dup length dict begin
  {
    1 index /FID ne
    {def} {pop pop} ifelse
  } forall
  /Encoding exch def
  /FontName 1 index def
  currentdict definefont pop
  end
} bind def
%%EndResource
%%BeginResource: procset (Apache XML Graphics EPS ProcSet) 1.0 0
%%Version: 1.0 0
%%Copyright: (Copyright 2002-2003 The Apache Software Foundation. License terms: http://www.apache.org/licenses/LICENSE-2.0)
/BeginEPSF { %def
/b4_Inc_state save def         % Save state for cleanup
/dict_count countdictstack def % Count objects on dict stack
/op_count count 1 sub def      % Count objects on operand stack
userdict begin                 % Push userdict on dict stack
/showpage { } def              % Redefine showpage, { } = null proc
0 setgray 0 setlinecap         % Prepare graphics state
1 setlinewidth 0 setlinejoin
10 setmiterlimit [ ] 0 setdash newpath
/languagelevel where           % If level not equal to 1 then
{pop languagelevel             % set strokeadjust and
1 ne                           % overprint to their defaults.
{false setstrokeadjust false setoverprint
} if
} if
} bd
/EndEPSF { %def
count op_count sub {pop} repeat            % Clean up stacks
countdictstack dict_count sub {end} repeat
b4_Inc_state restore
} bd
%%EndResource
%FOPBeginFontDict
%%IncludeResource: font Courier-Oblique
%%IncludeResource: font Courier-BoldOblique
%%IncludeResource: font Courier-Bold
%%IncludeResource: font ZapfDingbats
%%IncludeResource: font Symbol
%%IncludeResource: font Helvetica
%%IncludeResource: font Helvetica-Oblique
%%IncludeResource: font Helvetica-Bold
%%IncludeResource: font Helvetica-BoldOblique
%%IncludeResource: font Times-Roman
%%IncludeResource: font Times-Italic
%%IncludeResource: font Times-Bold
%%IncludeResource: font Times-BoldItalic
%%IncludeResource: font Courier
%FOPEndFontDict
%%BeginResource: encoding WinAnsiEncoding
/WinAnsiEncoding [
/.notdef /.notdef /.notdef /.notdef /.notdef
/.notdef /.notdef /.notdef /.notdef /.notdef
/.notdef /.notdef /.notdef /.notdef /.notdef
/.notdef /.notdef /.notdef /.notdef /.notdef
/.notdef /.notdef /.notdef /.notdef /.notdef
/.notdef /.notdef /.notdef /.notdef /.notdef
/.notdef /.notdef /space /exclam /quotedbl
/numbersign /dollar /percent /ampersand /quotesingle
/parenleft /parenright /asterisk /plus /comma
/hyphen /period /slash /zero /one
/two /three /four /five /six
/seven /eight /nine /colon /semicolon
/less /equal /greater /question /at
/A /B /C /D /E
/F /G /H /I /J
/K /L /M /N /O
/P /Q /R /S /T
/U /V /W /X /Y
/Z /bracketleft /backslash /bracketright /asciicircum
/underscore /quoteleft /a /b /c
/d /e /f /g /h
/i /j /k /l /m
/n /o /p /q /r
/s /t /u /v /w
/x /y /z /braceleft /bar
/braceright /asciitilde /bullet /Euro /bullet
/quotesinglbase /florin /quotedblbase /ellipsis /dagger
/daggerdbl /circumflex /perthousand /Scaron /guilsinglleft
/OE /bullet /Zcaron /bullet /bullet
/quoteleft /quoteright /quotedblleft /quotedblright /bullet
/endash /emdash /asciitilde /trademark /scaron
/guilsinglright /oe /bullet /zcaron /Ydieresis
/space /exclamdown /cent /sterling /currency
/yen /brokenbar /section /dieresis /copyright
/ordfeminine /guillemotleft /logicalnot /sfthyphen /registered
/macron /degree /plusminus /twosuperior /threesuperior
/acute /mu /paragraph /middot /cedilla
/onesuperior /ordmasculine /guillemotright /onequarter /onehalf
/threequarters /questiondown /Agrave /Aacute /Acircumflex
/Atilde /Adieresis /Aring /AE /Ccedilla
/Egrave /Eacute /Ecircumflex /Edieresis /Igrave
/Iacute /Icircumflex /Idieresis /Eth /Ntilde
/Ograve /Oacute /Ocircumflex /Otilde /Odieresis
/multiply /Oslash /Ugrave /Uacute /Ucircumflex
/Udieresis /Yacute /Thorn /germandbls /agrave
/aacute /acircumflex /atilde /adieresis /aring
/ae /ccedilla /egrave /eacute /ecircumflex
/edieresis /igrave /iacute /icircumflex /idieresis
/eth /ntilde /ograve /oacute /ocircumflex
/otilde /odieresis /divide /oslash /ugrave
/uacute /ucircumflex /udieresis /yacute /thorn
/ydieresis
] def
%%EndResource
%FOPBeginFontReencode
/Courier-Oblique findfont
dup length dict begin
  {1 index /FID ne {def} {pop pop} ifelse} forall
  /Encoding WinAnsiEncoding def
  currentdict
end
/Courier-Oblique exch definefont pop
/Courier-BoldOblique findfont
dup length dict begin
  {1 index /FID ne {def} {pop pop} ifelse} forall
  /Encoding WinAnsiEncoding def
  currentdict
end
/Courier-BoldOblique exch definefont pop
/Courier-Bold findfont
dup length dict begin
  {1 index /FID ne {def} {pop pop} ifelse} forall
  /Encoding WinAnsiEncoding def
  currentdict
end
/Courier-Bold exch definefont pop
/Helvetica findfont
dup length dict begin
  {1 index /FID ne {def} {pop pop} ifelse} forall
  /Encoding WinAnsiEncoding def
  currentdict
end
/Helvetica exch definefont pop
/Helvetica-Oblique findfont
dup length dict begin
  {1 index /FID ne {def} {pop pop} ifelse} forall
  /Encoding WinAnsiEncoding def
  currentdict
end
/Helvetica-Oblique exch definefont pop
/Helvetica-Bold findfont
dup length dict begin
  {1 index /FID ne {def} {pop pop} ifelse} forall
  /Encoding WinAnsiEncoding def
  currentdict
end
/Helvetica-Bold exch definefont pop
/Helvetica-BoldOblique findfont
dup length dict begin
  {1 index /FID ne {def} {pop pop} ifelse} forall
  /Encoding WinAnsiEncoding def
  currentdict
end
/Helvetica-BoldOblique exch definefont pop
/Times-Roman findfont
dup length dict begin
  {1 index /FID ne {def} {pop pop} ifelse} forall
  /Encoding WinAnsiEncoding def
  currentdict
end
/Times-Roman exch definefont pop
/Times-Italic findfont
dup length dict begin
  {1 index /FID ne {def} {pop pop} ifelse} forall
  /Encoding WinAnsiEncoding def
  currentdict
end
/Times-Italic exch definefont pop
/Times-Bold findfont
dup length dict begin
  {1 index /FID ne {def} {pop pop} ifelse} forall
  /Encoding WinAnsiEncoding def
  currentdict
end
/Times-Bold exch definefont pop
/Times-BoldItalic findfont
dup length dict begin
  {1 index /FID ne {def} {pop pop} ifelse} forall
  /Encoding WinAnsiEncoding def
  currentdict
end
/Times-BoldItalic exch definefont pop
/Courier findfont
dup length dict begin
  {1 index /FID ne {def} {pop pop} ifelse} forall
  /Encoding WinAnsiEncoding def
  currentdict
end
/Courier exch definefont pop
%FOPEndFontReencode
%%EndProlog
%%Page: 1 1
%%PageBoundingBox: 0 0 360 360
%%BeginPageSetup
[1 0 0 -1 0 360] CT
%%EndPageSetup
GS
1 GC
N
0 0 360 360 re
f
GR
GS
1 GC
N
0 0 360 360 re
f
GR
GS
1 GC
N
132 218 M
132 27 L
95 27 L
95 218 L
cp
f
GR
GS
0.149 GC
2 setlinecap
1 LJ
0.5 LW
N
95 218 M
95 27 L
S
GR
GS
0.149 GC
2 setlinecap
1 LJ
0.5 LW
N
132 218 M
132 27 L
S
GR
GS
0.149 GC
2 setlinecap
1 LJ
0.5 LW
N
95 218 M
96.91 218 L
S
GR
GS
0.149 GC
2 setlinecap
1 LJ
0.5 LW
N
95 170.25 M
96.91 170.25 L
S
GR
GS
0.149 GC
2 setlinecap
1 LJ
0.5 LW
N
95 122.5 M
96.91 122.5 L
S
GR
GS
0.149 GC
2 setlinecap
1 LJ
0.5 LW
N
95 74.75 M
96.91 74.75 L
S
GR
GS
0.149 GC
2 setlinecap
1 LJ
0.5 LW
N
95 27 M
96.91 27 L
S
GR
GS
0.149 GC
2 setlinecap
1 LJ
0.5 LW
N
132 218 M
130.09 218 L
S
GR
GS
0.149 GC
2 setlinecap
1 LJ
0.5 LW
N
132 170.25 M
130.09 170.25 L
S
GR
GS
0.149 GC
2 setlinecap
1 LJ
0.5 LW
N
132 122.5 M
130.09 122.5 L
S
GR
GS
0.149 GC
2 setlinecap
1 LJ
0.5 LW
N
132 74.75 M
130.09 74.75 L
S
GR
GS
0.149 GC
2 setlinecap
1 LJ
0.5 LW
N
132 27 M
130.09 27 L
S
GR
GS
[1 0 0 1 91 218] CT
0.149 GC
N
-12.821 0.103 M
-12.899 0.103 -12.954 0.041 QT
-13.009 -0.022 -13.009 -0.1 QT
-13.009 -0.178 -12.954 -0.241 QT
-12.899 -0.303 -12.821 -0.303 QT
-7.071 -0.303 L
-6.993 -0.303 -6.946 -0.241 QT
-6.899 -0.178 -6.899 -0.1 QT
-6.899 -0.022 -6.946 0.041 QT
-6.993 0.103 -7.071 0.103 QT
-12.821 0.103 L
cp
f
GR
GS
[1 0 0 1 91 218] CT
0.149 GC
N
-5.043 2.228 M
-5.043 2.181 -5.012 2.072 QT
-4.731 1.494 -4.489 0.931 QT
-4.247 0.369 -4.051 -0.163 QT
-3.856 -0.694 -3.7 -1.288 QT
-4.34 -1.288 L
-4.7 -1.288 -5.02 -1.061 QT
-5.34 -0.834 -5.543 -0.475 QT
-5.575 -0.444 -5.606 -0.444 QT
-5.731 -0.444 L
-5.825 -0.444 -5.825 -0.538 QT
-5.825 -0.553 -5.793 -0.6 QT
-5.465 -1.163 -5.098 -1.538 QT
-4.731 -1.913 -4.262 -1.913 QT
-0.622 -1.913 L
-0.528 -1.913 -0.457 -1.842 QT
-0.387 -1.772 -0.387 -1.663 QT
-0.387 -1.506 -0.489 -1.397 QT
-0.59 -1.288 -0.731 -1.288 QT
-2.012 -1.288 L
-2.168 -0.506 -2.184 0.244 QT
-2.184 1.197 -1.856 1.978 QT
-1.825 2.041 -1.825 2.103 QT
-1.825 2.212 -1.887 2.306 QT
-1.95 2.4 -2.051 2.455 QT
-2.153 2.509 -2.262 2.509 QT
-2.528 2.509 -2.622 2.08 QT
-2.715 1.65 -2.715 1.244 QT
-2.715 0.681 -2.622 0.15 QT
-2.528 -0.381 -2.309 -1.288 QT
-3.403 -1.288 L
-4.184 1.916 -4.356 2.244 QT
-4.497 2.509 -4.747 2.509 QT
-4.856 2.509 -4.95 2.431 QT
-5.043 2.353 -5.043 2.228 QT
cp
f
GR
GS
[1 0 0 1 91 170.25] CT
0.149 GC
N
-25.599 0.103 M
-25.677 0.103 -25.732 0.041 QT
-25.787 -0.022 -25.787 -0.1 QT
-25.787 -0.178 -25.732 -0.241 QT
-25.677 -0.303 -25.599 -0.303 QT
-19.849 -0.303 L
-19.771 -0.303 -19.724 -0.241 QT
-19.677 -0.178 -19.677 -0.1 QT
-19.677 -0.022 -19.724 0.041 QT
-19.771 0.103 -19.849 0.103 QT
-25.599 0.103 L
cp
f
GR
GS
[1 0 0 1 91 170.25] CT
0.149 GC
N
-16.337 2.619 M
-17.556 2.619 -18.001 1.611 QT
-18.446 0.603 -18.446 -0.788 QT
-18.446 -1.663 -18.29 -2.428 QT
-18.134 -3.194 -17.657 -3.725 QT
-17.181 -4.256 -16.337 -4.256 QT
-15.681 -4.256 -15.259 -3.936 QT
-14.837 -3.616 -14.618 -3.108 QT
-14.399 -2.6 -14.321 -2.014 QT
-14.243 -1.428 -14.243 -0.788 QT
-14.243 0.072 -14.399 0.822 QT
-14.556 1.572 -15.017 2.095 QT
-15.477 2.619 -16.337 2.619 QT
cp
-16.337 2.353 M
-15.774 2.353 -15.501 1.783 QT
-15.227 1.212 -15.165 0.525 QT
-15.102 -0.163 -15.102 -0.944 QT
-15.102 -1.709 -15.165 -2.342 QT
-15.227 -2.975 -15.501 -3.491 QT
-15.774 -4.006 -16.337 -4.006 QT
-16.899 -4.006 -17.173 -3.483 QT
-17.446 -2.959 -17.509 -2.334 QT
-17.571 -1.709 -17.571 -0.944 QT
-17.571 -0.397 -17.548 0.095 QT
-17.524 0.587 -17.407 1.119 QT
-17.29 1.65 -17.024 2.002 QT
-16.759 2.353 -16.337 2.353 QT
cp
f
GR
GS
[1 0 0 1 91 170.25] CT
0.149 GC
N
-12.993 1.853 M
-12.993 1.619 -12.829 1.462 QT
-12.665 1.306 -12.446 1.306 QT
-12.306 1.306 -12.173 1.377 QT
-12.04 1.447 -11.97 1.58 QT
-11.899 1.712 -11.899 1.853 QT
-11.899 2.072 -12.063 2.236 QT
-12.227 2.4 -12.446 2.4 QT
-12.665 2.4 -12.829 2.236 QT
-12.993 2.072 -12.993 1.853 QT
cp
f
GR
GS
[1 0 0 1 91 170.25] CT
0.149 GC
N
-10.184 1.259 M
-10.09 1.556 -9.879 1.798 QT
-9.668 2.041 -9.372 2.173 QT
-9.075 2.306 -8.762 2.306 QT
-8.043 2.306 -7.77 1.744 QT
-7.497 1.181 -7.497 0.384 QT
-7.497 0.025 -7.512 -0.209 QT
-7.528 -0.444 -7.575 -0.663 QT
-7.668 -1.006 -7.903 -1.272 QT
-8.137 -1.538 -8.465 -1.538 QT
-8.809 -1.538 -9.051 -1.436 QT
-9.293 -1.334 -9.442 -1.202 QT
-9.59 -1.069 -9.708 -0.913 QT
-9.825 -0.756 -9.856 -0.756 QT
-9.965 -0.756 L
-9.997 -0.756 -10.036 -0.788 QT
-10.075 -0.819 -10.075 -0.85 QT
-10.075 -4.178 L
-10.075 -4.209 -10.036 -4.233 QT
-9.997 -4.256 -9.965 -4.256 QT
-9.934 -4.256 L
-9.262 -3.944 -8.512 -3.944 QT
-7.762 -3.944 -7.075 -4.256 QT
-7.043 -4.256 L
-7.012 -4.256 -6.981 -4.233 QT
-6.95 -4.209 -6.95 -4.178 QT
-6.95 -4.084 L
-6.95 -4.038 -6.981 -4.038 QT
-7.325 -3.584 -7.84 -3.334 QT
-8.356 -3.084 -8.903 -3.084 QT
-9.293 -3.084 -9.715 -3.194 QT
-9.715 -1.303 L
-9.387 -1.569 -9.129 -1.686 QT
-8.872 -1.803 -8.465 -1.803 QT
-7.903 -1.803 -7.465 -1.483 QT
-7.028 -1.163 -6.793 -0.655 QT
-6.559 -0.147 -6.559 0.384 QT
-6.559 0.994 -6.856 1.502 QT
-7.153 2.009 -7.661 2.314 QT
-8.168 2.619 -8.762 2.619 QT
-9.262 2.619 -9.676 2.369 QT
-10.09 2.119 -10.325 1.689 QT
-10.559 1.259 -10.559 0.775 QT
-10.559 0.541 -10.411 0.4 QT
-10.262 0.259 -10.043 0.259 QT
-9.825 0.259 -9.676 0.408 QT
-9.528 0.556 -9.528 0.775 QT
-9.528 0.978 -9.676 1.127 QT
-9.825 1.275 -10.043 1.275 QT
-10.075 1.275 -10.122 1.267 QT
-10.168 1.259 -10.184 1.259 QT
cp
f
GR
GS
[1 0 0 1 91 170.25] CT
0.149 GC
N
/f183725701{-5.043 2.228 M
-5.043 2.181 -5.012 2.072 QT
-4.731 1.494 -4.489 0.931 QT
-4.247 0.369 -4.051 -0.163 QT
-3.856 -0.694 -3.7 -1.288 QT
-4.34 -1.288 L
-4.7 -1.288 -5.02 -1.061 QT
-5.34 -0.834 -5.543 -0.475 QT
-5.575 -0.444 -5.606 -0.444 QT
-5.731 -0.444 L
-5.825 -0.444 -5.825 -0.538 QT
-5.825 -0.553 -5.793 -0.6 QT
-5.465 -1.163 -5.098 -1.538 QT
-4.731 -1.913 -4.262 -1.913 QT
-0.622 -1.913 L
-0.528 -1.913 -0.457 -1.842 QT
-0.387 -1.772 -0.387 -1.663 QT
-0.387 -1.506 -0.489 -1.397 QT
-0.59 -1.288 -0.731 -1.288 QT
-2.012 -1.288 L
-2.168 -0.506 -2.184 0.244 QT
-2.184 1.197 -1.856 1.978 QT
-1.825 2.041 -1.825 2.103 QT
-1.825 2.212 -1.887 2.306 QT
-1.95 2.4 -2.051 2.455 QT
-2.153 2.509 -2.262 2.509 QT
-2.528 2.509 -2.622 2.08 QT
-2.715 1.65 -2.715 1.244 QT
-2.715 0.681 -2.622 0.15 QT
-2.528 -0.381 -2.309 -1.288 QT
-3.403 -1.288 L
-4.184 1.916 -4.356 2.244 QT
-4.497 2.509 -4.747 2.509 QT
-4.856 2.509 -4.95 2.431 QT
-5.043 2.353 -5.043 2.228 QT
cp}def
f183725701
f
GR
GS
[1 0 0 1 91 122.5] CT
0.149 GC
N
/f218240023{-2.5 2.619 M
-3.719 2.619 -4.164 1.611 QT
-4.609 0.603 -4.609 -0.788 QT
-4.609 -1.663 -4.453 -2.428 QT
-4.297 -3.194 -3.82 -3.725 QT
-3.344 -4.256 -2.5 -4.256 QT
-1.844 -4.256 -1.422 -3.936 QT
-1 -3.616 -0.781 -3.108 QT
-0.563 -2.6 -0.484 -2.014 QT
-0.406 -1.428 -0.406 -0.788 QT
-0.406 0.072 -0.563 0.822 QT
-0.719 1.572 -1.18 2.095 QT
-1.641 2.619 -2.5 2.619 QT
cp
-2.5 2.353 M
-1.938 2.353 -1.664 1.783 QT
-1.391 1.212 -1.328 0.525 QT
-1.266 -0.163 -1.266 -0.944 QT
-1.266 -1.709 -1.328 -2.342 QT
-1.391 -2.975 -1.664 -3.491 QT
-1.938 -4.006 -2.5 -4.006 QT
-3.063 -4.006 -3.336 -3.483 QT
-3.609 -2.959 -3.672 -2.334 QT
-3.734 -1.709 -3.734 -0.944 QT
-3.734 -0.397 -3.711 0.095 QT
-3.688 0.587 -3.57 1.119 QT
-3.453 1.65 -3.188 2.002 QT
-2.922 2.353 -2.5 2.353 QT
cp}def
f218240023
f
GR
GS
[1 0 0 1 91 74.75] CT
0.149 GC
N
/f-1860464567{-16.337 2.619 M
-17.556 2.619 -18.001 1.611 QT
-18.446 0.603 -18.446 -0.788 QT
-18.446 -1.663 -18.29 -2.428 QT
-18.134 -3.194 -17.657 -3.725 QT
-17.181 -4.256 -16.337 -4.256 QT
-15.681 -4.256 -15.259 -3.936 QT
-14.837 -3.616 -14.618 -3.108 QT
-14.399 -2.6 -14.321 -2.014 QT
-14.243 -1.428 -14.243 -0.788 QT
-14.243 0.072 -14.399 0.822 QT
-14.556 1.572 -15.017 2.095 QT
-15.477 2.619 -16.337 2.619 QT
cp
-16.337 2.353 M
-15.774 2.353 -15.501 1.783 QT
-15.227 1.212 -15.165 0.525 QT
-15.102 -0.163 -15.102 -0.944 QT
-15.102 -1.709 -15.165 -2.342 QT
-15.227 -2.975 -15.501 -3.491 QT
-15.774 -4.006 -16.337 -4.006 QT
-16.899 -4.006 -17.173 -3.483 QT
-17.446 -2.959 -17.509 -2.334 QT
-17.571 -1.709 -17.571 -0.944 QT
-17.571 -0.397 -17.548 0.095 QT
-17.524 0.587 -17.407 1.119 QT
-17.29 1.65 -17.024 2.002 QT
-16.759 2.353 -16.337 2.353 QT
cp}def
f-1860464567
f
GR
GS
[1 0 0 1 91 74.75] CT
0.149 GC
N
/f-711540231{-12.993 1.853 M
-12.993 1.619 -12.829 1.462 QT
-12.665 1.306 -12.446 1.306 QT
-12.306 1.306 -12.173 1.377 QT
-12.04 1.447 -11.97 1.58 QT
-11.899 1.712 -11.899 1.853 QT
-11.899 2.072 -12.063 2.236 QT
-12.227 2.4 -12.446 2.4 QT
-12.665 2.4 -12.829 2.236 QT
-12.993 2.072 -12.993 1.853 QT
cp}def
f-711540231
f
GR
GS
[1 0 0 1 91 74.75] CT
0.149 GC
N
/f353734786{-10.184 1.259 M
-10.09 1.556 -9.879 1.798 QT
-9.668 2.041 -9.372 2.173 QT
-9.075 2.306 -8.762 2.306 QT
-8.043 2.306 -7.77 1.744 QT
-7.497 1.181 -7.497 0.384 QT
-7.497 0.025 -7.512 -0.209 QT
-7.528 -0.444 -7.575 -0.663 QT
-7.668 -1.006 -7.903 -1.272 QT
-8.137 -1.538 -8.465 -1.538 QT
-8.809 -1.538 -9.051 -1.436 QT
-9.293 -1.334 -9.442 -1.202 QT
-9.59 -1.069 -9.708 -0.913 QT
-9.825 -0.756 -9.856 -0.756 QT
-9.965 -0.756 L
-9.997 -0.756 -10.036 -0.788 QT
-10.075 -0.819 -10.075 -0.85 QT
-10.075 -4.178 L
-10.075 -4.209 -10.036 -4.233 QT
-9.997 -4.256 -9.965 -4.256 QT
-9.934 -4.256 L
-9.262 -3.944 -8.512 -3.944 QT
-7.762 -3.944 -7.075 -4.256 QT
-7.043 -4.256 L
-7.012 -4.256 -6.981 -4.233 QT
-6.95 -4.209 -6.95 -4.178 QT
-6.95 -4.084 L
-6.95 -4.038 -6.981 -4.038 QT
-7.325 -3.584 -7.84 -3.334 QT
-8.356 -3.084 -8.903 -3.084 QT
-9.293 -3.084 -9.715 -3.194 QT
-9.715 -1.303 L
-9.387 -1.569 -9.129 -1.686 QT
-8.872 -1.803 -8.465 -1.803 QT
-7.903 -1.803 -7.465 -1.483 QT
-7.028 -1.163 -6.793 -0.655 QT
-6.559 -0.147 -6.559 0.384 QT
-6.559 0.994 -6.856 1.502 QT
-7.153 2.009 -7.661 2.314 QT
-8.168 2.619 -8.762 2.619 QT
-9.262 2.619 -9.676 2.369 QT
-10.09 2.119 -10.325 1.689 QT
-10.559 1.259 -10.559 0.775 QT
-10.559 0.541 -10.411 0.4 QT
-10.262 0.259 -10.043 0.259 QT
-9.825 0.259 -9.676 0.408 QT
-9.528 0.556 -9.528 0.775 QT
-9.528 0.978 -9.676 1.127 QT
-9.825 1.275 -10.043 1.275 QT
-10.075 1.275 -10.122 1.267 QT
-10.168 1.259 -10.184 1.259 QT
cp}def
f353734786
f
GR
GS
[1 0 0 1 91 74.75] CT
0.149 GC
N
f183725701
f
GR
GS
[1 0 0 1 91 27] CT
0.149 GC
N
f183725701
f
GR
GS
[0 -1 1 0 61.38533 122.49991] CT
0.149 GC
N
/f2077318969{-6.724 -3.96 M
-6.818 -3.96 -6.818 -4.054 QT
-6.802 -4.054 -6.802 -4.062 QT
-6.802 -4.069 -6.802 -4.085 QT
-3.021 -11.71 L
-2.974 -11.835 -2.818 -11.835 QT
-2.662 -11.835 L
-2.521 -11.835 -2.474 -11.71 QT
1.323 -4.085 L
1.323 -4.069 1.323 -4.062 QT
1.323 -4.054 1.323 -4.054 QT
1.323 -3.96 1.244 -3.96 QT
-6.724 -3.96 L
cp
-5.99 -4.835 M
-0.209 -4.835 L
-3.099 -10.679 L
-5.99 -4.835 L
cp}def
f2077318969
f
GR
GS
[0 -1 1 0 61.38533 122.49991] CT
0.149 GC
N
/f-389438575{3.614 -3.835 M
3.114 -3.835 2.817 -4.202 QT
2.521 -4.569 2.403 -5.085 QT
2.286 -5.601 2.286 -6.101 QT
2.286 -6.116 L
2.286 -6.663 2.396 -7.257 QT
2.505 -7.851 2.7 -8.437 QT
2.896 -9.023 3.13 -9.476 QT
3.286 -9.804 3.544 -10.202 QT
3.802 -10.601 4.114 -10.944 QT
4.427 -11.288 4.786 -11.499 QT
5.146 -11.71 5.521 -11.71 QT
5.536 -11.71 L
5.927 -11.71 6.192 -11.491 QT
6.458 -11.273 6.606 -10.929 QT
6.755 -10.585 6.817 -10.194 QT
6.88 -9.804 6.88 -9.444 QT
6.88 -8.616 6.653 -7.749 QT
6.427 -6.882 6.021 -6.069 QT
5.88 -5.773 5.614 -5.358 QT
5.349 -4.944 5.052 -4.616 QT
4.755 -4.288 4.38 -4.062 QT
4.005 -3.835 3.63 -3.835 QT
3.614 -3.835 L
cp
3.646 -4.132 M
4.005 -4.132 4.341 -4.523 QT
4.677 -4.913 4.927 -5.468 QT
5.177 -6.023 5.372 -6.601 QT
5.567 -7.179 5.661 -7.585 QT
3.411 -7.585 L
3.239 -6.898 3.146 -6.398 QT
3.052 -5.898 3.052 -5.413 QT
3.052 -4.132 3.646 -4.132 QT
cp
3.505 -7.976 M
5.755 -7.976 L
5.864 -8.46 5.935 -8.788 QT
6.005 -9.116 6.06 -9.476 QT
6.114 -9.835 6.114 -10.148 QT
6.114 -11.429 5.521 -11.429 QT
4.817 -11.429 4.31 -10.304 QT
3.802 -9.179 3.505 -7.976 QT
cp}def
f-389438575
f
GR
GS
0.149 GC
2 setlinecap
1 LJ
0.5 LW
N
95 218 M
132 218 L
S
GR
GS
0.149 GC
2 setlinecap
1 LJ
0.5 LW
N
95 27 M
132 27 L
S
GR
GS
0.149 GC
2 setlinecap
1 LJ
0.5 LW
N
95 218 M
95 216.09 L
S
GR
GS
0.149 GC
2 setlinecap
1 LJ
0.5 LW
N
132 218 M
132 216.09 L
S
GR
GS
0.149 GC
2 setlinecap
1 LJ
0.5 LW
N
95 27 M
95 28.91 L
S
GR
GS
0.149 GC
2 setlinecap
1 LJ
0.5 LW
N
132 27 M
132 28.91 L
S
GR
GS
0.88 GC
N
95 213.696 M
95.72 213.696 L
95.72 209.258 L
95 209.258 L
cp
95 209.258 M
97.16 209.258 L
97.16 204.819 L
95 204.819 L
cp
95 204.819 M
100.04 204.819 L
100.04 200.381 L
95 200.381 L
cp
95 200.381 M
99.32 200.381 L
99.32 195.943 L
95 195.943 L
cp
95 195.943 M
97.88 195.943 L
97.88 191.505 L
95 191.505 L
cp
95 191.505 M
100.04 191.505 L
100.04 187.067 L
95 187.067 L
cp
95 187.067 M
103.639 187.067 L
103.639 182.628 L
95 182.628 L
cp
95 182.628 M
100.76 182.628 L
100.76 178.19 L
95 178.19 L
cp
95 178.19 M
103.639 178.19 L
103.639 173.752 L
95 173.752 L
cp
95 173.752 M
109.399 173.752 L
109.399 169.314 L
95 169.314 L
cp
95 169.314 M
111.559 169.314 L
111.559 164.876 L
95 164.876 L
cp
95 164.876 M
108.679 164.876 L
108.679 160.437 L
95 160.437 L
cp
95 160.437 M
110.119 160.437 L
110.119 155.999 L
110.119 151.561 L
95 151.561 L
95 155.999 L
cp
95 151.561 M
112.999 151.561 L
112.999 147.123 L
95 147.123 L
cp
95 147.123 M
114.439 147.123 L
114.439 142.685 L
95 142.685 L
cp
95 142.685 M
120.918 142.685 L
120.918 138.246 L
95 138.246 L
cp
95 138.246 M
118.039 138.246 L
118.039 133.808 L
95 133.808 L
cp
95 133.808 M
120.918 133.808 L
120.918 129.37 L
95 129.37 L
cp
95 129.37 M
113.719 129.37 L
113.719 124.932 L
95 124.932 L
cp
95 124.932 M
125.958 124.932 L
125.958 120.494 L
95 120.494 L
cp
95 120.494 M
123.078 120.494 L
123.078 116.055 L
95 116.055 L
cp
95 116.055 M
119.479 116.055 L
119.479 111.617 L
95 111.617 L
cp
95 111.617 M
115.879 111.617 L
115.879 107.179 L
95 107.179 L
cp
95 107.179 M
114.439 107.179 L
114.439 102.741 L
95 102.741 L
cp
95 102.741 M
112.279 102.741 L
112.279 98.303 L
95 98.303 L
cp
95 98.303 M
108.679 98.303 L
108.679 93.865 L
95 93.865 L
cp
95 93.865 M
110.839 93.865 L
110.839 89.426 L
95 89.426 L
cp
95 89.426 M
105.799 89.426 L
105.799 84.988 L
105.799 80.55 L
95 80.55 L
95 84.988 L
cp
95 80.55 M
105.079 80.55 L
105.079 76.112 L
105.079 71.674 L
95 71.674 L
95 76.112 L
cp
95 71.674 M
105.799 71.674 L
105.799 67.235 L
95 67.235 L
cp
95 67.235 M
102.92 67.235 L
102.92 62.797 L
95 62.797 L
cp
95 62.797 M
103.639 62.797 L
103.639 58.359 L
95 58.359 L
cp
95 58.359 M
101.48 58.359 L
101.48 53.921 L
95 53.921 L
cp
95 53.921 M
98.6 53.921 L
98.6 49.483 L
95 49.483 L
cp
95 49.483 M
95.72 49.483 L
95.72 45.044 L
95 45.044 L
cp
95 45.044 M
99.32 45.044 L
99.32 40.606 L
95 40.606 L
cp
95 40.606 M
95.72 40.606 L
95.72 36.168 L
95 36.168 L
cp
95 36.168 M
97.16 36.168 L
97.16 31.73 L
95 31.73 L
cp
f
GR
GS
2 setlinecap
10.0 ML
0.5 LW
N
95 213.696 M
95.72 213.696 L
95.72 209.258 L
S
GR
GS
2 setlinecap
10.0 ML
0.5 LW
N
95 209.258 M
95 209.258 L
97.16 209.258 L
97.16 204.819 L
S
GR
GS
2 setlinecap
10.0 ML
0.5 LW
N
95 204.819 M
95 204.819 L
100.04 204.819 L
100.04 200.381 L
95 200.381 L
95 200.381 L
S
GR
GS
2 setlinecap
10.0 ML
0.5 LW
N
99.32 200.381 M
99.32 195.943 L
95 195.943 L
95 195.943 L
S
GR
GS
2 setlinecap
10.0 ML
0.5 LW
N
97.88 195.943 M
97.88 191.505 L
S
GR
GS
2 setlinecap
10.0 ML
0.5 LW
N
95 191.505 M
95 191.505 L
100.04 191.505 L
100.04 187.067 L
S
GR
GS
2 setlinecap
10.0 ML
0.5 LW
N
95 187.067 M
95 187.067 L
103.639 187.067 L
103.639 182.628 L
95 182.628 L
95 182.628 L
S
GR
GS
2 setlinecap
10.0 ML
0.5 LW
N
100.76 182.628 M
100.76 178.19 L
S
GR
GS
2 setlinecap
10.0 ML
0.5 LW
N
95 178.19 M
95 178.19 L
103.639 178.19 L
103.639 173.752 L
S
GR
GS
2 setlinecap
10.0 ML
0.5 LW
N
95 173.752 M
95 173.752 L
109.399 173.752 L
109.399 169.314 L
S
GR
GS
2 setlinecap
10.0 ML
0.5 LW
N
95 169.314 M
95 169.314 L
111.559 169.314 L
111.559 164.876 L
95 164.876 L
95 164.876 L
S
GR
GS
2 setlinecap
10.0 ML
0.5 LW
N
108.679 164.876 M
108.679 160.437 L
S
GR
GS
2 setlinecap
10.0 ML
0.5 LW
N
95 160.437 M
95 160.437 L
110.119 160.437 L
110.119 155.999 L
95 155.999 L
95 155.999 L
S
GR
GS
2 setlinecap
10.0 ML
0.5 LW
N
110.119 155.999 M
110.119 151.561 L
S
GR
GS
2 setlinecap
10.0 ML
0.5 LW
N
95 151.561 M
95 151.561 L
112.999 151.561 L
112.999 147.123 L
S
GR
GS
2 setlinecap
10.0 ML
0.5 LW
N
95 147.123 M
95 147.123 L
114.439 147.123 L
114.439 142.685 L
S
GR
GS
2 setlinecap
10.0 ML
0.5 LW
N
95 142.685 M
95 142.685 L
120.918 142.685 L
120.918 138.246 L
95 138.246 L
95 138.246 L
S
GR
GS
2 setlinecap
10.0 ML
0.5 LW
N
118.039 138.246 M
118.039 133.808 L
S
GR
GS
2 setlinecap
10.0 ML
0.5 LW
N
95 133.808 M
95 133.808 L
120.918 133.808 L
120.918 129.37 L
95 129.37 L
95 129.37 L
S
GR
GS
2 setlinecap
10.0 ML
0.5 LW
N
113.719 129.37 M
113.719 124.932 L
S
GR
GS
2 setlinecap
10.0 ML
0.5 LW
N
95 124.932 M
95 124.932 L
125.958 124.932 L
125.958 120.494 L
95 120.494 L
95 120.494 L
S
GR
GS
2 setlinecap
10.0 ML
0.5 LW
N
123.078 120.494 M
123.078 116.055 L
95 116.055 L
95 116.055 L
S
GR
GS
2 setlinecap
10.0 ML
0.5 LW
N
119.479 116.055 M
119.479 111.617 L
95 111.617 L
95 111.617 L
S
GR
GS
2 setlinecap
10.0 ML
0.5 LW
N
115.879 111.617 M
115.879 107.179 L
95 107.179 L
95 107.179 L
S
GR
GS
2 setlinecap
10.0 ML
0.5 LW
N
114.439 107.179 M
114.439 102.741 L
95 102.741 L
95 102.741 L
S
GR
GS
2 setlinecap
10.0 ML
0.5 LW
N
112.279 102.741 M
112.279 98.303 L
95 98.303 L
95 98.303 L
S
GR
GS
2 setlinecap
10.0 ML
0.5 LW
N
108.679 98.303 M
108.679 93.865 L
S
GR
GS
2 setlinecap
10.0 ML
0.5 LW
N
95 93.865 M
95 93.865 L
110.839 93.865 L
110.839 89.426 L
95 89.426 L
95 89.426 L
S
GR
GS
2 setlinecap
10.0 ML
0.5 LW
N
105.799 89.426 M
105.799 84.988 L
95 84.988 L
95 84.988 L
S
GR
GS
2 setlinecap
10.0 ML
0.5 LW
N
105.799 84.988 M
105.799 80.55 L
95 80.55 L
95 80.55 L
S
GR
GS
2 setlinecap
10.0 ML
0.5 LW
N
105.079 80.55 M
105.079 76.112 L
95 76.112 L
95 76.112 L
S
GR
GS
2 setlinecap
10.0 ML
0.5 LW
N
105.079 76.112 M
105.079 71.674 L
S
GR
GS
2 setlinecap
10.0 ML
0.5 LW
N
95 71.674 M
95 71.674 L
105.799 71.674 L
105.799 67.235 L
95 67.235 L
95 67.235 L
S
GR
GS
2 setlinecap
10.0 ML
0.5 LW
N
102.92 67.235 M
102.92 62.797 L
S
GR
GS
2 setlinecap
10.0 ML
0.5 LW
N
95 62.797 M
95 62.797 L
103.639 62.797 L
103.639 58.359 L
95 58.359 L
95 58.359 L
S
GR
GS
2 setlinecap
10.0 ML
0.5 LW
N
101.48 58.359 M
101.48 53.921 L
95 53.921 L
95 53.921 L
S
GR
GS
2 setlinecap
10.0 ML
0.5 LW
N
98.6 53.921 M
98.6 49.483 L
95 49.483 L
95 49.483 L
S
GR
GS
2 setlinecap
10.0 ML
0.5 LW
N
95.72 49.483 M
95.72 45.044 L
S
GR
GS
2 setlinecap
10.0 ML
0.5 LW
N
95 45.044 M
95 45.044 L
99.32 45.044 L
99.32 40.606 L
95 40.606 L
95 40.606 L
S
GR
GS
2 setlinecap
10.0 ML
0.5 LW
N
95.72 40.606 M
95.72 36.168 L
S
GR
GS
2 setlinecap
10.0 ML
0.5 LW
N
95 36.168 M
95 36.168 L
97.16 36.168 L
97.16 31.73 L
95 31.73 L
S
GR
GS
1 GC
N
143.5 269 M
326 269 L
326 232 L
143.5 232 L
cp
f
GR
GS
0.149 GC
2 setlinecap
1 LJ
0.5 LW
N
143.5 269 M
326 269 L
S
GR
GS
0.149 GC
2 setlinecap
1 LJ
0.5 LW
N
143.5 232 M
326 232 L
S
GR
GS
0.149 GC
2 setlinecap
1 LJ
0.5 LW
N
143.5 269 M
143.5 267.175 L
S
GR
GS
0.149 GC
2 setlinecap
1 LJ
0.5 LW
N
189.125 269 M
189.125 267.175 L
S
GR
GS
0.149 GC
2 setlinecap
1 LJ
0.5 LW
N
234.75 269 M
234.75 267.175 L
S
GR
GS
0.149 GC
2 setlinecap
1 LJ
0.5 LW
N
280.375 269 M
280.375 267.175 L
S
GR
GS
0.149 GC
2 setlinecap
1 LJ
0.5 LW
N
326 269 M
326 267.175 L
S
GR
GS
0.149 GC
2 setlinecap
1 LJ
0.5 LW
N
143.5 232 M
143.5 233.825 L
S
GR
GS
0.149 GC
2 setlinecap
1 LJ
0.5 LW
N
189.125 232 M
189.125 233.825 L
S
GR
GS
0.149 GC
2 setlinecap
1 LJ
0.5 LW
N
234.75 232 M
234.75 233.825 L
S
GR
GS
0.149 GC
2 setlinecap
1 LJ
0.5 LW
N
280.375 232 M
280.375 233.825 L
S
GR
GS
0.149 GC
2 setlinecap
1 LJ
0.5 LW
N
326 232 M
326 233.825 L
S
GR
GS
[1 0 0 1 143.5 273] CT
0.149 GC
N
/f365287046{0 8.619 M
-1.219 8.619 -1.664 7.611 QT
-2.109 6.603 -2.109 5.212 QT
-2.109 4.337 -1.953 3.572 QT
-1.797 2.806 -1.32 2.275 QT
-0.844 1.744 0 1.744 QT
0.656 1.744 1.078 2.064 QT
1.5 2.384 1.719 2.892 QT
1.938 3.4 2.016 3.986 QT
2.094 4.572 2.094 5.212 QT
2.094 6.072 1.938 6.822 QT
1.781 7.572 1.32 8.095 QT
0.859 8.619 0 8.619 QT
cp
0 8.353 M
0.563 8.353 0.836 7.783 QT
1.109 7.212 1.172 6.525 QT
1.234 5.837 1.234 5.056 QT
1.234 4.291 1.172 3.658 QT
1.109 3.025 0.836 2.509 QT
0.563 1.994 0 1.994 QT
-0.563 1.994 -0.836 2.517 QT
-1.109 3.041 -1.172 3.666 QT
-1.234 4.291 -1.234 5.056 QT
-1.234 5.603 -1.211 6.095 QT
-1.188 6.587 -1.07 7.119 QT
-0.953 7.65 -0.688 8.002 QT
-0.422 8.353 0 8.353 QT
cp}def
f365287046
f
GR
GS
[1 0 0 1 189.125 273] CT
0.149 GC
N
/f668698095{-6.918 8.619 M
-8.137 8.619 -8.582 7.611 QT
-9.028 6.603 -9.028 5.212 QT
-9.028 4.337 -8.872 3.572 QT
-8.715 2.806 -8.239 2.275 QT
-7.762 1.744 -6.918 1.744 QT
-6.262 1.744 -5.84 2.064 QT
-5.418 2.384 -5.2 2.892 QT
-4.981 3.4 -4.903 3.986 QT
-4.825 4.572 -4.825 5.212 QT
-4.825 6.072 -4.981 6.822 QT
-5.137 7.572 -5.598 8.095 QT
-6.059 8.619 -6.918 8.619 QT
cp
-6.918 8.353 M
-6.356 8.353 -6.082 7.783 QT
-5.809 7.212 -5.747 6.525 QT
-5.684 5.837 -5.684 5.056 QT
-5.684 4.291 -5.747 3.658 QT
-5.809 3.025 -6.082 2.509 QT
-6.356 1.994 -6.918 1.994 QT
-7.481 1.994 -7.754 2.517 QT
-8.028 3.041 -8.09 3.666 QT
-8.153 4.291 -8.153 5.056 QT
-8.153 5.603 -8.129 6.095 QT
-8.106 6.587 -7.989 7.119 QT
-7.872 7.65 -7.606 8.002 QT
-7.34 8.353 -6.918 8.353 QT
cp}def
f668698095
f
GR
GS
[1 0 0 1 189.125 273] CT
0.149 GC
N
/f-1664080999{-3.575 7.853 M
-3.575 7.619 -3.411 7.462 QT
-3.247 7.306 -3.028 7.306 QT
-2.887 7.306 -2.754 7.377 QT
-2.622 7.447 -2.551 7.58 QT
-2.481 7.712 -2.481 7.853 QT
-2.481 8.072 -2.645 8.236 QT
-2.809 8.4 -3.028 8.4 QT
-3.247 8.4 -3.411 8.236 QT
-3.575 8.072 -3.575 7.853 QT
cp}def
f-1664080999
f
GR
GS
[1 0 0 1 189.125 273] CT
0.149 GC
N
/f1511736146{-0.766 7.259 M
-0.672 7.556 -0.461 7.798 QT
-0.25 8.041 0.047 8.173 QT
0.344 8.306 0.656 8.306 QT
1.375 8.306 1.648 7.744 QT
1.922 7.181 1.922 6.384 QT
1.922 6.025 1.906 5.791 QT
1.891 5.556 1.844 5.337 QT
1.75 4.994 1.516 4.728 QT
1.281 4.462 0.953 4.462 QT
0.609 4.462 0.367 4.564 QT
0.125 4.666 -0.023 4.798 QT
-0.172 4.931 -0.289 5.087 QT
-0.406 5.244 -0.438 5.244 QT
-0.547 5.244 L
-0.578 5.244 -0.617 5.212 QT
-0.656 5.181 -0.656 5.15 QT
-0.656 1.822 L
-0.656 1.791 -0.617 1.767 QT
-0.578 1.744 -0.547 1.744 QT
-0.516 1.744 L
0.156 2.056 0.906 2.056 QT
1.656 2.056 2.344 1.744 QT
2.375 1.744 L
2.406 1.744 2.438 1.767 QT
2.469 1.791 2.469 1.822 QT
2.469 1.916 L
2.469 1.962 2.438 1.962 QT
2.094 2.416 1.578 2.666 QT
1.063 2.916 0.516 2.916 QT
0.125 2.916 -0.297 2.806 QT
-0.297 4.697 L
0.031 4.431 0.289 4.314 QT
0.547 4.197 0.953 4.197 QT
1.516 4.197 1.953 4.517 QT
2.391 4.837 2.625 5.345 QT
2.859 5.853 2.859 6.384 QT
2.859 6.994 2.563 7.502 QT
2.266 8.009 1.758 8.314 QT
1.25 8.619 0.656 8.619 QT
0.156 8.619 -0.258 8.369 QT
-0.672 8.119 -0.906 7.689 QT
-1.141 7.259 -1.141 6.775 QT
-1.141 6.541 -0.992 6.4 QT
-0.844 6.259 -0.625 6.259 QT
-0.406 6.259 -0.258 6.408 QT
-0.109 6.556 -0.109 6.775 QT
-0.109 6.978 -0.258 7.127 QT
-0.406 7.275 -0.625 7.275 QT
-0.656 7.275 -0.703 7.267 QT
-0.75 7.259 -0.766 7.259 QT
cp}def
f1511736146
f
GR
GS
[1 0 0 1 189.125 273] CT
0.149 GC
N
/f1803605107{4.375 8.228 M
4.375 8.181 4.406 8.072 QT
4.688 7.494 4.93 6.931 QT
5.172 6.369 5.367 5.837 QT
5.563 5.306 5.719 4.712 QT
5.078 4.712 L
4.719 4.712 4.398 4.939 QT
4.078 5.166 3.875 5.525 QT
3.844 5.556 3.813 5.556 QT
3.688 5.556 L
3.594 5.556 3.594 5.462 QT
3.594 5.447 3.625 5.4 QT
3.953 4.837 4.32 4.462 QT
4.688 4.087 5.156 4.087 QT
8.797 4.087 L
8.891 4.087 8.961 4.158 QT
9.031 4.228 9.031 4.337 QT
9.031 4.494 8.93 4.603 QT
8.828 4.712 8.688 4.712 QT
7.406 4.712 L
7.25 5.494 7.234 6.244 QT
7.234 7.197 7.563 7.978 QT
7.594 8.041 7.594 8.103 QT
7.594 8.212 7.531 8.306 QT
7.469 8.4 7.367 8.455 QT
7.266 8.509 7.156 8.509 QT
6.891 8.509 6.797 8.08 QT
6.703 7.65 6.703 7.244 QT
6.703 6.681 6.797 6.15 QT
6.891 5.619 7.109 4.712 QT
6.016 4.712 L
5.234 7.916 5.063 8.244 QT
4.922 8.509 4.672 8.509 QT
4.563 8.509 4.469 8.431 QT
4.375 8.353 4.375 8.228 QT
cp}def
f1803605107
f
GR
GS
[1 0 0 1 234.75 273] CT
0.149 GC
N
/f1778835136{-2.014 8.228 M
-2.014 8.181 -1.983 8.072 QT
-1.701 7.494 -1.459 6.931 QT
-1.217 6.369 -1.022 5.837 QT
-0.826 5.306 -0.67 4.712 QT
-1.311 4.712 L
-1.67 4.712 -1.99 4.939 QT
-2.311 5.166 -2.514 5.525 QT
-2.545 5.556 -2.576 5.556 QT
-2.701 5.556 L
-2.795 5.556 -2.795 5.462 QT
-2.795 5.447 -2.764 5.4 QT
-2.436 4.837 -2.069 4.462 QT
-1.701 4.087 -1.233 4.087 QT
2.408 4.087 L
2.502 4.087 2.572 4.158 QT
2.642 4.228 2.642 4.337 QT
2.642 4.494 2.541 4.603 QT
2.439 4.712 2.299 4.712 QT
1.017 4.712 L
0.861 5.494 0.845 6.244 QT
0.845 7.197 1.174 7.978 QT
1.205 8.041 1.205 8.103 QT
1.205 8.212 1.142 8.306 QT
1.08 8.4 0.978 8.455 QT
0.877 8.509 0.767 8.509 QT
0.502 8.509 0.408 8.08 QT
0.314 7.65 0.314 7.244 QT
0.314 6.681 0.408 6.15 QT
0.502 5.619 0.72 4.712 QT
-0.373 4.712 L
-1.155 7.916 -1.326 8.244 QT
-1.467 8.509 -1.717 8.509 QT
-1.826 8.509 -1.92 8.431 QT
-2.014 8.353 -2.014 8.228 QT
cp}def
f1778835136
f
GR
GS
[1 0 0 1 280.375 273] CT
0.149 GC
N
/f306294935{-8.497 8.4 M
-8.497 8.041 L
-7.247 8.041 -7.247 7.728 QT
-7.247 2.478 L
-7.762 2.728 -8.543 2.728 QT
-8.543 2.384 L
-7.325 2.384 -6.7 1.744 QT
-6.559 1.744 L
-6.528 1.744 -6.497 1.767 QT
-6.465 1.791 -6.465 1.822 QT
-6.465 7.728 L
-6.465 8.041 -5.215 8.041 QT
-5.215 8.4 L
-8.497 8.4 L
cp}def
f306294935
f
GR
GS
[1 0 0 1 280.375 273] CT
0.149 GC
N
f-1664080999
f
GR
GS
[1 0 0 1 280.375 273] CT
0.149 GC
N
f1511736146
f
GR
GS
[1 0 0 1 280.375 273] CT
0.149 GC
N
f1803605107
f
GR
GS
[1 0 0 1 326 273] CT
0.149 GC
N
/f881210254{-5.03 8.4 M
-5.03 8.134 L
-5.03 8.103 -5.014 8.072 QT
-3.451 6.353 L
-3.108 5.978 -2.889 5.72 QT
-2.67 5.462 -2.451 5.127 QT
-2.233 4.791 -2.108 4.439 QT
-1.983 4.087 -1.983 3.697 QT
-1.983 3.291 -2.139 2.916 QT
-2.295 2.541 -2.592 2.314 QT
-2.889 2.087 -3.311 2.087 QT
-3.748 2.087 -4.1 2.353 QT
-4.451 2.619 -4.592 3.025 QT
-4.545 3.025 -4.483 3.025 QT
-4.248 3.025 -4.092 3.173 QT
-3.936 3.322 -3.936 3.556 QT
-3.936 3.791 -4.092 3.947 QT
-4.248 4.103 -4.483 4.103 QT
-4.717 4.103 -4.873 3.939 QT
-5.03 3.775 -5.03 3.556 QT
-5.03 3.181 -4.889 2.853 QT
-4.748 2.525 -4.483 2.267 QT
-4.217 2.009 -3.881 1.877 QT
-3.545 1.744 -3.17 1.744 QT
-2.592 1.744 -2.1 1.986 QT
-1.608 2.228 -1.319 2.666 QT
-1.03 3.103 -1.03 3.697 QT
-1.03 4.134 -1.225 4.525 QT
-1.42 4.916 -1.717 5.236 QT
-2.014 5.556 -2.475 5.962 QT
-2.936 6.369 -3.092 6.494 QT
-4.217 7.587 L
-3.264 7.587 L
-2.545 7.587 -2.069 7.58 QT
-1.592 7.572 -1.576 7.541 QT
-1.451 7.416 -1.326 6.619 QT
-1.03 6.619 L
-1.326 8.4 L
-5.03 8.4 L
cp}def
f881210254
f
GR
GS
[1 0 0 1 326 273] CT
0.149 GC
N
/f1130178499{0.486 8.228 M
0.486 8.181 0.517 8.072 QT
0.799 7.494 1.041 6.931 QT
1.283 6.369 1.478 5.837 QT
1.674 5.306 1.83 4.712 QT
1.189 4.712 L
0.83 4.712 0.51 4.939 QT
0.189 5.166 -0.014 5.525 QT
-0.045 5.556 -0.076 5.556 QT
-0.201 5.556 L
-0.295 5.556 -0.295 5.462 QT
-0.295 5.447 -0.264 5.4 QT
0.064 4.837 0.431 4.462 QT
0.799 4.087 1.267 4.087 QT
4.908 4.087 L
5.002 4.087 5.072 4.158 QT
5.142 4.228 5.142 4.337 QT
5.142 4.494 5.041 4.603 QT
4.939 4.712 4.799 4.712 QT
3.517 4.712 L
3.361 5.494 3.345 6.244 QT
3.345 7.197 3.674 7.978 QT
3.705 8.041 3.705 8.103 QT
3.705 8.212 3.642 8.306 QT
3.58 8.4 3.478 8.455 QT
3.377 8.509 3.267 8.509 QT
3.002 8.509 2.908 8.08 QT
2.814 7.65 2.814 7.244 QT
2.814 6.681 2.908 6.15 QT
3.002 5.619 3.22 4.712 QT
2.127 4.712 L
1.345 7.916 1.174 8.244 QT
1.033 8.509 0.783 8.509 QT
0.674 8.509 0.58 8.431 QT
0.486 8.353 0.486 8.228 QT
cp}def
f1130178499
f
GR
GS
[1 0 0 1 234.75009 286] CT
0.149 GC
N
/f374314712{-3.028 9.365 M
-3.528 9.365 -3.825 8.998 QT
-4.122 8.631 -4.239 8.115 QT
-4.356 7.599 -4.356 7.099 QT
-4.356 7.084 L
-4.356 6.537 -4.247 5.943 QT
-4.138 5.349 -3.942 4.763 QT
-3.747 4.177 -3.513 3.724 QT
-3.356 3.396 -3.099 2.998 QT
-2.841 2.599 -2.528 2.256 QT
-2.216 1.912 -1.856 1.701 QT
-1.497 1.49 -1.122 1.49 QT
-1.106 1.49 L
-0.716 1.49 -0.45 1.709 QT
-0.185 1.927 -0.036 2.271 QT
0.112 2.615 0.175 3.006 QT
0.237 3.396 0.237 3.756 QT
0.237 4.584 0.011 5.451 QT
-0.216 6.318 -0.622 7.131 QT
-0.763 7.427 -1.028 7.842 QT
-1.294 8.256 -1.591 8.584 QT
-1.888 8.912 -2.263 9.138 QT
-2.638 9.365 -3.013 9.365 QT
-3.028 9.365 L
cp
-2.997 9.068 M
-2.638 9.068 -2.302 8.677 QT
-1.966 8.287 -1.716 7.732 QT
-1.466 7.177 -1.271 6.599 QT
-1.075 6.021 -0.981 5.615 QT
-3.231 5.615 L
-3.403 6.302 -3.497 6.802 QT
-3.591 7.302 -3.591 7.787 QT
-3.591 9.068 -2.997 9.068 QT
cp
-3.138 5.224 M
-0.888 5.224 L
-0.778 4.74 -0.708 4.412 QT
-0.638 4.084 -0.583 3.724 QT
-0.528 3.365 -0.528 3.052 QT
-0.528 1.771 -1.122 1.771 QT
-1.825 1.771 -2.333 2.896 QT
-2.841 4.021 -3.138 5.224 QT
cp}def
f374314712
f
GR
GS
[1 0 0 1 234.75009 286] CT
0.149 GC
N
/f-941179909{0.167 12.437 M
0.089 12.437 0.089 12.343 QT
0.12 12.171 0.198 12.171 QT
0.448 12.171 0.55 12.124 QT
0.651 12.077 0.714 11.89 QT
1.604 8.281 L
1.667 8.14 1.667 7.906 QT
1.667 7.562 1.432 7.562 QT
1.182 7.562 1.065 7.859 QT
0.948 8.156 0.823 8.609 QT
0.823 8.671 0.761 8.671 QT
0.667 8.671 L
0.651 8.671 0.628 8.64 QT
0.604 8.609 0.604 8.577 QT
0.682 8.234 0.768 7.992 QT
0.854 7.749 1.018 7.554 QT
1.182 7.359 1.448 7.359 QT
1.714 7.359 1.925 7.507 QT
2.136 7.656 2.182 7.921 QT
2.401 7.671 2.667 7.515 QT
2.932 7.359 3.214 7.359 QT
3.557 7.359 3.807 7.538 QT
4.057 7.718 4.182 8.007 QT
4.307 8.296 4.307 8.624 QT
4.307 9.14 4.042 9.695 QT
3.776 10.249 3.323 10.617 QT
2.87 10.984 2.354 10.984 QT
2.12 10.984 1.932 10.851 QT
1.745 10.718 1.636 10.499 QT
1.276 11.921 L
1.261 12.046 1.245 12.062 QT
1.245 12.171 1.776 12.171 QT
1.854 12.171 1.854 12.265 QT
1.839 12.374 1.815 12.406 QT
1.792 12.437 1.729 12.437 QT
0.167 12.437 L
cp
2.37 10.765 M
2.636 10.765 2.878 10.538 QT
3.12 10.312 3.261 10.031 QT
3.37 9.812 3.471 9.499 QT
3.573 9.187 3.643 8.835 QT
3.714 8.484 3.714 8.281 QT
3.714 8.093 3.659 7.937 QT
3.604 7.781 3.495 7.671 QT
3.386 7.562 3.198 7.562 QT
2.917 7.562 2.651 7.773 QT
2.386 7.984 2.182 8.281 QT
2.182 8.312 L
1.745 10.077 L
1.792 10.359 1.948 10.562 QT
2.104 10.765 2.37 10.765 QT
cp}def
f-941179909
f
GR
GS
0.149 GC
2 setlinecap
1 LJ
0.5 LW
N
143.5 269 M
143.5 232 L
S
GR
GS
0.149 GC
2 setlinecap
1 LJ
0.5 LW
N
326 269 M
326 232 L
S
GR
GS
0.149 GC
2 setlinecap
1 LJ
0.5 LW
N
143.5 269 M
145.325 269 L
S
GR
GS
0.149 GC
2 setlinecap
1 LJ
0.5 LW
N
143.5 250.5 M
145.325 250.5 L
S
GR
GS
0.149 GC
2 setlinecap
1 LJ
0.5 LW
N
143.5 232 M
145.325 232 L
S
GR
GS
0.149 GC
2 setlinecap
1 LJ
0.5 LW
N
326 269 M
324.175 269 L
S
GR
GS
0.149 GC
2 setlinecap
1 LJ
0.5 LW
N
326 250.5 M
324.175 250.5 L
S
GR
GS
0.149 GC
2 setlinecap
1 LJ
0.5 LW
N
326 232 M
324.175 232 L
S
GR
GS
0.88 GC
N
147.944 269 M
147.944 252.683 L
143.5 252.683 L
143.5 269 L
cp
152.388 269 M
152.388 250.107 L
147.944 250.107 L
147.944 269 L
cp
156.832 269 M
156.832 253.542 L
152.388 253.542 L
152.388 269 L
cp
161.276 269 M
161.276 251.825 L
156.832 251.825 L
156.832 269 L
cp
165.72 269 M
165.72 246.672 L
161.276 246.672 L
161.276 269 L
cp
170.164 269 M
170.164 240.661 L
165.72 240.661 L
165.72 269 L
cp
174.608 269 M
174.608 241.519 L
170.164 241.519 L
170.164 269 L
cp
179.052 269 M
179.052 245.813 L
174.608 245.813 L
174.608 269 L
cp
183.496 249.248 M
179.052 249.248 L
179.052 269 L
183.496 269 L
187.94 269 L
187.94 249.248 L
cp
192.384 269 M
192.384 244.954 L
187.94 244.954 L
187.94 269 L
cp
196.828 269 M
196.828 259.554 L
192.384 259.554 L
192.384 269 L
cp
201.272 269 M
201.272 255.26 L
196.828 255.26 L
196.828 269 L
cp
205.716 269 M
205.716 254.401 L
201.272 254.401 L
201.272 269 L
cp
210.16 269 M
210.16 252.683 L
205.716 252.683 L
205.716 269 L
cp
214.604 269 M
214.604 261.271 L
210.16 261.271 L
210.16 269 L
cp
219.048 269 M
219.048 263.847 L
214.604 263.847 L
214.604 269 L
cp
223.492 269 M
223.492 262.989 L
219.048 262.989 L
219.048 269 L
cp
227.936 264.706 M
223.492 264.706 L
223.492 269 L
227.936 269 L
232.38 269 L
232.38 264.706 L
cp
236.824 269 M
236.824 267.282 L
232.38 267.282 L
232.38 269 L
cp
241.268 269 M
241.268 263.847 L
236.824 263.847 L
236.824 269 L
cp
245.712 269 M
245.712 265.565 L
241.268 265.565 L
241.268 269 L
cp
250.156 269 M
250.156 260.412 L
245.712 260.412 L
245.712 269 L
cp
254.6 258.695 M
250.156 258.695 L
250.156 269 L
254.6 269 L
259.044 269 L
259.044 258.695 L
cp
263.488 269 M
263.488 260.412 L
259.044 260.412 L
259.044 269 L
cp
267.932 269 M
267.932 256.977 L
263.488 256.977 L
263.488 269 L
cp
272.376 269 M
272.376 254.401 L
267.932 254.401 L
267.932 269 L
cp
276.82 249.248 M
272.376 249.248 L
272.376 269 L
276.82 269 L
281.264 269 L
281.264 249.248 L
cp
285.708 269 M
285.708 246.672 L
281.264 246.672 L
281.264 269 L
cp
290.152 269 M
290.152 250.107 L
285.708 250.107 L
285.708 269 L
cp
294.596 269 M
294.596 249.248 L
290.152 249.248 L
290.152 269 L
cp
299.04 269 M
299.04 251.825 L
294.596 251.825 L
294.596 269 L
cp
303.484 269 M
303.484 250.107 L
299.04 250.107 L
299.04 269 L
cp
307.928 269 M
307.928 250.966 L
303.484 250.966 L
303.484 269 L
cp
312.372 252.683 M
307.928 252.683 L
307.928 269 L
312.372 269 L
316.816 269 L
316.816 252.683 L
cp
321.26 269 M
321.26 251.825 L
316.816 251.825 L
316.816 269 L
cp
325.704 269 M
325.704 257.836 L
321.26 257.836 L
321.26 269 L
cp
f
GR
GS
2 setlinecap
10.0 ML
0.5 LW
N
143.5 269 M
143.5 252.683 L
147.944 252.683 L
S
GR
GS
2 setlinecap
10.0 ML
0.5 LW
N
147.944 269 M
147.944 269 L
147.944 250.107 L
152.388 250.107 L
152.388 269 L
152.388 269 L
S
GR
GS
2 setlinecap
10.0 ML
0.5 LW
N
152.388 253.542 M
156.832 253.542 L
S
GR
GS
2 setlinecap
10.0 ML
0.5 LW
N
156.832 269 M
156.832 269 L
156.832 251.825 L
161.276 251.825 L
S
GR
GS
2 setlinecap
10.0 ML
0.5 LW
N
161.276 269 M
161.276 269 L
161.276 246.672 L
165.72 246.672 L
S
GR
GS
2 setlinecap
10.0 ML
0.5 LW
N
165.72 269 M
165.72 269 L
165.72 240.661 L
170.164 240.661 L
170.164 269 L
170.164 269 L
S
GR
GS
2 setlinecap
10.0 ML
0.5 LW
N
170.164 241.519 M
174.608 241.519 L
174.608 269 L
174.608 269 L
S
GR
GS
2 setlinecap
10.0 ML
0.5 LW
N
174.608 245.813 M
179.052 245.813 L
179.052 269 L
179.052 269 L
S
GR
GS
2 setlinecap
10.0 ML
0.5 LW
N
179.052 249.248 M
183.496 249.248 L
183.496 269 L
183.496 269 L
S
GR
GS
2 setlinecap
10.0 ML
0.5 LW
N
183.496 249.248 M
187.94 249.248 L
S
GR
GS
2 setlinecap
10.0 ML
0.5 LW
N
187.94 269 M
187.94 269 L
187.94 244.954 L
192.384 244.954 L
192.384 269 L
192.384 269 L
S
GR
GS
2 setlinecap
10.0 ML
0.5 LW
N
192.384 259.554 M
196.828 259.554 L
S
GR
GS
2 setlinecap
10.0 ML
0.5 LW
N
196.828 269 M
196.828 269 L
196.828 255.26 L
201.272 255.26 L
S
GR
GS
2 setlinecap
10.0 ML
0.5 LW
N
201.272 269 M
201.272 269 L
201.272 254.401 L
205.716 254.401 L
S
GR
GS
2 setlinecap
10.0 ML
0.5 LW
N
205.716 269 M
205.716 269 L
205.716 252.683 L
210.16 252.683 L
210.16 269 L
210.16 269 L
S
GR
GS
2 setlinecap
10.0 ML
0.5 LW
N
210.16 261.271 M
214.604 261.271 L
214.604 269 L
214.604 269 L
S
GR
GS
2 setlinecap
10.0 ML
0.5 LW
N
214.604 263.847 M
219.048 263.847 L
S
GR
GS
2 setlinecap
10.0 ML
0.5 LW
N
219.048 269 M
219.048 269 L
219.048 262.989 L
223.492 262.989 L
223.492 269 L
223.492 269 L
S
GR
GS
2 setlinecap
10.0 ML
0.5 LW
N
223.492 264.706 M
227.936 264.706 L
227.936 269 L
227.936 269 L
S
GR
GS
2 setlinecap
10.0 ML
0.5 LW
N
227.936 264.706 M
232.38 264.706 L
232.38 269 L
232.38 269 L
S
GR
GS
2 setlinecap
10.0 ML
0.5 LW
N
232.38 267.282 M
236.824 267.282 L
S
GR
GS
2 setlinecap
10.0 ML
0.5 LW
N
236.824 269 M
236.824 269 L
236.824 263.847 L
241.268 263.847 L
241.268 269 L
241.268 269 L
S
GR
GS
2 setlinecap
10.0 ML
0.5 LW
N
241.268 265.565 M
245.712 265.565 L
S
GR
GS
2 setlinecap
10.0 ML
0.5 LW
N
245.712 269 M
245.712 269 L
245.712 260.412 L
250.156 260.412 L
S
GR
GS
2 setlinecap
10.0 ML
0.5 LW
N
250.156 269 M
250.156 269 L
250.156 258.695 L
254.6 258.695 L
254.6 269 L
254.6 269 L
S
GR
GS
2 setlinecap
10.0 ML
0.5 LW
N
254.6 258.695 M
259.044 258.695 L
259.044 269 L
259.044 269 L
S
GR
GS
2 setlinecap
10.0 ML
0.5 LW
N
259.044 260.412 M
263.488 260.412 L
S
GR
GS
2 setlinecap
10.0 ML
0.5 LW
N
263.488 269 M
263.488 269 L
263.488 256.977 L
267.932 256.977 L
S
GR
GS
2 setlinecap
10.0 ML
0.5 LW
N
267.932 269 M
267.932 269 L
267.932 254.401 L
272.376 254.401 L
S
GR
GS
2 setlinecap
10.0 ML
0.5 LW
N
272.376 269 M
272.376 269 L
272.376 249.248 L
276.82 249.248 L
276.82 269 L
276.82 269 L
S
GR
GS
2 setlinecap
10.0 ML
0.5 LW
N
276.82 249.248 M
281.264 249.248 L
S
GR
GS
2 setlinecap
10.0 ML
0.5 LW
N
281.264 269 M
281.264 269 L
281.264 246.672 L
285.708 246.672 L
285.708 269 L
285.708 269 L
S
GR
GS
2 setlinecap
10.0 ML
0.5 LW
N
285.708 250.107 M
290.152 250.107 L
S
GR
GS
2 setlinecap
10.0 ML
0.5 LW
N
290.152 269 M
290.152 269 L
290.152 249.248 L
294.596 249.248 L
294.596 269 L
294.596 269 L
S
GR
GS
2 setlinecap
10.0 ML
0.5 LW
N
294.596 251.825 M
299.04 251.825 L
S
GR
GS
2 setlinecap
10.0 ML
0.5 LW
N
299.04 269 M
299.04 269 L
299.04 250.107 L
303.484 250.107 L
303.484 269 L
303.484 269 L
S
GR
GS
2 setlinecap
10.0 ML
0.5 LW
N
303.484 250.966 M
307.928 250.966 L
307.928 269 L
307.928 269 L
S
GR
GS
2 setlinecap
10.0 ML
0.5 LW
N
307.928 252.683 M
312.372 252.683 L
S
GR
GS
2 setlinecap
10.0 ML
0.5 LW
N
312.372 269 M
312.372 269 L
312.372 252.683 L
316.816 252.683 L
S
GR
GS
2 setlinecap
10.0 ML
0.5 LW
N
316.816 269 M
316.816 269 L
316.816 251.825 L
321.26 251.825 L
321.26 269 L
321.26 269 L
S
GR
GS
2 setlinecap
10.0 ML
0.5 LW
N
321.26 257.836 M
325.704 257.836 L
325.704 269 L
S
GR
GS
1 GC
N
143.5 218 M
326 218 L
326 27 L
143.5 27 L
cp
f
GR
GS
0.149 GC
2 setlinecap
1 LJ
0.5 LW
N
143.5 218 M
326 218 L
S
GR
GS
0.149 GC
2 setlinecap
1 LJ
0.5 LW
N
143.5 218 M
143.5 216.09 L
S
GR
GS
0.149 GC
2 setlinecap
1 LJ
0.5 LW
N
189.125 218 M
189.125 216.09 L
S
GR
GS
0.149 GC
2 setlinecap
1 LJ
0.5 LW
N
234.75 218 M
234.75 216.09 L
S
GR
GS
0.149 GC
2 setlinecap
1 LJ
0.5 LW
N
280.375 218 M
280.375 216.09 L
S
GR
GS
0.149 GC
2 setlinecap
1 LJ
0.5 LW
N
326 218 M
326 216.09 L
S
GR
GS
0.149 GC
2 setlinecap
1 LJ
0.5 LW
N
143.5 218 M
143.5 27 L
S
GR
GS
0.149 GC
2 setlinecap
1 LJ
0.5 LW
N
143.5 218 M
145.41 218 L
S
GR
GS
0.149 GC
2 setlinecap
1 LJ
0.5 LW
N
143.5 170.25 M
145.41 170.25 L
S
GR
GS
0.149 GC
2 setlinecap
1 LJ
0.5 LW
N
143.5 122.5 M
145.41 122.5 L
S
GR
GS
0.149 GC
2 setlinecap
1 LJ
0.5 LW
N
143.5 74.75 M
145.41 74.75 L
S
GR
GS
0.149 GC
2 setlinecap
1 LJ
0.5 LW
N
143.5 27 M
145.41 27 L
S
GR
GS
[1 0 0 1 237.25356 169.19562] CT
N
1 0 M
1 0.552 0.552 1 0 1 C
-0.552 1 -1 0.552 -1 0 C
-1 -0.552 -0.552 -1 0 -1 C
0.552 -1 1 -0.552 1 0 C
cp
f
GR
GS
[1 0 0 1 226.99408 169.95341] CT
N
/f-891180347{1 0 M
1 0.552 0.552 1 0 1 C
-0.552 1 -1 0.552 -1 0 C
-1 -0.552 -0.552 -1 0 -1 C
0.552 -1 1 -0.552 1 0 C
cp}def
f-891180347
f
GR
GS
[1 0 0 1 254.29552 142.05042] CT
N
f-891180347
f
GR
GS
[1 0 0 1 268.79089 136.05405] CT
N
f-891180347
f
GR
GS
[1 0 0 1 190.74371 110.48809] CT
N
f-891180347
f
GR
GS
[1 0 0 1 254.21341 153.49294] CT
N
f-891180347
f
GR
GS
[1 0 0 1 188.53174 134.23698] CT
N
f-891180347
f
GR
GS
[1 0 0 1 179.39661 119.3127] CT
N
f-891180347
f
GR
GS
[1 0 0 1 192.0312 113.83557] CT
N
f-891180347
f
GR
GS
[1 0 0 1 276.07855 132.86008] CT
N
f-891180347
f
GR
GS
[1 0 0 1 281.29376 116.23418] CT
N
f-891180347
f
GR
GS
[1 0 0 1 187.54326 98.09629] CT
N
f-891180347
f
GR
GS
[1 0 0 1 287.99582 50.31615] CT
N
f-891180347
f
GR
GS
[1 0 0 1 271.2291 157.16406] CT
N
f-891180347
f
GR
GS
[1 0 0 1 273.32855 101.99178] CT
N
f-891180347
f
GR
GS
[1 0 0 1 171.73625 74.2953] CT
N
f-891180347
f
GR
GS
[1 0 0 1 187.41661 110.81776] CT
N
f-891180347
f
GR
GS
[1 0 0 1 183.32845 186.51073] CT
N
f-891180347
f
GR
GS
[1 0 0 1 167.85179 169.12679] CT
N
f-891180347
f
GR
GS
[1 0 0 1 307.98938 175.39104] CT
N
f-891180347
f
GR
GS
[1 0 0 1 281.95581 144.14977] CT
N
f-891180347
f
GR
GS
[1 0 0 1 200.9218 115.07407] CT
N
f-891180347
f
GR
GS
[1 0 0 1 188.29309 122.87158] CT
N
f-891180347
f
GR
GS
[1 0 0 1 177.75879 133.63936] CT
N
f-891180347
f
GR
GS
[1 0 0 1 320.9259 156.75641] CT
N
f-891180347
f
GR
GS
[1 0 0 1 278.74847 143.02859] CT
N
f-891180347
f
GR
GS
[1 0 0 1 312.21478 142.99744] CT
N
f-891180347
f
GR
GS
[1 0 0 1 201.09767 134.93645] CT
N
f-891180347
f
GR
GS
[1 0 0 1 168.00874 185.57077] CT
N
f-891180347
f
GR
GS
[1 0 0 1 294.79022 171.01498] CT
N
f-891180347
f
GR
GS
[1 0 0 1 149.12642 169.15985] CT
N
f-891180347
f
GR
GS
[1 0 0 1 154.75003 200.43808] CT
N
f-891180347
f
GR
GS
[1 0 0 1 165.75961 171.17657] CT
N
f-891180347
f
GR
GS
[1 0 0 1 230.52255 120.68973] CT
N
f-891180347
f
GR
GS
[1 0 0 1 191.42802 120.19991] CT
N
f-891180347
f
GR
GS
[1 0 0 1 214.36681 114.76831] CT
N
f-891180347
f
GR
GS
[1 0 0 1 154.21011 89.44334] CT
N
f-891180347
f
GR
GS
[1 0 0 1 208.96347 115.43153] CT
N
f-891180347
f
GR
GS
[1 0 0 1 195.24646 104.65392] CT
N
f-891180347
f
GR
GS
[1 0 0 1 147.81641 120.07417] CT
N
f-891180347
f
GR
GS
[1 0 0 1 301.94397 106.76287] CT
N
f-891180347
f
GR
GS
[1 0 0 1 307.42862 202.46698] CT
N
f-891180347
f
GR
GS
[1 0 0 1 269.47189 68.78186] CT
N
f-891180347
f
GR
GS
[1 0 0 1 217.38681 105.25609] CT
N
f-891180347
f
GR
GS
[1 0 0 1 300.48007 147.23128] CT
N
f-891180347
f
GR
GS
[1 0 0 1 307.12799 149.46844] CT
N
f-891180347
f
GR
GS
[1 0 0 1 284.05923 116.80577] CT
N
f-891180347
f
GR
GS
[1 0 0 1 310.1394 91.37595] CT
N
f-891180347
f
GR
GS
[1 0 0 1 292.26541 154.02632] CT
N
f-891180347
f
GR
GS
[1 0 0 1 289.68082 142.56792] CT
N
f-891180347
f
GR
GS
[1 0 0 1 313.22278 102.57708] CT
N
f-891180347
f
GR
GS
[1 0 0 1 305.47665 70.80036] CT
N
f-891180347
f
GR
GS
[1 0 0 1 146.8037 64.33987] CT
N
f-891180347
f
GR
GS
[1 0 0 1 318.07816 128.00699] CT
N
f-891180347
f
GR
GS
[1 0 0 1 305.91998 57.99818] CT
N
f-891180347
f
GR
GS
[1 0 0 1 149.77275 33.86892] CT
N
f-891180347
f
GR
GS
[1 0 0 1 226.73354 78.98231] CT
N
f-891180347
f
GR
GS
[1 0 0 1 282.28625 207.4312] CT
N
f-891180347
f
GR
GS
[1 0 0 1 192.14093 109.4472] CT
N
f-891180347
f
GR
GS
[1 0 0 1 173.92686 125.9358] CT
N
f-891180347
f
GR
GS
[1 0 0 1 233.82832 154.59842] CT
N
f-891180347
f
GR
GS
[1 0 0 1 245.47638 96.60767] CT
N
f-891180347
f
GR
GS
[1 0 0 1 275.14465 109.64172] CT
N
f-891180347
f
GR
GS
[1 0 0 1 315.8634 127.7877] CT
N
f-891180347
f
GR
GS
[1 0 0 1 169.55122 69.56946] CT
N
f-891180347
f
GR
GS
[1 0 0 1 249.93602 72.77473] CT
N
f-891180347
f
GR
GS
[1 0 0 1 170.29355 97.8192] CT
N
f-891180347
f
GR
GS
[1 0 0 1 188.63664 131.96893] CT
N
f-891180347
f
GR
GS
[1 0 0 1 316.16107 146.10042] CT
N
f-891180347
f
GR
GS
[1 0 0 1 150.75851 98.38795] CT
N
f-891180347
f
GR
GS
[1 0 0 1 202.80582 170.98895] CT
N
f-891180347
f
GR
GS
[1 0 0 1 321.52505 82.87787] CT
N
f-891180347
f
GR
GS
[1 0 0 1 148.96507 115.57466] CT
N
f-891180347
f
GR
GS
[1 0 0 1 294.41519 122.68304] CT
N
f-891180347
f
GR
GS
[1 0 0 1 317.78461 165.69646] CT
N
f-891180347
f
GR
GS
[1 0 0 1 145.01245 116.02373] CT
N
f-891180347
f
GR
GS
[1 0 0 1 318.32428 134.10406] CT
N
f-891180347
f
GR
GS
[1 0 0 1 292.97534 124.40527] CT
N
f-891180347
f
GR
GS
[1 0 0 1 170.339 142.10754] CT
N
f-891180347
f
GR
GS
[1 0 0 1 203.73282 116.44167] CT
N
f-891180347
f
GR
GS
[1 0 0 1 321.99191 135.75172] CT
N
f-891180347
f
GR
GS
[1 0 0 1 296.12689 151.96475] CT
N
f-891180347
f
GR
GS
[1 0 0 1 180.5697 199.01047] CT
N
f-891180347
f
GR
GS
[1 0 0 1 155.96458 100.86634] CT
N
f-891180347
f
GR
GS
[1 0 0 1 301.89886 118.16422] CT
N
f-891180347
f
GR
GS
[1 0 0 1 280.19498 80.78441] CT
N
f-891180347
f
GR
GS
[1 0 0 1 256.39789 146.89468] CT
N
f-891180347
f
GR
GS
[1 0 0 1 208.18825 111.07507] CT
N
f-891180347
f
GR
GS
[1 0 0 1 148.91318 59.58896] CT
N
f-891180347
f
GR
GS
[1 0 0 1 312.53497 157.81311] CT
N
f-891180347
f
GR
GS
[1 0 0 1 152.05099 114.73825] CT
N
f-891180347
f
GR
GS
[1 0 0 1 164.06142 131.315] CT
N
f-891180347
f
GR
GS
[1 0 0 1 298.53333 138.72549] CT
N
f-891180347
f
GR
GS
[1 0 0 1 159.79045 145.97581] CT
N
f-891180347
f
GR
GS
[1 0 0 1 173.82744 88.68148] CT
N
f-891180347
f
GR
GS
[1 0 0 1 157.02168 129.22226] CT
N
f-891180347
f
GR
GS
[1 0 0 1 202.14534 141.29196] CT
N
f-891180347
f
GR
GS
[1 0 0 1 176.88515 130.71017] CT
N
f-891180347
f
GR
GS
[1 0 0 1 199.96541 129.01302] CT
N
f-891180347
f
GR
GS
[1 0 0 1 268.86972 131.92804] CT
N
f-891180347
f
GR
GS
[1 0 0 1 159.55743 83.44803] CT
N
f-891180347
f
GR
GS
[1 0 0 1 169.76273 109.76975] CT
N
f-891180347
f
GR
GS
[1 0 0 1 181.72168 115.3201] CT
N
f-891180347
f
GR
GS
[1 0 0 1 172.14224 129.49492] CT
N
f-891180347
f
GR
GS
[1 0 0 1 165.11876 126.24072] CT
N
f-891180347
f
GR
GS
[1 0 0 1 145.51555 124.62051] CT
N
f-891180347
f
GR
GS
[1 0 0 1 197.85291 126.56279] CT
N
f-891180347
f
GR
GS
[1 0 0 1 320.13318 164.72697] CT
N
f-891180347
f
GR
GS
[1 0 0 1 179.66835 135.37253] CT
N
f-891180347
f
GR
GS
[1 0 0 1 290.65903 107.10593] CT
N
f-891180347
f
GR
GS
[1 0 0 1 284.19022 132.20728] CT
N
f-891180347
f
GR
GS
[1 0 0 1 272.9003 138.26898] CT
N
f-891180347
f
GR
GS
[1 0 0 1 254.00369 58.32113] CT
N
f-891180347
f
GR
GS
[1 0 0 1 184.23726 184.13913] CT
N
f-891180347
f
GR
GS
[1 0 0 1 299.84073 174.97762] CT
N
f-891180347
f
GR
GS
[1 0 0 1 276.05463 62.399] CT
N
f-891180347
f
GR
GS
[1 0 0 1 303.00705 153.57631] CT
N
f-891180347
f
GR
GS
[1 0 0 1 220.79761 120.68201] CT
N
f-891180347
f
GR
GS
[1 0 0 1 188.76825 163.53397] CT
N
f-891180347
f
GR
GS
[1 0 0 1 292.10672 131.93224] CT
N
f-891180347
f
GR
GS
[1 0 0 1 314.51202 165.16751] CT
N
f-891180347
f
GR
GS
[1 0 0 1 264.9754 141.28108] CT
N
f-891180347
f
GR
GS
[1 0 0 1 148.8755 133.69707] CT
N
f-891180347
f
GR
GS
[1 0 0 1 168.4603 125.69199] CT
N
f-891180347
f
GR
GS
[1 0 0 1 169.82196 118.40081] CT
N
f-891180347
f
GR
GS
[1 0 0 1 158.28575 78.31297] CT
N
f-891180347
f
GR
GS
[1 0 0 1 171.21614 129.4375] CT
N
f-891180347
f
GR
GS
[1 0 0 1 290.26492 142.60811] CT
N
f-891180347
f
GR
GS
[1 0 0 1 162.15771 67.32977] CT
N
f-891180347
f
GR
GS
[1 0 0 1 299.26306 82.84193] CT
N
f-891180347
f
GR
GS
[1 0 0 1 313.04523 102.99643] CT
N
f-891180347
f
GR
GS
[1 0 0 1 163.49121 92.4921] CT
N
f-891180347
f
GR
GS
[1 0 0 1 161.22697 153.22917] CT
N
f-891180347
f
GR
GS
[1 0 0 1 144.97963 161.41438] CT
N
f-891180347
f
GR
GS
[1 0 0 1 310.13525 123.48009] CT
N
f-891180347
f
GR
GS
[1 0 0 1 165.8342 59.89594] CT
N
f-891180347
f
GR
GS
[1 0 0 1 316.11819 150.188] CT
N
f-891180347
f
GR
GS
[1 0 0 1 177.68474 133.43088] CT
N
f-891180347
f
GR
GS
[1 0 0 1 153.54602 100.2892] CT
N
f-891180347
f
GR
GS
[1 0 0 1 177.83286 90.66416] CT
N
f-891180347
f
GR
GS
[1 0 0 1 311.91324 169.12096] CT
N
f-891180347
f
GR
GS
[1 0 0 1 299.19504 155.99605] CT
N
f-891180347
f
GR
GS
[1 0 0 1 162.99129 112.31661] CT
N
f-891180347
f
GR
GS
[1 0 0 1 188.14697 128.25894] CT
N
f-891180347
f
GR
GS
[1 0 0 1 196.0034 104.78361] CT
N
f-891180347
f
GR
GS
[1 0 0 1 315.61923 202.66052] CT
N
f-891180347
f
GR
GS
[1 0 0 1 205.7166 141.088] CT
N
f-891180347
f
GR
GS
[1 0 0 1 319.63831 183.36285] CT
N
f-891180347
f
GR
GS
[1 0 0 1 199.57664 116.4502] CT
N
f-891180347
f
GR
GS
[1 0 0 1 295.80969 111.27275] CT
N
f-891180347
f
GR
GS
[1 0 0 1 159.45012 136.52197] CT
N
f-891180347
f
GR
GS
[1 0 0 1 151.14162 81.04082] CT
N
f-891180347
f
GR
GS
[1 0 0 1 315.25317 140.95058] CT
N
f-891180347
f
GR
GS
[1 0 0 1 308.01358 158.61295] CT
N
f-891180347
f
GR
GS
[1 0 0 1 144.45847 175.52655] CT
N
f-891180347
f
GR
GS
[1 0 0 1 166.30728 134.28915] CT
N
f-891180347
f
GR
GS
[1 0 0 1 175.66414 92.82475] CT
N
f-891180347
f
GR
GS
[1 0 0 1 181.80917 133.28226] CT
N
f-891180347
f
GR
GS
[1 0 0 1 152.66129 157.90198] CT
N
f-891180347
f
GR
GS
[1 0 0 1 322.76587 109.45526] CT
N
f-891180347
f
GR
GS
[1 0 0 1 149.7148 139.71936] CT
N
f-891180347
f
GR
GS
[1 0 0 1 324.40903 50.35998] CT
N
f-891180347
f
GR
GS
[1 0 0 1 317.19308 107.44201] CT
N
f-891180347
f
GR
GS
[1 0 0 1 197.85069 171.41949] CT
N
f-891180347
f
GR
GS
[1 0 0 1 297.56964 112.61935] CT
N
f-891180347
f
GR
GS
[1 0 0 1 288.55396 124.38248] CT
N
f-891180347
f
GR
GS
[1 0 0 1 183.07777 148.09863] CT
N
f-891180347
f
GR
GS
[1 0 0 1 155.77655 93.17253] CT
N
f-891180347
f
GR
GS
[1 0 0 1 187.17542 102.69804] CT
N
f-891180347
f
GR
GS
[1 0 0 1 188.01543 131.72562] CT
N
f-891180347
f
GR
GS
[1 0 0 1 170.49709 86.90631] CT
N
f-891180347
f
GR
GS
[1 0 0 1 206.03093 176.29233] CT
N
f-891180347
f
GR
GS
[1 0 0 1 307.60541 94.38972] CT
N
f-891180347
f
GR
GS
[1 0 0 1 177.36687 74.40003] CT
N
f-891180347
f
GR
GS
[1 0 0 1 301.72797 182.80777] CT
N
f-891180347
f
GR
GS
[1 0 0 1 191.74506 118.23969] CT
N
f-891180347
f
GR
GS
[1 0 0 1 151.95056 142.65907] CT
N
f-891180347
f
GR
GS
[1 0 0 1 180.74005 149.47466] CT
N
f-891180347
f
GR
GS
[1 0 0 1 323.21893 121.39024] CT
N
f-891180347
f
GR
GS
[1 0 0 1 189.38707 123.006] CT
N
f-891180347
f
GR
GS
[1 0 0 1 164.27684 118.5149] CT
N
f-891180347
f
GR
GS
[1 0 0 1 153.2697 153.10876] CT
N
f-891180347
f
GR
GS
[1 0 0 1 175.435 126.43398] CT
N
f-891180347
f
GR
GS
[1 0 0 1 164.82745 141.51747] CT
N
f-891180347
f
GR
GS
[1 0 0 1 167.42224 138.49675] CT
N
f-891180347
f
GR
GS
[1 0 0 1 165.71513 134.79158] CT
N
f-891180347
f
GR
GS
[1 0 0 1 291.74039 149.2955] CT
N
f-891180347
f
GR
GS
[1 0 0 1 171.31691 121.53497] CT
N
f-891180347
f
GR
GS
[1 0 0 1 174.6797 115.45319] CT
N
f-891180347
f
GR
GS
[1 0 0 1 217.52664 189.13101] CT
N
f-891180347
f
GR
GS
[1 0 0 1 195.7296 125.40848] CT
N
f-891180347
f
GR
GS
[1 0 0 1 206.52745 61.43854] CT
N
f-891180347
f
GR
GS
[1 0 0 1 194.58582 112.42651] CT
N
f-891180347
f
GR
GS
[1 0 0 1 194.44836 117.1379] CT
N
f-891180347
f
GR
GS
[1 0 0 1 301.92569 172.56477] CT
N
f-891180347
f
GR
GS
[1 0 0 1 224.02924 159.733] CT
N
f-891180347
f
GR
GS
[1 0 0 1 277.47556 59.18479] CT
N
f-891180347
f
GR
GS
[1 0 0 1 311.28925 65.17345] CT
N
f-891180347
f
GR
GS
[1 0 0 1 292.9761 139.94833] CT
N
f-891180347
f
GR
GS
[1 0 0 1 288.59769 111.60635] CT
N
f-891180347
f
GR
GS
[1 0 0 1 310.57733 136.61342] CT
N
f-891180347
f
GR
GS
[1 0 0 1 193.01843 85.93572] CT
N
f-891180347
f
GR
GS
[1 0 0 1 302.0014 156.57277] CT
N
f-891180347
f
GR
GS
[1 0 0 1 175.27948 136.26015] CT
N
f-891180347
f
GR
GS
[1 0 0 1 178.19441 130.20245] CT
N
f-891180347
f
GR
GS
[1 0 0 1 166.32185 130.44121] CT
N
f-891180347
f
GR
GS
[1 0 0 1 167.95119 142.82782] CT
N
f-891180347
f
GR
GS
[1 0 0 1 297.09363 135.0907] CT
N
f-891180347
f
GR
GS
[1 0 0 1 282.1333 124.0693] CT
N
f-891180347
f
GR
GS
[1 0 0 1 311.57678 109.29435] CT
N
f-891180347
f
GR
GS
[1 0 0 1 295.60016 137.19806] CT
N
f-891180347
f
GR
GS
[1 0 0 1 159.61269 99.52274] CT
N
f-891180347
f
GR
GS
[1 0 0 1 320.62109 61.00851] CT
N
f-891180347
f
GR
GS
[1 0 0 1 311.44424 155.55606] CT
N
f-891180347
f
GR
GS
[1 0 0 1 165.92331 124.58576] CT
N
f-891180347
f
GR
GS
[1 0 0 1 316.78586 147.88472] CT
N
f-891180347
f
GR
GS
[1 0 0 1 169.02946 130.14241] CT
N
f-891180347
f
GR
GS
[1 0 0 1 156.31442 106.6747] CT
N
f-891180347
f
GR
GS
[1 0 0 1 208.72684 70.71388] CT
N
f-891180347
f
GR
GS
[1 0 0 1 320.25922 150.20055] CT
N
f-891180347
f
GR
GS
[1 0 0 1 167.9236 66.79657] CT
N
f-891180347
f
GR
GS
[1 0 0 1 176.79021 137.38916] CT
N
f-891180347
f
GR
GS
[1 0 0 1 149.64883 159.71538] CT
N
f-891180347
f
GR
GS
[1 0 0 1 262.30948 141.79527] CT
N
f-891180347
f
GR
GS
[1 0 0 1 184.98425 79.55498] CT
N
f-891180347
f
GR
GS
[1 0 0 1 290.647 111.10098] CT
N
f-891180347
f
GR
GS
[1 0 0 1 299.88586 104.4935] CT
N
f-891180347
f
GR
GS
[1 0 0 1 162.76733 167.21797] CT
N
f-891180347
f
GR
GS
[1 0 0 1 303.00375 147.65767] CT
N
f-891180347
f
GR
GS
[1 0 0 1 184.37289 119.8843] CT
N
f-891180347
f
GR
GS
[1 0 0 1 169.86998 152.09512] CT
N
f-891180347
f
GR
GS
[1 0 0 1 173.79327 96.58153] CT
N
f-891180347
f
GR
GS
[1 0 0 1 257.05499 133.67209] CT
N
f-891180347
f
GR
GS
[1 0 0 1 144.63992 99.48318] CT
N
f-891180347
f
GR
GS
[1 0 0 1 320.11966 41.98168] CT
N
f-891180347
f
GR
GS
[1 0 0 1 251.02415 176.37764] CT
N
f-891180347
f
GR
GS
[1 0 0 1 272.7901 113.86047] CT
N
f-891180347
f
GR
GS
[1 0 0 1 191.27744 120.16206] CT
N
f-891180347
f
GR
GS
[1 0 0 1 182.09511 110.31806] CT
N
f-891180347
f
GR
GS
[1 0 0 1 200.21916 96.44759] CT
N
f-891180347
f
GR
GS
[1 0 0 1 208.50449 159.92096] CT
N
f-891180347
f
GR
GS
[1 0 0 1 198.14467 121.80109] CT
N
f-891180347
f
GR
GS
[1 0 0 1 283.99008 179.18895] CT
N
f-891180347
f
GR
GS
[1 0 0 1 287.43713 120.64574] CT
N
f-891180347
f
GR
GS
[1 0 0 1 318.276 119.2467] CT
N
f-891180347
f
GR
GS
[1 0 0 1 300.05869 98.41771] CT
N
f-891180347
f
GR
GS
[1 0 0 1 318.62549 114.49711] CT
N
f-891180347
f
GR
GS
[1 0 0 1 146.52724 162.18266] CT
N
f-891180347
f
GR
GS
[1 0 0 1 151.98846 88.58945] CT
N
f-891180347
f
GR
GS
[1 0 0 1 208.37399 81.92596] CT
N
f-891180347
f
GR
GS
[1 0 0 1 255.95694 144.92615] CT
N
f-891180347
f
GR
GS
[1 0 0 1 279.2041 144.26321] CT
N
f-891180347
f
GR
GS
[1 0 0 1 211.0728 138.93173] CT
N
f-891180347
f
GR
GS
[1 0 0 1 215.30885 198.03825] CT
N
f-891180347
f
GR
GS
[1 0 0 1 242.64354 161.9397] CT
N
f-891180347
f
GR
GS
[1 0 0 1 204.98065 97.74424] CT
N
f-891180347
f
GR
GS
[1 0 0 1 222.51276 99.48494] CT
N
f-891180347
f
GR
GS
[1 0 0 1 300.67834 173.03305] CT
N
f-891180347
f
GR
GS
[1 0 0 1 240.56955 146.28456] CT
N
f-891180347
f
GR
GS
[1 0 0 1 217.18999 75.45918] CT
N
f-891180347
f
GR
GS
[1 0 0 1 304.92734 201.36934] CT
N
f-891180347
f
GR
GS
[1 0 0 1 195.86551 109.24854] CT
N
f-891180347
f
GR
GS
[1 0 0 1 161.72023 70.44593] CT
N
f-891180347
f
GR
GS
[1 0 0 1 211.8376 79.38076] CT
N
f-891180347
f
GR
GS
[1 0 0 1 323.79132 156.32671] CT
N
f-891180347
f
GR
GS
[1 0 0 1 248.41312 122.91208] CT
N
f-891180347
f
GR
GS
[1 0 0 1 279.28561 158.33328] CT
N
f-891180347
f
GR
GS
[1 0 0 1 317.53693 106.74493] CT
N
f-891180347
f
GR
GS
[1 0 0 1 163.72928 146.28439] CT
N
f-891180347
f
GR
GS
[1 0 0 1 148.75246 152.7018] CT
N
f-891180347
f
GR
GS
[1 0 0 1 172.77095 151.07579] CT
N
f-891180347
f
GR
GS
[1 0 0 1 323.19781 132.40454] CT
N
f-891180347
f
GR
GS
[1 0 0 1 191.64207 141.31694] CT
N
f-891180347
f
GR
GS
[1 0 0 1 213.83684 76.31214] CT
N
f-891180347
f
GR
GS
[1 0 0 1 254.46819 141.34015] CT
N
f-891180347
f
GR
GS
[1 0 0 1 297.34268 149.76605] CT
N
f-891180347
f
GR
GS
[1 0 0 1 147.39211 142.50494] CT
N
f-891180347
f
GR
GS
[1 0 0 1 174.29478 130.43109] CT
N
f-891180347
f
GR
GS
[1 0 0 1 298.84396 113.47408] CT
N
f-891180347
f
GR
GS
[1 0 0 1 160.38277 84.70882] CT
N
f-891180347
f
GR
GS
[1 0 0 1 269.28165 130.91118] CT
N
f-891180347
f
GR
GS
[1 0 0 1 210.61292 115.26595] CT
N
f-891180347
f
GR
GS
[1 0 0 1 185.3596 122.06979] CT
N
f-891180347
f
GR
GS
[1 0 0 1 182.21999 105.53499] CT
N
f-891180347
f
GR
GS
[1 0 0 1 193.84187 102.01609] CT
N
f-891180347
f
GR
GS
[1 0 0 1 253.91313 133.44215] CT
N
f-891180347
f
GR
GS
[1 0 0 1 158.02289 89.46455] CT
N
f-891180347
f
GR
GS
[1 0 0 1 266.37698 71.64803] CT
N
f-891180347
f
GR
GS
[1 0 0 1 183.53484 124.14768] CT
N
f-891180347
f
GR
GS
[1 0 0 1 189.00012 93.19489] CT
N
f-891180347
f
GR
GS
[1 0 0 1 178.79004 119.44412] CT
N
f-891180347
f
GR
GS
[1 0 0 1 266.86749 165.49597] CT
N
f-891180347
f
GR
GS
[1 0 0 1 158.42014 77.44554] CT
N
f-891180347
f
GR
GS
[1 0 0 1 299.09802 140.79727] CT
N
f-891180347
f
GR
GS
[1 0 0 1 165.81866 130.18759] CT
N
f-891180347
f
GR
GS
[1 0 0 1 281.62878 138.36977] CT
N
f-891180347
f
GR
GS
[1 0 0 1 183.64401 150.03835] CT
N
f-891180347
f
GR
GS
[1 0 0 1 285.88446 114.95249] CT
N
f-891180347
f
GR
GS
[1 0 0 1 299.80389 126.03341] CT
N
f-891180347
f
GR
GS
[1 0 0 1 308.82547 198.41225] CT
N
f-891180347
f
GR
GS
[1 0 0 1 259.86456 111.3476] CT
N
f-891180347
f
GR
GS
[1 0 0 1 165.32382 136.76447] CT
N
f-891180347
f
GR
GS
[1 0 0 1 272.44891 55.26252] CT
N
f-891180347
f
GR
GS
[1 0 0 1 274.48798 163.17485] CT
N
f-891180347
f
GR
GS
[1 0 0 1 159.12177 99.8808] CT
N
f-891180347
f
GR
GS
[1 0 0 1 284.2597 78.64806] CT
N
f-891180347
f
GR
GS
[1 0 0 1 264.32959 117.35256] CT
N
f-891180347
f
GR
GS
[1 0 0 1 315.02692 179.65294] CT
N
f-891180347
f
GR
GS
[1 0 0 1 191.94707 146.27306] CT
N
f-891180347
f
GR
GS
[1 0 0 1 154.39873 144.19714] CT
N
f-891180347
f
GR
GS
[1 0 0 1 316.34979 109.44329] CT
N
f-891180347
f
GR
GS
[1 0 0 1 196.8365 131.6198] CT
N
f-891180347
f
GR
GS
[1 0 0 1 273.11404 113.74596] CT
N
f-891180347
f
GR
GS
[1 0 0 1 148.16208 117.67094] CT
N
f-891180347
f
GR
GS
[1 0 0 1 287.57388 129.72765] CT
N
f-891180347
f
GR
GS
[1 0 0 1 273.3952 123.38061] CT
N
f-891180347
f
GR
GS
[1 0 0 1 175.2587 203.58617] CT
N
f-891180347
f
GR
GS
[1 0 0 1 183.9549 109.84441] CT
N
f-891180347
f
GR
GS
[1 0 0 1 294.0274 122.57465] CT
N
f-891180347
f
GR
GS
[1 0 0 1 251.98743 117.58344] CT
N
f-891180347
f
GR
GS
[1 0 0 1 184.63643 98.34148] CT
N
f-891180347
f
GR
GS
[1 0 0 1 248.53223 150.63168] CT
N
f-891180347
f
GR
GS
[1 0 0 1 262.19629 104.71739] CT
N
f-891180347
f
GR
GS
[1 0 0 1 167.46527 71.16768] CT
N
f-891180347
f
GR
GS
[1 0 0 1 160.43297 98.81396] CT
N
f-891180347
f
GR
GS
[1 0 0 1 174.92607 161.32503] CT
N
f-891180347
f
GR
GS
[1 0 0 1 277.56552 146.94292] CT
N
f-891180347
f
GR
GS
[1 0 0 1 147.32494 70.95505] CT
N
f-891180347
f
GR
GS
[1 0 0 1 149.36673 146.98175] CT
N
f-891180347
f
GR
GS
[1 0 0 1 202.31357 119.58731] CT
N
f-891180347
f
GR
GS
[1 0 0 1 146.00143 133.30424] CT
N
f-891180347
f
GR
GS
[1 0 0 1 271.6138 121.95951] CT
N
f-891180347
f
GR
GS
[1 0 0 1 155.74083 71.56669] CT
N
f-891180347
f
GR
GS
[1 0 0 1 158.20493 76.12422] CT
N
f-891180347
f
GR
GS
[1 0 0 1 220.50955 193.14536] CT
N
f-891180347
f
GR
GS
[1 0 0 1 179.23297 95.4313] CT
N
f-891180347
f
GR
GS
[1 0 0 1 317.68121 149.86807] CT
N
f-891180347
f
GR
GS
[1 0 0 1 272.00912 135.02119] CT
N
f-891180347
f
GR
GS
[1 0 0 1 293.06079 137.68927] CT
N
f-891180347
f
GR
GS
[1 0 0 1 317.39081 179.29913] CT
N
f-891180347
f
GR
GS
[1 0 0 1 183.15292 139.69427] CT
N
f-891180347
f
GR
GS
[1 0 0 1 276.01074 163.29427] CT
N
f-891180347
f
GR
GS
[1 0 0 1 269.61169 122.24738] CT
N
f-891180347
f
GR
GS
[1 0 0 1 161.96397 134.09557] CT
N
f-891180347
f
GR
GS
[1 0 0 1 223.20343 205.27608] CT
N
f-891180347
f
GR
GS
[1 0 0 1 173.91673 106.46467] CT
N
f-891180347
f
GR
GS
[1 0 0 1 163.73058 79.46853] CT
N
f-891180347
f
GR
GS
[1 0 0 1 279.02139 117.11639] CT
N
f-891180347
f
GR
GS
[1 0 0 1 298.495 172.89078] CT
N
f-891180347
f
GR
GS
[1 0 0 1 207.65924 97.75256] CT
N
f-891180347
f
GR
GS
[1 0 0 1 184.39468 112.43061] CT
N
f-891180347
f
GR
GS
[1 0 0 1 172.30637 143.88013] CT
N
f-891180347
f
GR
GS
[1 0 0 1 189.84108 115.13783] CT
N
f-891180347
f
GR
GS
[1 0 0 1 304.16748 166.43004] CT
N
f-891180347
f
GR
GS
[1 0 0 1 284.96539 136.20493] CT
N
f-891180347
f
GR
GS
[1 0 0 1 297.11407 166.85641] CT
N
f-891180347
f
GR
GS
[1 0 0 1 184.07486 106.01086] CT
N
f-891180347
f
GR
GS
[1 0 0 1 323.62344 151.22092] CT
N
f-891180347
f
GR
GS
[1 0 0 1 279.59409 137.68779] CT
N
f-891180347
f
GR
GS
[1 0 0 1 287.64337 145.91608] CT
N
f-891180347
f
GR
GS
[1 0 0 1 305.56946 180.15013] CT
N
f-891180347
f
GR
GS
[1 0 0 1 179.10951 117.54286] CT
N
f-891180347
f
GR
GS
[1 0 0 1 271.52649 154.24156] CT
N
f-891180347
f
GR
GS
[1 0 0 1 191.84547 109.57371] CT
N
f-891180347
f
GR
GS
[1 0 0 1 296.80469 105.63591] CT
N
f-891180347
f
GR
GS
[1 0 0 1 324.27872 115.35152] CT
N
f-891180347
f
GR
GS
[1 0 0 1 191.60414 139.92116] CT
N
f-891180347
f
GR
GS
[1 0 0 1 170.61952 116.54915] CT
N
f-891180347
f
GR
GS
[1 0 0 1 144.86057 105.76176] CT
N
f-891180347
f
GR
GS
[1 0 0 1 287.65167 123.26608] CT
N
f-891180347
f
GR
GS
[1 0 0 1 187.66258 127.15303] CT
N
f-891180347
f
GR
GS
[1 0 0 1 300.80505 187.35315] CT
N
f-891180347
f
GR
GS
[1 0 0 1 270.5513 186.18242] CT
N
f-891180347
f
GR
GS
[1 0 0 1 317.4664 127.59626] CT
N
f-891180347
f
GR
GS
[1 0 0 1 322.60745 72.12212] CT
N
f-891180347
f
GR
GS
[1 0 0 1 159.04323 84.10243] CT
N
f-891180347
f
GR
GS
[1 0 0 1 197.63936 121.77551] CT
N
f-891180347
f
GR
GS
[1 0 0 1 268.63333 119.60223] CT
N
f-891180347
f
GR
GS
[1 0 0 1 285.66235 135.31239] CT
N
f-891180347
f
GR
GS
[1 0 0 1 280.60422 95.9164] CT
N
f-891180347
f
GR
GS
[1 0 0 1 237.73576 169.6283] CT
N
f-891180347
f
GR
GS
[1 0 0 1 292.25809 190.58025] CT
N
f-891180347
f
GR
GS
[1 0 0 1 256.49609 87.91256] CT
N
f-891180347
f
GR
GS
[1 0 0 1 222.56781 169.23245] CT
N
f-891180347
f
GR
GS
[1 0 0 1 245.84419 79.32928] CT
N
f-891180347
f
GR
GS
[1 0 0 1 189.05453 144.91965] CT
N
f-891180347
f
GR
GS
[1 0 0 1 151.44252 151.12416] CT
N
f-891180347
f
GR
GS
[1 0 0 1 145.78098 96.49236] CT
N
f-891180347
f
GR
GS
[1 0 0 1 272.53812 150.35753] CT
N
f-891180347
f
GR
GS
[1 0 0 1 305.29184 78.86312] CT
N
f-891180347
f
GR
GS
[1 0 0 1 264.59442 125.60766] CT
N
f-891180347
f
GR
GS
[1 0 0 1 228.35306 82.16798] CT
N
f-891180347
f
GR
GS
[1 0 0 1 166.69019 126.4521] CT
N
f-891180347
f
GR
GS
[1 0 0 1 287.90463 150.35155] CT
N
f-891180347
f
GR
GS
[1 0 0 1 152.08911 170.66368] CT
N
f-891180347
f
GR
GS
[1 0 0 1 203.70959 199.73564] CT
N
f-891180347
f
GR
GS
[1 0 0 1 157.0184 40.43442] CT
N
f-891180347
f
GR
GS
[1 0 0 1 288.89801 120.7896] CT
N
f-891180347
f
GR
GS
[1 0 0 1 191.22177 80.61317] CT
N
f-891180347
f
GR
GS
[1 0 0 1 148.23834 107.92638] CT
N
f-891180347
f
GR
GS
[1 0 0 1 219.52991 117.97636] CT
N
f-891180347
f
GR
GS
[1 0 0 1 166.21655 136.29445] CT
N
f-891180347
f
GR
GS
[1 0 0 1 173.96709 89.97246] CT
N
f-891180347
f
GR
GS
[1 0 0 1 165.32993 108.1756] CT
N
f-891180347
f
GR
GS
[1 0 0 1 172.86609 78.14889] CT
N
f-891180347
f
GR
GS
[1 0 0 1 186.2552 84.72193] CT
N
f-891180347
f
GR
GS
[1 0 0 1 209.29811 103.01419] CT
N
f-891180347
f
GR
GS
[1 0 0 1 148.98538 211.93967] CT
N
f-891180347
f
GR
GS
[1 0 0 1 278.54507 100.7179] CT
N
f-891180347
f
GR
GS
[1 0 0 1 283.98407 119.92926] CT
N
f-891180347
f
GR
GS
[1 0 0 1 265.05121 96.94926] CT
N
f-891180347
f
GR
GS
[1 0 0 1 271.69321 134.61351] CT
N
f-891180347
f
GR
GS
[1 0 0 1 282.62741 128.25177] CT
N
f-891180347
f
GR
GS
[1 0 0 1 271.1131 153.04185] CT
N
f-891180347
f
GR
GS
[1 0 0 1 184.78322 127.87479] CT
N
f-891180347
f
GR
GS
[1 0 0 1 252.18199 136.37706] CT
N
f-891180347
f
GR
GS
[1 0 0 1 191.76921 146.02625] CT
N
f-891180347
f
GR
GS
[1 0 0 1 202.84132 107.466] CT
N
f-891180347
f
GR
GS
[1 0 0 1 158.75562 69.77898] CT
N
f-891180347
f
GR
GS
[1 0 0 1 162.56065 138.90056] CT
N
f-891180347
f
GR
GS
[1 0 0 1 303.54037 90.11993] CT
N
f-891180347
f
GR
GS
[1 0 0 1 181.87854 120.27866] CT
N
f-891180347
f
GR
GS
[1 0 0 1 313.74277 147.07053] CT
N
f-891180347
f
GR
GS
[1 0 0 1 289.19135 175.4165] CT
N
f-891180347
f
GR
GS
[1 0 0 1 174.23715 87.26918] CT
N
f-891180347
f
GR
GS
[1 0 0 1 153.1459 66.66004] CT
N
f-891180347
f
GR
GS
[1 0 0 1 308.97098 194.08449] CT
N
f-891180347
f
GR
GS
[1 0 0 1 164.66051 32.30615] CT
N
f-891180347
f
GR
GS
[1 0 0 1 172.79085 122.97726] CT
N
f-891180347
f
GR
GS
[1 0 0 1 206.12697 95.65881] CT
N
f-891180347
f
GR
GS
[1 0 0 1 297.07129 138.35188] CT
N
f-891180347
f
GR
GS
[1 0 0 1 308.88986 157.52061] CT
N
f-891180347
f
GR
GS
[1 0 0 1 325.35175 68.55528] CT
N
f-891180347
f
GR
GS
[1 0 0 1 186.36594 118.30647] CT
N
f-891180347
f
GR
GS
[1 0 0 1 303.76669 133.349] CT
N
f-891180347
f
GR
GS
[1 0 0 1 305.71478 93.54426] CT
N
f-891180347
f
GR
GS
[1 0 0 1 178.85472 54.88798] CT
N
f-891180347
f
GR
GS
[1 0 0 1 308.9248 146.48532] CT
N
f-891180347
f
GR
GS
[1 0 0 1 144.08266 105.03345] CT
N
f-891180347
f
GR
GS
[1 0 0 1 294.82648 167.12181] CT
N
f-891180347
f
GR
GS
[1 0 0 1 322.47885 169.73116] CT
N
f-891180347
f
GR
GS
[1 0 0 1 156.73251 83.99201] CT
N
f-891180347
f
GR
GS
[1 0 0 1 289.36176 93.39128] CT
N
f-891180347
f
GR
GS
[1 0 0 1 162.53259 136.91187] CT
N
f-891180347
f
GR
GS
[1 0 0 1 162.19383 89.28181] CT
N
f-891180347
f
GR
GS
[1 0 0 1 179.07629 118.96712] CT
N
f-891180347
f
GR
GS
[1 0 0 1 171.39835 126.12902] CT
N
f-891180347
f
GR
GS
[1 0 0 1 264.84302 138.2724] CT
N
f-891180347
f
GR
GS
[1 0 0 1 311.41489 55.49028] CT
N
f-891180347
f
GR
GS
[1 0 0 1 169.21971 129.98059] CT
N
f-891180347
f
GR
GS
[1 0 0 1 292.01935 131.49477] CT
N
f-891180347
f
GR
GS
[1 0 0 1 279.68231 148.32986] CT
N
f-891180347
f
GR
GS
[1 0 0 1 160.50568 74.39247] CT
N
f-891180347
f
GR
GS
[1 0 0 1 292.60052 165.53014] CT
N
f-891180347
f
GR
GS
[1 0 0 1 299.22372 176.10768] CT
N
f-891180347
f
GR
GS
[1 0 0 1 273.5047 40.77558] CT
N
f-891180347
f
GR
GS
[1 0 0 1 178.59599 99.06717] CT
N
f-891180347
f
GR
GS
[1 0 0 1 274.70462 138.72099] CT
N
f-891180347
f
GR
GS
[1 0 0 1 270.82245 121.21846] CT
N
f-891180347
f
GR
GS
[1 0 0 1 208.38756 135.94345] CT
N
f-891180347
f
GR
GS
[1 0 0 1 185.24037 170.76015] CT
N
f-891180347
f
GR
GS
[1 0 0 1 275.5708 193.89008] CT
N
f-891180347
f
GR
GS
[1 0 0 1 265.08893 81.56908] CT
N
f-891180347
f
GR
GS
[1 0 0 1 207.16768 93.08804] CT
N
f-891180347
f
GR
GS
[1 0 0 1 162.34421 88.62203] CT
N
f-891180347
f
GR
GS
[1 0 0 1 172.40775 122.12042] CT
N
f-891180347
f
GR
GS
[1 0 0 1 291.27173 183.58344] CT
N
f-891180347
f
GR
GS
[1 0 0 1 205.57506 139.47046] CT
N
f-891180347
f
GR
GS
[1 0 0 1 196.84526 126.32735] CT
N
f-891180347
f
GR
GS
[1 0 0 1 201.34836 118.66125] CT
N
f-891180347
f
GR
GS
[1 0 0 1 183.138 112.72841] CT
N
f-891180347
f
GR
GS
[1 0 0 1 176.17601 164.30138] CT
N
f-891180347
f
GR
GS
[1 0 0 1 187.28439 110.01025] CT
N
f-891180347
f
GR
GS
[1 0 0 1 190.83101 125.85844] CT
N
f-891180347
f
GR
GS
[1 0 0 1 187.77568 113.14221] CT
N
f-891180347
f
GR
GS
[1 0 0 1 291.7565 131.87784] CT
N
f-891180347
f
GR
GS
[1 0 0 1 186.90926 122.26691] CT
N
f-891180347
f
GR
GS
[1 0 0 1 203.00676 114.45303] CT
N
f-891180347
f
GR
GS
[1 0 0 1 287.17139 93.03358] CT
N
f-891180347
f
GR
GS
[1 0 0 1 175.23073 74.75623] CT
N
f-891180347
f
GR
GS
[1 0 0 1 161.8174 180.37216] CT
N
f-891180347
f
GR
GS
[1 0 0 1 318.59555 81.26083] CT
N
f-891180347
f
GR
GS
[1 0 0 1 167.8476 122.95827] CT
N
f-891180347
f
GR
GS
[1 0 0 1 192.31693 105.97021] CT
N
f-891180347
f
GR
GS
[1 0 0 1 311.63394 177.11349] CT
N
f-891180347
f
GR
GS
[1 0 0 1 297.97354 186.23177] CT
N
f-891180347
f
GR
GS
[1 0 0 1 164.56535 77.66071] CT
N
f-891180347
f
GR
GS
[1 0 0 1 249.49826 82.84151] CT
N
f-891180347
f
GR
GS
[1 0 0 1 202.29984 114.04102] CT
N
f-891180347
f
GR
GS
[1 0 0 1 214.10309 96.48185] CT
N
f-891180347
f
GR
GS
[1 0 0 1 309.12582 196.46278] CT
N
f-891180347
f
GR
GS
[1 0 0 1 243.39841 160.48785] CT
N
f-891180347
f
GR
GS
[1 0 0 1 271.89716 129.71158] CT
N
f-891180347
f
GR
GS
[1 0 0 1 206.0739 98.73965] CT
N
f-891180347
f
GR
GS
[1 0 0 1 299.55301 119.37723] CT
N
f-891180347
f
GR
GS
[1 0 0 1 250.61218 154.28467] CT
N
f-891180347
f
GR
GS
[1 0 0 1 174.01692 175.10368] CT
N
f-891180347
f
GR
GS
[1 0 0 1 231.06932 107.77237] CT
N
f-891180347
f
GR
GS
[1 0 0 1 259.42197 146.61905] CT
N
f-891180347
f
GR
GS
[1 0 0 1 283.37177 161.74187] CT
N
f-891180347
f
GR
GS
[1 0 0 1 181.73289 134.13817] CT
N
f-891180347
f
GR
GS
[1 0 0 1 292.9342 130.29359] CT
N
f-891180347
f
GR
GS
[1 0 0 1 287.4791 138.81779] CT
N
f-891180347
f
GR
GS
[1 0 0 1 287.92609 115.67848] CT
N
f-891180347
f
GR
GS
[1 0 0 1 166.1382 53.30681] CT
N
f-891180347
f
GR
GS
[1 0 0 1 166.0033 85.80396] CT
N
f-891180347
f
GR
GS
[1 0 0 1 255.02528 153.11368] CT
N
f-891180347
f
GR
GS
[1 0 0 1 194.73857 106.21078] CT
N
f-891180347
f
GR
GS
[1 0 0 1 288.73041 98.6236] CT
N
f-891180347
f
GR
GS
[1 0 0 1 163.4715 62.9911] CT
N
f-891180347
f
GR
GS
[1 0 0 1 303.88205 171.85399] CT
N
f-891180347
f
GR
GS
[1 0 0 1 291.92258 109.34381] CT
N
f-891180347
f
GR
GS
[1 0 0 1 279.04453 150.87935] CT
N
f-891180347
f
GR
GS
[1 0 0 1 152.46931 68.92627] CT
N
f-891180347
f
GR
GS
[1 0 0 1 171.79836 88.41858] CT
N
f-891180347
f
GR
GS
[1 0 0 1 178.98671 103.01048] CT
N
f-891180347
f
GR
GS
[1 0 0 1 200.78006 190.29727] CT
N
f-891180347
f
GR
GS
[1 0 0 1 283.84094 113.88272] CT
N
f-891180347
f
GR
GS
[1 0 0 1 171.07225 105.22321] CT
N
f-891180347
f
GR
GS
[1 0 0 1 186.10437 43.46474] CT
N
f-891180347
f
GR
GS
[1 0 0 1 158.02782 113.04414] CT
N
f-891180347
f
GR
GS
[1 0 0 1 244.4501 149.66457] CT
N
f-891180347
f
GR
GS
[1 0 0 1 251.19086 130.17664] CT
N
f-891180347
f
GR
GS
[1 0 0 1 207.48694 70.81006] CT
N
f-891180347
f
GR
GS
[1 0 0 1 218.92462 110.20765] CT
N
f-891180347
f
GR
GS
[1 0 0 1 195.46353 138.7227] CT
N
f-891180347
f
GR
GS
[1 0 0 1 221.33482 186.30678] CT
N
f-891180347
f
GR
GS
[1 0 0 1 281.6936 142.74255] CT
N
f-891180347
f
GR
GS
[1 0 0 1 209.49054 85.74798] CT
N
f-891180347
f
GR
GS
[1 0 0 1 305.08884 95.03909] CT
N
f-891180347
f
GR
GS
[1 0 0 1 175.50339 121.21114] CT
N
f-891180347
f
GR
GS
[1 0 0 1 167.67352 72.72819] CT
N
f-891180347
f
GR
GS
[1 0 0 1 260.10831 139.80899] CT
N
f-891180347
f
GR
GS
[1 0 0 1 179.64342 142.25745] CT
N
f-891180347
f
GR
GS
[1 0 0 1 286.19064 109.45271] CT
N
f-891180347
f
GR
GS
[1 0 0 1 291.75745 193.35091] CT
N
f-891180347
f
GR
GS
[1 0 0 1 271.29425 114.37058] CT
N
f-891180347
f
GR
GS
[1 0 0 1 279.20581 122.30058] CT
N
f-891180347
f
GR
GS
[1 0 0 1 265.26294 125.20163] CT
N
f-891180347
f
GR
GS
[1 0 0 1 302.15689 181.44203] CT
N
f-891180347
f
GR
GS
[1 0 0 1 206.79422 100.80744] CT
N
f-891180347
f
GR
GS
[1 0 0 1 272.77698 135.02342] CT
N
f-891180347
f
GR
GS
[1 0 0 1 154.33537 123.17514] CT
N
f-891180347
f
GR
GS
[1 0 0 1 155.36235 40.82664] CT
N
f-891180347
f
GR
GS
[1 0 0 1 258.68109 113.5181] CT
N
f-891180347
f
GR
GS
[1 0 0 1 223.57286 63.34264] CT
N
f-891180347
f
GR
GS
[1 0 0 1 259.42429 62.52804] CT
N
f-891180347
f
GR
GS
[1 0 0 1 272.7067 183.832] CT
N
f-891180347
f
GR
GS
[1 0 0 1 266.11011 120.25204] CT
N
f-891180347
f
GR
GS
[1 0 0 1 202.93681 172.67966] CT
N
f-891180347
f
GR
GS
[1 0 0 1 298.62634 157.43849] CT
N
f-891180347
f
GR
GS
[1 0 0 1 255.62202 153.03717] CT
N
f-891180347
f
GR
GS
[1 0 0 1 197.90817 105.52374] CT
N
f-891180347
f
GR
GS
[1 0 0 1 273.67975 44.34173] CT
N
f-891180347
f
GR
GS
[1 0 0 1 210.08434 173.54047] CT
N
f-891180347
f
GR
GS
[1 0 0 1 171.36742 151.98524] CT
N
f-891180347
f
GR
GS
[1 0 0 1 215.93825 119.55117] CT
N
f-891180347
f
GR
GS
[1 0 0 1 228.31071 90.28444] CT
N
f-891180347
f
GR
GS
[1 0 0 1 303.79263 163.68781] CT
N
f-891180347
f
GR
GS
[1 0 0 1 254.49503 144.20865] CT
N
f-891180347
f
GR
GS
[1 0 0 1 316.53342 160.08675] CT
N
f-891180347
f
GR
GS
[1 0 0 1 203.49574 92.23479] CT
N
f-891180347
f
GR
GS
[1 0 0 1 146.31619 105.77881] CT
N
f-891180347
f
GR
GS
[1 0 0 1 284.84338 165.15442] CT
N
f-891180347
f
GR
GS
[1 0 0 1 271.2034 138.46255] CT
N
f-891180347
f
GR
GS
[1 0 0 1 246.0054 141.64063] CT
N
f-891180347
f
GR
GS
[1 0 0 1 247.67171 95.62907] CT
N
f-891180347
f
GR
GS
[1 0 0 1 259.00232 122.53081] CT
N
f-891180347
f
GR
GS
[1 0 0 1 278.05594 159.86943] CT
N
f-891180347
f
GR
GS
[1 0 0 1 211.27382 117.99457] CT
N
f-891180347
f
GR
GS
[1 0 0 1 259.71692 116.79325] CT
N
f-891180347
f
GR
GS
[1 0 0 1 281.53342 187.90517] CT
N
f-891180347
f
GR
GS
[1 0 0 1 285.42697 165.19356] CT
N
f-891180347
f
GR
GS
[1 0 0 1 260.41861 123.24591] CT
N
f-891180347
f
GR
GS
[1 0 0 1 155.38066 102.94324] CT
N
f-891180347
f
GR
GS
[1 0 0 1 276.82068 69.78748] CT
N
f-891180347
f
GR
GS
[1 0 0 1 256.13763 152.26233] CT
N
f-891180347
f
GR
GS
[1 0 0 1 297.1503 93.84818] CT
N
f-891180347
f
GR
GS
[1 0 0 1 292.67441 87.94547] CT
N
f-891180347
f
GR
GS
[1 0 0 1 238.38525 148.03517] CT
N
f-891180347
f
GR
GS
[1 0 0 1 277.73892 164.25017] CT
N
f-891180347
f
GR
GS
[1 0 0 1 240.81712 158.90248] CT
N
f-891180347
f
GR
GS
[1 0 0 1 234.72313 93.80155] CT
N
f-891180347
f
GR
GS
[1 0 0 1 172.41695 123.14664] CT
N
f-891180347
f
GR
GS
[1 0 0 1 313.27869 145.9893] CT
N
f-891180347
f
GR
GS
[1 0 0 1 282.64258 111.88544] CT
N
f-891180347
f
GR
GS
[1 0 0 1 198.19087 131.91029] CT
N
f-891180347
f
GR
GS
[1 0 0 1 317.96774 177.28162] CT
N
f-891180347
f
GR
GS
[1 0 0 1 289.19284 117.2643] CT
N
f-891180347
f
GR
GS
[1 0 0 1 301.18677 173.78171] CT
N
f-891180347
f
GR
GS
[1 0 0 1 282.47055 137.93942] CT
N
f-891180347
f
GR
GS
[1 0 0 1 174.32475 75.96412] CT
N
f-891180347
f
GR
GS
[1 0 0 1 261.64688 166.47282] CT
N
f-891180347
f
GR
GS
[1 0 0 1 297.58228 169.65535] CT
N
f-891180347
f
GR
GS
[1 0 0 1 162.90637 86.39016] CT
N
f-891180347
f
GR
GS
[1 0 0 1 189.32936 76.5797] CT
N
f-891180347
f
GR
GS
[1 0 0 1 188.70068 123.66085] CT
N
f-891180347
f
GR
GS
[1 0 0 1 264.31738 142.46953] CT
N
f-891180347
f
GR
GS
[1 0 0 1 178.41158 109.0497] CT
N
f-891180347
f
GR
GS
[1 0 0 1 303.67245 93.79423] CT
N
f-891180347
f
GR
GS
[1 0 0 1 144.32628 56.63975] CT
N
f-891180347
f
GR
GS
[1 0 0 1 312.66956 97.25366] CT
N
f-891180347
f
GR
GS
[1 0 0 1 151.80098 54.41949] CT
N
f-891180347
f
GR
GS
[1 0 0 1 323.08383 52.55338] CT
N
f-891180347
f
GR
GS
[1 0 0 1 172.63364 125.60475] CT
N
f-891180347
f
GR
GS
[1 0 0 1 182.32198 62.86829] CT
N
f-891180347
f
GR
GS
[1 0 0 1 177.00932 74.00356] CT
N
f-891180347
f
GR
GS
[1 0 0 1 147.72005 41.29859] CT
N
f-891180347
f
GR
GS
[1 0 0 1 273.0918 60.69029] CT
N
f-891180347
f
GR
GS
[1 0 0 1 284.83371 163.09619] CT
N
f-891180347
f
GR
GS
[1 0 0 1 147.01253 56.03197] CT
N
f-891180347
f
GR
GS
[1 0 0 1 258.86304 86.69347] CT
N
f-891180347
f
GR
GS
[1 0 0 1 170.0744 167.79494] CT
N
f-891180347
f
GR
GS
[1 0 0 1 255.05399 145.79445] CT
N
f-891180347
f
GR
GS
[1 0 0 1 297.57159 157.3744] CT
N
f-891180347
f
GR
GS
[1 0 0 1 173.85062 124.1636] CT
N
f-891180347
f
GR
GS
[1 0 0 1 158.54974 162.01956] CT
N
f-891180347
f
GR
GS
[1 0 0 1 170.64819 74.69659] CT
N
f-891180347
f
GR
GS
[1 0 0 1 193.63255 95.61435] CT
N
f-891180347
f
GR
GS
[1 0 0 1 265.19745 153.89] CT
N
f-891180347
f
GR
GS
[1 0 0 1 212.93996 119.84304] CT
N
f-891180347
f
GR
GS
[1 0 0 1 160.8183 138.15868] CT
N
f-891180347
f
GR
GS
[1 0 0 1 240.12567 164.94676] CT
N
f-891180347
f
GR
GS
[1 0 0 1 167.94196 133.01741] CT
N
f-891180347
f
GR
GS
[1 0 0 1 281.62555 199.41037] CT
N
f-891180347
f
GR
GS
[1 0 0 1 304.98923 201.22446] CT
N
f-891180347
f
GR
GS
[1 0 0 1 305.23184 187.41106] CT
N
f-891180347
f
GR
GS
[1 0 0 1 208.10754 74.39484] CT
N
f-891180347
f
GR
GS
[1 0 0 1 148.22076 97.29756] CT
N
f-891180347
f
GR
GS
[1 0 0 1 203.75356 108.07678] CT
N
f-891180347
f
GR
GS
[1 0 0 1 188.72794 125.32278] CT
N
f-891180347
f
GR
GS
[1 0 0 1 279.97702 185.41606] CT
N
f-891180347
f
GR
GS
[1 0 0 1 165.52141 49.33348] CT
N
f-891180347
f
GR
GS
[1 0 0 1 318.3916 164.56494] CT
N
f-891180347
f
GR
GS
[1 0 0 1 277.05569 116.95797] CT
N
f-891180347
f
GR
GS
[1 0 0 1 174.85538 60.79126] CT
N
f-891180347
f
GR
GS
[1 0 0 1 314.95428 100.64768] CT
N
f-891180347
f
GR
GS
[1 0 0 1 276.88544 99.99638] CT
N
f-891180347
f
GR
GS
[1 0 0 1 265.63098 58.22916] CT
N
f-891180347
f
GR
GS
[1 0 0 1 289.63428 147.96945] CT
N
f-891180347
f
GR
GS
[1 0 0 1 184.16183 98.66954] CT
N
f-891180347
f
GR
GS
[1 0 0 1 191.0036 146.50513] CT
N
f-891180347
f
GR
GS
[1 0 0 1 168.85918 124.74184] CT
N
f-891180347
f
GR
GS
[1 0 0 1 303.28455 167.27888] CT
N
f-891180347
f
GR
GS
[1 0 0 1 293.9971 118.55565] CT
N
f-891180347
f
GR
GS
[1 0 0 1 314.62567 156.39548] CT
N
f-891180347
f
GR
GS
[1 0 0 1 317.71442 204.65921] CT
N
f-891180347
f
GR
GS
[1 0 0 1 308.27646 171.1013] CT
N
f-891180347
f
GR
GS
[1 0 0 1 248.96899 74.18471] CT
N
f-891180347
f
GR
GS
[1 0 0 1 181.22121 58.36408] CT
N
f-891180347
f
GR
GS
[1 0 0 1 277.24597 166.60635] CT
N
f-891180347
f
GR
GS
[1 0 0 1 277.4501 156.87251] CT
N
f-891180347
f
GR
GS
[1 0 0 1 167.07748 62.96276] CT
N
f-891180347
f
GR
GS
[1 0 0 1 166.29349 122.28281] CT
N
f-891180347
f
GR
GS
[1 0 0 1 279.79697 89.35907] CT
N
f-891180347
f
GR
GS
[1 0 0 1 291.35928 32.62329] CT
N
f-891180347
f
GR
GS
[1 0 0 1 283.57666 113.05733] CT
N
f-891180347
f
GR
GS
[1 0 0 1 313.13223 180.04453] CT
N
f-891180347
f
GR
GS
[1 0 0 1 292.07568 105.51128] CT
N
f-891180347
f
GR
GS
[1 0 0 1 181.20721 115.75623] CT
N
f-891180347
f
GR
GS
[1 0 0 1 288.85538 206.32594] CT
N
f-891180347
f
GR
GS
[1 0 0 1 178.52022 182.90974] CT
N
f-891180347
f
GR
GS
[1 0 0 1 213.03807 90.82608] CT
N
f-891180347
f
GR
GS
[1 0 0 1 173.78745 52.00837] CT
N
f-891180347
f
GR
GS
[1 0 0 1 225.97833 113.90193] CT
N
f-891180347
f
GR
GS
[1 0 0 1 266.08362 148.41478] CT
N
f-891180347
f
GR
GS
[1 0 0 1 272.60974 64.82883] CT
N
f-891180347
f
GR
GS
[1 0 0 1 230.6006 92.48465] CT
N
f-891180347
f
GR
GS
[1 0 0 1 204.03543 106.85231] CT
N
f-891180347
f
GR
GS
[1 0 0 1 289.5831 153.33034] CT
N
f-891180347
f
GR
GS
[1 0 0 1 246.58337 62.99702] CT
N
f-891180347
f
GR
GS
[1 0 0 1 283.21896 181.36737] CT
N
f-891180347
f
GR
GS
[1 0 0 1 279.91513 173.32188] CT
N
f-891180347
f
GR
GS
[1 0 0 1 182.50508 100.89057] CT
N
f-891180347
f
GR
GS
[1 0 0 1 167.60847 92.34995] CT
N
f-891180347
f
GR
GS
[1 0 0 1 276.05783 128.75566] CT
N
f-891180347
f
GR
GS
[1 0 0 1 275.40228 59.51214] CT
N
f-891180347
f
GR
GS
[1 0 0 1 170.57849 135.23019] CT
N
f-891180347
f
GR
GS
[1 0 0 1 297.17181 173.33653] CT
N
f-891180347
f
GR
GS
[1 0 0 1 259.38748 122.09116] CT
N
f-891180347
f
GR
GS
[1 0 0 1 153.09198 64.34559] CT
N
f-891180347
f
GR
GS
[1 0 0 1 163.61624 160.67252] CT
N
f-891180347
f
GR
GS
[1 0 0 1 199.41565 123.20898] CT
N
f-891180347
f
GR
GS
[1 0 0 1 155.42854 147.17053] CT
N
f-891180347
f
GR
GS
[1 0 0 1 282.40359 167.33661] CT
N
f-891180347
f
GR
GS
[1 0 0 1 276.19846 110.34582] CT
N
f-891180347
f
GR
GS
[1 0 0 1 174.73869 137.52132] CT
N
f-891180347
f
GR
GS
[1 0 0 1 258.05182 62.30189] CT
N
f-891180347
f
GR
GS
[1 0 0 1 304.23846 171.81653] CT
N
f-891180347
f
GR
GS
[1 0 0 1 146.66927 163.59856] CT
N
f-891180347
f
GR
GS
[1 0 0 1 169.78601 101.96938] CT
N
f-891180347
f
GR
GS
[1 0 0 1 247.20685 159.32558] CT
N
f-891180347
f
GR
GS
[1 0 0 1 177.17894 73.8717] CT
N
f-891180347
f
GR
GS
[1 0 0 1 200.65004 156.20056] CT
N
f-891180347
f
GR
GS
[1 0 0 1 202.9718 104.85767] CT
N
f-891180347
f
GR
GS
[1 0 0 1 170.13654 122.14314] CT
N
f-891180347
f
GR
GS
[1 0 0 1 176.56927 127.11158] CT
N
f-891180347
f
GR
GS
[1 0 0 1 201.35936 154.09053] CT
N
f-891180347
f
GR
GS
[1 0 0 1 309.72073 188.67169] CT
N
f-891180347
f
GR
GS
[1 0 0 1 305.38739 167.69371] CT
N
f-891180347
f
GR
GS
[1 0 0 1 250.81146 168.09232] CT
N
f-891180347
f
GR
GS
[1 0 0 1 179.1088 133.38835] CT
N
f-891180347
f
GR
GS
[1 0 0 1 150.65587 161.72018] CT
N
f-891180347
f
GR
GS
[1 0 0 1 306.04254 174.91911] CT
N
f-891180347
f
GR
GS
1 LJ
0.5 LW
N
143.5 218 M
326 218 L
326 27 L
143.5 27 L
143.5 218 L
S
GR
GS
0.8 0 0 RC
1 LJ
N
143.5 122.5 M
234.75 27 L
S
GR
GS
0.8 0 0 RC
1 LJ
N
234.75 218 M
326 122.5 L
S
GR
%%Trailer
%%Pages: 1
%%EOF
