%!PS-Adobe-3.0 EPSF-3.0
%%Creator: (MATLAB, The Mathworks, Inc. Version 9.3.0.713579 \(R2017b\). Operating System: Mac OS X)
%%Title: ./dth_thp_blank.eps
%%CreationDate: 2018-06-29T09:47:25
%%Pages: (atend)
%%BoundingBox:   127   125   327   334
%%LanguageLevel: 3
%%EndComments
%%BeginProlog
%%BeginResource: procset (Apache XML Graphics Std ProcSet) 1.2 0
%%Version: 1.2 0
%%Copyright: (Copyright 2001-2003,2010 The Apache Software Foundation. License terms: http://www.apache.org/licenses/LICENSE-2.0)
/bd{bind def}bind def
/ld{load def}bd
/GR/grestore ld
/GS/gsave ld
/RM/rmoveto ld
/C/curveto ld
/t/show ld
/L/lineto ld
/ML/setmiterlimit ld
/CT/concat ld
/f/fill ld
/N/newpath ld
/S/stroke ld
/CC/setcmykcolor ld
/A/ashow ld
/cp/closepath ld
/RC/setrgbcolor ld
/LJ/setlinejoin ld
/GC/setgray ld
/LW/setlinewidth ld
/M/moveto ld
/re {4 2 roll M
1 index 0 rlineto
0 exch rlineto
neg 0 rlineto
cp } bd
/_ctm matrix def
/_tm matrix def
/BT { _ctm currentmatrix pop matrix _tm copy pop 0 0 moveto } bd
/ET { _ctm setmatrix } bd
/iTm { _ctm setmatrix _tm concat } bd
/Tm { _tm astore pop iTm 0 0 moveto } bd
/ux 0.0 def
/uy 0.0 def
/F {
  /Tp exch def
  /Tf exch def
  Tf findfont Tp scalefont setfont
  /cf Tf def  /cs Tp def
} bd
/ULS {currentpoint /uy exch def /ux exch def} bd
/ULE {
  /Tcx currentpoint pop def
  gsave
  newpath
  cf findfont cs scalefont dup
  /FontMatrix get 0 get /Ts exch def /FontInfo get dup
  /UnderlinePosition get Ts mul /To exch def
  /UnderlineThickness get Ts mul /Tt exch def
  ux uy To add moveto  Tcx uy To add lineto
  Tt setlinewidth stroke
  grestore
} bd
/OLE {
  /Tcx currentpoint pop def
  gsave
  newpath
  cf findfont cs scalefont dup
  /FontMatrix get 0 get /Ts exch def /FontInfo get dup
  /UnderlinePosition get Ts mul /To exch def
  /UnderlineThickness get Ts mul /Tt exch def
  ux uy To add cs add moveto Tcx uy To add cs add lineto
  Tt setlinewidth stroke
  grestore
} bd
/SOE {
  /Tcx currentpoint pop def
  gsave
  newpath
  cf findfont cs scalefont dup
  /FontMatrix get 0 get /Ts exch def /FontInfo get dup
  /UnderlinePosition get Ts mul /To exch def
  /UnderlineThickness get Ts mul /Tt exch def
  ux uy To add cs 10 mul 26 idiv add moveto Tcx uy To add cs 10 mul 26 idiv add lineto
  Tt setlinewidth stroke
  grestore
} bd
/QT {
/Y22 exch store
/X22 exch store
/Y21 exch store
/X21 exch store
currentpoint
/Y21 load 2 mul add 3 div exch
/X21 load 2 mul add 3 div exch
/X21 load 2 mul /X22 load add 3 div
/Y21 load 2 mul /Y22 load add 3 div
/X22 load /Y22 load curveto
} bd
/SSPD {
dup length /d exch dict def
{
/v exch def
/k exch def
currentpagedevice k known {
/cpdv currentpagedevice k get def
v cpdv ne {
/upd false def
/nullv v type /nulltype eq def
/nullcpdv cpdv type /nulltype eq def
nullv nullcpdv or
{
/upd true def
} {
/sametype v type cpdv type eq def
sametype {
v type /arraytype eq {
/vlen v length def
/cpdvlen cpdv length def
vlen cpdvlen eq {
0 1 vlen 1 sub {
/i exch def
/obj v i get def
/cpdobj cpdv i get def
obj cpdobj ne {
/upd true def
exit
} if
} for
} {
/upd true def
} ifelse
} {
v type /dicttype eq {
v {
/dv exch def
/dk exch def
/cpddv cpdv dk get def
dv cpddv ne {
/upd true def
exit
} if
} forall
} {
/upd true def
} ifelse
} ifelse
} if
} ifelse
upd true eq {
d k v put
} if
} if
} if
} forall
d length 0 gt {
d setpagedevice
} if
} bd
/RE { % /NewFontName [NewEncodingArray] /FontName RE -
  findfont dup length dict begin
  {
    1 index /FID ne
    {def} {pop pop} ifelse
  } forall
  /Encoding exch def
  /FontName 1 index def
  currentdict definefont pop
  end
} bind def
%%EndResource
%%BeginResource: procset (Apache XML Graphics EPS ProcSet) 1.0 0
%%Version: 1.0 0
%%Copyright: (Copyright 2002-2003 The Apache Software Foundation. License terms: http://www.apache.org/licenses/LICENSE-2.0)
/BeginEPSF { %def
/b4_Inc_state save def         % Save state for cleanup
/dict_count countdictstack def % Count objects on dict stack
/op_count count 1 sub def      % Count objects on operand stack
userdict begin                 % Push userdict on dict stack
/showpage { } def              % Redefine showpage, { } = null proc
0 setgray 0 setlinecap         % Prepare graphics state
1 setlinewidth 0 setlinejoin
10 setmiterlimit [ ] 0 setdash newpath
/languagelevel where           % If level not equal to 1 then
{pop languagelevel             % set strokeadjust and
1 ne                           % overprint to their defaults.
{false setstrokeadjust false setoverprint
} if
} if
} bd
/EndEPSF { %def
count op_count sub {pop} repeat            % Clean up stacks
countdictstack dict_count sub {end} repeat
b4_Inc_state restore
} bd
%%EndResource
%FOPBeginFontDict
%%IncludeResource: font Courier-Oblique
%%IncludeResource: font Courier-BoldOblique
%%IncludeResource: font Courier-Bold
%%IncludeResource: font ZapfDingbats
%%IncludeResource: font Symbol
%%IncludeResource: font Helvetica
%%IncludeResource: font Helvetica-Oblique
%%IncludeResource: font Helvetica-Bold
%%IncludeResource: font Helvetica-BoldOblique
%%IncludeResource: font Times-Roman
%%IncludeResource: font Times-Italic
%%IncludeResource: font Times-Bold
%%IncludeResource: font Times-BoldItalic
%%IncludeResource: font Courier
%FOPEndFontDict
%%BeginResource: encoding WinAnsiEncoding
/WinAnsiEncoding [
/.notdef /.notdef /.notdef /.notdef /.notdef
/.notdef /.notdef /.notdef /.notdef /.notdef
/.notdef /.notdef /.notdef /.notdef /.notdef
/.notdef /.notdef /.notdef /.notdef /.notdef
/.notdef /.notdef /.notdef /.notdef /.notdef
/.notdef /.notdef /.notdef /.notdef /.notdef
/.notdef /.notdef /space /exclam /quotedbl
/numbersign /dollar /percent /ampersand /quotesingle
/parenleft /parenright /asterisk /plus /comma
/hyphen /period /slash /zero /one
/two /three /four /five /six
/seven /eight /nine /colon /semicolon
/less /equal /greater /question /at
/A /B /C /D /E
/F /G /H /I /J
/K /L /M /N /O
/P /Q /R /S /T
/U /V /W /X /Y
/Z /bracketleft /backslash /bracketright /asciicircum
/underscore /quoteleft /a /b /c
/d /e /f /g /h
/i /j /k /l /m
/n /o /p /q /r
/s /t /u /v /w
/x /y /z /braceleft /bar
/braceright /asciitilde /bullet /Euro /bullet
/quotesinglbase /florin /quotedblbase /ellipsis /dagger
/daggerdbl /circumflex /perthousand /Scaron /guilsinglleft
/OE /bullet /Zcaron /bullet /bullet
/quoteleft /quoteright /quotedblleft /quotedblright /bullet
/endash /emdash /asciitilde /trademark /scaron
/guilsinglright /oe /bullet /zcaron /Ydieresis
/space /exclamdown /cent /sterling /currency
/yen /brokenbar /section /dieresis /copyright
/ordfeminine /guillemotleft /logicalnot /sfthyphen /registered
/macron /degree /plusminus /twosuperior /threesuperior
/acute /mu /paragraph /middot /cedilla
/onesuperior /ordmasculine /guillemotright /onequarter /onehalf
/threequarters /questiondown /Agrave /Aacute /Acircumflex
/Atilde /Adieresis /Aring /AE /Ccedilla
/Egrave /Eacute /Ecircumflex /Edieresis /Igrave
/Iacute /Icircumflex /Idieresis /Eth /Ntilde
/Ograve /Oacute /Ocircumflex /Otilde /Odieresis
/multiply /Oslash /Ugrave /Uacute /Ucircumflex
/Udieresis /Yacute /Thorn /germandbls /agrave
/aacute /acircumflex /atilde /adieresis /aring
/ae /ccedilla /egrave /eacute /ecircumflex
/edieresis /igrave /iacute /icircumflex /idieresis
/eth /ntilde /ograve /oacute /ocircumflex
/otilde /odieresis /divide /oslash /ugrave
/uacute /ucircumflex /udieresis /yacute /thorn
/ydieresis
] def
%%EndResource
%FOPBeginFontReencode
/Courier-Oblique findfont
dup length dict begin
  {1 index /FID ne {def} {pop pop} ifelse} forall
  /Encoding WinAnsiEncoding def
  currentdict
end
/Courier-Oblique exch definefont pop
/Courier-BoldOblique findfont
dup length dict begin
  {1 index /FID ne {def} {pop pop} ifelse} forall
  /Encoding WinAnsiEncoding def
  currentdict
end
/Courier-BoldOblique exch definefont pop
/Courier-Bold findfont
dup length dict begin
  {1 index /FID ne {def} {pop pop} ifelse} forall
  /Encoding WinAnsiEncoding def
  currentdict
end
/Courier-Bold exch definefont pop
/Helvetica findfont
dup length dict begin
  {1 index /FID ne {def} {pop pop} ifelse} forall
  /Encoding WinAnsiEncoding def
  currentdict
end
/Helvetica exch definefont pop
/Helvetica-Oblique findfont
dup length dict begin
  {1 index /FID ne {def} {pop pop} ifelse} forall
  /Encoding WinAnsiEncoding def
  currentdict
end
/Helvetica-Oblique exch definefont pop
/Helvetica-Bold findfont
dup length dict begin
  {1 index /FID ne {def} {pop pop} ifelse} forall
  /Encoding WinAnsiEncoding def
  currentdict
end
/Helvetica-Bold exch definefont pop
/Helvetica-BoldOblique findfont
dup length dict begin
  {1 index /FID ne {def} {pop pop} ifelse} forall
  /Encoding WinAnsiEncoding def
  currentdict
end
/Helvetica-BoldOblique exch definefont pop
/Times-Roman findfont
dup length dict begin
  {1 index /FID ne {def} {pop pop} ifelse} forall
  /Encoding WinAnsiEncoding def
  currentdict
end
/Times-Roman exch definefont pop
/Times-Italic findfont
dup length dict begin
  {1 index /FID ne {def} {pop pop} ifelse} forall
  /Encoding WinAnsiEncoding def
  currentdict
end
/Times-Italic exch definefont pop
/Times-Bold findfont
dup length dict begin
  {1 index /FID ne {def} {pop pop} ifelse} forall
  /Encoding WinAnsiEncoding def
  currentdict
end
/Times-Bold exch definefont pop
/Times-BoldItalic findfont
dup length dict begin
  {1 index /FID ne {def} {pop pop} ifelse} forall
  /Encoding WinAnsiEncoding def
  currentdict
end
/Times-BoldItalic exch definefont pop
/Courier findfont
dup length dict begin
  {1 index /FID ne {def} {pop pop} ifelse} forall
  /Encoding WinAnsiEncoding def
  currentdict
end
/Courier exch definefont pop
%FOPEndFontReencode
%%EndProlog
%%Page: 1 1
%%PageBoundingBox: 0 0 360 360
%%BeginPageSetup
[1 0 0 -1 0 360] CT
%%EndPageSetup
GS
1 GC
N
0 0 360 360 re
f
GR
GS
1 GC
N
0 0 360 360 re
f
GR
GS
1 GC
N
143.5 218 M
326 218 L
326 27 L
143.5 27 L
cp
f
GR
GS
0.149 GC
2 setlinecap
1 LJ
0.5 LW
N
143.5 218 M
326 218 L
S
GR
GS
0.149 GC
2 setlinecap
1 LJ
0.5 LW
N
143.5 218 M
143.5 216.09 L
S
GR
GS
0.149 GC
2 setlinecap
1 LJ
0.5 LW
N
189.125 218 M
189.125 216.09 L
S
GR
GS
0.149 GC
2 setlinecap
1 LJ
0.5 LW
N
234.75 218 M
234.75 216.09 L
S
GR
GS
0.149 GC
2 setlinecap
1 LJ
0.5 LW
N
280.375 218 M
280.375 216.09 L
S
GR
GS
0.149 GC
2 setlinecap
1 LJ
0.5 LW
N
326 218 M
326 216.09 L
S
GR
GS
[1 0 0 1 234.75009 222] CT
0.149 GC
N
-3.028 9.365 M
-3.528 9.365 -3.825 8.998 QT
-4.122 8.631 -4.239 8.115 QT
-4.356 7.599 -4.356 7.099 QT
-4.356 7.084 L
-4.356 6.537 -4.247 5.943 QT
-4.138 5.349 -3.942 4.763 QT
-3.747 4.177 -3.513 3.724 QT
-3.356 3.396 -3.099 2.998 QT
-2.841 2.599 -2.528 2.256 QT
-2.216 1.912 -1.856 1.701 QT
-1.497 1.49 -1.122 1.49 QT
-1.106 1.49 L
-0.716 1.49 -0.45 1.709 QT
-0.185 1.927 -0.036 2.271 QT
0.112 2.615 0.175 3.006 QT
0.237 3.396 0.237 3.756 QT
0.237 4.584 0.011 5.451 QT
-0.216 6.318 -0.622 7.131 QT
-0.763 7.427 -1.028 7.842 QT
-1.294 8.256 -1.591 8.584 QT
-1.888 8.912 -2.263 9.138 QT
-2.638 9.365 -3.013 9.365 QT
-3.028 9.365 L
cp
-2.997 9.068 M
-2.638 9.068 -2.302 8.677 QT
-1.966 8.287 -1.716 7.732 QT
-1.466 7.177 -1.271 6.599 QT
-1.075 6.021 -0.981 5.615 QT
-3.231 5.615 L
-3.403 6.302 -3.497 6.802 QT
-3.591 7.302 -3.591 7.787 QT
-3.591 9.068 -2.997 9.068 QT
cp
-3.138 5.224 M
-0.888 5.224 L
-0.778 4.74 -0.708 4.412 QT
-0.638 4.084 -0.583 3.724 QT
-0.528 3.365 -0.528 3.052 QT
-0.528 1.771 -1.122 1.771 QT
-1.825 1.771 -2.333 2.896 QT
-2.841 4.021 -3.138 5.224 QT
cp
f
GR
GS
[1 0 0 1 234.75009 222] CT
0.149 GC
N
0.167 12.437 M
0.089 12.437 0.089 12.343 QT
0.12 12.171 0.198 12.171 QT
0.448 12.171 0.55 12.124 QT
0.651 12.077 0.714 11.89 QT
1.604 8.281 L
1.667 8.14 1.667 7.906 QT
1.667 7.562 1.432 7.562 QT
1.182 7.562 1.065 7.859 QT
0.948 8.156 0.823 8.609 QT
0.823 8.671 0.761 8.671 QT
0.667 8.671 L
0.651 8.671 0.628 8.64 QT
0.604 8.609 0.604 8.577 QT
0.682 8.234 0.768 7.992 QT
0.854 7.749 1.018 7.554 QT
1.182 7.359 1.448 7.359 QT
1.714 7.359 1.925 7.507 QT
2.136 7.656 2.182 7.921 QT
2.401 7.671 2.667 7.515 QT
2.932 7.359 3.214 7.359 QT
3.557 7.359 3.807 7.538 QT
4.057 7.718 4.182 8.007 QT
4.307 8.296 4.307 8.624 QT
4.307 9.14 4.042 9.695 QT
3.776 10.249 3.323 10.617 QT
2.87 10.984 2.354 10.984 QT
2.12 10.984 1.932 10.851 QT
1.745 10.718 1.636 10.499 QT
1.276 11.921 L
1.261 12.046 1.245 12.062 QT
1.245 12.171 1.776 12.171 QT
1.854 12.171 1.854 12.265 QT
1.839 12.374 1.815 12.406 QT
1.792 12.437 1.729 12.437 QT
0.167 12.437 L
cp
2.37 10.765 M
2.636 10.765 2.878 10.538 QT
3.12 10.312 3.261 10.031 QT
3.37 9.812 3.471 9.499 QT
3.573 9.187 3.643 8.835 QT
3.714 8.484 3.714 8.281 QT
3.714 8.093 3.659 7.937 QT
3.604 7.781 3.495 7.671 QT
3.386 7.562 3.198 7.562 QT
2.917 7.562 2.651 7.773 QT
2.386 7.984 2.182 8.281 QT
2.182 8.312 L
1.745 10.077 L
1.792 10.359 1.948 10.562 QT
2.104 10.765 2.37 10.765 QT
cp
f
GR
GS
0.149 GC
2 setlinecap
1 LJ
0.5 LW
N
143.5 218 M
143.5 27 L
S
GR
GS
0.149 GC
2 setlinecap
1 LJ
0.5 LW
N
143.5 218 M
145.41 218 L
S
GR
GS
0.149 GC
2 setlinecap
1 LJ
0.5 LW
N
143.5 170.25 M
145.41 170.25 L
S
GR
GS
0.149 GC
2 setlinecap
1 LJ
0.5 LW
N
143.5 122.5 M
145.41 122.5 L
S
GR
GS
0.149 GC
2 setlinecap
1 LJ
0.5 LW
N
143.5 74.75 M
145.41 74.75 L
S
GR
GS
0.149 GC
2 setlinecap
1 LJ
0.5 LW
N
143.5 27 M
145.41 27 L
S
GR
GS
[0 -1 1 0 139.5 122.49991] CT
0.149 GC
N
-6.724 -3.96 M
-6.818 -3.96 -6.818 -4.054 QT
-6.802 -4.054 -6.802 -4.062 QT
-6.802 -4.069 -6.802 -4.085 QT
-3.021 -11.71 L
-2.974 -11.835 -2.818 -11.835 QT
-2.662 -11.835 L
-2.521 -11.835 -2.474 -11.71 QT
1.323 -4.085 L
1.323 -4.069 1.323 -4.062 QT
1.323 -4.054 1.323 -4.054 QT
1.323 -3.96 1.244 -3.96 QT
-6.724 -3.96 L
cp
-5.99 -4.835 M
-0.209 -4.835 L
-3.099 -10.679 L
-5.99 -4.835 L
cp
f
GR
GS
[0 -1 1 0 139.5 122.49991] CT
0.149 GC
N
3.614 -3.835 M
3.114 -3.835 2.817 -4.202 QT
2.521 -4.569 2.403 -5.085 QT
2.286 -5.601 2.286 -6.101 QT
2.286 -6.116 L
2.286 -6.663 2.396 -7.257 QT
2.505 -7.851 2.7 -8.437 QT
2.896 -9.023 3.13 -9.476 QT
3.286 -9.804 3.544 -10.202 QT
3.802 -10.601 4.114 -10.944 QT
4.427 -11.288 4.786 -11.499 QT
5.146 -11.71 5.521 -11.71 QT
5.536 -11.71 L
5.927 -11.71 6.192 -11.491 QT
6.458 -11.273 6.606 -10.929 QT
6.755 -10.585 6.817 -10.194 QT
6.88 -9.804 6.88 -9.444 QT
6.88 -8.616 6.653 -7.749 QT
6.427 -6.882 6.021 -6.069 QT
5.88 -5.773 5.614 -5.358 QT
5.349 -4.944 5.052 -4.616 QT
4.755 -4.288 4.38 -4.062 QT
4.005 -3.835 3.63 -3.835 QT
3.614 -3.835 L
cp
3.646 -4.132 M
4.005 -4.132 4.341 -4.523 QT
4.677 -4.913 4.927 -5.468 QT
5.177 -6.023 5.372 -6.601 QT
5.567 -7.179 5.661 -7.585 QT
3.411 -7.585 L
3.239 -6.898 3.146 -6.398 QT
3.052 -5.898 3.052 -5.413 QT
3.052 -4.132 3.646 -4.132 QT
cp
3.505 -7.976 M
5.755 -7.976 L
5.864 -8.46 5.935 -8.788 QT
6.005 -9.116 6.06 -9.476 QT
6.114 -9.835 6.114 -10.148 QT
6.114 -11.429 5.521 -11.429 QT
4.817 -11.429 4.31 -10.304 QT
3.802 -9.179 3.505 -7.976 QT
cp
f
GR
GS
1 LJ
0.5 LW
N
143.5 218 M
326 218 L
326 27 L
143.5 27 L
143.5 218 L
S
GR
GS
0.8 0 0 RC
1 LJ
N
143.5 122.5 M
234.75 27 L
S
GR
GS
0.8 0 0 RC
1 LJ
N
234.75 218 M
326 122.5 L
S
GR
%%Trailer
%%Pages: 1
%%EOF
