%!PS-Adobe-3.0 EPSF-3.0
%%Creator: (MATLAB, The Mathworks, Inc. Version 9.3.0.713579 \(R2017b\). Operating System: Mac OS X)
%%Title: ./epsilon.eps
%%CreationDate: 2018-11-09T00:58:32
%%Pages: (atend)
%%BoundingBox:    78     7   918   542
%%LanguageLevel: 3
%%EndComments
%%BeginProlog
%%BeginResource: procset (Apache XML Graphics Std ProcSet) 1.2 0
%%Version: 1.2 0
%%Copyright: (Copyright 2001-2003,2010 The Apache Software Foundation. License terms: http://www.apache.org/licenses/LICENSE-2.0)
/bd{bind def}bind def
/ld{load def}bd
/GR/grestore ld
/GS/gsave ld
/RM/rmoveto ld
/C/curveto ld
/t/show ld
/L/lineto ld
/ML/setmiterlimit ld
/CT/concat ld
/f/fill ld
/N/newpath ld
/S/stroke ld
/CC/setcmykcolor ld
/A/ashow ld
/cp/closepath ld
/RC/setrgbcolor ld
/LJ/setlinejoin ld
/GC/setgray ld
/LW/setlinewidth ld
/M/moveto ld
/re {4 2 roll M
1 index 0 rlineto
0 exch rlineto
neg 0 rlineto
cp } bd
/_ctm matrix def
/_tm matrix def
/BT { _ctm currentmatrix pop matrix _tm copy pop 0 0 moveto } bd
/ET { _ctm setmatrix } bd
/iTm { _ctm setmatrix _tm concat } bd
/Tm { _tm astore pop iTm 0 0 moveto } bd
/ux 0.0 def
/uy 0.0 def
/F {
  /Tp exch def
  /Tf exch def
  Tf findfont Tp scalefont setfont
  /cf Tf def  /cs Tp def
} bd
/ULS {currentpoint /uy exch def /ux exch def} bd
/ULE {
  /Tcx currentpoint pop def
  gsave
  newpath
  cf findfont cs scalefont dup
  /FontMatrix get 0 get /Ts exch def /FontInfo get dup
  /UnderlinePosition get Ts mul /To exch def
  /UnderlineThickness get Ts mul /Tt exch def
  ux uy To add moveto  Tcx uy To add lineto
  Tt setlinewidth stroke
  grestore
} bd
/OLE {
  /Tcx currentpoint pop def
  gsave
  newpath
  cf findfont cs scalefont dup
  /FontMatrix get 0 get /Ts exch def /FontInfo get dup
  /UnderlinePosition get Ts mul /To exch def
  /UnderlineThickness get Ts mul /Tt exch def
  ux uy To add cs add moveto Tcx uy To add cs add lineto
  Tt setlinewidth stroke
  grestore
} bd
/SOE {
  /Tcx currentpoint pop def
  gsave
  newpath
  cf findfont cs scalefont dup
  /FontMatrix get 0 get /Ts exch def /FontInfo get dup
  /UnderlinePosition get Ts mul /To exch def
  /UnderlineThickness get Ts mul /Tt exch def
  ux uy To add cs 10 mul 26 idiv add moveto Tcx uy To add cs 10 mul 26 idiv add lineto
  Tt setlinewidth stroke
  grestore
} bd
/QT {
/Y22 exch store
/X22 exch store
/Y21 exch store
/X21 exch store
currentpoint
/Y21 load 2 mul add 3 div exch
/X21 load 2 mul add 3 div exch
/X21 load 2 mul /X22 load add 3 div
/Y21 load 2 mul /Y22 load add 3 div
/X22 load /Y22 load curveto
} bd
/SSPD {
dup length /d exch dict def
{
/v exch def
/k exch def
currentpagedevice k known {
/cpdv currentpagedevice k get def
v cpdv ne {
/upd false def
/nullv v type /nulltype eq def
/nullcpdv cpdv type /nulltype eq def
nullv nullcpdv or
{
/upd true def
} {
/sametype v type cpdv type eq def
sametype {
v type /arraytype eq {
/vlen v length def
/cpdvlen cpdv length def
vlen cpdvlen eq {
0 1 vlen 1 sub {
/i exch def
/obj v i get def
/cpdobj cpdv i get def
obj cpdobj ne {
/upd true def
exit
} if
} for
} {
/upd true def
} ifelse
} {
v type /dicttype eq {
v {
/dv exch def
/dk exch def
/cpddv cpdv dk get def
dv cpddv ne {
/upd true def
exit
} if
} forall
} {
/upd true def
} ifelse
} ifelse
} if
} ifelse
upd true eq {
d k v put
} if
} if
} if
} forall
d length 0 gt {
d setpagedevice
} if
} bd
/RE { % /NewFontName [NewEncodingArray] /FontName RE -
  findfont dup length dict begin
  {
    1 index /FID ne
    {def} {pop pop} ifelse
  } forall
  /Encoding exch def
  /FontName 1 index def
  currentdict definefont pop
  end
} bind def
%%EndResource
%%BeginResource: procset (Apache XML Graphics EPS ProcSet) 1.0 0
%%Version: 1.0 0
%%Copyright: (Copyright 2002-2003 The Apache Software Foundation. License terms: http://www.apache.org/licenses/LICENSE-2.0)
/BeginEPSF { %def
/b4_Inc_state save def         % Save state for cleanup
/dict_count countdictstack def % Count objects on dict stack
/op_count count 1 sub def      % Count objects on operand stack
userdict begin                 % Push userdict on dict stack
/showpage { } def              % Redefine showpage, { } = null proc
0 setgray 0 setlinecap         % Prepare graphics state
1 setlinewidth 0 setlinejoin
10 setmiterlimit [ ] 0 setdash newpath
/languagelevel where           % If level not equal to 1 then
{pop languagelevel             % set strokeadjust and
1 ne                           % overprint to their defaults.
{false setstrokeadjust false setoverprint
} if
} if
} bd
/EndEPSF { %def
count op_count sub {pop} repeat            % Clean up stacks
countdictstack dict_count sub {end} repeat
b4_Inc_state restore
} bd
%%EndResource
%FOPBeginFontDict
%%IncludeResource: font Courier-Oblique
%%IncludeResource: font Courier-BoldOblique
%%IncludeResource: font Courier-Bold
%%IncludeResource: font ZapfDingbats
%%IncludeResource: font Symbol
%%IncludeResource: font Helvetica
%%IncludeResource: font Helvetica-Oblique
%%IncludeResource: font Helvetica-Bold
%%IncludeResource: font Helvetica-BoldOblique
%%IncludeResource: font Times-Roman
%%IncludeResource: font Times-Italic
%%IncludeResource: font Times-Bold
%%IncludeResource: font Times-BoldItalic
%%IncludeResource: font Courier
%FOPEndFontDict
%%BeginResource: encoding WinAnsiEncoding
/WinAnsiEncoding [
/.notdef /.notdef /.notdef /.notdef /.notdef
/.notdef /.notdef /.notdef /.notdef /.notdef
/.notdef /.notdef /.notdef /.notdef /.notdef
/.notdef /.notdef /.notdef /.notdef /.notdef
/.notdef /.notdef /.notdef /.notdef /.notdef
/.notdef /.notdef /.notdef /.notdef /.notdef
/.notdef /.notdef /space /exclam /quotedbl
/numbersign /dollar /percent /ampersand /quotesingle
/parenleft /parenright /asterisk /plus /comma
/hyphen /period /slash /zero /one
/two /three /four /five /six
/seven /eight /nine /colon /semicolon
/less /equal /greater /question /at
/A /B /C /D /E
/F /G /H /I /J
/K /L /M /N /O
/P /Q /R /S /T
/U /V /W /X /Y
/Z /bracketleft /backslash /bracketright /asciicircum
/underscore /quoteleft /a /b /c
/d /e /f /g /h
/i /j /k /l /m
/n /o /p /q /r
/s /t /u /v /w
/x /y /z /braceleft /bar
/braceright /asciitilde /bullet /Euro /bullet
/quotesinglbase /florin /quotedblbase /ellipsis /dagger
/daggerdbl /circumflex /perthousand /Scaron /guilsinglleft
/OE /bullet /Zcaron /bullet /bullet
/quoteleft /quoteright /quotedblleft /quotedblright /bullet
/endash /emdash /asciitilde /trademark /scaron
/guilsinglright /oe /bullet /zcaron /Ydieresis
/space /exclamdown /cent /sterling /currency
/yen /brokenbar /section /dieresis /copyright
/ordfeminine /guillemotleft /logicalnot /sfthyphen /registered
/macron /degree /plusminus /twosuperior /threesuperior
/acute /mu /paragraph /middot /cedilla
/onesuperior /ordmasculine /guillemotright /onequarter /onehalf
/threequarters /questiondown /Agrave /Aacute /Acircumflex
/Atilde /Adieresis /Aring /AE /Ccedilla
/Egrave /Eacute /Ecircumflex /Edieresis /Igrave
/Iacute /Icircumflex /Idieresis /Eth /Ntilde
/Ograve /Oacute /Ocircumflex /Otilde /Odieresis
/multiply /Oslash /Ugrave /Uacute /Ucircumflex
/Udieresis /Yacute /Thorn /germandbls /agrave
/aacute /acircumflex /atilde /adieresis /aring
/ae /ccedilla /egrave /eacute /ecircumflex
/edieresis /igrave /iacute /icircumflex /idieresis
/eth /ntilde /ograve /oacute /ocircumflex
/otilde /odieresis /divide /oslash /ugrave
/uacute /ucircumflex /udieresis /yacute /thorn
/ydieresis
] def
%%EndResource
%FOPBeginFontReencode
/Courier-Oblique findfont
dup length dict begin
  {1 index /FID ne {def} {pop pop} ifelse} forall
  /Encoding WinAnsiEncoding def
  currentdict
end
/Courier-Oblique exch definefont pop
/Courier-BoldOblique findfont
dup length dict begin
  {1 index /FID ne {def} {pop pop} ifelse} forall
  /Encoding WinAnsiEncoding def
  currentdict
end
/Courier-BoldOblique exch definefont pop
/Courier-Bold findfont
dup length dict begin
  {1 index /FID ne {def} {pop pop} ifelse} forall
  /Encoding WinAnsiEncoding def
  currentdict
end
/Courier-Bold exch definefont pop
/Helvetica findfont
dup length dict begin
  {1 index /FID ne {def} {pop pop} ifelse} forall
  /Encoding WinAnsiEncoding def
  currentdict
end
/Helvetica exch definefont pop
/Helvetica-Oblique findfont
dup length dict begin
  {1 index /FID ne {def} {pop pop} ifelse} forall
  /Encoding WinAnsiEncoding def
  currentdict
end
/Helvetica-Oblique exch definefont pop
/Helvetica-Bold findfont
dup length dict begin
  {1 index /FID ne {def} {pop pop} ifelse} forall
  /Encoding WinAnsiEncoding def
  currentdict
end
/Helvetica-Bold exch definefont pop
/Helvetica-BoldOblique findfont
dup length dict begin
  {1 index /FID ne {def} {pop pop} ifelse} forall
  /Encoding WinAnsiEncoding def
  currentdict
end
/Helvetica-BoldOblique exch definefont pop
/Times-Roman findfont
dup length dict begin
  {1 index /FID ne {def} {pop pop} ifelse} forall
  /Encoding WinAnsiEncoding def
  currentdict
end
/Times-Roman exch definefont pop
/Times-Italic findfont
dup length dict begin
  {1 index /FID ne {def} {pop pop} ifelse} forall
  /Encoding WinAnsiEncoding def
  currentdict
end
/Times-Italic exch definefont pop
/Times-Bold findfont
dup length dict begin
  {1 index /FID ne {def} {pop pop} ifelse} forall
  /Encoding WinAnsiEncoding def
  currentdict
end
/Times-Bold exch definefont pop
/Times-BoldItalic findfont
dup length dict begin
  {1 index /FID ne {def} {pop pop} ifelse} forall
  /Encoding WinAnsiEncoding def
  currentdict
end
/Times-BoldItalic exch definefont pop
/Courier findfont
dup length dict begin
  {1 index /FID ne {def} {pop pop} ifelse} forall
  /Encoding WinAnsiEncoding def
  currentdict
end
/Courier exch definefont pop
%FOPEndFontReencode
%%EndProlog
%%Page: 1 1
%%PageBoundingBox: 0 0 1008 576
%%BeginPageSetup
[1 0 0 -1 0 576] CT
%%EndPageSetup
GS
1 GC
N
0 0 1008 576 re
f
GR
GS
1 GC
N
0 0 1008 576 re
f
GR
GS
1 GC
N
131 512.5 M
468.5 512.5 L
468.5 43 L
131 43 L
cp
f
GR
GS
0.4 GC
N
152.094 512.5 M
152.094 456.912 L
131 456.912 L
131 512.5 L
cp
173.188 512.5 M
173.188 439.808 L
152.094 439.808 L
152.094 512.5 L
cp
194.281 512.5 M
194.281 418.428 L
173.188 418.428 L
173.188 512.5 L
cp
215.375 512.5 M
215.375 294.424 L
194.281 294.424 L
194.281 512.5 L
cp
236.469 512.5 M
236.469 247.387 L
215.375 247.387 L
215.375 512.5 L
cp
257.563 512.5 M
257.563 161.867 L
236.469 161.867 L
236.469 512.5 L
cp
278.656 512.5 M
278.656 208.903 L
257.563 208.903 L
257.563 512.5 L
cp
299.75 512.5 M
299.75 255.939 L
278.656 255.939 L
278.656 512.5 L
cp
320.844 512.5 M
320.844 234.559 L
299.75 234.559 L
299.75 512.5 L
cp
341.938 512.5 M
341.938 213.179 L
320.844 213.179 L
320.844 512.5 L
cp
363.031 512.5 M
363.031 277.32 L
341.938 277.32 L
341.938 512.5 L
cp
384.125 512.5 M
384.125 290.148 L
363.031 290.148 L
363.031 512.5 L
cp
405.219 512.5 M
405.219 392.772 L
384.125 392.772 L
384.125 512.5 L
cp
426.313 512.5 M
426.313 418.428 L
405.219 418.428 L
405.219 512.5 L
cp
447.406 512.5 M
447.406 439.808 L
426.313 439.808 L
426.313 512.5 L
cp
468.5 512.5 M
468.5 461.188 L
447.406 461.188 L
447.406 512.5 L
cp
f
GR
GS
1 GC
2 setlinecap
10.0 ML
2 LW
N
131 512.5 M
131 456.912 L
152.094 456.912 L
S
GR
GS
1 GC
2 setlinecap
10.0 ML
2 LW
N
152.094 512.5 M
152.094 512.5 L
152.094 439.808 L
173.188 439.808 L
S
GR
GS
1 GC
2 setlinecap
10.0 ML
2 LW
N
173.188 512.5 M
173.188 512.5 L
173.188 418.428 L
194.281 418.428 L
S
GR
GS
1 GC
2 setlinecap
10.0 ML
2 LW
N
194.281 512.5 M
194.281 512.5 L
194.281 294.424 L
215.375 294.424 L
S
GR
GS
1 GC
2 setlinecap
10.0 ML
2 LW
N
215.375 512.5 M
215.375 512.5 L
215.375 247.387 L
236.469 247.387 L
S
GR
GS
1 GC
2 setlinecap
10.0 ML
2 LW
N
236.469 512.5 M
236.469 512.5 L
236.469 161.867 L
257.563 161.867 L
257.563 512.5 L
257.563 512.5 L
S
GR
GS
1 GC
2 setlinecap
10.0 ML
2 LW
N
257.563 208.903 M
278.656 208.903 L
278.656 512.5 L
278.656 512.5 L
S
GR
GS
1 GC
2 setlinecap
10.0 ML
2 LW
N
278.656 255.939 M
299.75 255.939 L
S
GR
GS
1 GC
2 setlinecap
10.0 ML
2 LW
N
299.75 512.5 M
299.75 512.5 L
299.75 234.559 L
320.844 234.559 L
S
GR
GS
1 GC
2 setlinecap
10.0 ML
2 LW
N
320.844 512.5 M
320.844 512.5 L
320.844 213.179 L
341.938 213.179 L
341.938 512.5 L
341.938 512.5 L
S
GR
GS
1 GC
2 setlinecap
10.0 ML
2 LW
N
341.938 277.32 M
363.031 277.32 L
363.031 512.5 L
363.031 512.5 L
S
GR
GS
1 GC
2 setlinecap
10.0 ML
2 LW
N
363.031 290.148 M
384.125 290.148 L
384.125 512.5 L
384.125 512.5 L
S
GR
GS
1 GC
2 setlinecap
10.0 ML
2 LW
N
384.125 392.772 M
405.219 392.772 L
405.219 512.5 L
405.219 512.5 L
S
GR
GS
1 GC
2 setlinecap
10.0 ML
2 LW
N
405.219 418.428 M
426.313 418.428 L
426.313 512.5 L
426.313 512.5 L
S
GR
GS
1 GC
2 setlinecap
10.0 ML
2 LW
N
426.313 439.808 M
447.406 439.808 L
447.406 512.5 L
447.406 512.5 L
S
GR
GS
1 GC
2 setlinecap
10.0 ML
2 LW
N
447.406 461.188 M
468.5 461.188 L
468.5 512.5 L
S
GR
GS
1 GC
2 setlinecap
1 LJ
0.5 LW
N
131 512.5 M
468.5 512.5 L
S
GR
GS
1 GC
2 setlinecap
1 LJ
0.5 LW
N
131 43 M
468.5 43 L
S
GR
GS
1 GC
2 setlinecap
1 LJ
0.5 LW
N
131 512.5 M
131 507.805 L
S
GR
GS
1 GC
2 setlinecap
1 LJ
0.5 LW
N
215.375 512.5 M
215.375 507.805 L
S
GR
GS
1 GC
2 setlinecap
1 LJ
0.5 LW
N
299.75 512.5 M
299.75 507.805 L
S
GR
GS
1 GC
2 setlinecap
1 LJ
0.5 LW
N
384.125 512.5 M
384.125 507.805 L
S
GR
GS
1 GC
2 setlinecap
1 LJ
0.5 LW
N
468.5 512.5 M
468.5 507.805 L
S
GR
GS
1 GC
2 setlinecap
1 LJ
0.5 LW
N
131 43 M
131 47.695 L
S
GR
GS
1 GC
2 setlinecap
1 LJ
0.5 LW
N
215.375 43 M
215.375 47.695 L
S
GR
GS
1 GC
2 setlinecap
1 LJ
0.5 LW
N
299.75 43 M
299.75 47.695 L
S
GR
GS
1 GC
2 setlinecap
1 LJ
0.5 LW
N
384.125 43 M
384.125 47.695 L
S
GR
GS
1 GC
2 setlinecap
1 LJ
0.5 LW
N
468.5 43 M
468.5 47.695 L
S
GR
GS
[1 0 0 1 131 518.5] CT
1 GC
N
-11.79 12.206 M
-11.962 12.206 -12.071 12.073 QT
-12.181 11.941 -12.181 11.8 QT
-12.181 11.659 -12.071 11.526 QT
-11.962 11.394 -11.79 11.394 QT
-0.321 11.394 L
-0.165 11.394 -0.063 11.526 QT
0.038 11.659 0.038 11.8 QT
0.038 11.941 -0.063 12.073 QT
-0.165 12.206 -0.321 12.206 QT
-11.79 12.206 L
cp
f
GR
GS
[1 0 0 1 131 518.5] CT
1 GC
N
3.734 16.456 M
3.734 16.347 3.813 16.128 QT
4.375 14.972 4.859 13.855 QT
5.344 12.737 5.727 11.675 QT
6.109 10.612 6.438 9.409 QT
5.156 9.409 L
4.422 9.409 3.789 9.87 QT
3.156 10.331 2.734 11.034 QT
2.703 11.112 2.625 11.112 QT
2.391 11.112 L
2.203 11.112 2.203 10.925 QT
2.203 10.878 2.234 10.8 QT
2.891 9.691 3.641 8.933 QT
4.391 8.175 5.328 8.175 QT
12.578 8.175 L
12.781 8.175 12.93 8.316 QT
13.078 8.456 13.078 8.691 QT
13.078 8.972 12.867 9.191 QT
12.656 9.409 12.359 9.409 QT
9.813 9.409 L
9.5 10.987 9.469 12.487 QT
9.469 14.409 10.141 15.956 QT
10.203 16.081 10.203 16.206 QT
10.203 16.425 10.07 16.605 QT
9.938 16.784 9.742 16.901 QT
9.547 17.019 9.313 17.019 QT
8.797 17.019 8.602 16.159 QT
8.406 15.3 8.406 14.487 QT
8.406 13.347 8.602 12.292 QT
8.797 11.237 9.219 9.409 QT
7.047 9.409 L
5.453 15.816 5.141 16.472 QT
4.859 17.019 4.359 17.019 QT
4.109 17.019 3.922 16.862 QT
3.734 16.706 3.734 16.456 QT
cp
f
GR
GS
[1 0 0 1 215.375 518.5] CT
1 GC
N
-24.568 12.206 M
-24.74 12.206 -24.849 12.073 QT
-24.958 11.941 -24.958 11.8 QT
-24.958 11.659 -24.849 11.526 QT
-24.74 11.394 -24.568 11.394 QT
-13.099 11.394 L
-12.943 11.394 -12.841 11.526 QT
-12.74 11.659 -12.74 11.8 QT
-12.74 11.941 -12.841 12.073 QT
-12.943 12.206 -13.099 12.206 QT
-24.568 12.206 L
cp
f
GR
GS
[1 0 0 1 215.375 518.5] CT
1 GC
N
-6.059 17.237 M
-8.512 17.237 -9.395 15.222 QT
-10.278 13.206 -10.278 10.425 QT
-10.278 8.691 -9.957 7.151 QT
-9.637 5.612 -8.7 4.542 QT
-7.762 3.472 -6.059 3.472 QT
-4.747 3.472 -3.903 4.12 QT
-3.059 4.769 -2.622 5.792 QT
-2.184 6.816 -2.02 7.98 QT
-1.856 9.144 -1.856 10.425 QT
-1.856 12.144 -2.176 13.644 QT
-2.497 15.144 -3.426 16.191 QT
-4.356 17.237 -6.059 17.237 QT
cp
-6.059 16.722 M
-4.95 16.722 -4.403 15.581 QT
-3.856 14.441 -3.723 13.05 QT
-3.59 11.659 -3.59 10.097 QT
-3.59 8.597 -3.723 7.323 QT
-3.856 6.05 -4.395 5.026 QT
-4.934 4.003 -6.059 4.003 QT
-7.184 4.003 -7.731 5.034 QT
-8.278 6.066 -8.411 7.331 QT
-8.543 8.597 -8.543 10.097 QT
-8.543 11.206 -8.489 12.198 QT
-8.434 13.191 -8.2 14.237 QT
-7.965 15.284 -7.442 16.003 QT
-6.918 16.722 -6.059 16.722 QT
cp
f
GR
GS
[1 0 0 1 215.375 518.5] CT
1 GC
N
0.628 15.691 M
0.628 15.253 0.957 14.925 QT
1.285 14.597 1.722 14.597 QT
2.003 14.597 2.261 14.745 QT
2.519 14.894 2.668 15.159 QT
2.816 15.425 2.816 15.691 QT
2.816 16.128 2.496 16.464 QT
2.175 16.8 1.722 16.8 QT
1.285 16.8 0.957 16.464 QT
0.628 16.128 0.628 15.691 QT
cp
f
GR
GS
[1 0 0 1 215.375 518.5] CT
1 GC
N
6.231 14.519 M
6.434 15.112 6.864 15.589 QT
7.293 16.066 7.872 16.331 QT
8.45 16.597 9.075 16.597 QT
10.528 16.597 11.075 15.48 QT
11.622 14.362 11.622 12.753 QT
11.622 12.066 11.598 11.589 QT
11.575 11.112 11.465 10.675 QT
11.278 9.972 10.809 9.448 QT
10.34 8.925 9.668 8.925 QT
8.997 8.925 8.512 9.128 QT
8.028 9.331 7.731 9.605 QT
7.434 9.878 7.2 10.183 QT
6.965 10.487 6.903 10.503 QT
6.668 10.503 L
6.622 10.503 6.551 10.441 QT
6.481 10.378 6.481 10.316 QT
6.481 3.628 L
6.481 3.581 6.543 3.526 QT
6.606 3.472 6.668 3.472 QT
6.731 3.472 L
8.075 4.128 9.59 4.128 QT
11.075 4.128 12.45 3.472 QT
12.512 3.472 L
12.59 3.472 12.645 3.526 QT
12.7 3.581 12.7 3.628 QT
12.7 3.816 L
12.7 3.925 12.668 3.925 QT
11.981 4.831 10.95 5.339 QT
9.918 5.847 8.809 5.847 QT
8.012 5.847 7.168 5.612 QT
7.168 9.394 L
7.84 8.862 8.364 8.628 QT
8.887 8.394 9.7 8.394 QT
10.793 8.394 11.668 9.034 QT
12.543 9.675 13.012 10.691 QT
13.481 11.706 13.481 12.769 QT
13.481 13.972 12.887 15.003 QT
12.293 16.034 11.278 16.636 QT
10.262 17.237 9.075 17.237 QT
8.09 17.237 7.262 16.73 QT
6.434 16.222 5.965 15.362 QT
5.497 14.503 5.497 13.534 QT
5.497 13.081 5.786 12.8 QT
6.075 12.519 6.512 12.519 QT
6.965 12.519 7.262 12.808 QT
7.559 13.097 7.559 13.534 QT
7.559 13.972 7.262 14.269 QT
6.965 14.566 6.512 14.566 QT
6.45 14.566 6.364 14.55 QT
6.278 14.534 6.231 14.519 QT
cp
f
GR
GS
[1 0 0 1 215.375 518.5] CT
1 GC
N
16.512 16.456 M
16.512 16.347 16.59 16.128 QT
17.153 14.972 17.637 13.855 QT
18.122 12.737 18.504 11.675 QT
18.887 10.612 19.215 9.409 QT
17.934 9.409 L
17.2 9.409 16.567 9.87 QT
15.934 10.331 15.512 11.034 QT
15.481 11.112 15.403 11.112 QT
15.168 11.112 L
14.981 11.112 14.981 10.925 QT
14.981 10.878 15.012 10.8 QT
15.668 9.691 16.418 8.933 QT
17.168 8.175 18.106 8.175 QT
25.356 8.175 L
25.559 8.175 25.708 8.316 QT
25.856 8.456 25.856 8.691 QT
25.856 8.972 25.645 9.191 QT
25.434 9.409 25.137 9.409 QT
22.59 9.409 L
22.278 10.987 22.247 12.487 QT
22.247 14.409 22.918 15.956 QT
22.981 16.081 22.981 16.206 QT
22.981 16.425 22.848 16.605 QT
22.715 16.784 22.52 16.901 QT
22.325 17.019 22.09 17.019 QT
21.575 17.019 21.379 16.159 QT
21.184 15.3 21.184 14.487 QT
21.184 13.347 21.379 12.292 QT
21.575 11.237 21.997 9.409 QT
19.825 9.409 L
18.231 15.816 17.918 16.472 QT
17.637 17.019 17.137 17.019 QT
16.887 17.019 16.7 16.862 QT
16.512 16.706 16.512 16.456 QT
cp
f
GR
GS
[1 0 0 1 299.75 518.5] CT
1 GC
N
0 17.237 M
-2.453 17.237 -3.336 15.222 QT
-4.219 13.206 -4.219 10.425 QT
-4.219 8.691 -3.898 7.151 QT
-3.578 5.612 -2.641 4.542 QT
-1.703 3.472 0 3.472 QT
1.313 3.472 2.156 4.12 QT
3 4.769 3.438 5.792 QT
3.875 6.816 4.039 7.98 QT
4.203 9.144 4.203 10.425 QT
4.203 12.144 3.883 13.644 QT
3.563 15.144 2.633 16.191 QT
1.703 17.237 0 17.237 QT
cp
0 16.722 M
1.109 16.722 1.656 15.581 QT
2.203 14.441 2.336 13.05 QT
2.469 11.659 2.469 10.097 QT
2.469 8.597 2.336 7.323 QT
2.203 6.05 1.664 5.026 QT
1.125 4.003 0 4.003 QT
-1.125 4.003 -1.672 5.034 QT
-2.219 6.066 -2.352 7.331 QT
-2.484 8.597 -2.484 10.097 QT
-2.484 11.206 -2.43 12.198 QT
-2.375 13.191 -2.141 14.237 QT
-1.906 15.284 -1.383 16.003 QT
-0.859 16.722 0 16.722 QT
cp
f
GR
GS
[1 0 0 1 384.125 518.5] CT
1 GC
N
-13.837 17.237 M
-16.29 17.237 -17.173 15.222 QT
-18.056 13.206 -18.056 10.425 QT
-18.056 8.691 -17.735 7.151 QT
-17.415 5.612 -16.477 4.542 QT
-15.54 3.472 -13.837 3.472 QT
-12.524 3.472 -11.681 4.12 QT
-10.837 4.769 -10.399 5.792 QT
-9.962 6.816 -9.798 7.98 QT
-9.634 9.144 -9.634 10.425 QT
-9.634 12.144 -9.954 13.644 QT
-10.274 15.144 -11.204 16.191 QT
-12.134 17.237 -13.837 17.237 QT
cp
-13.837 16.722 M
-12.727 16.722 -12.181 15.581 QT
-11.634 14.441 -11.501 13.05 QT
-11.368 11.659 -11.368 10.097 QT
-11.368 8.597 -11.501 7.323 QT
-11.634 6.05 -12.173 5.026 QT
-12.712 4.003 -13.837 4.003 QT
-14.962 4.003 -15.509 5.034 QT
-16.056 6.066 -16.188 7.331 QT
-16.321 8.597 -16.321 10.097 QT
-16.321 11.206 -16.267 12.198 QT
-16.212 13.191 -15.977 14.237 QT
-15.743 15.284 -15.22 16.003 QT
-14.696 16.722 -13.837 16.722 QT
cp
f
GR
GS
[1 0 0 1 384.125 518.5] CT
1 GC
N
-7.149 15.691 M
-7.149 15.253 -6.821 14.925 QT
-6.493 14.597 -6.056 14.597 QT
-5.774 14.597 -5.517 14.745 QT
-5.259 14.894 -5.11 15.159 QT
-4.962 15.425 -4.962 15.691 QT
-4.962 16.128 -5.282 16.464 QT
-5.602 16.8 -6.056 16.8 QT
-6.493 16.8 -6.821 16.464 QT
-7.149 16.128 -7.149 15.691 QT
cp
f
GR
GS
[1 0 0 1 384.125 518.5] CT
1 GC
N
-1.547 14.519 M
-1.344 15.112 -0.914 15.589 QT
-0.484 16.066 0.094 16.331 QT
0.672 16.597 1.297 16.597 QT
2.75 16.597 3.297 15.48 QT
3.844 14.362 3.844 12.753 QT
3.844 12.066 3.82 11.589 QT
3.797 11.112 3.688 10.675 QT
3.5 9.972 3.031 9.448 QT
2.563 8.925 1.891 8.925 QT
1.219 8.925 0.734 9.128 QT
0.25 9.331 -0.047 9.605 QT
-0.344 9.878 -0.578 10.183 QT
-0.813 10.487 -0.875 10.503 QT
-1.109 10.503 L
-1.156 10.503 -1.227 10.441 QT
-1.297 10.378 -1.297 10.316 QT
-1.297 3.628 L
-1.297 3.581 -1.234 3.526 QT
-1.172 3.472 -1.109 3.472 QT
-1.047 3.472 L
0.297 4.128 1.813 4.128 QT
3.297 4.128 4.672 3.472 QT
4.734 3.472 L
4.813 3.472 4.867 3.526 QT
4.922 3.581 4.922 3.628 QT
4.922 3.816 L
4.922 3.925 4.891 3.925 QT
4.203 4.831 3.172 5.339 QT
2.141 5.847 1.031 5.847 QT
0.234 5.847 -0.609 5.612 QT
-0.609 9.394 L
0.063 8.862 0.586 8.628 QT
1.109 8.394 1.922 8.394 QT
3.016 8.394 3.891 9.034 QT
4.766 9.675 5.234 10.691 QT
5.703 11.706 5.703 12.769 QT
5.703 13.972 5.109 15.003 QT
4.516 16.034 3.5 16.636 QT
2.484 17.237 1.297 17.237 QT
0.313 17.237 -0.516 16.73 QT
-1.344 16.222 -1.813 15.362 QT
-2.281 14.503 -2.281 13.534 QT
-2.281 13.081 -1.992 12.8 QT
-1.703 12.519 -1.266 12.519 QT
-0.813 12.519 -0.516 12.808 QT
-0.219 13.097 -0.219 13.534 QT
-0.219 13.972 -0.516 14.269 QT
-0.813 14.566 -1.266 14.566 QT
-1.328 14.566 -1.414 14.55 QT
-1.5 14.534 -1.547 14.519 QT
cp
f
GR
GS
[1 0 0 1 384.125 518.5] CT
1 GC
N
8.734 16.456 M
8.734 16.347 8.813 16.128 QT
9.375 14.972 9.859 13.855 QT
10.344 12.737 10.727 11.675 QT
11.109 10.612 11.438 9.409 QT
10.156 9.409 L
9.422 9.409 8.789 9.87 QT
8.156 10.331 7.734 11.034 QT
7.703 11.112 7.625 11.112 QT
7.391 11.112 L
7.203 11.112 7.203 10.925 QT
7.203 10.878 7.234 10.8 QT
7.891 9.691 8.641 8.933 QT
9.391 8.175 10.328 8.175 QT
17.578 8.175 L
17.781 8.175 17.93 8.316 QT
18.078 8.456 18.078 8.691 QT
18.078 8.972 17.867 9.191 QT
17.656 9.409 17.359 9.409 QT
14.813 9.409 L
14.5 10.987 14.469 12.487 QT
14.469 14.409 15.141 15.956 QT
15.203 16.081 15.203 16.206 QT
15.203 16.425 15.07 16.605 QT
14.938 16.784 14.742 16.901 QT
14.547 17.019 14.313 17.019 QT
13.797 17.019 13.602 16.159 QT
13.406 15.3 13.406 14.487 QT
13.406 13.347 13.602 12.292 QT
13.797 11.237 14.219 9.409 QT
12.047 9.409 L
10.453 15.816 10.141 16.472 QT
9.859 17.019 9.359 17.019 QT
9.109 17.019 8.922 16.862 QT
8.734 16.706 8.734 16.456 QT
cp
f
GR
GS
[1 0 0 1 468.5 518.5] CT
1 GC
N
-4.043 16.456 M
-4.043 16.347 -3.965 16.128 QT
-3.403 14.972 -2.918 13.855 QT
-2.434 12.737 -2.051 11.675 QT
-1.668 10.612 -1.34 9.409 QT
-2.622 9.409 L
-3.356 9.409 -3.989 9.87 QT
-4.622 10.331 -5.043 11.034 QT
-5.075 11.112 -5.153 11.112 QT
-5.387 11.112 L
-5.575 11.112 -5.575 10.925 QT
-5.575 10.878 -5.543 10.8 QT
-4.887 9.691 -4.137 8.933 QT
-3.387 8.175 -2.45 8.175 QT
4.8 8.175 L
5.003 8.175 5.152 8.316 QT
5.3 8.456 5.3 8.691 QT
5.3 8.972 5.089 9.191 QT
4.878 9.409 4.582 9.409 QT
2.035 9.409 L
1.722 10.987 1.691 12.487 QT
1.691 14.409 2.363 15.956 QT
2.425 16.081 2.425 16.206 QT
2.425 16.425 2.293 16.605 QT
2.16 16.784 1.964 16.901 QT
1.769 17.019 1.535 17.019 QT
1.019 17.019 0.824 16.159 QT
0.628 15.3 0.628 14.487 QT
0.628 13.347 0.824 12.292 QT
1.019 11.237 1.441 9.409 QT
-0.731 9.409 L
-2.325 15.816 -2.637 16.472 QT
-2.918 17.019 -3.418 17.019 QT
-3.668 17.019 -3.856 16.862 QT
-4.043 16.706 -4.043 16.456 QT
cp
f
GR
GS
[1 0 0 1 299.75015 543.5] CT
1 GC
N
-61.793 18.48 M
-61.965 18.48 -61.965 18.308 QT
-61.965 18.292 -61.957 18.277 QT
-61.95 18.261 -61.95 18.23 QT
-54.371 2.964 L
-54.278 2.73 -53.981 2.73 QT
-53.684 2.73 L
-53.371 2.73 -53.278 2.964 QT
-45.7 18.23 L
-45.7 18.261 -45.692 18.277 QT
-45.684 18.292 -45.684 18.308 QT
-45.684 18.48 -45.871 18.48 QT
-61.793 18.48 L
cp
-60.34 16.714 M
-48.746 16.714 L
-54.543 5.042 L
-60.34 16.714 L
cp
f
GR
GS
[1 0 0 1 299.75015 543.5] CT
1 GC
N
-43.851 21.514 M
-43.851 21.421 -43.835 21.374 QT
-41.663 12.702 L
-41.601 12.452 -41.585 12.296 QT
-41.585 12.061 -42.554 12.061 QT
-42.71 12.061 -42.71 11.858 QT
-42.71 11.827 -42.679 11.733 QT
-42.647 11.639 -42.608 11.585 QT
-42.569 11.53 -42.507 11.53 QT
-40.476 11.374 L
-40.429 11.374 L
-40.429 11.389 -40.382 11.413 QT
-40.335 11.436 -40.319 11.452 QT
-40.304 11.514 -40.304 11.561 QT
-41.476 16.249 L
-40.538 15.155 -39.272 15.155 QT
-38.757 15.155 -38.366 15.335 QT
-37.976 15.514 -37.765 15.889 QT
-37.554 16.264 -37.554 16.764 QT
-37.554 17.389 -37.827 18.256 QT
-38.101 19.124 -38.507 20.202 QT
-38.726 20.702 -38.726 21.108 QT
-38.726 21.546 -38.382 21.546 QT
-37.788 21.546 -37.397 20.921 QT
-37.007 20.296 -36.851 19.577 QT
-36.819 19.483 -36.726 19.483 QT
-36.554 19.483 L
-36.491 19.483 -36.452 19.522 QT
-36.413 19.561 -36.413 19.624 QT
-36.413 19.639 -36.429 19.671 QT
-36.554 20.202 -36.819 20.725 QT
-37.085 21.249 -37.476 21.6 QT
-37.866 21.952 -38.413 21.952 QT
-38.929 21.952 -39.304 21.585 QT
-39.679 21.217 -39.679 20.702 QT
-39.679 20.421 -39.569 20.124 QT
-39.132 18.983 -38.851 18.1 QT
-38.569 17.217 -38.569 16.546 QT
-38.569 16.108 -38.741 15.827 QT
-38.913 15.546 -39.304 15.546 QT
-40.116 15.546 -40.718 16.038 QT
-41.319 16.53 -41.757 17.342 QT
-42.772 21.436 L
-42.835 21.655 -42.999 21.803 QT
-43.163 21.952 -43.382 21.952 QT
-43.585 21.952 -43.718 21.819 QT
-43.851 21.686 -43.851 21.514 QT
cp
f
GR
GS
[1 0 0 1 299.75015 543.5] CT
1 GC
N
-27.536 13.417 M
-27.723 13.417 -27.841 13.277 QT
-27.958 13.136 -27.958 12.98 QT
-27.958 12.824 -27.841 12.683 QT
-27.723 12.542 -27.536 12.542 QT
-14.911 12.542 L
-14.739 12.542 -14.63 12.683 QT
-14.52 12.824 -14.52 12.98 QT
-14.52 13.136 -14.63 13.277 QT
-14.739 13.417 -14.911 13.417 QT
-27.536 13.417 L
cp
f
GR
GS
[1 0 0 1 299.75015 543.5] CT
1 GC
N
-6.598 18.48 M
-6.77 18.48 -6.77 18.308 QT
-6.77 18.292 -6.762 18.277 QT
-6.755 18.261 -6.755 18.23 QT
0.823 2.964 L
0.917 2.73 1.214 2.73 QT
1.511 2.73 L
1.823 2.73 1.917 2.964 QT
9.495 18.23 L
9.495 18.261 9.503 18.277 QT
9.511 18.292 9.511 18.308 QT
9.511 18.48 9.323 18.48 QT
-6.598 18.48 L
cp
-5.145 16.714 M
6.448 16.714 L
0.652 5.042 L
-5.145 16.714 L
cp
f
GR
GS
[1 0 0 1 299.75015 543.5] CT
1 GC
N
14.297 21.952 M
13.391 21.952 12.626 21.491 QT
11.86 21.03 11.415 20.264 QT
10.969 19.499 10.969 18.592 QT
10.969 17.905 11.212 17.264 QT
11.454 16.624 11.915 16.124 QT
12.376 15.624 12.985 15.342 QT
13.594 15.061 14.297 15.061 QT
15.219 15.061 15.977 15.546 QT
16.735 16.03 17.172 16.85 QT
17.61 17.671 17.61 18.592 QT
17.61 19.483 17.165 20.256 QT
16.719 21.03 15.954 21.491 QT
15.188 21.952 14.297 21.952 QT
cp
14.297 21.514 M
15.501 21.514 15.899 20.639 QT
16.297 19.764 16.297 18.421 QT
16.297 17.671 16.219 17.171 QT
16.141 16.671 15.876 16.264 QT
15.704 16.03 15.446 15.842 QT
15.188 15.655 14.899 15.553 QT
14.61 15.452 14.297 15.452 QT
13.829 15.452 13.407 15.663 QT
12.985 15.874 12.704 16.264 QT
12.422 16.702 12.352 17.21 QT
12.282 17.717 12.282 18.421 QT
12.282 19.264 12.422 19.936 QT
12.563 20.608 13.008 21.061 QT
13.454 21.514 14.297 21.514 QT
cp
f
GR
GS
[1 0 0 1 299.75015 543.5] CT
1 GC
N
18.638 24.686 M
18.638 24.171 L
19.154 24.171 19.482 24.085 QT
19.81 23.999 19.81 23.686 QT
19.81 16.452 L
19.81 16.046 19.513 15.944 QT
19.216 15.842 18.638 15.842 QT
18.638 15.311 L
20.857 15.155 L
20.857 16.077 L
21.263 15.624 21.81 15.389 QT
22.357 15.155 22.966 15.155 QT
23.857 15.155 24.568 15.631 QT
25.279 16.108 25.677 16.889 QT
26.076 17.671 26.076 18.546 QT
26.076 19.452 25.63 20.233 QT
25.185 21.014 24.419 21.483 QT
23.654 21.952 22.747 21.952 QT
21.654 21.952 20.904 21.061 QT
20.904 23.686 L
20.904 23.999 21.232 24.085 QT
21.56 24.171 22.076 24.171 QT
22.076 24.686 L
18.638 24.686 L
cp
20.904 20.327 M
21.169 20.858 21.638 21.202 QT
22.107 21.546 22.654 21.546 QT
23.169 21.546 23.576 21.272 QT
23.982 20.999 24.247 20.53 QT
24.513 20.061 24.646 19.546 QT
24.779 19.03 24.779 18.546 QT
24.779 17.936 24.56 17.241 QT
24.341 16.546 23.896 16.061 QT
23.451 15.577 22.826 15.577 QT
22.216 15.577 21.708 15.889 QT
21.201 16.202 20.904 16.733 QT
20.904 20.327 L
cp
f
GR
GS
[1 0 0 1 299.75015 543.5] CT
1 GC
N
28.334 19.983 M
28.334 15.842 L
27.084 15.842 L
27.084 15.452 L
28.069 15.452 28.53 14.538 QT
28.991 13.624 28.991 12.546 QT
29.428 12.546 L
29.428 15.311 L
31.537 15.311 L
31.537 15.842 L
29.428 15.842 L
29.428 19.952 L
29.428 20.577 29.639 21.046 QT
29.85 21.514 30.381 21.514 QT
30.897 21.514 31.123 21.014 QT
31.35 20.514 31.35 19.952 QT
31.35 19.061 L
31.787 19.061 L
31.787 19.983 L
31.787 20.452 31.616 20.905 QT
31.444 21.358 31.108 21.655 QT
30.772 21.952 30.287 21.952 QT
29.381 21.952 28.858 21.413 QT
28.334 20.874 28.334 19.983 QT
cp
f
GR
GS
[1 0 0 1 299.75015 543.5] CT
1 GC
N
33.261 21.78 M
33.261 21.249 L
33.761 21.249 34.097 21.171 QT
34.433 21.092 34.433 20.78 QT
34.433 16.686 L
34.433 16.108 34.206 15.975 QT
33.979 15.842 33.323 15.842 QT
33.323 15.311 L
35.479 15.155 L
35.479 20.78 L
35.479 21.092 35.769 21.171 QT
36.058 21.249 36.526 21.249 QT
36.526 21.78 L
33.261 21.78 L
cp
33.886 12.577 M
33.886 12.249 34.136 11.999 QT
34.386 11.749 34.714 11.749 QT
34.917 11.749 35.12 11.858 QT
35.323 11.967 35.433 12.163 QT
35.542 12.358 35.542 12.577 QT
35.542 12.889 35.292 13.139 QT
35.042 13.389 34.714 13.389 QT
34.386 13.389 34.136 13.139 QT
33.886 12.889 33.886 12.577 QT
cp
f
GR
GS
[1 0 0 1 299.75015 543.5] CT
1 GC
N
37.523 21.78 M
37.523 21.249 L
38.023 21.249 38.359 21.171 QT
38.695 21.092 38.695 20.78 QT
38.695 16.686 L
38.695 16.28 38.57 16.1 QT
38.445 15.921 38.218 15.881 QT
37.992 15.842 37.523 15.842 QT
37.523 15.311 L
39.695 15.155 L
39.695 16.624 L
39.992 15.967 40.585 15.561 QT
41.179 15.155 41.867 15.155 QT
43.601 15.155 43.898 16.561 QT
44.195 15.921 44.773 15.538 QT
45.351 15.155 46.038 15.155 QT
46.726 15.155 47.187 15.374 QT
47.648 15.592 47.882 16.046 QT
48.117 16.499 48.117 17.171 QT
48.117 20.78 L
48.117 21.092 48.453 21.171 QT
48.788 21.249 49.288 21.249 QT
49.288 21.78 L
45.867 21.78 L
45.867 21.249 L
46.367 21.249 46.703 21.171 QT
47.038 21.092 47.038 20.78 QT
47.038 17.217 L
47.038 16.467 46.82 16.006 QT
46.601 15.546 45.945 15.546 QT
45.085 15.546 44.523 16.241 QT
43.96 16.936 43.96 17.811 QT
43.96 20.78 L
43.96 21.092 44.288 21.171 QT
44.617 21.249 45.132 21.249 QT
45.132 21.78 L
41.695 21.78 L
41.695 21.249 L
42.21 21.249 42.538 21.171 QT
42.867 21.092 42.867 20.78 QT
42.867 17.217 L
42.867 16.483 42.656 16.014 QT
42.445 15.546 41.773 15.546 QT
40.913 15.546 40.351 16.241 QT
39.788 16.936 39.788 17.811 QT
39.788 20.78 L
39.788 21.092 40.117 21.171 QT
40.445 21.249 40.945 21.249 QT
40.945 21.78 L
37.523 21.78 L
cp
f
GR
GS
[1 0 0 1 299.75015 543.5] CT
1 GC
N
50.497 20.311 M
50.497 19.421 51.2 18.858 QT
51.903 18.296 52.895 18.061 QT
53.887 17.827 54.762 17.827 QT
54.762 17.217 L
54.762 16.78 54.575 16.374 QT
54.387 15.967 54.028 15.71 QT
53.669 15.452 53.231 15.452 QT
52.247 15.452 51.716 15.905 QT
52.012 15.905 52.192 16.116 QT
52.372 16.327 52.372 16.624 QT
52.372 16.921 52.161 17.131 QT
51.95 17.342 51.669 17.342 QT
51.356 17.342 51.145 17.131 QT
50.934 16.921 50.934 16.624 QT
50.934 15.827 51.653 15.444 QT
52.372 15.061 53.231 15.061 QT
53.841 15.061 54.458 15.319 QT
55.075 15.577 55.466 16.061 QT
55.856 16.546 55.856 17.186 QT
55.856 20.561 L
55.856 20.858 55.981 21.1 QT
56.106 21.342 56.372 21.342 QT
56.622 21.342 56.739 21.092 QT
56.856 20.842 56.856 20.561 QT
56.856 19.608 L
57.294 19.608 L
57.294 20.561 L
57.294 20.905 57.122 21.21 QT
56.95 21.514 56.653 21.694 QT
56.356 21.874 56.012 21.874 QT
55.575 21.874 55.255 21.53 QT
54.934 21.186 54.903 20.717 QT
54.622 21.28 54.083 21.616 QT
53.544 21.952 52.919 21.952 QT
52.356 21.952 51.802 21.78 QT
51.247 21.608 50.872 21.249 QT
50.497 20.889 50.497 20.311 QT
cp
51.716 20.311 M
51.716 20.842 52.106 21.194 QT
52.497 21.546 53.028 21.546 QT
53.512 21.546 53.903 21.311 QT
54.294 21.077 54.528 20.655 QT
54.762 20.233 54.762 19.78 QT
54.762 18.217 L
54.091 18.217 53.372 18.436 QT
52.653 18.655 52.184 19.131 QT
51.716 19.608 51.716 20.311 QT
cp
f
GR
GS
[1 0 0 1 299.75015 543.5] CT
1 GC
N
58.072 21.78 M
58.072 21.249 L
58.572 21.249 58.908 21.171 QT
59.244 21.092 59.244 20.78 QT
59.244 12.905 L
59.244 12.499 59.119 12.319 QT
58.994 12.139 58.767 12.1 QT
58.541 12.061 58.072 12.061 QT
58.072 11.53 L
60.291 11.374 L
60.291 20.78 L
60.291 21.092 60.619 21.171 QT
60.947 21.249 61.462 21.249 QT
61.462 21.78 L
58.072 21.78 L
cp
f
GR
GS
1 GC
2 setlinecap
1 LJ
0.5 LW
N
131 512.5 M
131 43 L
S
GR
GS
1 GC
2 setlinecap
1 LJ
0.5 LW
N
468.5 512.5 M
468.5 43 L
S
GR
GS
1 GC
2 setlinecap
1 LJ
0.5 LW
N
131 512.5 M
135.695 512.5 L
S
GR
GS
1 GC
2 setlinecap
1 LJ
0.5 LW
N
131 395.125 M
135.695 395.125 L
S
GR
GS
1 GC
2 setlinecap
1 LJ
0.5 LW
N
131 277.75 M
135.695 277.75 L
S
GR
GS
1 GC
2 setlinecap
1 LJ
0.5 LW
N
131 160.375 M
135.695 160.375 L
S
GR
GS
1 GC
2 setlinecap
1 LJ
0.5 LW
N
131 43 M
135.695 43 L
S
GR
GS
1 GC
2 setlinecap
1 LJ
0.5 LW
N
468.5 512.5 M
463.805 512.5 L
S
GR
GS
1 GC
2 setlinecap
1 LJ
0.5 LW
N
468.5 395.125 M
463.805 395.125 L
S
GR
GS
1 GC
2 setlinecap
1 LJ
0.5 LW
N
468.5 277.75 M
463.805 277.75 L
S
GR
GS
1 GC
2 setlinecap
1 LJ
0.5 LW
N
468.5 160.375 M
463.805 160.375 L
S
GR
GS
1 GC
2 setlinecap
1 LJ
0.5 LW
N
468.5 43 M
463.805 43 L
S
GR
GS
[1 0 0 1 125 512.5] CT
1 GC
N
-5 5.237 M
-7.453 5.237 -8.336 3.222 QT
-9.219 1.206 -9.219 -1.575 QT
-9.219 -3.309 -8.898 -4.849 QT
-8.578 -6.388 -7.641 -7.458 QT
-6.703 -8.528 -5 -8.528 QT
-3.688 -8.528 -2.844 -7.88 QT
-2 -7.231 -1.563 -6.208 QT
-1.125 -5.184 -0.961 -4.02 QT
-0.797 -2.856 -0.797 -1.575 QT
-0.797 0.144 -1.117 1.644 QT
-1.438 3.144 -2.367 4.191 QT
-3.297 5.237 -5 5.237 QT
cp
-5 4.722 M
-3.891 4.722 -3.344 3.581 QT
-2.797 2.441 -2.664 1.05 QT
-2.531 -0.341 -2.531 -1.903 QT
-2.531 -3.403 -2.664 -4.677 QT
-2.797 -5.95 -3.336 -6.974 QT
-3.875 -7.997 -5 -7.997 QT
-6.125 -7.997 -6.672 -6.966 QT
-7.219 -5.934 -7.352 -4.669 QT
-7.484 -3.403 -7.484 -1.903 QT
-7.484 -0.794 -7.43 0.198 QT
-7.375 1.191 -7.141 2.237 QT
-6.906 3.284 -6.383 4.003 QT
-5.859 4.722 -5 4.722 QT
cp
f
GR
GS
[1 0 0 1 125 395.125] CT
1 GC
N
-20.556 5.237 M
-23.009 5.237 -23.892 3.222 QT
-24.774 1.206 -24.774 -1.575 QT
-24.774 -3.309 -24.454 -4.849 QT
-24.134 -6.388 -23.196 -7.458 QT
-22.259 -8.528 -20.556 -8.528 QT
-19.243 -8.528 -18.399 -7.88 QT
-17.556 -7.231 -17.118 -6.208 QT
-16.681 -5.184 -16.517 -4.02 QT
-16.353 -2.856 -16.353 -1.575 QT
-16.353 0.144 -16.673 1.644 QT
-16.993 3.144 -17.923 4.191 QT
-18.853 5.237 -20.556 5.237 QT
cp
-20.556 4.722 M
-19.446 4.722 -18.899 3.581 QT
-18.353 2.441 -18.22 1.05 QT
-18.087 -0.341 -18.087 -1.903 QT
-18.087 -3.403 -18.22 -4.677 QT
-18.353 -5.95 -18.892 -6.974 QT
-19.431 -7.997 -20.556 -7.997 QT
-21.681 -7.997 -22.228 -6.966 QT
-22.774 -5.934 -22.907 -4.669 QT
-23.04 -3.403 -23.04 -1.903 QT
-23.04 -0.794 -22.985 0.198 QT
-22.931 1.191 -22.696 2.237 QT
-22.462 3.284 -21.938 4.003 QT
-21.415 4.722 -20.556 4.722 QT
cp
f
GR
GS
[1 0 0 1 125 395.125] CT
1 GC
N
-13.868 3.691 M
-13.868 3.253 -13.54 2.925 QT
-13.212 2.597 -12.774 2.597 QT
-12.493 2.597 -12.235 2.745 QT
-11.977 2.894 -11.829 3.159 QT
-11.681 3.425 -11.681 3.691 QT
-11.681 4.128 -12.001 4.464 QT
-12.321 4.8 -12.774 4.8 QT
-13.212 4.8 -13.54 4.464 QT
-13.868 4.128 -13.868 3.691 QT
cp
f
GR
GS
[1 0 0 1 125 395.125] CT
1 GC
N
-8.141 4.8 M
-8.141 4.097 L
-5.641 4.097 -5.641 3.456 QT
-5.641 -7.044 L
-6.672 -6.544 -8.266 -6.544 QT
-8.266 -7.247 L
-5.813 -7.247 -4.563 -8.528 QT
-4.281 -8.528 L
-4.203 -8.528 -4.141 -8.474 QT
-4.078 -8.419 -4.078 -8.341 QT
-4.078 3.456 L
-4.078 4.097 -1.578 4.097 QT
-1.578 4.8 L
-8.141 4.8 L
cp
f
GR
GS
[1 0 0 1 125 277.75] CT
1 GC
N
/f208961070{-20.556 5.237 M
-23.009 5.237 -23.892 3.222 QT
-24.774 1.206 -24.774 -1.575 QT
-24.774 -3.309 -24.454 -4.849 QT
-24.134 -6.388 -23.196 -7.458 QT
-22.259 -8.528 -20.556 -8.528 QT
-19.243 -8.528 -18.399 -7.88 QT
-17.556 -7.231 -17.118 -6.208 QT
-16.681 -5.184 -16.517 -4.02 QT
-16.353 -2.856 -16.353 -1.575 QT
-16.353 0.144 -16.673 1.644 QT
-16.993 3.144 -17.923 4.191 QT
-18.853 5.237 -20.556 5.237 QT
cp
-20.556 4.722 M
-19.446 4.722 -18.899 3.581 QT
-18.353 2.441 -18.22 1.05 QT
-18.087 -0.341 -18.087 -1.903 QT
-18.087 -3.403 -18.22 -4.677 QT
-18.353 -5.95 -18.892 -6.974 QT
-19.431 -7.997 -20.556 -7.997 QT
-21.681 -7.997 -22.228 -6.966 QT
-22.774 -5.934 -22.907 -4.669 QT
-23.04 -3.403 -23.04 -1.903 QT
-23.04 -0.794 -22.985 0.198 QT
-22.931 1.191 -22.696 2.237 QT
-22.462 3.284 -21.938 4.003 QT
-21.415 4.722 -20.556 4.722 QT
cp}def
f208961070
f
GR
GS
[1 0 0 1 125 277.75] CT
1 GC
N
/f-943732550{-13.868 3.691 M
-13.868 3.253 -13.54 2.925 QT
-13.212 2.597 -12.774 2.597 QT
-12.493 2.597 -12.235 2.745 QT
-11.977 2.894 -11.829 3.159 QT
-11.681 3.425 -11.681 3.691 QT
-11.681 4.128 -12.001 4.464 QT
-12.321 4.8 -12.774 4.8 QT
-13.212 4.8 -13.54 4.464 QT
-13.868 4.128 -13.868 3.691 QT
cp}def
f-943732550
f
GR
GS
[1 0 0 1 125 277.75] CT
1 GC
N
/f-959722706{-9 4.8 M
-9 4.269 L
-9 4.206 -8.969 4.159 QT
-5.859 0.722 L
-5.156 -0.044 -4.719 -0.559 QT
-4.281 -1.075 -3.852 -1.755 QT
-3.422 -2.434 -3.172 -3.13 QT
-2.922 -3.825 -2.922 -4.606 QT
-2.922 -5.419 -3.227 -6.169 QT
-3.531 -6.919 -4.125 -7.372 QT
-4.719 -7.825 -5.578 -7.825 QT
-6.438 -7.825 -7.133 -7.302 QT
-7.828 -6.778 -8.109 -5.95 QT
-8.031 -5.966 -7.906 -5.966 QT
-7.453 -5.966 -7.133 -5.661 QT
-6.813 -5.356 -6.813 -4.872 QT
-6.813 -4.419 -7.133 -4.099 QT
-7.453 -3.778 -7.906 -3.778 QT
-8.375 -3.778 -8.688 -4.106 QT
-9 -4.434 -9 -4.872 QT
-9 -5.638 -8.719 -6.294 QT
-8.438 -6.95 -7.906 -7.466 QT
-7.375 -7.981 -6.703 -8.255 QT
-6.031 -8.528 -5.281 -8.528 QT
-4.141 -8.528 -3.156 -8.044 QT
-2.172 -7.559 -1.594 -6.677 QT
-1.016 -5.794 -1.016 -4.606 QT
-1.016 -3.731 -1.398 -2.95 QT
-1.781 -2.169 -2.375 -1.528 QT
-2.969 -0.888 -3.898 -0.083 QT
-4.828 0.722 -5.109 1.003 QT
-7.375 3.175 L
-5.453 3.175 L
-4.047 3.175 -3.094 3.151 QT
-2.141 3.128 -2.078 3.081 QT
-1.844 2.831 -1.594 1.237 QT
-1.016 1.237 L
-1.578 4.8 L
-9 4.8 L
cp}def
f-959722706
f
GR
GS
[1 0 0 1 125 160.37498] CT
1 GC
N
f208961070
f
GR
GS
[1 0 0 1 125 160.37498] CT
1 GC
N
f-943732550
f
GR
GS
[1 0 0 1 125 160.37498] CT
1 GC
N
/f-1136742856{-8.094 3.253 M
-7.625 3.941 -6.836 4.269 QT
-6.047 4.597 -5.141 4.597 QT
-3.969 4.597 -3.484 3.612 QT
-3 2.628 -3 1.362 QT
-3 0.8 -3.102 0.23 QT
-3.203 -0.341 -3.445 -0.825 QT
-3.688 -1.309 -4.117 -1.606 QT
-4.547 -1.903 -5.156 -1.903 QT
-6.484 -1.903 L
-6.656 -1.903 -6.656 -2.091 QT
-6.656 -2.263 L
-6.656 -2.419 -6.484 -2.419 QT
-5.375 -2.513 L
-4.672 -2.513 -4.211 -3.036 QT
-3.75 -3.559 -3.531 -4.317 QT
-3.313 -5.075 -3.313 -5.763 QT
-3.313 -6.716 -3.766 -7.333 QT
-4.219 -7.95 -5.141 -7.95 QT
-5.891 -7.95 -6.586 -7.661 QT
-7.281 -7.372 -7.688 -6.778 QT
-7.656 -6.794 -7.625 -6.802 QT
-7.594 -6.809 -7.563 -6.809 QT
-7.109 -6.809 -6.805 -6.497 QT
-6.5 -6.184 -6.5 -5.731 QT
-6.5 -5.309 -6.805 -4.997 QT
-7.109 -4.684 -7.563 -4.684 QT
-8 -4.684 -8.313 -4.997 QT
-8.625 -5.309 -8.625 -5.731 QT
-8.625 -6.591 -8.109 -7.231 QT
-7.594 -7.872 -6.773 -8.2 QT
-5.953 -8.528 -5.141 -8.528 QT
-4.531 -8.528 -3.859 -8.341 QT
-3.188 -8.153 -2.641 -7.817 QT
-2.094 -7.481 -1.742 -6.958 QT
-1.391 -6.434 -1.391 -5.763 QT
-1.391 -4.919 -1.766 -4.208 QT
-2.141 -3.497 -2.797 -2.974 QT
-3.453 -2.45 -4.234 -2.2 QT
-3.375 -2.044 -2.594 -1.552 QT
-1.813 -1.059 -1.336 -0.302 QT
-0.859 0.456 -0.859 1.347 QT
-0.859 2.441 -1.461 3.339 QT
-2.063 4.237 -3.055 4.737 QT
-4.047 5.237 -5.141 5.237 QT
-6.078 5.237 -7.016 4.878 QT
-7.953 4.519 -8.555 3.808 QT
-9.156 3.097 -9.156 2.097 QT
-9.156 1.612 -8.828 1.276 QT
-8.5 0.941 -8 0.941 QT
-7.672 0.941 -7.406 1.089 QT
-7.141 1.237 -6.984 1.511 QT
-6.828 1.784 -6.828 2.097 QT
-6.828 2.597 -7.172 2.925 QT
-7.516 3.253 -8 3.253 QT
-8.094 3.253 L
cp}def
f-1136742856
f
GR
GS
[1 0 0 1 125 42.99999] CT
1 GC
N
f208961070
f
GR
GS
[1 0 0 1 125 42.99999] CT
1 GC
N
f-943732550
f
GR
GS
[1 0 0 1 125 42.99999] CT
1 GC
N
/f-426388810{-9.438 1.503 M
-9.438 0.8 L
-3.266 -8.419 L
-3.188 -8.528 -3.063 -8.528 QT
-2.766 -8.528 L
-2.531 -8.528 -2.531 -8.294 QT
-2.531 0.8 L
-0.578 0.8 L
-0.578 1.503 L
-2.531 1.503 L
-2.531 3.456 L
-2.531 3.878 -1.945 3.987 QT
-1.359 4.097 -0.594 4.097 QT
-0.594 4.8 L
-6.109 4.8 L
-6.109 4.097 L
-5.328 4.097 -4.742 3.987 QT
-4.156 3.878 -4.156 3.456 QT
-4.156 1.503 L
-9.438 1.503 L
cp
-8.781 0.8 M
-4.047 0.8 L
-4.047 -6.278 L
-8.781 0.8 L
cp}def
f-426388810
f
GR
GS
[0 -1 1 0 96.44437 277.74976] CT
1 GC
N
/f2050730169{-6.081 -3.654 M
-6.284 -3.654 -6.284 -3.936 QT
-6.206 -4.42 -6.003 -4.42 QT
-5.316 -4.42 -5.034 -4.545 QT
-4.753 -4.67 -4.613 -5.17 QT
-2.128 -15.076 L
-1.972 -15.483 -1.972 -16.123 QT
-1.972 -17.076 -2.613 -17.076 QT
-3.3 -17.076 -3.636 -16.256 QT
-3.972 -15.436 -4.284 -14.17 QT
-4.284 -14.029 -4.456 -14.029 QT
-4.722 -14.029 L
-4.769 -14.029 -4.831 -14.115 QT
-4.894 -14.201 -4.894 -14.264 QT
-4.659 -15.217 -4.441 -15.881 QT
-4.222 -16.545 -3.753 -17.092 QT
-3.284 -17.639 -2.597 -17.639 QT
-1.831 -17.639 -1.269 -17.217 QT
-0.706 -16.795 -0.534 -16.061 QT
0.059 -16.764 0.794 -17.201 QT
1.528 -17.639 2.294 -17.639 QT
3.216 -17.639 3.903 -17.147 QT
4.591 -16.654 4.934 -15.858 QT
5.278 -15.061 5.278 -14.123 QT
5.278 -12.717 4.552 -11.201 QT
3.825 -9.686 2.583 -8.678 QT
1.341 -7.67 -0.081 -7.67 QT
-0.722 -7.67 -1.245 -8.037 QT
-1.769 -8.404 -2.05 -8.998 QT
-3.05 -5.076 L
-3.113 -4.764 -3.113 -4.701 QT
-3.113 -4.42 -1.659 -4.42 QT
-1.441 -4.42 -1.441 -4.139 QT
-1.519 -3.842 -1.566 -3.748 QT
-1.613 -3.654 -1.816 -3.654 QT
-6.081 -3.654 L
cp
-0.05 -8.248 M
0.7 -8.248 1.356 -8.881 QT
2.012 -9.514 2.419 -10.295 QT
2.731 -10.889 2.989 -11.74 QT
3.247 -12.592 3.442 -13.561 QT
3.637 -14.529 3.637 -15.092 QT
3.637 -15.608 3.505 -16.045 QT
3.372 -16.483 3.067 -16.779 QT
2.762 -17.076 2.247 -17.076 QT
1.45 -17.076 0.731 -16.498 QT
0.012 -15.92 -0.566 -15.076 QT
-0.566 -14.998 L
-1.769 -10.139 L
-1.628 -9.358 -1.198 -8.803 QT
-0.769 -8.248 -0.05 -8.248 QT
cp}def
f2050730169
f
GR
GS
1 GC
N
575 512.5 M
912 512.5 L
912 43 L
575 43 L
cp
f
GR
GS
0.4 GC
N
596.063 512.5 M
596.063 435.532 L
575 435.532 L
575 512.5 L
cp
617.125 512.5 M
617.125 414.152 L
596.063 414.152 L
596.063 512.5 L
cp
638.188 512.5 M
638.188 337.184 L
617.125 337.184 L
617.125 512.5 L
cp
659.25 512.5 M
659.25 302.976 L
638.188 302.976 L
638.188 512.5 L
cp
680.313 512.5 M
680.313 311.528 L
659.25 311.528 L
659.25 512.5 L
cp
701.375 512.5 M
701.375 166.143 L
680.313 166.143 L
680.313 512.5 L
cp
722.438 512.5 M
722.438 226.007 L
701.375 226.007 L
701.375 512.5 L
cp
743.5 512.5 M
743.5 234.559 L
722.438 234.559 L
722.438 512.5 L
cp
764.563 512.5 M
764.563 260.216 L
743.5 260.216 L
743.5 512.5 L
cp
785.625 512.5 M
785.625 255.939 L
764.563 255.939 L
764.563 512.5 L
cp
806.688 512.5 M
806.688 251.663 L
785.625 251.663 L
785.625 512.5 L
cp
827.75 512.5 M
827.75 375.668 L
806.688 375.668 L
806.688 512.5 L
cp
848.813 512.5 M
848.813 332.908 L
827.75 332.908 L
827.75 512.5 L
cp
869.875 512.5 M
869.875 409.876 L
848.813 409.876 L
848.813 512.5 L
cp
890.938 448.36 M
869.875 448.36 L
869.875 512.5 L
890.938 512.5 L
912 512.5 L
912 448.36 L
cp
f
GR
GS
1 GC
2 setlinecap
10.0 ML
2 LW
N
575 512.5 M
575 435.532 L
596.063 435.532 L
S
GR
GS
1 GC
2 setlinecap
10.0 ML
2 LW
N
596.063 512.5 M
596.063 512.5 L
596.063 414.152 L
617.125 414.152 L
S
GR
GS
1 GC
2 setlinecap
10.0 ML
2 LW
N
617.125 512.5 M
617.125 512.5 L
617.125 337.184 L
638.188 337.184 L
S
GR
GS
1 GC
2 setlinecap
10.0 ML
2 LW
N
638.188 512.5 M
638.188 512.5 L
638.188 302.976 L
659.25 302.976 L
659.25 512.5 L
659.25 512.5 L
S
GR
GS
1 GC
2 setlinecap
10.0 ML
2 LW
N
659.25 311.528 M
680.313 311.528 L
S
GR
GS
1 GC
2 setlinecap
10.0 ML
2 LW
N
680.313 512.5 M
680.313 512.5 L
680.313 166.143 L
701.375 166.143 L
701.375 512.5 L
701.375 512.5 L
S
GR
GS
1 GC
2 setlinecap
10.0 ML
2 LW
N
701.375 226.007 M
722.438 226.007 L
722.438 512.5 L
722.438 512.5 L
S
GR
GS
1 GC
2 setlinecap
10.0 ML
2 LW
N
722.438 234.559 M
743.5 234.559 L
743.5 512.5 L
743.5 512.5 L
S
GR
GS
1 GC
2 setlinecap
10.0 ML
2 LW
N
743.5 260.216 M
764.563 260.216 L
S
GR
GS
1 GC
2 setlinecap
10.0 ML
2 LW
N
764.563 512.5 M
764.563 512.5 L
764.563 255.939 L
785.625 255.939 L
S
GR
GS
1 GC
2 setlinecap
10.0 ML
2 LW
N
785.625 512.5 M
785.625 512.5 L
785.625 251.663 L
806.688 251.663 L
806.688 512.5 L
806.688 512.5 L
S
GR
GS
1 GC
2 setlinecap
10.0 ML
2 LW
N
806.688 375.668 M
827.75 375.668 L
S
GR
GS
1 GC
2 setlinecap
10.0 ML
2 LW
N
827.75 512.5 M
827.75 512.5 L
827.75 332.908 L
848.813 332.908 L
848.813 512.5 L
848.813 512.5 L
S
GR
GS
1 GC
2 setlinecap
10.0 ML
2 LW
N
848.813 409.876 M
869.875 409.876 L
869.875 512.5 L
869.875 512.5 L
S
GR
GS
1 GC
2 setlinecap
10.0 ML
2 LW
N
869.875 448.36 M
890.938 448.36 L
890.938 512.5 L
890.938 512.5 L
S
GR
GS
1 GC
2 setlinecap
10.0 ML
2 LW
N
890.938 448.36 M
912 448.36 L
912 512.5 L
S
GR
GS
1 GC
2 setlinecap
1 LJ
0.5 LW
N
575 512.5 M
912 512.5 L
S
GR
GS
1 GC
2 setlinecap
1 LJ
0.5 LW
N
575 43 M
912 43 L
S
GR
GS
1 GC
2 setlinecap
1 LJ
0.5 LW
N
575 512.5 M
575 507.805 L
S
GR
GS
1 GC
2 setlinecap
1 LJ
0.5 LW
N
659.25 512.5 M
659.25 507.805 L
S
GR
GS
1 GC
2 setlinecap
1 LJ
0.5 LW
N
743.5 512.5 M
743.5 507.805 L
S
GR
GS
1 GC
2 setlinecap
1 LJ
0.5 LW
N
827.75 512.5 M
827.75 507.805 L
S
GR
GS
1 GC
2 setlinecap
1 LJ
0.5 LW
N
912 512.5 M
912 507.805 L
S
GR
GS
1 GC
2 setlinecap
1 LJ
0.5 LW
N
575 43 M
575 47.695 L
S
GR
GS
1 GC
2 setlinecap
1 LJ
0.5 LW
N
659.25 43 M
659.25 47.695 L
S
GR
GS
1 GC
2 setlinecap
1 LJ
0.5 LW
N
743.5 43 M
743.5 47.695 L
S
GR
GS
1 GC
2 setlinecap
1 LJ
0.5 LW
N
827.75 43 M
827.75 47.695 L
S
GR
GS
1 GC
2 setlinecap
1 LJ
0.5 LW
N
912 43 M
912 47.695 L
S
GR
GS
[1 0 0 1 575 518.5] CT
1 GC
N
/f1538679491{-11.79 12.206 M
-11.962 12.206 -12.071 12.073 QT
-12.181 11.941 -12.181 11.8 QT
-12.181 11.659 -12.071 11.526 QT
-11.962 11.394 -11.79 11.394 QT
-0.321 11.394 L
-0.165 11.394 -0.063 11.526 QT
0.038 11.659 0.038 11.8 QT
0.038 11.941 -0.063 12.073 QT
-0.165 12.206 -0.321 12.206 QT
-11.79 12.206 L
cp}def
f1538679491
f
GR
GS
[1 0 0 1 575 518.5] CT
1 GC
N
/f-1358577231{3.734 16.456 M
3.734 16.347 3.813 16.128 QT
4.375 14.972 4.859 13.855 QT
5.344 12.737 5.727 11.675 QT
6.109 10.612 6.438 9.409 QT
5.156 9.409 L
4.422 9.409 3.789 9.87 QT
3.156 10.331 2.734 11.034 QT
2.703 11.112 2.625 11.112 QT
2.391 11.112 L
2.203 11.112 2.203 10.925 QT
2.203 10.878 2.234 10.8 QT
2.891 9.691 3.641 8.933 QT
4.391 8.175 5.328 8.175 QT
12.578 8.175 L
12.781 8.175 12.93 8.316 QT
13.078 8.456 13.078 8.691 QT
13.078 8.972 12.867 9.191 QT
12.656 9.409 12.359 9.409 QT
9.813 9.409 L
9.5 10.987 9.469 12.487 QT
9.469 14.409 10.141 15.956 QT
10.203 16.081 10.203 16.206 QT
10.203 16.425 10.07 16.605 QT
9.938 16.784 9.742 16.901 QT
9.547 17.019 9.313 17.019 QT
8.797 17.019 8.602 16.159 QT
8.406 15.3 8.406 14.487 QT
8.406 13.347 8.602 12.292 QT
8.797 11.237 9.219 9.409 QT
7.047 9.409 L
5.453 15.816 5.141 16.472 QT
4.859 17.019 4.359 17.019 QT
4.109 17.019 3.922 16.862 QT
3.734 16.706 3.734 16.456 QT
cp}def
f-1358577231
f
GR
GS
[1 0 0 1 659.25 518.5] CT
1 GC
N
/f-515960829{-24.568 12.206 M
-24.74 12.206 -24.849 12.073 QT
-24.958 11.941 -24.958 11.8 QT
-24.958 11.659 -24.849 11.526 QT
-24.74 11.394 -24.568 11.394 QT
-13.099 11.394 L
-12.943 11.394 -12.841 11.526 QT
-12.74 11.659 -12.74 11.8 QT
-12.74 11.941 -12.841 12.073 QT
-12.943 12.206 -13.099 12.206 QT
-24.568 12.206 L
cp}def
f-515960829
f
GR
GS
[1 0 0 1 659.25 518.5] CT
1 GC
N
/f-181825738{-6.059 17.237 M
-8.512 17.237 -9.395 15.222 QT
-10.278 13.206 -10.278 10.425 QT
-10.278 8.691 -9.957 7.151 QT
-9.637 5.612 -8.7 4.542 QT
-7.762 3.472 -6.059 3.472 QT
-4.747 3.472 -3.903 4.12 QT
-3.059 4.769 -2.622 5.792 QT
-2.184 6.816 -2.02 7.98 QT
-1.856 9.144 -1.856 10.425 QT
-1.856 12.144 -2.176 13.644 QT
-2.497 15.144 -3.426 16.191 QT
-4.356 17.237 -6.059 17.237 QT
cp
-6.059 16.722 M
-4.95 16.722 -4.403 15.581 QT
-3.856 14.441 -3.723 13.05 QT
-3.59 11.659 -3.59 10.097 QT
-3.59 8.597 -3.723 7.323 QT
-3.856 6.05 -4.395 5.026 QT
-4.934 4.003 -6.059 4.003 QT
-7.184 4.003 -7.731 5.034 QT
-8.278 6.066 -8.411 7.331 QT
-8.543 8.597 -8.543 10.097 QT
-8.543 11.206 -8.489 12.198 QT
-8.434 13.191 -8.2 14.237 QT
-7.965 15.284 -7.442 16.003 QT
-6.918 16.722 -6.059 16.722 QT
cp}def
f-181825738
f
GR
GS
[1 0 0 1 659.25 518.5] CT
1 GC
N
/f-2042191036{0.628 15.691 M
0.628 15.253 0.957 14.925 QT
1.285 14.597 1.722 14.597 QT
2.003 14.597 2.261 14.745 QT
2.519 14.894 2.668 15.159 QT
2.816 15.425 2.816 15.691 QT
2.816 16.128 2.496 16.464 QT
2.175 16.8 1.722 16.8 QT
1.285 16.8 0.957 16.464 QT
0.628 16.128 0.628 15.691 QT
cp}def
f-2042191036
f
GR
GS
[1 0 0 1 659.25 518.5] CT
1 GC
N
/f-2098875131{6.231 14.519 M
6.434 15.112 6.864 15.589 QT
7.293 16.066 7.872 16.331 QT
8.45 16.597 9.075 16.597 QT
10.528 16.597 11.075 15.48 QT
11.622 14.362 11.622 12.753 QT
11.622 12.066 11.598 11.589 QT
11.575 11.112 11.465 10.675 QT
11.278 9.972 10.809 9.448 QT
10.34 8.925 9.668 8.925 QT
8.997 8.925 8.512 9.128 QT
8.028 9.331 7.731 9.605 QT
7.434 9.878 7.2 10.183 QT
6.965 10.487 6.903 10.503 QT
6.668 10.503 L
6.622 10.503 6.551 10.441 QT
6.481 10.378 6.481 10.316 QT
6.481 3.628 L
6.481 3.581 6.543 3.526 QT
6.606 3.472 6.668 3.472 QT
6.731 3.472 L
8.075 4.128 9.59 4.128 QT
11.075 4.128 12.45 3.472 QT
12.512 3.472 L
12.59 3.472 12.645 3.526 QT
12.7 3.581 12.7 3.628 QT
12.7 3.816 L
12.7 3.925 12.668 3.925 QT
11.981 4.831 10.95 5.339 QT
9.918 5.847 8.809 5.847 QT
8.012 5.847 7.168 5.612 QT
7.168 9.394 L
7.84 8.862 8.364 8.628 QT
8.887 8.394 9.7 8.394 QT
10.793 8.394 11.668 9.034 QT
12.543 9.675 13.012 10.691 QT
13.481 11.706 13.481 12.769 QT
13.481 13.972 12.887 15.003 QT
12.293 16.034 11.278 16.636 QT
10.262 17.237 9.075 17.237 QT
8.09 17.237 7.262 16.73 QT
6.434 16.222 5.965 15.362 QT
5.497 14.503 5.497 13.534 QT
5.497 13.081 5.786 12.8 QT
6.075 12.519 6.512 12.519 QT
6.965 12.519 7.262 12.808 QT
7.559 13.097 7.559 13.534 QT
7.559 13.972 7.262 14.269 QT
6.965 14.566 6.512 14.566 QT
6.45 14.566 6.364 14.55 QT
6.278 14.534 6.231 14.519 QT
cp}def
f-2098875131
f
GR
GS
[1 0 0 1 659.25 518.5] CT
1 GC
N
/f285896136{16.512 16.456 M
16.512 16.347 16.59 16.128 QT
17.153 14.972 17.637 13.855 QT
18.122 12.737 18.504 11.675 QT
18.887 10.612 19.215 9.409 QT
17.934 9.409 L
17.2 9.409 16.567 9.87 QT
15.934 10.331 15.512 11.034 QT
15.481 11.112 15.403 11.112 QT
15.168 11.112 L
14.981 11.112 14.981 10.925 QT
14.981 10.878 15.012 10.8 QT
15.668 9.691 16.418 8.933 QT
17.168 8.175 18.106 8.175 QT
25.356 8.175 L
25.559 8.175 25.708 8.316 QT
25.856 8.456 25.856 8.691 QT
25.856 8.972 25.645 9.191 QT
25.434 9.409 25.137 9.409 QT
22.59 9.409 L
22.278 10.987 22.247 12.487 QT
22.247 14.409 22.918 15.956 QT
22.981 16.081 22.981 16.206 QT
22.981 16.425 22.848 16.605 QT
22.715 16.784 22.52 16.901 QT
22.325 17.019 22.09 17.019 QT
21.575 17.019 21.379 16.159 QT
21.184 15.3 21.184 14.487 QT
21.184 13.347 21.379 12.292 QT
21.575 11.237 21.997 9.409 QT
19.825 9.409 L
18.231 15.816 17.918 16.472 QT
17.637 17.019 17.137 17.019 QT
16.887 17.019 16.7 16.862 QT
16.512 16.706 16.512 16.456 QT
cp}def
f285896136
f
GR
GS
[1 0 0 1 743.5 518.5] CT
1 GC
N
/f1536617579{0 17.237 M
-2.453 17.237 -3.336 15.222 QT
-4.219 13.206 -4.219 10.425 QT
-4.219 8.691 -3.898 7.151 QT
-3.578 5.612 -2.641 4.542 QT
-1.703 3.472 0 3.472 QT
1.313 3.472 2.156 4.12 QT
3 4.769 3.438 5.792 QT
3.875 6.816 4.039 7.98 QT
4.203 9.144 4.203 10.425 QT
4.203 12.144 3.883 13.644 QT
3.563 15.144 2.633 16.191 QT
1.703 17.237 0 17.237 QT
cp
0 16.722 M
1.109 16.722 1.656 15.581 QT
2.203 14.441 2.336 13.05 QT
2.469 11.659 2.469 10.097 QT
2.469 8.597 2.336 7.323 QT
2.203 6.05 1.664 5.026 QT
1.125 4.003 0 4.003 QT
-1.125 4.003 -1.672 5.034 QT
-2.219 6.066 -2.352 7.331 QT
-2.484 8.597 -2.484 10.097 QT
-2.484 11.206 -2.43 12.198 QT
-2.375 13.191 -2.141 14.237 QT
-1.906 15.284 -1.383 16.003 QT
-0.859 16.722 0 16.722 QT
cp}def
f1536617579
f
GR
GS
[1 0 0 1 827.75 518.5] CT
1 GC
N
/f1090403113{-13.837 17.237 M
-16.29 17.237 -17.173 15.222 QT
-18.056 13.206 -18.056 10.425 QT
-18.056 8.691 -17.735 7.151 QT
-17.415 5.612 -16.477 4.542 QT
-15.54 3.472 -13.837 3.472 QT
-12.524 3.472 -11.681 4.12 QT
-10.837 4.769 -10.399 5.792 QT
-9.962 6.816 -9.798 7.98 QT
-9.634 9.144 -9.634 10.425 QT
-9.634 12.144 -9.954 13.644 QT
-10.274 15.144 -11.204 16.191 QT
-12.134 17.237 -13.837 17.237 QT
cp
-13.837 16.722 M
-12.727 16.722 -12.181 15.581 QT
-11.634 14.441 -11.501 13.05 QT
-11.368 11.659 -11.368 10.097 QT
-11.368 8.597 -11.501 7.323 QT
-11.634 6.05 -12.173 5.026 QT
-12.712 4.003 -13.837 4.003 QT
-14.962 4.003 -15.509 5.034 QT
-16.056 6.066 -16.188 7.331 QT
-16.321 8.597 -16.321 10.097 QT
-16.321 11.206 -16.267 12.198 QT
-16.212 13.191 -15.977 14.237 QT
-15.743 15.284 -15.22 16.003 QT
-14.696 16.722 -13.837 16.722 QT
cp}def
f1090403113
f
GR
GS
[1 0 0 1 827.75 518.5] CT
1 GC
N
/f1211834877{-7.149 15.691 M
-7.149 15.253 -6.821 14.925 QT
-6.493 14.597 -6.056 14.597 QT
-5.774 14.597 -5.517 14.745 QT
-5.259 14.894 -5.11 15.159 QT
-4.962 15.425 -4.962 15.691 QT
-4.962 16.128 -5.282 16.464 QT
-5.602 16.8 -6.056 16.8 QT
-6.493 16.8 -6.821 16.464 QT
-7.149 16.128 -7.149 15.691 QT
cp}def
f1211834877
f
GR
GS
[1 0 0 1 827.75 518.5] CT
1 GC
N
/f-629465132{-1.547 14.519 M
-1.344 15.112 -0.914 15.589 QT
-0.484 16.066 0.094 16.331 QT
0.672 16.597 1.297 16.597 QT
2.75 16.597 3.297 15.48 QT
3.844 14.362 3.844 12.753 QT
3.844 12.066 3.82 11.589 QT
3.797 11.112 3.688 10.675 QT
3.5 9.972 3.031 9.448 QT
2.563 8.925 1.891 8.925 QT
1.219 8.925 0.734 9.128 QT
0.25 9.331 -0.047 9.605 QT
-0.344 9.878 -0.578 10.183 QT
-0.813 10.487 -0.875 10.503 QT
-1.109 10.503 L
-1.156 10.503 -1.227 10.441 QT
-1.297 10.378 -1.297 10.316 QT
-1.297 3.628 L
-1.297 3.581 -1.234 3.526 QT
-1.172 3.472 -1.109 3.472 QT
-1.047 3.472 L
0.297 4.128 1.813 4.128 QT
3.297 4.128 4.672 3.472 QT
4.734 3.472 L
4.813 3.472 4.867 3.526 QT
4.922 3.581 4.922 3.628 QT
4.922 3.816 L
4.922 3.925 4.891 3.925 QT
4.203 4.831 3.172 5.339 QT
2.141 5.847 1.031 5.847 QT
0.234 5.847 -0.609 5.612 QT
-0.609 9.394 L
0.063 8.862 0.586 8.628 QT
1.109 8.394 1.922 8.394 QT
3.016 8.394 3.891 9.034 QT
4.766 9.675 5.234 10.691 QT
5.703 11.706 5.703 12.769 QT
5.703 13.972 5.109 15.003 QT
4.516 16.034 3.5 16.636 QT
2.484 17.237 1.297 17.237 QT
0.313 17.237 -0.516 16.73 QT
-1.344 16.222 -1.813 15.362 QT
-2.281 14.503 -2.281 13.534 QT
-2.281 13.081 -1.992 12.8 QT
-1.703 12.519 -1.266 12.519 QT
-0.813 12.519 -0.516 12.808 QT
-0.219 13.097 -0.219 13.534 QT
-0.219 13.972 -0.516 14.269 QT
-0.813 14.566 -1.266 14.566 QT
-1.328 14.566 -1.414 14.55 QT
-1.5 14.534 -1.547 14.519 QT
cp}def
f-629465132
f
GR
GS
[1 0 0 1 827.75 518.5] CT
1 GC
N
/f2099949036{8.734 16.456 M
8.734 16.347 8.813 16.128 QT
9.375 14.972 9.859 13.855 QT
10.344 12.737 10.727 11.675 QT
11.109 10.612 11.438 9.409 QT
10.156 9.409 L
9.422 9.409 8.789 9.87 QT
8.156 10.331 7.734 11.034 QT
7.703 11.112 7.625 11.112 QT
7.391 11.112 L
7.203 11.112 7.203 10.925 QT
7.203 10.878 7.234 10.8 QT
7.891 9.691 8.641 8.933 QT
9.391 8.175 10.328 8.175 QT
17.578 8.175 L
17.781 8.175 17.93 8.316 QT
18.078 8.456 18.078 8.691 QT
18.078 8.972 17.867 9.191 QT
17.656 9.409 17.359 9.409 QT
14.813 9.409 L
14.5 10.987 14.469 12.487 QT
14.469 14.409 15.141 15.956 QT
15.203 16.081 15.203 16.206 QT
15.203 16.425 15.07 16.605 QT
14.938 16.784 14.742 16.901 QT
14.547 17.019 14.313 17.019 QT
13.797 17.019 13.602 16.159 QT
13.406 15.3 13.406 14.487 QT
13.406 13.347 13.602 12.292 QT
13.797 11.237 14.219 9.409 QT
12.047 9.409 L
10.453 15.816 10.141 16.472 QT
9.859 17.019 9.359 17.019 QT
9.109 17.019 8.922 16.862 QT
8.734 16.706 8.734 16.456 QT
cp}def
f2099949036
f
GR
GS
[1 0 0 1 912 518.5] CT
1 GC
N
/f1417885159{-4.043 16.456 M
-4.043 16.347 -3.965 16.128 QT
-3.403 14.972 -2.918 13.855 QT
-2.434 12.737 -2.051 11.675 QT
-1.668 10.612 -1.34 9.409 QT
-2.622 9.409 L
-3.356 9.409 -3.989 9.87 QT
-4.622 10.331 -5.043 11.034 QT
-5.075 11.112 -5.153 11.112 QT
-5.387 11.112 L
-5.575 11.112 -5.575 10.925 QT
-5.575 10.878 -5.543 10.8 QT
-4.887 9.691 -4.137 8.933 QT
-3.387 8.175 -2.45 8.175 QT
4.8 8.175 L
5.003 8.175 5.152 8.316 QT
5.3 8.456 5.3 8.691 QT
5.3 8.972 5.089 9.191 QT
4.878 9.409 4.582 9.409 QT
2.035 9.409 L
1.722 10.987 1.691 12.487 QT
1.691 14.409 2.363 15.956 QT
2.425 16.081 2.425 16.206 QT
2.425 16.425 2.293 16.605 QT
2.16 16.784 1.964 16.901 QT
1.769 17.019 1.535 17.019 QT
1.019 17.019 0.824 16.159 QT
0.628 15.3 0.628 14.487 QT
0.628 13.347 0.824 12.292 QT
1.019 11.237 1.441 9.409 QT
-0.731 9.409 L
-2.325 15.816 -2.637 16.472 QT
-2.918 17.019 -3.418 17.019 QT
-3.668 17.019 -3.856 16.862 QT
-4.043 16.706 -4.043 16.456 QT
cp}def
f1417885159
f
GR
GS
[1 0 0 1 743.50018 543.5] CT
1 GC
N
/f-1615703276{-61.365 18.48 M
-61.537 18.48 -61.537 18.308 QT
-61.537 18.292 -61.529 18.277 QT
-61.521 18.261 -61.521 18.23 QT
-53.943 2.964 L
-53.849 2.73 -53.552 2.73 QT
-53.255 2.73 L
-52.943 2.73 -52.849 2.964 QT
-45.271 18.23 L
-45.271 18.261 -45.263 18.277 QT
-45.255 18.292 -45.255 18.308 QT
-45.255 18.48 -45.443 18.48 QT
-61.365 18.48 L
cp
-59.912 16.714 M
-48.318 16.714 L
-54.115 5.042 L
-59.912 16.714 L
cp}def
f-1615703276
f
GR
GS
[1 0 0 1 743.50018 543.5] CT
1 GC
N
/f-50836975{-41.609 21.952 M
-42.563 21.952 -43.102 21.233 QT
-43.641 20.514 -43.641 19.546 QT
-43.641 18.592 -43.148 17.553 QT
-42.656 16.514 -41.805 15.835 QT
-40.953 15.155 -39.984 15.155 QT
-39.547 15.155 -39.188 15.397 QT
-38.828 15.639 -38.641 16.046 QT
-37.797 12.702 L
-37.734 12.452 -37.719 12.296 QT
-37.719 12.061 -38.703 12.061 QT
-38.844 12.061 -38.844 11.858 QT
-38.844 11.827 -38.82 11.733 QT
-38.797 11.639 -38.75 11.585 QT
-38.703 11.53 -38.641 11.53 QT
-36.609 11.374 L
-36.438 11.374 -36.438 11.561 QT
-38.594 20.186 L
-38.703 20.436 -38.703 20.905 QT
-38.703 21.546 -38.266 21.546 QT
-37.797 21.546 -37.547 20.952 QT
-37.297 20.358 -37.141 19.577 QT
-37.109 19.483 -37.016 19.483 QT
-36.828 19.483 L
-36.781 19.483 -36.742 19.538 QT
-36.703 19.592 -36.703 19.639 QT
-36.969 20.686 -37.281 21.319 QT
-37.594 21.952 -38.297 21.952 QT
-38.797 21.952 -39.188 21.655 QT
-39.578 21.358 -39.672 20.858 QT
-40.641 21.952 -41.609 21.952 QT
cp
-41.594 21.546 M
-41.047 21.546 -40.539 21.139 QT
-40.031 20.733 -39.672 20.186 QT
-39.656 20.171 -39.656 20.139 QT
-38.828 16.827 L
-38.922 16.296 -39.227 15.921 QT
-39.531 15.546 -40.016 15.546 QT
-40.531 15.546 -40.969 15.96 QT
-41.406 16.374 -41.703 16.936 QT
-41.984 17.53 -42.258 18.577 QT
-42.531 19.624 -42.531 20.202 QT
-42.531 20.717 -42.305 21.131 QT
-42.078 21.546 -41.594 21.546 QT
cp}def
f-50836975
f
GR
GS
[1 0 0 1 743.50018 543.5] CT
1 GC
N
/f1448924190{-27.965 13.417 M
-28.152 13.417 -28.269 13.277 QT
-28.386 13.136 -28.386 12.98 QT
-28.386 12.824 -28.269 12.683 QT
-28.152 12.542 -27.965 12.542 QT
-15.34 12.542 L
-15.168 12.542 -15.058 12.683 QT
-14.949 12.824 -14.949 12.98 QT
-14.949 13.136 -15.058 13.277 QT
-15.168 13.417 -15.34 13.417 QT
-27.965 13.417 L
cp}def
f1448924190
f
GR
GS
[1 0 0 1 743.50018 543.5] CT
1 GC
N
/f89661712{-7.027 18.48 M
-7.199 18.48 -7.199 18.308 QT
-7.199 18.292 -7.191 18.277 QT
-7.183 18.261 -7.183 18.23 QT
0.395 2.964 L
0.489 2.73 0.785 2.73 QT
1.082 2.73 L
1.395 2.73 1.489 2.964 QT
9.067 18.23 L
9.067 18.261 9.074 18.277 QT
9.082 18.292 9.082 18.308 QT
9.082 18.48 8.895 18.48 QT
-7.027 18.48 L
cp
-5.574 16.714 M
6.02 16.714 L
0.223 5.042 L
-5.574 16.714 L
cp}def
f89661712
f
GR
GS
[1 0 0 1 743.50018 543.5] CT
1 GC
N
/f1453881813{13.869 21.952 M
12.963 21.952 12.197 21.491 QT
11.431 21.03 10.986 20.264 QT
10.541 19.499 10.541 18.592 QT
10.541 17.905 10.783 17.264 QT
11.025 16.624 11.486 16.124 QT
11.947 15.624 12.556 15.342 QT
13.166 15.061 13.869 15.061 QT
14.791 15.061 15.548 15.546 QT
16.306 16.03 16.744 16.85 QT
17.181 17.671 17.181 18.592 QT
17.181 19.483 16.736 20.256 QT
16.291 21.03 15.525 21.491 QT
14.759 21.952 13.869 21.952 QT
cp
13.869 21.514 M
15.072 21.514 15.47 20.639 QT
15.869 19.764 15.869 18.421 QT
15.869 17.671 15.791 17.171 QT
15.713 16.671 15.447 16.264 QT
15.275 16.03 15.017 15.842 QT
14.759 15.655 14.47 15.553 QT
14.181 15.452 13.869 15.452 QT
13.4 15.452 12.978 15.663 QT
12.556 15.874 12.275 16.264 QT
11.994 16.702 11.923 17.21 QT
11.853 17.717 11.853 18.421 QT
11.853 19.264 11.994 19.936 QT
12.134 20.608 12.58 21.061 QT
13.025 21.514 13.869 21.514 QT
cp}def
f1453881813
f
GR
GS
[1 0 0 1 743.50018 543.5] CT
1 GC
N
/f1833687687{18.209 24.686 M
18.209 24.171 L
18.725 24.171 19.053 24.085 QT
19.381 23.999 19.381 23.686 QT
19.381 16.452 L
19.381 16.046 19.084 15.944 QT
18.788 15.842 18.209 15.842 QT
18.209 15.311 L
20.428 15.155 L
20.428 16.077 L
20.834 15.624 21.381 15.389 QT
21.928 15.155 22.538 15.155 QT
23.428 15.155 24.139 15.631 QT
24.85 16.108 25.248 16.889 QT
25.647 17.671 25.647 18.546 QT
25.647 19.452 25.202 20.233 QT
24.756 21.014 23.991 21.483 QT
23.225 21.952 22.319 21.952 QT
21.225 21.952 20.475 21.061 QT
20.475 23.686 L
20.475 23.999 20.803 24.085 QT
21.131 24.171 21.647 24.171 QT
21.647 24.686 L
18.209 24.686 L
cp
20.475 20.327 M
20.741 20.858 21.209 21.202 QT
21.678 21.546 22.225 21.546 QT
22.741 21.546 23.147 21.272 QT
23.553 20.999 23.819 20.53 QT
24.084 20.061 24.217 19.546 QT
24.35 19.03 24.35 18.546 QT
24.35 17.936 24.131 17.241 QT
23.913 16.546 23.467 16.061 QT
23.022 15.577 22.397 15.577 QT
21.788 15.577 21.28 15.889 QT
20.772 16.202 20.475 16.733 QT
20.475 20.327 L
cp}def
f1833687687
f
GR
GS
[1 0 0 1 743.50018 543.5] CT
1 GC
N
/f-1704852996{27.906 19.983 M
27.906 15.842 L
26.656 15.842 L
26.656 15.452 L
27.64 15.452 28.101 14.538 QT
28.562 13.624 28.562 12.546 QT
28.999 12.546 L
28.999 15.311 L
31.109 15.311 L
31.109 15.842 L
28.999 15.842 L
28.999 19.952 L
28.999 20.577 29.21 21.046 QT
29.421 21.514 29.953 21.514 QT
30.468 21.514 30.695 21.014 QT
30.921 20.514 30.921 19.952 QT
30.921 19.061 L
31.359 19.061 L
31.359 19.983 L
31.359 20.452 31.187 20.905 QT
31.015 21.358 30.679 21.655 QT
30.343 21.952 29.859 21.952 QT
28.953 21.952 28.429 21.413 QT
27.906 20.874 27.906 19.983 QT
cp}def
f-1704852996
f
GR
GS
[1 0 0 1 743.50018 543.5] CT
1 GC
N
/f1099282644{32.832 21.78 M
32.832 21.249 L
33.332 21.249 33.668 21.171 QT
34.004 21.092 34.004 20.78 QT
34.004 16.686 L
34.004 16.108 33.777 15.975 QT
33.551 15.842 32.895 15.842 QT
32.895 15.311 L
35.051 15.155 L
35.051 20.78 L
35.051 21.092 35.34 21.171 QT
35.629 21.249 36.098 21.249 QT
36.098 21.78 L
32.832 21.78 L
cp
33.457 12.577 M
33.457 12.249 33.707 11.999 QT
33.957 11.749 34.285 11.749 QT
34.488 11.749 34.691 11.858 QT
34.895 11.967 35.004 12.163 QT
35.113 12.358 35.113 12.577 QT
35.113 12.889 34.863 13.139 QT
34.613 13.389 34.285 13.389 QT
33.957 13.389 33.707 13.139 QT
33.457 12.889 33.457 12.577 QT
cp}def
f1099282644
f
GR
GS
[1 0 0 1 743.50018 543.5] CT
1 GC
N
/f-1144679212{37.094 21.78 M
37.094 21.249 L
37.594 21.249 37.93 21.171 QT
38.266 21.092 38.266 20.78 QT
38.266 16.686 L
38.266 16.28 38.141 16.1 QT
38.016 15.921 37.79 15.881 QT
37.563 15.842 37.094 15.842 QT
37.094 15.311 L
39.266 15.155 L
39.266 16.624 L
39.563 15.967 40.157 15.561 QT
40.75 15.155 41.438 15.155 QT
43.172 15.155 43.469 16.561 QT
43.766 15.921 44.344 15.538 QT
44.922 15.155 45.61 15.155 QT
46.297 15.155 46.758 15.374 QT
47.219 15.592 47.454 16.046 QT
47.688 16.499 47.688 17.171 QT
47.688 20.78 L
47.688 21.092 48.024 21.171 QT
48.36 21.249 48.86 21.249 QT
48.86 21.78 L
45.438 21.78 L
45.438 21.249 L
45.938 21.249 46.274 21.171 QT
46.61 21.092 46.61 20.78 QT
46.61 17.217 L
46.61 16.467 46.391 16.006 QT
46.172 15.546 45.516 15.546 QT
44.657 15.546 44.094 16.241 QT
43.532 16.936 43.532 17.811 QT
43.532 20.78 L
43.532 21.092 43.86 21.171 QT
44.188 21.249 44.704 21.249 QT
44.704 21.78 L
41.266 21.78 L
41.266 21.249 L
41.782 21.249 42.11 21.171 QT
42.438 21.092 42.438 20.78 QT
42.438 17.217 L
42.438 16.483 42.227 16.014 QT
42.016 15.546 41.344 15.546 QT
40.485 15.546 39.922 16.241 QT
39.36 16.936 39.36 17.811 QT
39.36 20.78 L
39.36 21.092 39.688 21.171 QT
40.016 21.249 40.516 21.249 QT
40.516 21.78 L
37.094 21.78 L
cp}def
f-1144679212
f
GR
GS
[1 0 0 1 743.50018 543.5] CT
1 GC
N
/f-916449412{50.068 20.311 M
50.068 19.421 50.771 18.858 QT
51.474 18.296 52.467 18.061 QT
53.459 17.827 54.334 17.827 QT
54.334 17.217 L
54.334 16.78 54.146 16.374 QT
53.959 15.967 53.599 15.71 QT
53.24 15.452 52.803 15.452 QT
51.818 15.452 51.287 15.905 QT
51.584 15.905 51.763 16.116 QT
51.943 16.327 51.943 16.624 QT
51.943 16.921 51.732 17.131 QT
51.521 17.342 51.24 17.342 QT
50.928 17.342 50.717 17.131 QT
50.506 16.921 50.506 16.624 QT
50.506 15.827 51.224 15.444 QT
51.943 15.061 52.803 15.061 QT
53.412 15.061 54.029 15.319 QT
54.646 15.577 55.037 16.061 QT
55.428 16.546 55.428 17.186 QT
55.428 20.561 L
55.428 20.858 55.553 21.1 QT
55.678 21.342 55.943 21.342 QT
56.193 21.342 56.31 21.092 QT
56.428 20.842 56.428 20.561 QT
56.428 19.608 L
56.865 19.608 L
56.865 20.561 L
56.865 20.905 56.693 21.21 QT
56.521 21.514 56.224 21.694 QT
55.928 21.874 55.584 21.874 QT
55.146 21.874 54.826 21.53 QT
54.506 21.186 54.474 20.717 QT
54.193 21.28 53.654 21.616 QT
53.115 21.952 52.49 21.952 QT
51.928 21.952 51.373 21.78 QT
50.818 21.608 50.443 21.249 QT
50.068 20.889 50.068 20.311 QT
cp
51.287 20.311 M
51.287 20.842 51.678 21.194 QT
52.068 21.546 52.599 21.546 QT
53.084 21.546 53.474 21.311 QT
53.865 21.077 54.099 20.655 QT
54.334 20.233 54.334 19.78 QT
54.334 18.217 L
53.662 18.217 52.943 18.436 QT
52.224 18.655 51.756 19.131 QT
51.287 19.608 51.287 20.311 QT
cp}def
f-916449412
f
GR
GS
[1 0 0 1 743.50018 543.5] CT
1 GC
N
/f1598103405{57.643 21.78 M
57.643 21.249 L
58.143 21.249 58.479 21.171 QT
58.815 21.092 58.815 20.78 QT
58.815 12.905 L
58.815 12.499 58.69 12.319 QT
58.565 12.139 58.338 12.1 QT
58.112 12.061 57.643 12.061 QT
57.643 11.53 L
59.862 11.374 L
59.862 20.78 L
59.862 21.092 60.19 21.171 QT
60.518 21.249 61.034 21.249 QT
61.034 21.78 L
57.643 21.78 L
cp}def
f1598103405
f
GR
GS
1 GC
2 setlinecap
1 LJ
0.5 LW
N
575 512.5 M
575 43 L
S
GR
GS
1 GC
2 setlinecap
1 LJ
0.5 LW
N
912 512.5 M
912 43 L
S
GR
GS
1 GC
2 setlinecap
1 LJ
0.5 LW
N
575 512.5 M
579.695 512.5 L
S
GR
GS
1 GC
2 setlinecap
1 LJ
0.5 LW
N
575 395.125 M
579.695 395.125 L
S
GR
GS
1 GC
2 setlinecap
1 LJ
0.5 LW
N
575 277.75 M
579.695 277.75 L
S
GR
GS
1 GC
2 setlinecap
1 LJ
0.5 LW
N
575 160.375 M
579.695 160.375 L
S
GR
GS
1 GC
2 setlinecap
1 LJ
0.5 LW
N
575 43 M
579.695 43 L
S
GR
GS
1 GC
2 setlinecap
1 LJ
0.5 LW
N
912 512.5 M
907.305 512.5 L
S
GR
GS
1 GC
2 setlinecap
1 LJ
0.5 LW
N
912 395.125 M
907.305 395.125 L
S
GR
GS
1 GC
2 setlinecap
1 LJ
0.5 LW
N
912 277.75 M
907.305 277.75 L
S
GR
GS
1 GC
2 setlinecap
1 LJ
0.5 LW
N
912 160.375 M
907.305 160.375 L
S
GR
GS
1 GC
2 setlinecap
1 LJ
0.5 LW
N
912 43 M
907.305 43 L
S
GR
GS
[1 0 0 1 569 512.5] CT
1 GC
N
/f-259944110{-5 5.237 M
-7.453 5.237 -8.336 3.222 QT
-9.219 1.206 -9.219 -1.575 QT
-9.219 -3.309 -8.898 -4.849 QT
-8.578 -6.388 -7.641 -7.458 QT
-6.703 -8.528 -5 -8.528 QT
-3.688 -8.528 -2.844 -7.88 QT
-2 -7.231 -1.563 -6.208 QT
-1.125 -5.184 -0.961 -4.02 QT
-0.797 -2.856 -0.797 -1.575 QT
-0.797 0.144 -1.117 1.644 QT
-1.438 3.144 -2.367 4.191 QT
-3.297 5.237 -5 5.237 QT
cp
-5 4.722 M
-3.891 4.722 -3.344 3.581 QT
-2.797 2.441 -2.664 1.05 QT
-2.531 -0.341 -2.531 -1.903 QT
-2.531 -3.403 -2.664 -4.677 QT
-2.797 -5.95 -3.336 -6.974 QT
-3.875 -7.997 -5 -7.997 QT
-6.125 -7.997 -6.672 -6.966 QT
-7.219 -5.934 -7.352 -4.669 QT
-7.484 -3.403 -7.484 -1.903 QT
-7.484 -0.794 -7.43 0.198 QT
-7.375 1.191 -7.141 2.237 QT
-6.906 3.284 -6.383 4.003 QT
-5.859 4.722 -5 4.722 QT
cp}def
f-259944110
f
GR
GS
[1 0 0 1 569 395.125] CT
1 GC
N
f208961070
f
GR
GS
[1 0 0 1 569 395.125] CT
1 GC
N
f-943732550
f
GR
GS
[1 0 0 1 569 395.125] CT
1 GC
N
/f1667698322{-8.141 4.8 M
-8.141 4.097 L
-5.641 4.097 -5.641 3.456 QT
-5.641 -7.044 L
-6.672 -6.544 -8.266 -6.544 QT
-8.266 -7.247 L
-5.813 -7.247 -4.563 -8.528 QT
-4.281 -8.528 L
-4.203 -8.528 -4.141 -8.474 QT
-4.078 -8.419 -4.078 -8.341 QT
-4.078 3.456 L
-4.078 4.097 -1.578 4.097 QT
-1.578 4.8 L
-8.141 4.8 L
cp}def
f1667698322
f
GR
GS
[1 0 0 1 569 277.75] CT
1 GC
N
f208961070
f
GR
GS
[1 0 0 1 569 277.75] CT
1 GC
N
f-943732550
f
GR
GS
[1 0 0 1 569 277.75] CT
1 GC
N
f-959722706
f
GR
GS
[1 0 0 1 569 160.37498] CT
1 GC
N
f208961070
f
GR
GS
[1 0 0 1 569 160.37498] CT
1 GC
N
f-943732550
f
GR
GS
[1 0 0 1 569 160.37498] CT
1 GC
N
f-1136742856
f
GR
GS
[1 0 0 1 569 42.99999] CT
1 GC
N
f208961070
f
GR
GS
[1 0 0 1 569 42.99999] CT
1 GC
N
f-943732550
f
GR
GS
[1 0 0 1 569 42.99999] CT
1 GC
N
f-426388810
f
GR
GS
[0 -1 1 0 540.44434 277.74976] CT
N
f2050730169
f
GR
%%Trailer
%%Pages: 1
%%EOF
