%!PS-Adobe-3.0 EPSF-3.0
%%Creator: (MATLAB, The Mathworks, Inc. Version 9.3.0.713579 \(R2017b\). Operating System: Mac OS X)
%%Title: ./histograms_marginal_whites.eps
%%CreationDate: 2018-08-04T23:46:35
%%Pages: (atend)
%%BoundingBox:    99     3   899   379
%%LanguageLevel: 3
%%EndComments
%%BeginProlog
%%BeginResource: procset (Apache XML Graphics Std ProcSet) 1.2 0
%%Version: 1.2 0
%%Copyright: (Copyright 2001-2003,2010 The Apache Software Foundation. License terms: http://www.apache.org/licenses/LICENSE-2.0)
/bd{bind def}bind def
/ld{load def}bd
/GR/grestore ld
/GS/gsave ld
/RM/rmoveto ld
/C/curveto ld
/t/show ld
/L/lineto ld
/ML/setmiterlimit ld
/CT/concat ld
/f/fill ld
/N/newpath ld
/S/stroke ld
/CC/setcmykcolor ld
/A/ashow ld
/cp/closepath ld
/RC/setrgbcolor ld
/LJ/setlinejoin ld
/GC/setgray ld
/LW/setlinewidth ld
/M/moveto ld
/re {4 2 roll M
1 index 0 rlineto
0 exch rlineto
neg 0 rlineto
cp } bd
/_ctm matrix def
/_tm matrix def
/BT { _ctm currentmatrix pop matrix _tm copy pop 0 0 moveto } bd
/ET { _ctm setmatrix } bd
/iTm { _ctm setmatrix _tm concat } bd
/Tm { _tm astore pop iTm 0 0 moveto } bd
/ux 0.0 def
/uy 0.0 def
/F {
  /Tp exch def
  /Tf exch def
  Tf findfont Tp scalefont setfont
  /cf Tf def  /cs Tp def
} bd
/ULS {currentpoint /uy exch def /ux exch def} bd
/ULE {
  /Tcx currentpoint pop def
  gsave
  newpath
  cf findfont cs scalefont dup
  /FontMatrix get 0 get /Ts exch def /FontInfo get dup
  /UnderlinePosition get Ts mul /To exch def
  /UnderlineThickness get Ts mul /Tt exch def
  ux uy To add moveto  Tcx uy To add lineto
  Tt setlinewidth stroke
  grestore
} bd
/OLE {
  /Tcx currentpoint pop def
  gsave
  newpath
  cf findfont cs scalefont dup
  /FontMatrix get 0 get /Ts exch def /FontInfo get dup
  /UnderlinePosition get Ts mul /To exch def
  /UnderlineThickness get Ts mul /Tt exch def
  ux uy To add cs add moveto Tcx uy To add cs add lineto
  Tt setlinewidth stroke
  grestore
} bd
/SOE {
  /Tcx currentpoint pop def
  gsave
  newpath
  cf findfont cs scalefont dup
  /FontMatrix get 0 get /Ts exch def /FontInfo get dup
  /UnderlinePosition get Ts mul /To exch def
  /UnderlineThickness get Ts mul /Tt exch def
  ux uy To add cs 10 mul 26 idiv add moveto Tcx uy To add cs 10 mul 26 idiv add lineto
  Tt setlinewidth stroke
  grestore
} bd
/QT {
/Y22 exch store
/X22 exch store
/Y21 exch store
/X21 exch store
currentpoint
/Y21 load 2 mul add 3 div exch
/X21 load 2 mul add 3 div exch
/X21 load 2 mul /X22 load add 3 div
/Y21 load 2 mul /Y22 load add 3 div
/X22 load /Y22 load curveto
} bd
/SSPD {
dup length /d exch dict def
{
/v exch def
/k exch def
currentpagedevice k known {
/cpdv currentpagedevice k get def
v cpdv ne {
/upd false def
/nullv v type /nulltype eq def
/nullcpdv cpdv type /nulltype eq def
nullv nullcpdv or
{
/upd true def
} {
/sametype v type cpdv type eq def
sametype {
v type /arraytype eq {
/vlen v length def
/cpdvlen cpdv length def
vlen cpdvlen eq {
0 1 vlen 1 sub {
/i exch def
/obj v i get def
/cpdobj cpdv i get def
obj cpdobj ne {
/upd true def
exit
} if
} for
} {
/upd true def
} ifelse
} {
v type /dicttype eq {
v {
/dv exch def
/dk exch def
/cpddv cpdv dk get def
dv cpddv ne {
/upd true def
exit
} if
} forall
} {
/upd true def
} ifelse
} ifelse
} if
} ifelse
upd true eq {
d k v put
} if
} if
} if
} forall
d length 0 gt {
d setpagedevice
} if
} bd
/RE { % /NewFontName [NewEncodingArray] /FontName RE -
  findfont dup length dict begin
  {
    1 index /FID ne
    {def} {pop pop} ifelse
  } forall
  /Encoding exch def
  /FontName 1 index def
  currentdict definefont pop
  end
} bind def
%%EndResource
%%BeginResource: procset (Apache XML Graphics EPS ProcSet) 1.0 0
%%Version: 1.0 0
%%Copyright: (Copyright 2002-2003 The Apache Software Foundation. License terms: http://www.apache.org/licenses/LICENSE-2.0)
/BeginEPSF { %def
/b4_Inc_state save def         % Save state for cleanup
/dict_count countdictstack def % Count objects on dict stack
/op_count count 1 sub def      % Count objects on operand stack
userdict begin                 % Push userdict on dict stack
/showpage { } def              % Redefine showpage, { } = null proc
0 setgray 0 setlinecap         % Prepare graphics state
1 setlinewidth 0 setlinejoin
10 setmiterlimit [ ] 0 setdash newpath
/languagelevel where           % If level not equal to 1 then
{pop languagelevel             % set strokeadjust and
1 ne                           % overprint to their defaults.
{false setstrokeadjust false setoverprint
} if
} if
} bd
/EndEPSF { %def
count op_count sub {pop} repeat            % Clean up stacks
countdictstack dict_count sub {end} repeat
b4_Inc_state restore
} bd
%%EndResource
%FOPBeginFontDict
%%IncludeResource: font Courier-Oblique
%%IncludeResource: font Courier-BoldOblique
%%IncludeResource: font Courier-Bold
%%IncludeResource: font ZapfDingbats
%%IncludeResource: font Symbol
%%IncludeResource: font Helvetica
%%IncludeResource: font Helvetica-Oblique
%%IncludeResource: font Helvetica-Bold
%%IncludeResource: font Helvetica-BoldOblique
%%IncludeResource: font Times-Roman
%%IncludeResource: font Times-Italic
%%IncludeResource: font Times-Bold
%%IncludeResource: font Times-BoldItalic
%%IncludeResource: font Courier
%FOPEndFontDict
%%BeginResource: encoding WinAnsiEncoding
/WinAnsiEncoding [
/.notdef /.notdef /.notdef /.notdef /.notdef
/.notdef /.notdef /.notdef /.notdef /.notdef
/.notdef /.notdef /.notdef /.notdef /.notdef
/.notdef /.notdef /.notdef /.notdef /.notdef
/.notdef /.notdef /.notdef /.notdef /.notdef
/.notdef /.notdef /.notdef /.notdef /.notdef
/.notdef /.notdef /space /exclam /quotedbl
/numbersign /dollar /percent /ampersand /quotesingle
/parenleft /parenright /asterisk /plus /comma
/hyphen /period /slash /zero /one
/two /three /four /five /six
/seven /eight /nine /colon /semicolon
/less /equal /greater /question /at
/A /B /C /D /E
/F /G /H /I /J
/K /L /M /N /O
/P /Q /R /S /T
/U /V /W /X /Y
/Z /bracketleft /backslash /bracketright /asciicircum
/underscore /quoteleft /a /b /c
/d /e /f /g /h
/i /j /k /l /m
/n /o /p /q /r
/s /t /u /v /w
/x /y /z /braceleft /bar
/braceright /asciitilde /bullet /Euro /bullet
/quotesinglbase /florin /quotedblbase /ellipsis /dagger
/daggerdbl /circumflex /perthousand /Scaron /guilsinglleft
/OE /bullet /Zcaron /bullet /bullet
/quoteleft /quoteright /quotedblleft /quotedblright /bullet
/endash /emdash /asciitilde /trademark /scaron
/guilsinglright /oe /bullet /zcaron /Ydieresis
/space /exclamdown /cent /sterling /currency
/yen /brokenbar /section /dieresis /copyright
/ordfeminine /guillemotleft /logicalnot /sfthyphen /registered
/macron /degree /plusminus /twosuperior /threesuperior
/acute /mu /paragraph /middot /cedilla
/onesuperior /ordmasculine /guillemotright /onequarter /onehalf
/threequarters /questiondown /Agrave /Aacute /Acircumflex
/Atilde /Adieresis /Aring /AE /Ccedilla
/Egrave /Eacute /Ecircumflex /Edieresis /Igrave
/Iacute /Icircumflex /Idieresis /Eth /Ntilde
/Ograve /Oacute /Ocircumflex /Otilde /Odieresis
/multiply /Oslash /Ugrave /Uacute /Ucircumflex
/Udieresis /Yacute /Thorn /germandbls /agrave
/aacute /acircumflex /atilde /adieresis /aring
/ae /ccedilla /egrave /eacute /ecircumflex
/edieresis /igrave /iacute /icircumflex /idieresis
/eth /ntilde /ograve /oacute /ocircumflex
/otilde /odieresis /divide /oslash /ugrave
/uacute /ucircumflex /udieresis /yacute /thorn
/ydieresis
] def
%%EndResource
%FOPBeginFontReencode
/Courier-Oblique findfont
dup length dict begin
  {1 index /FID ne {def} {pop pop} ifelse} forall
  /Encoding WinAnsiEncoding def
  currentdict
end
/Courier-Oblique exch definefont pop
/Courier-BoldOblique findfont
dup length dict begin
  {1 index /FID ne {def} {pop pop} ifelse} forall
  /Encoding WinAnsiEncoding def
  currentdict
end
/Courier-BoldOblique exch definefont pop
/Courier-Bold findfont
dup length dict begin
  {1 index /FID ne {def} {pop pop} ifelse} forall
  /Encoding WinAnsiEncoding def
  currentdict
end
/Courier-Bold exch definefont pop
/Helvetica findfont
dup length dict begin
  {1 index /FID ne {def} {pop pop} ifelse} forall
  /Encoding WinAnsiEncoding def
  currentdict
end
/Helvetica exch definefont pop
/Helvetica-Oblique findfont
dup length dict begin
  {1 index /FID ne {def} {pop pop} ifelse} forall
  /Encoding WinAnsiEncoding def
  currentdict
end
/Helvetica-Oblique exch definefont pop
/Helvetica-Bold findfont
dup length dict begin
  {1 index /FID ne {def} {pop pop} ifelse} forall
  /Encoding WinAnsiEncoding def
  currentdict
end
/Helvetica-Bold exch definefont pop
/Helvetica-BoldOblique findfont
dup length dict begin
  {1 index /FID ne {def} {pop pop} ifelse} forall
  /Encoding WinAnsiEncoding def
  currentdict
end
/Helvetica-BoldOblique exch definefont pop
/Times-Roman findfont
dup length dict begin
  {1 index /FID ne {def} {pop pop} ifelse} forall
  /Encoding WinAnsiEncoding def
  currentdict
end
/Times-Roman exch definefont pop
/Times-Italic findfont
dup length dict begin
  {1 index /FID ne {def} {pop pop} ifelse} forall
  /Encoding WinAnsiEncoding def
  currentdict
end
/Times-Italic exch definefont pop
/Times-Bold findfont
dup length dict begin
  {1 index /FID ne {def} {pop pop} ifelse} forall
  /Encoding WinAnsiEncoding def
  currentdict
end
/Times-Bold exch definefont pop
/Times-BoldItalic findfont
dup length dict begin
  {1 index /FID ne {def} {pop pop} ifelse} forall
  /Encoding WinAnsiEncoding def
  currentdict
end
/Times-BoldItalic exch definefont pop
/Courier findfont
dup length dict begin
  {1 index /FID ne {def} {pop pop} ifelse} forall
  /Encoding WinAnsiEncoding def
  currentdict
end
/Courier exch definefont pop
%FOPEndFontReencode
%%EndProlog
%%Page: 1 1
%%PageBoundingBox: 0 0 1000 400
%%BeginPageSetup
[1 0 0 -1 0 400] CT
%%EndPageSetup
GS
1 GC
N
0 0 1000 400 re
f
GR
GS
1 GC
N
0 0 1000 400 re
f
GR
GS
1 GC
N
133.5 342.5 M
242.5 342.5 L
242.5 30 L
133.5 30 L
cp
f
GR
GS
1 GC
N
142.765 342.5 M
142.765 313.203 L
133.5 313.203 L
133.5 342.5 L
cp
152.03 342.5 M
152.03 274.141 L
142.765 274.141 L
142.765 342.5 L
cp
161.295 342.5 M
161.295 192.109 L
152.03 192.109 L
152.03 342.5 L
cp
170.56 342.5 M
170.56 78.828 L
161.295 78.828 L
161.295 342.5 L
cp
179.825 342.5 M
179.825 108.125 L
170.56 108.125 L
170.56 342.5 L
cp
189.09 342.5 M
189.09 129.609 L
179.825 129.609 L
179.825 342.5 L
cp
198.355 342.5 M
198.355 182.344 L
189.09 182.344 L
189.09 342.5 L
cp
207.62 342.5 M
207.62 238.984 L
198.355 238.984 L
198.355 342.5 L
cp
216.885 342.5 M
216.885 262.422 L
207.62 262.422 L
207.62 342.5 L
cp
226.15 342.5 M
226.15 297.578 L
216.885 297.578 L
216.885 342.5 L
cp
235.415 342.5 M
235.415 324.922 L
226.15 324.922 L
226.15 342.5 L
cp
f
GR
GS
2 setlinecap
10.0 ML
0.5 LW
N
133.5 342.5 M
133.5 313.203 L
142.765 313.203 L
S
GR
GS
2 setlinecap
10.0 ML
0.5 LW
N
142.765 342.5 M
142.765 342.5 L
142.765 274.141 L
152.03 274.141 L
S
GR
GS
2 setlinecap
10.0 ML
0.5 LW
N
152.03 342.5 M
152.03 342.5 L
152.03 192.109 L
161.295 192.109 L
S
GR
GS
2 setlinecap
10.0 ML
0.5 LW
N
161.295 342.5 M
161.295 342.5 L
161.295 78.828 L
170.56 78.828 L
170.56 342.5 L
170.56 342.5 L
S
GR
GS
2 setlinecap
10.0 ML
0.5 LW
N
170.56 108.125 M
179.825 108.125 L
179.825 342.5 L
179.825 342.5 L
S
GR
GS
2 setlinecap
10.0 ML
0.5 LW
N
179.825 129.609 M
189.09 129.609 L
189.09 342.5 L
189.09 342.5 L
S
GR
GS
2 setlinecap
10.0 ML
0.5 LW
N
189.09 182.344 M
198.355 182.344 L
198.355 342.5 L
198.355 342.5 L
S
GR
GS
2 setlinecap
10.0 ML
0.5 LW
N
198.355 238.984 M
207.62 238.984 L
207.62 342.5 L
207.62 342.5 L
S
GR
GS
2 setlinecap
10.0 ML
0.5 LW
N
207.62 262.422 M
216.885 262.422 L
216.885 342.5 L
216.885 342.5 L
S
GR
GS
2 setlinecap
10.0 ML
0.5 LW
N
216.885 297.578 M
226.15 297.578 L
226.15 342.5 L
226.15 342.5 L
S
GR
GS
2 setlinecap
10.0 ML
0.5 LW
N
226.15 324.922 M
235.415 324.922 L
235.415 342.5 L
S
GR
GS
0.149 GC
2 setlinecap
1 LJ
0.5 LW
N
133.5 342.5 M
242.5 342.5 L
S
GR
GS
0.149 GC
2 setlinecap
1 LJ
0.5 LW
N
133.5 30 M
242.5 30 L
S
GR
GS
0.149 GC
2 setlinecap
1 LJ
0.5 LW
N
133.5 342.5 M
133.5 339.375 L
S
GR
GS
0.149 GC
2 setlinecap
1 LJ
0.5 LW
N
188 342.5 M
188 339.375 L
S
GR
GS
0.149 GC
2 setlinecap
1 LJ
0.5 LW
N
242.5 342.5 M
242.5 339.375 L
S
GR
GS
0.149 GC
2 setlinecap
1 LJ
0.5 LW
N
133.5 30 M
133.5 33.125 L
S
GR
GS
0.149 GC
2 setlinecap
1 LJ
0.5 LW
N
188 30 M
188 33.125 L
S
GR
GS
0.149 GC
2 setlinecap
1 LJ
0.5 LW
N
242.5 30 M
242.5 33.125 L
S
GR
GS
[1 0 0 1 133.5 348.5] CT
0.149 GC
N
0 17.237 M
-2.453 17.237 -3.336 15.222 QT
-4.219 13.206 -4.219 10.425 QT
-4.219 8.691 -3.898 7.151 QT
-3.578 5.612 -2.641 4.542 QT
-1.703 3.472 0 3.472 QT
1.313 3.472 2.156 4.12 QT
3 4.769 3.438 5.792 QT
3.875 6.816 4.039 7.98 QT
4.203 9.144 4.203 10.425 QT
4.203 12.144 3.883 13.644 QT
3.563 15.144 2.633 16.191 QT
1.703 17.237 0 17.237 QT
cp
0 16.722 M
1.109 16.722 1.656 15.581 QT
2.203 14.441 2.336 13.05 QT
2.469 11.659 2.469 10.097 QT
2.469 8.597 2.336 7.323 QT
2.203 6.05 1.664 5.026 QT
1.125 4.003 0 4.003 QT
-1.125 4.003 -1.672 5.034 QT
-2.219 6.066 -2.352 7.331 QT
-2.484 8.597 -2.484 10.097 QT
-2.484 11.206 -2.43 12.198 QT
-2.375 13.191 -2.141 14.237 QT
-1.906 15.284 -1.383 16.003 QT
-0.859 16.722 0 16.722 QT
cp
f
GR
GS
[1 0 0 1 188 348.5] CT
0.149 GC
N
-12.778 17.237 M
-15.231 17.237 -16.114 15.222 QT
-16.997 13.206 -16.997 10.425 QT
-16.997 8.691 -16.676 7.151 QT
-16.356 5.612 -15.418 4.542 QT
-14.481 3.472 -12.778 3.472 QT
-11.465 3.472 -10.622 4.12 QT
-9.778 4.769 -9.34 5.792 QT
-8.903 6.816 -8.739 7.98 QT
-8.575 9.144 -8.575 10.425 QT
-8.575 12.144 -8.895 13.644 QT
-9.215 15.144 -10.145 16.191 QT
-11.075 17.237 -12.778 17.237 QT
cp
-12.778 16.722 M
-11.668 16.722 -11.122 15.581 QT
-10.575 14.441 -10.442 13.05 QT
-10.309 11.659 -10.309 10.097 QT
-10.309 8.597 -10.442 7.323 QT
-10.575 6.05 -11.114 5.026 QT
-11.653 4.003 -12.778 4.003 QT
-13.903 4.003 -14.45 5.034 QT
-14.997 6.066 -15.129 7.331 QT
-15.262 8.597 -15.262 10.097 QT
-15.262 11.206 -15.208 12.198 QT
-15.153 13.191 -14.918 14.237 QT
-14.684 15.284 -14.161 16.003 QT
-13.637 16.722 -12.778 16.722 QT
cp
f
GR
GS
[1 0 0 1 188 348.5] CT
0.149 GC
N
-6.09 15.691 M
-6.09 15.253 -5.762 14.925 QT
-5.434 14.597 -4.997 14.597 QT
-4.715 14.597 -4.457 14.745 QT
-4.2 14.894 -4.051 15.159 QT
-3.903 15.425 -3.903 15.691 QT
-3.903 16.128 -4.223 16.464 QT
-4.543 16.8 -4.997 16.8 QT
-5.434 16.8 -5.762 16.464 QT
-6.09 16.128 -6.09 15.691 QT
cp
f
GR
GS
[1 0 0 1 188 348.5] CT
0.149 GC
N
2.778 17.237 M
0.325 17.237 -0.558 15.222 QT
-1.441 13.206 -1.441 10.425 QT
-1.441 8.691 -1.121 7.151 QT
-0.8 5.612 0.137 4.542 QT
1.075 3.472 2.778 3.472 QT
4.09 3.472 4.934 4.12 QT
5.778 4.769 6.215 5.792 QT
6.653 6.816 6.817 7.98 QT
6.981 9.144 6.981 10.425 QT
6.981 12.144 6.661 13.644 QT
6.34 15.144 5.411 16.191 QT
4.481 17.237 2.778 17.237 QT
cp
2.778 16.722 M
3.887 16.722 4.434 15.581 QT
4.981 14.441 5.114 13.05 QT
5.247 11.659 5.247 10.097 QT
5.247 8.597 5.114 7.323 QT
4.981 6.05 4.442 5.026 QT
3.903 4.003 2.778 4.003 QT
1.653 4.003 1.106 5.034 QT
0.559 6.066 0.426 7.331 QT
0.293 8.597 0.293 10.097 QT
0.293 11.206 0.348 12.198 QT
0.403 13.191 0.637 14.237 QT
0.872 15.284 1.395 16.003 QT
1.918 16.722 2.778 16.722 QT
cp
f
GR
GS
[1 0 0 1 188 348.5] CT
0.149 GC
N
9.684 15.253 M
10.153 15.941 10.942 16.269 QT
11.731 16.597 12.637 16.597 QT
13.809 16.597 14.293 15.612 QT
14.778 14.628 14.778 13.362 QT
14.778 12.8 14.676 12.23 QT
14.575 11.659 14.332 11.175 QT
14.09 10.691 13.661 10.394 QT
13.231 10.097 12.622 10.097 QT
11.293 10.097 L
11.122 10.097 11.122 9.909 QT
11.122 9.737 L
11.122 9.581 11.293 9.581 QT
12.403 9.487 L
13.106 9.487 13.567 8.964 QT
14.028 8.441 14.247 7.683 QT
14.465 6.925 14.465 6.237 QT
14.465 5.284 14.012 4.667 QT
13.559 4.05 12.637 4.05 QT
11.887 4.05 11.192 4.339 QT
10.497 4.628 10.09 5.222 QT
10.122 5.206 10.153 5.198 QT
10.184 5.191 10.215 5.191 QT
10.668 5.191 10.973 5.503 QT
11.278 5.816 11.278 6.269 QT
11.278 6.691 10.973 7.003 QT
10.668 7.316 10.215 7.316 QT
9.778 7.316 9.465 7.003 QT
9.153 6.691 9.153 6.269 QT
9.153 5.409 9.668 4.769 QT
10.184 4.128 11.004 3.8 QT
11.825 3.472 12.637 3.472 QT
13.247 3.472 13.918 3.659 QT
14.59 3.847 15.137 4.183 QT
15.684 4.519 16.036 5.042 QT
16.387 5.566 16.387 6.237 QT
16.387 7.081 16.012 7.792 QT
15.637 8.503 14.981 9.026 QT
14.325 9.55 13.543 9.8 QT
14.403 9.956 15.184 10.448 QT
15.965 10.941 16.442 11.698 QT
16.918 12.456 16.918 13.347 QT
16.918 14.441 16.317 15.339 QT
15.715 16.237 14.723 16.737 QT
13.731 17.237 12.637 17.237 QT
11.7 17.237 10.762 16.878 QT
9.825 16.519 9.223 15.808 QT
8.622 15.097 8.622 14.097 QT
8.622 13.612 8.95 13.276 QT
9.278 12.941 9.778 12.941 QT
10.106 12.941 10.372 13.089 QT
10.637 13.237 10.793 13.511 QT
10.95 13.784 10.95 14.097 QT
10.95 14.597 10.606 14.925 QT
10.262 15.253 9.778 15.253 QT
9.684 15.253 L
cp
f
GR
GS
[1 0 0 1 242.5 348.5] CT
0.149 GC
N
/f-128888486{-12.778 17.237 M
-15.231 17.237 -16.114 15.222 QT
-16.997 13.206 -16.997 10.425 QT
-16.997 8.691 -16.676 7.151 QT
-16.356 5.612 -15.418 4.542 QT
-14.481 3.472 -12.778 3.472 QT
-11.465 3.472 -10.622 4.12 QT
-9.778 4.769 -9.34 5.792 QT
-8.903 6.816 -8.739 7.98 QT
-8.575 9.144 -8.575 10.425 QT
-8.575 12.144 -8.895 13.644 QT
-9.215 15.144 -10.145 16.191 QT
-11.075 17.237 -12.778 17.237 QT
cp
-12.778 16.722 M
-11.668 16.722 -11.122 15.581 QT
-10.575 14.441 -10.442 13.05 QT
-10.309 11.659 -10.309 10.097 QT
-10.309 8.597 -10.442 7.323 QT
-10.575 6.05 -11.114 5.026 QT
-11.653 4.003 -12.778 4.003 QT
-13.903 4.003 -14.45 5.034 QT
-14.997 6.066 -15.129 7.331 QT
-15.262 8.597 -15.262 10.097 QT
-15.262 11.206 -15.208 12.198 QT
-15.153 13.191 -14.918 14.237 QT
-14.684 15.284 -14.161 16.003 QT
-13.637 16.722 -12.778 16.722 QT
cp}def
f-128888486
f
GR
GS
[1 0 0 1 242.5 348.5] CT
0.149 GC
N
/f212958882{-6.09 15.691 M
-6.09 15.253 -5.762 14.925 QT
-5.434 14.597 -4.997 14.597 QT
-4.715 14.597 -4.457 14.745 QT
-4.2 14.894 -4.051 15.159 QT
-3.903 15.425 -3.903 15.691 QT
-3.903 16.128 -4.223 16.464 QT
-4.543 16.8 -4.997 16.8 QT
-5.434 16.8 -5.762 16.464 QT
-6.09 16.128 -6.09 15.691 QT
cp}def
f212958882
f
GR
GS
[1 0 0 1 242.5 348.5] CT
0.149 GC
N
/f1098566265{2.778 17.237 M
0.325 17.237 -0.558 15.222 QT
-1.441 13.206 -1.441 10.425 QT
-1.441 8.691 -1.121 7.151 QT
-0.8 5.612 0.137 4.542 QT
1.075 3.472 2.778 3.472 QT
4.09 3.472 4.934 4.12 QT
5.778 4.769 6.215 5.792 QT
6.653 6.816 6.817 7.98 QT
6.981 9.144 6.981 10.425 QT
6.981 12.144 6.661 13.644 QT
6.34 15.144 5.411 16.191 QT
4.481 17.237 2.778 17.237 QT
cp
2.778 16.722 M
3.887 16.722 4.434 15.581 QT
4.981 14.441 5.114 13.05 QT
5.247 11.659 5.247 10.097 QT
5.247 8.597 5.114 7.323 QT
4.981 6.05 4.442 5.026 QT
3.903 4.003 2.778 4.003 QT
1.653 4.003 1.106 5.034 QT
0.559 6.066 0.426 7.331 QT
0.293 8.597 0.293 10.097 QT
0.293 11.206 0.348 12.198 QT
0.403 13.191 0.637 14.237 QT
0.872 15.284 1.395 16.003 QT
1.918 16.722 2.778 16.722 QT
cp}def
f1098566265
f
GR
GS
[1 0 0 1 242.5 348.5] CT
0.149 GC
N
/f1214885690{12.778 17.237 M
11.543 17.237 10.707 16.581 QT
9.872 15.925 9.418 14.87 QT
8.965 13.816 8.793 12.667 QT
8.622 11.519 8.622 10.331 QT
8.622 8.753 9.239 7.159 QT
9.856 5.566 11.051 4.519 QT
12.247 3.472 13.887 3.472 QT
14.559 3.472 15.153 3.737 QT
15.747 4.003 16.082 4.503 QT
16.418 5.003 16.418 5.722 QT
16.418 6.128 16.145 6.401 QT
15.872 6.675 15.45 6.675 QT
15.059 6.675 14.778 6.394 QT
14.497 6.112 14.497 5.722 QT
14.497 5.331 14.778 5.042 QT
15.059 4.753 15.45 4.753 QT
15.559 4.753 L
15.309 4.394 14.848 4.222 QT
14.387 4.05 13.887 4.05 QT
13.278 4.05 12.762 4.316 QT
12.247 4.581 11.84 5.034 QT
11.434 5.487 11.161 6.026 QT
10.887 6.566 10.731 7.261 QT
10.575 7.956 10.536 8.558 QT
10.497 9.159 10.497 10.081 QT
10.856 9.253 11.497 8.737 QT
12.137 8.222 12.95 8.222 QT
13.84 8.222 14.575 8.581 QT
15.309 8.941 15.832 9.581 QT
16.356 10.222 16.637 11.042 QT
16.918 11.862 16.918 12.691 QT
16.918 13.862 16.395 14.925 QT
15.872 15.987 14.926 16.612 QT
13.981 17.237 12.778 17.237 QT
cp
12.778 16.597 M
13.543 16.597 14.012 16.245 QT
14.481 15.894 14.707 15.316 QT
14.934 14.737 14.981 14.144 QT
15.028 13.55 15.028 12.691 QT
15.028 11.566 14.926 10.761 QT
14.825 9.956 14.34 9.347 QT
13.856 8.737 12.872 8.737 QT
12.059 8.737 11.543 9.284 QT
11.028 9.831 10.786 10.667 QT
10.543 11.503 10.543 12.284 QT
10.543 12.534 10.559 12.675 QT
10.559 12.706 10.559 12.73 QT
10.559 12.753 10.543 12.769 QT
10.543 13.628 10.715 14.511 QT
10.887 15.394 11.387 15.995 QT
11.887 16.597 12.778 16.597 QT
cp}def
f1214885690
f
GR
GS
[1 0 0 1 188.00005 373.5] CT
0.149 GC
N
/f-1956899501{-1.897 18.73 M
-3.288 18.73 -4.085 17.683 QT
-4.882 16.636 -4.882 15.199 QT
-4.882 13.792 -4.155 12.277 QT
-3.428 10.761 -2.186 9.761 QT
-0.944 8.761 0.478 8.761 QT
1.134 8.761 1.65 9.121 QT
2.165 9.48 2.462 10.074 QT
3.697 5.167 L
3.775 4.792 3.806 4.574 QT
3.806 4.23 2.368 4.23 QT
2.15 4.23 2.15 3.933 QT
2.165 3.886 2.197 3.746 QT
2.228 3.605 2.29 3.527 QT
2.353 3.449 2.462 3.449 QT
5.431 3.214 L
5.697 3.214 5.697 3.496 QT
2.525 16.152 L
2.368 16.511 2.368 17.199 QT
2.368 18.152 3.009 18.152 QT
3.697 18.152 4.056 17.277 QT
4.415 16.402 4.665 15.246 QT
4.712 15.121 4.837 15.121 QT
5.103 15.121 L
5.197 15.121 5.243 15.191 QT
5.29 15.261 5.29 15.339 QT
4.915 16.871 4.454 17.8 QT
3.993 18.73 2.962 18.73 QT
2.228 18.73 1.657 18.292 QT
1.087 17.855 0.947 17.136 QT
-0.475 18.73 -1.897 18.73 QT
cp
-1.882 18.152 M
-1.085 18.152 -0.335 17.55 QT
0.415 16.949 0.947 16.152 QT
0.962 16.121 0.962 16.058 QT
2.165 11.214 L
2.04 10.449 1.603 9.886 QT
1.165 9.324 0.431 9.324 QT
-0.303 9.324 -0.944 9.933 QT
-1.585 10.542 -2.022 11.371 QT
-2.46 12.246 -2.85 13.785 QT
-3.241 15.324 -3.241 16.167 QT
-3.241 16.933 -2.913 17.542 QT
-2.585 18.152 -1.882 18.152 QT
cp}def
f-1956899501
f
GR
GS
0.149 GC
2 setlinecap
1 LJ
0.5 LW
N
133.5 342.5 M
133.5 30 L
S
GR
GS
0.149 GC
2 setlinecap
1 LJ
0.5 LW
N
242.5 342.5 M
242.5 30 L
S
GR
GS
0.149 GC
2 setlinecap
1 LJ
0.5 LW
N
133.5 342.5 M
136.625 342.5 L
S
GR
GS
0.149 GC
2 setlinecap
1 LJ
0.5 LW
N
133.5 264.375 M
136.625 264.375 L
S
GR
GS
0.149 GC
2 setlinecap
1 LJ
0.5 LW
N
133.5 186.25 M
136.625 186.25 L
S
GR
GS
0.149 GC
2 setlinecap
1 LJ
0.5 LW
N
133.5 108.125 M
136.625 108.125 L
S
GR
GS
0.149 GC
2 setlinecap
1 LJ
0.5 LW
N
133.5 30 M
136.625 30 L
S
GR
GS
0.149 GC
2 setlinecap
1 LJ
0.5 LW
N
242.5 342.5 M
239.375 342.5 L
S
GR
GS
0.149 GC
2 setlinecap
1 LJ
0.5 LW
N
242.5 264.375 M
239.375 264.375 L
S
GR
GS
0.149 GC
2 setlinecap
1 LJ
0.5 LW
N
242.5 186.25 M
239.375 186.25 L
S
GR
GS
0.149 GC
2 setlinecap
1 LJ
0.5 LW
N
242.5 108.125 M
239.375 108.125 L
S
GR
GS
0.149 GC
2 setlinecap
1 LJ
0.5 LW
N
242.5 30 M
239.375 30 L
S
GR
GS
[1 0 0 1 127.5 342.5] CT
0.149 GC
N
/f-259944110{-5 5.237 M
-7.453 5.237 -8.336 3.222 QT
-9.219 1.206 -9.219 -1.575 QT
-9.219 -3.309 -8.898 -4.849 QT
-8.578 -6.388 -7.641 -7.458 QT
-6.703 -8.528 -5 -8.528 QT
-3.688 -8.528 -2.844 -7.88 QT
-2 -7.231 -1.563 -6.208 QT
-1.125 -5.184 -0.961 -4.02 QT
-0.797 -2.856 -0.797 -1.575 QT
-0.797 0.144 -1.117 1.644 QT
-1.438 3.144 -2.367 4.191 QT
-3.297 5.237 -5 5.237 QT
cp
-5 4.722 M
-3.891 4.722 -3.344 3.581 QT
-2.797 2.441 -2.664 1.05 QT
-2.531 -0.341 -2.531 -1.903 QT
-2.531 -3.403 -2.664 -4.677 QT
-2.797 -5.95 -3.336 -6.974 QT
-3.875 -7.997 -5 -7.997 QT
-6.125 -7.997 -6.672 -6.966 QT
-7.219 -5.934 -7.352 -4.669 QT
-7.484 -3.403 -7.484 -1.903 QT
-7.484 -0.794 -7.43 0.198 QT
-7.375 1.191 -7.141 2.237 QT
-6.906 3.284 -6.383 4.003 QT
-5.859 4.722 -5 4.722 QT
cp}def
f-259944110
f
GR
GS
[1 0 0 1 127.5 264.375] CT
0.149 GC
N
/f-1848249440{-19.438 1.503 M
-19.438 0.8 L
-13.266 -8.419 L
-13.188 -8.528 -13.063 -8.528 QT
-12.766 -8.528 L
-12.531 -8.528 -12.531 -8.294 QT
-12.531 0.8 L
-10.578 0.8 L
-10.578 1.503 L
-12.531 1.503 L
-12.531 3.456 L
-12.531 3.878 -11.945 3.987 QT
-11.359 4.097 -10.594 4.097 QT
-10.594 4.8 L
-16.109 4.8 L
-16.109 4.097 L
-15.328 4.097 -14.742 3.987 QT
-14.156 3.878 -14.156 3.456 QT
-14.156 1.503 L
-19.438 1.503 L
cp
-18.781 0.8 M
-14.047 0.8 L
-14.047 -6.278 L
-18.781 0.8 L
cp}def
f-1848249440
f
GR
GS
[1 0 0 1 127.5 264.375] CT
0.149 GC
N
f-259944110
f
GR
GS
[1 0 0 1 127.5 186.25] CT
0.149 GC
N
/f-1298802398{-19.156 1.769 M
-19.156 0.566 -18.367 -0.356 QT
-17.578 -1.278 -16.344 -1.903 QT
-17.078 -2.372 L
-17.766 -2.825 -18.195 -3.575 QT
-18.625 -4.325 -18.625 -5.138 QT
-18.625 -6.106 -18.117 -6.872 QT
-17.609 -7.638 -16.781 -8.083 QT
-15.953 -8.528 -15 -8.528 QT
-14.109 -8.528 -13.281 -8.161 QT
-12.453 -7.794 -11.922 -7.122 QT
-11.391 -6.45 -11.391 -5.528 QT
-11.391 -4.856 -11.711 -4.278 QT
-12.031 -3.7 -12.586 -3.239 QT
-13.141 -2.778 -13.766 -2.45 QT
-12.609 -1.731 L
-11.828 -1.2 -11.344 -0.364 QT
-10.859 0.472 -10.859 1.394 QT
-10.859 2.487 -11.438 3.378 QT
-12.016 4.269 -12.977 4.753 QT
-13.938 5.237 -15 5.237 QT
-16.031 5.237 -16.992 4.816 QT
-17.953 4.394 -18.555 3.597 QT
-19.156 2.8 -19.156 1.769 QT
cp
-18.078 1.769 M
-18.078 2.55 -17.641 3.206 QT
-17.203 3.862 -16.492 4.23 QT
-15.781 4.597 -15 4.597 QT
-13.844 4.597 -12.891 3.925 QT
-11.938 3.253 -11.938 2.128 QT
-11.938 1.737 -12.094 1.362 QT
-12.25 0.987 -12.516 0.683 QT
-12.781 0.378 -13.109 0.175 QT
-15.797 -1.559 L
-16.422 -1.231 -16.945 -0.724 QT
-17.469 -0.216 -17.773 0.425 QT
-18.078 1.066 -18.078 1.769 QT
cp
-16.703 -4.341 M
-14.281 -2.778 L
-13.438 -3.263 -12.898 -3.958 QT
-12.359 -4.653 -12.359 -5.528 QT
-12.359 -6.2 -12.734 -6.763 QT
-13.109 -7.325 -13.719 -7.638 QT
-14.328 -7.95 -15.016 -7.95 QT
-15.625 -7.95 -16.242 -7.716 QT
-16.859 -7.481 -17.258 -7.013 QT
-17.656 -6.544 -17.656 -5.919 QT
-17.656 -4.981 -16.703 -4.341 QT
cp}def
f-1298802398
f
GR
GS
[1 0 0 1 127.5 186.25] CT
0.149 GC
N
f-259944110
f
GR
GS
[1 0 0 1 127.5 108.125] CT
0.149 GC
N
/f-1591485684{-28.141 4.8 M
-28.141 4.097 L
-25.641 4.097 -25.641 3.456 QT
-25.641 -7.044 L
-26.672 -6.544 -28.266 -6.544 QT
-28.266 -7.247 L
-25.813 -7.247 -24.563 -8.528 QT
-24.281 -8.528 L
-24.203 -8.528 -24.141 -8.474 QT
-24.078 -8.419 -24.078 -8.341 QT
-24.078 3.456 L
-24.078 4.097 -21.578 4.097 QT
-21.578 4.8 L
-28.141 4.8 L
cp}def
f-1591485684
f
GR
GS
[1 0 0 1 127.5 108.125] CT
0.149 GC
N
/f-1760610010{-19 4.8 M
-19 4.269 L
-19 4.206 -18.969 4.159 QT
-15.859 0.722 L
-15.156 -0.044 -14.719 -0.559 QT
-14.281 -1.075 -13.852 -1.755 QT
-13.422 -2.434 -13.172 -3.13 QT
-12.922 -3.825 -12.922 -4.606 QT
-12.922 -5.419 -13.227 -6.169 QT
-13.531 -6.919 -14.125 -7.372 QT
-14.719 -7.825 -15.578 -7.825 QT
-16.438 -7.825 -17.133 -7.302 QT
-17.828 -6.778 -18.109 -5.95 QT
-18.031 -5.966 -17.906 -5.966 QT
-17.453 -5.966 -17.133 -5.661 QT
-16.813 -5.356 -16.813 -4.872 QT
-16.813 -4.419 -17.133 -4.099 QT
-17.453 -3.778 -17.906 -3.778 QT
-18.375 -3.778 -18.688 -4.106 QT
-19 -4.434 -19 -4.872 QT
-19 -5.638 -18.719 -6.294 QT
-18.438 -6.95 -17.906 -7.466 QT
-17.375 -7.981 -16.703 -8.255 QT
-16.031 -8.528 -15.281 -8.528 QT
-14.141 -8.528 -13.156 -8.044 QT
-12.172 -7.559 -11.594 -6.677 QT
-11.016 -5.794 -11.016 -4.606 QT
-11.016 -3.731 -11.398 -2.95 QT
-11.781 -2.169 -12.375 -1.528 QT
-12.969 -0.888 -13.898 -0.083 QT
-14.828 0.722 -15.109 1.003 QT
-17.375 3.175 L
-15.453 3.175 L
-14.047 3.175 -13.094 3.151 QT
-12.141 3.128 -12.078 3.081 QT
-11.844 2.831 -11.594 1.237 QT
-11.016 1.237 L
-11.578 4.8 L
-19 4.8 L
cp}def
f-1760610010
f
GR
GS
[1 0 0 1 127.5 108.125] CT
0.149 GC
N
f-259944110
f
GR
GS
[1 0 0 1 127.5 30] CT
0.149 GC
N
f-1591485684
f
GR
GS
[1 0 0 1 127.5 30] CT
0.149 GC
N
/f966182336{-15 5.237 M
-16.234 5.237 -17.07 4.581 QT
-17.906 3.925 -18.359 2.87 QT
-18.813 1.816 -18.984 0.667 QT
-19.156 -0.481 -19.156 -1.669 QT
-19.156 -3.247 -18.539 -4.841 QT
-17.922 -6.434 -16.727 -7.481 QT
-15.531 -8.528 -13.891 -8.528 QT
-13.219 -8.528 -12.625 -8.263 QT
-12.031 -7.997 -11.695 -7.497 QT
-11.359 -6.997 -11.359 -6.278 QT
-11.359 -5.872 -11.633 -5.599 QT
-11.906 -5.325 -12.328 -5.325 QT
-12.719 -5.325 -13 -5.606 QT
-13.281 -5.888 -13.281 -6.278 QT
-13.281 -6.669 -13 -6.958 QT
-12.719 -7.247 -12.328 -7.247 QT
-12.219 -7.247 L
-12.469 -7.606 -12.93 -7.778 QT
-13.391 -7.95 -13.891 -7.95 QT
-14.5 -7.95 -15.016 -7.684 QT
-15.531 -7.419 -15.938 -6.966 QT
-16.344 -6.513 -16.617 -5.974 QT
-16.891 -5.434 -17.047 -4.739 QT
-17.203 -4.044 -17.242 -3.442 QT
-17.281 -2.841 -17.281 -1.919 QT
-16.922 -2.747 -16.281 -3.263 QT
-15.641 -3.778 -14.828 -3.778 QT
-13.938 -3.778 -13.203 -3.419 QT
-12.469 -3.059 -11.945 -2.419 QT
-11.422 -1.778 -11.141 -0.958 QT
-10.859 -0.138 -10.859 0.691 QT
-10.859 1.862 -11.383 2.925 QT
-11.906 3.987 -12.852 4.612 QT
-13.797 5.237 -15 5.237 QT
cp
-15 4.597 M
-14.234 4.597 -13.766 4.245 QT
-13.297 3.894 -13.07 3.316 QT
-12.844 2.737 -12.797 2.144 QT
-12.75 1.55 -12.75 0.691 QT
-12.75 -0.434 -12.852 -1.239 QT
-12.953 -2.044 -13.438 -2.653 QT
-13.922 -3.263 -14.906 -3.263 QT
-15.719 -3.263 -16.234 -2.716 QT
-16.75 -2.169 -16.992 -1.333 QT
-17.234 -0.497 -17.234 0.284 QT
-17.234 0.534 -17.219 0.675 QT
-17.219 0.706 -17.219 0.73 QT
-17.219 0.753 -17.234 0.769 QT
-17.234 1.628 -17.063 2.511 QT
-16.891 3.394 -16.391 3.995 QT
-15.891 4.597 -15 4.597 QT
cp}def
f966182336
f
GR
GS
[1 0 0 1 127.5 30] CT
0.149 GC
N
f-259944110
f
GR
GS
1 GC
N
296.5 342.5 M
405.5 342.5 L
405.5 30 L
296.5 30 L
cp
f
GR
GS
1 GC
N
306.388 342.5 M
306.388 280 L
296.5 280 L
296.5 342.5 L
cp
316.277 342.5 M
316.277 264.375 L
306.388 264.375 L
306.388 342.5 L
cp
326.165 342.5 M
326.165 240.938 L
316.277 240.938 L
316.277 342.5 L
cp
336.053 342.5 M
336.053 170.625 L
326.165 170.625 L
326.165 342.5 L
cp
345.941 178.438 M
336.053 178.438 L
336.053 342.5 L
345.941 342.5 L
355.83 342.5 L
355.83 178.438 L
cp
365.718 342.5 M
365.718 117.891 L
355.83 117.891 L
355.83 342.5 L
cp
375.606 342.5 M
375.606 156.953 L
365.718 156.953 L
365.718 342.5 L
cp
385.495 342.5 M
385.495 235.078 L
375.606 235.078 L
375.606 342.5 L
cp
395.383 342.5 M
395.383 278.047 L
385.495 278.047 L
385.495 342.5 L
cp
405.271 342.5 M
405.271 301.484 L
395.383 301.484 L
395.383 342.5 L
cp
f
GR
GS
2 setlinecap
10.0 ML
0.5 LW
N
296.5 342.5 M
296.5 280 L
306.388 280 L
S
GR
GS
2 setlinecap
10.0 ML
0.5 LW
N
306.388 342.5 M
306.388 342.5 L
306.388 264.375 L
316.277 264.375 L
S
GR
GS
2 setlinecap
10.0 ML
0.5 LW
N
316.277 342.5 M
316.277 342.5 L
316.277 240.938 L
326.165 240.938 L
S
GR
GS
2 setlinecap
10.0 ML
0.5 LW
N
326.165 342.5 M
326.165 342.5 L
326.165 170.625 L
336.053 170.625 L
336.053 342.5 L
336.053 342.5 L
S
GR
GS
2 setlinecap
10.0 ML
0.5 LW
N
336.053 178.438 M
345.941 178.438 L
345.941 342.5 L
345.941 342.5 L
S
GR
GS
2 setlinecap
10.0 ML
0.5 LW
N
345.941 178.438 M
355.83 178.438 L
S
GR
GS
2 setlinecap
10.0 ML
0.5 LW
N
355.83 342.5 M
355.83 342.5 L
355.83 117.891 L
365.718 117.891 L
365.718 342.5 L
365.718 342.5 L
S
GR
GS
2 setlinecap
10.0 ML
0.5 LW
N
365.718 156.953 M
375.606 156.953 L
375.606 342.5 L
375.606 342.5 L
S
GR
GS
2 setlinecap
10.0 ML
0.5 LW
N
375.606 235.078 M
385.495 235.078 L
385.495 342.5 L
385.495 342.5 L
S
GR
GS
2 setlinecap
10.0 ML
0.5 LW
N
385.495 278.047 M
395.383 278.047 L
395.383 342.5 L
395.383 342.5 L
S
GR
GS
2 setlinecap
10.0 ML
0.5 LW
N
395.383 301.484 M
405.271 301.484 L
405.271 342.5 L
S
GR
GS
0.149 GC
2 setlinecap
1 LJ
0.5 LW
N
296.5 342.5 M
405.5 342.5 L
S
GR
GS
0.149 GC
2 setlinecap
1 LJ
0.5 LW
N
296.5 30 M
405.5 30 L
S
GR
GS
0.149 GC
2 setlinecap
1 LJ
0.5 LW
N
296.5 342.5 M
296.5 339.375 L
S
GR
GS
0.149 GC
2 setlinecap
1 LJ
0.5 LW
N
351 342.5 M
351 339.375 L
S
GR
GS
0.149 GC
2 setlinecap
1 LJ
0.5 LW
N
405.5 342.5 M
405.5 339.375 L
S
GR
GS
0.149 GC
2 setlinecap
1 LJ
0.5 LW
N
296.5 30 M
296.5 33.125 L
S
GR
GS
0.149 GC
2 setlinecap
1 LJ
0.5 LW
N
351 30 M
351 33.125 L
S
GR
GS
0.149 GC
2 setlinecap
1 LJ
0.5 LW
N
405.5 30 M
405.5 33.125 L
S
GR
GS
[1 0 0 1 296.5 348.5] CT
0.149 GC
N
/f1536617579{0 17.237 M
-2.453 17.237 -3.336 15.222 QT
-4.219 13.206 -4.219 10.425 QT
-4.219 8.691 -3.898 7.151 QT
-3.578 5.612 -2.641 4.542 QT
-1.703 3.472 0 3.472 QT
1.313 3.472 2.156 4.12 QT
3 4.769 3.438 5.792 QT
3.875 6.816 4.039 7.98 QT
4.203 9.144 4.203 10.425 QT
4.203 12.144 3.883 13.644 QT
3.563 15.144 2.633 16.191 QT
1.703 17.237 0 17.237 QT
cp
0 16.722 M
1.109 16.722 1.656 15.581 QT
2.203 14.441 2.336 13.05 QT
2.469 11.659 2.469 10.097 QT
2.469 8.597 2.336 7.323 QT
2.203 6.05 1.664 5.026 QT
1.125 4.003 0 4.003 QT
-1.125 4.003 -1.672 5.034 QT
-2.219 6.066 -2.352 7.331 QT
-2.484 8.597 -2.484 10.097 QT
-2.484 11.206 -2.43 12.198 QT
-2.375 13.191 -2.141 14.237 QT
-1.906 15.284 -1.383 16.003 QT
-0.859 16.722 0 16.722 QT
cp}def
f1536617579
f
GR
GS
[1 0 0 1 351 348.5] CT
0.149 GC
N
/f1417885159{-4.043 16.456 M
-4.043 16.347 -3.965 16.128 QT
-3.403 14.972 -2.918 13.855 QT
-2.434 12.737 -2.051 11.675 QT
-1.668 10.612 -1.34 9.409 QT
-2.622 9.409 L
-3.356 9.409 -3.989 9.87 QT
-4.622 10.331 -5.043 11.034 QT
-5.075 11.112 -5.153 11.112 QT
-5.387 11.112 L
-5.575 11.112 -5.575 10.925 QT
-5.575 10.878 -5.543 10.8 QT
-4.887 9.691 -4.137 8.933 QT
-3.387 8.175 -2.45 8.175 QT
4.8 8.175 L
5.003 8.175 5.152 8.316 QT
5.3 8.456 5.3 8.691 QT
5.3 8.972 5.089 9.191 QT
4.878 9.409 4.582 9.409 QT
2.035 9.409 L
1.722 10.987 1.691 12.487 QT
1.691 14.409 2.363 15.956 QT
2.425 16.081 2.425 16.206 QT
2.425 16.425 2.293 16.605 QT
2.16 16.784 1.964 16.901 QT
1.769 17.019 1.535 17.019 QT
1.019 17.019 0.824 16.159 QT
0.628 15.3 0.628 14.487 QT
0.628 13.347 0.824 12.292 QT
1.019 11.237 1.441 9.409 QT
-0.731 9.409 L
-2.325 15.816 -2.637 16.472 QT
-2.918 17.019 -3.418 17.019 QT
-3.668 17.019 -3.856 16.862 QT
-4.043 16.706 -4.043 16.456 QT
cp}def
f1417885159
f
GR
GS
[1 0 0 1 405.5 348.5] CT
0.149 GC
N
/f-493528225{-10.059 16.8 M
-10.059 16.269 L
-10.059 16.206 -10.028 16.159 QT
-6.918 12.722 L
-6.215 11.956 -5.778 11.441 QT
-5.34 10.925 -4.911 10.245 QT
-4.481 9.566 -4.231 8.87 QT
-3.981 8.175 -3.981 7.394 QT
-3.981 6.581 -4.286 5.831 QT
-4.59 5.081 -5.184 4.628 QT
-5.778 4.175 -6.637 4.175 QT
-7.497 4.175 -8.192 4.698 QT
-8.887 5.222 -9.168 6.05 QT
-9.09 6.034 -8.965 6.034 QT
-8.512 6.034 -8.192 6.339 QT
-7.872 6.644 -7.872 7.128 QT
-7.872 7.581 -8.192 7.901 QT
-8.512 8.222 -8.965 8.222 QT
-9.434 8.222 -9.747 7.894 QT
-10.059 7.566 -10.059 7.128 QT
-10.059 6.362 -9.778 5.706 QT
-9.497 5.05 -8.965 4.534 QT
-8.434 4.019 -7.762 3.745 QT
-7.09 3.472 -6.34 3.472 QT
-5.2 3.472 -4.215 3.956 QT
-3.231 4.441 -2.653 5.323 QT
-2.075 6.206 -2.075 7.394 QT
-2.075 8.269 -2.457 9.05 QT
-2.84 9.831 -3.434 10.472 QT
-4.028 11.112 -4.957 11.917 QT
-5.887 12.722 -6.168 13.003 QT
-8.434 15.175 L
-6.512 15.175 L
-5.106 15.175 -4.153 15.151 QT
-3.2 15.128 -3.137 15.081 QT
-2.903 14.831 -2.653 13.237 QT
-2.075 13.237 L
-2.637 16.8 L
-10.059 16.8 L
cp}def
f-493528225
f
GR
GS
[1 0 0 1 405.5 348.5] CT
0.149 GC
N
/f1935953803{0.957 16.456 M
0.957 16.347 1.035 16.128 QT
1.597 14.972 2.082 13.855 QT
2.566 12.737 2.949 11.675 QT
3.332 10.612 3.66 9.409 QT
2.378 9.409 L
1.644 9.409 1.011 9.87 QT
0.378 10.331 -0.043 11.034 QT
-0.075 11.112 -0.153 11.112 QT
-0.387 11.112 L
-0.575 11.112 -0.575 10.925 QT
-0.575 10.878 -0.543 10.8 QT
0.113 9.691 0.863 8.933 QT
1.613 8.175 2.55 8.175 QT
9.8 8.175 L
10.003 8.175 10.152 8.316 QT
10.3 8.456 10.3 8.691 QT
10.3 8.972 10.089 9.191 QT
9.878 9.409 9.582 9.409 QT
7.035 9.409 L
6.722 10.987 6.691 12.487 QT
6.691 14.409 7.363 15.956 QT
7.425 16.081 7.425 16.206 QT
7.425 16.425 7.293 16.605 QT
7.16 16.784 6.964 16.901 QT
6.769 17.019 6.535 17.019 QT
6.019 17.019 5.824 16.159 QT
5.628 15.3 5.628 14.487 QT
5.628 13.347 5.824 12.292 QT
6.019 11.237 6.441 9.409 QT
4.269 9.409 L
2.675 15.816 2.363 16.472 QT
2.082 17.019 1.582 17.019 QT
1.332 17.019 1.144 16.862 QT
0.957 16.706 0.957 16.456 QT
cp}def
f1935953803
f
GR
GS
[1 0 0 1 351.00006 373.5] CT
0.149 GC
N
/f-1548364440{-2.289 22.761 M
-1.304 18.792 L
-2.414 18.792 -3.382 18.269 QT
-4.351 17.746 -4.937 16.816 QT
-5.523 15.886 -5.523 14.777 QT
-5.523 13.589 -4.929 12.503 QT
-4.335 11.417 -3.312 10.535 QT
-2.289 9.652 -1.109 9.175 QT
0.071 8.699 1.227 8.699 QT
2.555 3.339 L
2.602 3.214 2.727 3.214 QT
2.993 3.214 L
3.086 3.214 3.141 3.292 QT
3.196 3.371 3.196 3.433 QT
1.868 8.699 L
2.696 8.699 3.469 8.996 QT
4.243 9.292 4.836 9.839 QT
5.43 10.386 5.766 11.121 QT
6.102 11.855 6.102 12.683 QT
6.102 13.886 5.508 14.972 QT
4.915 16.058 3.915 16.925 QT
2.915 17.792 1.688 18.292 QT
0.461 18.792 -0.664 18.792 QT
-1.664 22.871 L
-1.71 22.996 -1.851 22.996 QT
-2.101 22.996 L
-2.195 22.996 -2.242 22.91 QT
-2.289 22.824 -2.289 22.761 QT
cp
-1.164 18.214 M
1.086 9.261 L
0.524 9.261 -0.085 9.488 QT
-0.695 9.714 -1.242 10.058 QT
-1.789 10.402 -2.226 10.839 QT
-2.757 11.386 -3.171 12.113 QT
-3.585 12.839 -3.789 13.652 QT
-3.992 14.464 -3.992 15.246 QT
-3.992 16.074 -3.64 16.753 QT
-3.289 17.433 -2.64 17.824 QT
-1.992 18.214 -1.164 18.214 QT
cp
-0.507 18.214 M
0.321 18.214 1.258 17.738 QT
2.196 17.261 2.79 16.636 QT
3.618 15.808 4.094 14.628 QT
4.571 13.449 4.571 12.23 QT
4.571 11.417 4.219 10.73 QT
3.868 10.042 3.219 9.652 QT
2.571 9.261 1.743 9.261 QT
-0.507 18.214 L
cp}def
f-1548364440
f
GR
GS
0.149 GC
2 setlinecap
1 LJ
0.5 LW
N
296.5 342.5 M
296.5 30 L
S
GR
GS
0.149 GC
2 setlinecap
1 LJ
0.5 LW
N
405.5 342.5 M
405.5 30 L
S
GR
GS
0.149 GC
2 setlinecap
1 LJ
0.5 LW
N
296.5 342.5 M
299.625 342.5 L
S
GR
GS
0.149 GC
2 setlinecap
1 LJ
0.5 LW
N
296.5 264.375 M
299.625 264.375 L
S
GR
GS
0.149 GC
2 setlinecap
1 LJ
0.5 LW
N
296.5 186.25 M
299.625 186.25 L
S
GR
GS
0.149 GC
2 setlinecap
1 LJ
0.5 LW
N
296.5 108.125 M
299.625 108.125 L
S
GR
GS
0.149 GC
2 setlinecap
1 LJ
0.5 LW
N
296.5 30 M
299.625 30 L
S
GR
GS
0.149 GC
2 setlinecap
1 LJ
0.5 LW
N
405.5 342.5 M
402.375 342.5 L
S
GR
GS
0.149 GC
2 setlinecap
1 LJ
0.5 LW
N
405.5 264.375 M
402.375 264.375 L
S
GR
GS
0.149 GC
2 setlinecap
1 LJ
0.5 LW
N
405.5 186.25 M
402.375 186.25 L
S
GR
GS
0.149 GC
2 setlinecap
1 LJ
0.5 LW
N
405.5 108.125 M
402.375 108.125 L
S
GR
GS
0.149 GC
2 setlinecap
1 LJ
0.5 LW
N
405.5 30 M
402.375 30 L
S
GR
GS
[1 0 0 1 290.5 342.5] CT
0.149 GC
N
f-259944110
f
GR
GS
[1 0 0 1 290.5 264.375] CT
0.149 GC
N
f-1848249440
f
GR
GS
[1 0 0 1 290.5 264.375] CT
0.149 GC
N
f-259944110
f
GR
GS
[1 0 0 1 290.5 186.25] CT
0.149 GC
N
f-1298802398
f
GR
GS
[1 0 0 1 290.5 186.25] CT
0.149 GC
N
f-259944110
f
GR
GS
[1 0 0 1 290.5 108.125] CT
0.149 GC
N
f-1591485684
f
GR
GS
[1 0 0 1 290.5 108.125] CT
0.149 GC
N
f-1760610010
f
GR
GS
[1 0 0 1 290.5 108.125] CT
0.149 GC
N
f-259944110
f
GR
GS
[1 0 0 1 290.5 30] CT
0.149 GC
N
f-1591485684
f
GR
GS
[1 0 0 1 290.5 30] CT
0.149 GC
N
f966182336
f
GR
GS
[1 0 0 1 290.5 30] CT
0.149 GC
N
f-259944110
f
GR
GS
1 GC
N
459 342.5 M
568 342.5 L
568 30 L
459 30 L
cp
f
GR
GS
1 GC
N
463.365 342.5 M
463.365 330.781 L
459 330.781 L
459 342.5 L
cp
473.947 342.5 M
473.947 262.422 L
463.365 262.422 L
463.365 342.5 L
cp
484.529 342.5 M
484.529 217.5 L
473.947 217.5 L
473.947 342.5 L
cp
495.111 342.5 M
495.111 166.719 L
484.529 166.719 L
484.529 342.5 L
cp
505.693 342.5 M
505.693 182.344 L
495.111 182.344 L
495.111 342.5 L
cp
516.276 342.5 M
516.276 207.734 L
505.693 207.734 L
505.693 342.5 L
cp
526.858 342.5 M
526.858 170.625 L
516.276 170.625 L
516.276 342.5 L
cp
537.44 342.5 M
537.44 123.75 L
526.858 123.75 L
526.858 342.5 L
cp
548.022 342.5 M
548.022 192.109 L
537.44 192.109 L
537.44 342.5 L
cp
558.604 342.5 M
558.604 242.891 L
548.022 242.891 L
548.022 342.5 L
cp
568 342.5 M
568 305.391 L
558.604 305.391 L
558.604 342.5 L
cp
f
GR
GS
2 setlinecap
10.0 ML
0.5 LW
N
459 342.5 M
459 330.781 L
463.365 330.781 L
S
GR
GS
2 setlinecap
10.0 ML
0.5 LW
N
463.365 342.5 M
463.365 342.5 L
463.365 262.422 L
473.947 262.422 L
S
GR
GS
2 setlinecap
10.0 ML
0.5 LW
N
473.947 342.5 M
473.947 342.5 L
473.947 217.5 L
484.529 217.5 L
S
GR
GS
2 setlinecap
10.0 ML
0.5 LW
N
484.529 342.5 M
484.529 342.5 L
484.529 166.719 L
495.111 166.719 L
495.111 342.5 L
495.111 342.5 L
S
GR
GS
2 setlinecap
10.0 ML
0.5 LW
N
495.111 182.344 M
505.693 182.344 L
505.693 342.5 L
505.693 342.5 L
S
GR
GS
2 setlinecap
10.0 ML
0.5 LW
N
505.693 207.734 M
516.276 207.734 L
S
GR
GS
2 setlinecap
10.0 ML
0.5 LW
N
516.276 342.5 M
516.276 342.5 L
516.276 170.625 L
526.858 170.625 L
S
GR
GS
2 setlinecap
10.0 ML
0.5 LW
N
526.858 342.5 M
526.858 342.5 L
526.858 123.75 L
537.44 123.75 L
537.44 342.5 L
537.44 342.5 L
S
GR
GS
2 setlinecap
10.0 ML
0.5 LW
N
537.44 192.109 M
548.022 192.109 L
548.022 342.5 L
548.022 342.5 L
S
GR
GS
2 setlinecap
10.0 ML
0.5 LW
N
548.022 242.891 M
558.604 242.891 L
558.604 342.5 L
558.604 342.5 L
S
GR
GS
2 setlinecap
10.0 ML
0.5 LW
N
558.604 305.391 M
568 305.391 L
568 342.5 L
S
GR
GS
0.149 GC
2 setlinecap
1 LJ
0.5 LW
N
459 342.5 M
568 342.5 L
S
GR
GS
0.149 GC
2 setlinecap
1 LJ
0.5 LW
N
459 30 M
568 30 L
S
GR
GS
0.149 GC
2 setlinecap
1 LJ
0.5 LW
N
459 342.5 M
459 339.375 L
S
GR
GS
0.149 GC
2 setlinecap
1 LJ
0.5 LW
N
513.5 342.5 M
513.5 339.375 L
S
GR
GS
0.149 GC
2 setlinecap
1 LJ
0.5 LW
N
568 342.5 M
568 339.375 L
S
GR
GS
0.149 GC
2 setlinecap
1 LJ
0.5 LW
N
459 30 M
459 33.125 L
S
GR
GS
0.149 GC
2 setlinecap
1 LJ
0.5 LW
N
513.5 30 M
513.5 33.125 L
S
GR
GS
0.149 GC
2 setlinecap
1 LJ
0.5 LW
N
568 30 M
568 33.125 L
S
GR
GS
[1 0 0 1 459 348.5] CT
0.149 GC
N
/f1538679491{-11.79 12.206 M
-11.962 12.206 -12.071 12.073 QT
-12.181 11.941 -12.181 11.8 QT
-12.181 11.659 -12.071 11.526 QT
-11.962 11.394 -11.79 11.394 QT
-0.321 11.394 L
-0.165 11.394 -0.063 11.526 QT
0.038 11.659 0.038 11.8 QT
0.038 11.941 -0.063 12.073 QT
-0.165 12.206 -0.321 12.206 QT
-11.79 12.206 L
cp}def
f1538679491
f
GR
GS
[1 0 0 1 459 348.5] CT
0.149 GC
N
/f-1358577231{3.734 16.456 M
3.734 16.347 3.813 16.128 QT
4.375 14.972 4.859 13.855 QT
5.344 12.737 5.727 11.675 QT
6.109 10.612 6.438 9.409 QT
5.156 9.409 L
4.422 9.409 3.789 9.87 QT
3.156 10.331 2.734 11.034 QT
2.703 11.112 2.625 11.112 QT
2.391 11.112 L
2.203 11.112 2.203 10.925 QT
2.203 10.878 2.234 10.8 QT
2.891 9.691 3.641 8.933 QT
4.391 8.175 5.328 8.175 QT
12.578 8.175 L
12.781 8.175 12.93 8.316 QT
13.078 8.456 13.078 8.691 QT
13.078 8.972 12.867 9.191 QT
12.656 9.409 12.359 9.409 QT
9.813 9.409 L
9.5 10.987 9.469 12.487 QT
9.469 14.409 10.141 15.956 QT
10.203 16.081 10.203 16.206 QT
10.203 16.425 10.07 16.605 QT
9.938 16.784 9.742 16.901 QT
9.547 17.019 9.313 17.019 QT
8.797 17.019 8.602 16.159 QT
8.406 15.3 8.406 14.487 QT
8.406 13.347 8.602 12.292 QT
8.797 11.237 9.219 9.409 QT
7.047 9.409 L
5.453 15.816 5.141 16.472 QT
4.859 17.019 4.359 17.019 QT
4.109 17.019 3.922 16.862 QT
3.734 16.706 3.734 16.456 QT
cp}def
f-1358577231
f
GR
GS
[1 0 0 1 513.5 348.5] CT
0.149 GC
N
f1536617579
f
GR
GS
[1 0 0 1 568 348.5] CT
0.149 GC
N
f1417885159
f
GR
GS
[1 0 0 1 513.50006 373.5] CT
0.149 GC
N
/f-595979574{-1.923 18.73 M
-2.923 18.73 -3.524 17.996 QT
-4.126 17.261 -4.36 16.23 QT
-4.594 15.199 -4.594 14.199 QT
-4.594 14.167 L
-4.594 13.074 -4.384 11.894 QT
-4.173 10.714 -3.774 9.535 QT
-3.376 8.355 -2.907 7.433 QT
-2.594 6.792 -2.079 5.996 QT
-1.563 5.199 -0.938 4.511 QT
-0.313 3.824 0.413 3.394 QT
1.14 2.964 1.874 2.964 QT
1.906 2.964 L
2.702 2.964 3.234 3.41 QT
3.765 3.855 4.054 4.542 QT
4.343 5.23 4.468 6.011 QT
4.593 6.792 4.593 7.496 QT
4.593 9.167 4.14 10.902 QT
3.687 12.636 2.89 14.261 QT
2.593 14.871 2.062 15.699 QT
1.531 16.527 0.929 17.183 QT
0.327 17.839 -0.415 18.285 QT
-1.157 18.73 -1.907 18.73 QT
-1.923 18.73 L
cp
-1.876 18.152 M
-1.157 18.152 -0.485 17.371 QT
0.187 16.589 0.695 15.48 QT
1.202 14.371 1.585 13.199 QT
1.968 12.027 2.14 11.214 QT
-2.344 11.214 L
-2.688 12.605 -2.884 13.605 QT
-3.079 14.605 -3.079 15.574 QT
-3.079 18.152 -1.876 18.152 QT
cp
-2.173 10.449 M
2.343 10.449 L
2.577 9.48 2.718 8.831 QT
2.859 8.183 2.952 7.464 QT
3.046 6.746 3.046 6.121 QT
3.046 3.542 1.874 3.542 QT
0.484 3.542 -0.532 5.792 QT
-1.548 8.042 -2.173 10.449 QT
cp}def
f-595979574
f
GR
GS
0.149 GC
2 setlinecap
1 LJ
0.5 LW
N
459 342.5 M
459 30 L
S
GR
GS
0.149 GC
2 setlinecap
1 LJ
0.5 LW
N
568 342.5 M
568 30 L
S
GR
GS
0.149 GC
2 setlinecap
1 LJ
0.5 LW
N
459 342.5 M
462.125 342.5 L
S
GR
GS
0.149 GC
2 setlinecap
1 LJ
0.5 LW
N
459 264.375 M
462.125 264.375 L
S
GR
GS
0.149 GC
2 setlinecap
1 LJ
0.5 LW
N
459 186.25 M
462.125 186.25 L
S
GR
GS
0.149 GC
2 setlinecap
1 LJ
0.5 LW
N
459 108.125 M
462.125 108.125 L
S
GR
GS
0.149 GC
2 setlinecap
1 LJ
0.5 LW
N
459 30 M
462.125 30 L
S
GR
GS
0.149 GC
2 setlinecap
1 LJ
0.5 LW
N
568 342.5 M
564.875 342.5 L
S
GR
GS
0.149 GC
2 setlinecap
1 LJ
0.5 LW
N
568 264.375 M
564.875 264.375 L
S
GR
GS
0.149 GC
2 setlinecap
1 LJ
0.5 LW
N
568 186.25 M
564.875 186.25 L
S
GR
GS
0.149 GC
2 setlinecap
1 LJ
0.5 LW
N
568 108.125 M
564.875 108.125 L
S
GR
GS
0.149 GC
2 setlinecap
1 LJ
0.5 LW
N
568 30 M
564.875 30 L
S
GR
GS
[1 0 0 1 453 342.5] CT
0.149 GC
N
f-259944110
f
GR
GS
[1 0 0 1 453 264.375] CT
0.149 GC
N
f-1848249440
f
GR
GS
[1 0 0 1 453 264.375] CT
0.149 GC
N
f-259944110
f
GR
GS
[1 0 0 1 453 186.25] CT
0.149 GC
N
f-1298802398
f
GR
GS
[1 0 0 1 453 186.25] CT
0.149 GC
N
f-259944110
f
GR
GS
[1 0 0 1 453 108.125] CT
0.149 GC
N
f-1591485684
f
GR
GS
[1 0 0 1 453 108.125] CT
0.149 GC
N
f-1760610010
f
GR
GS
[1 0 0 1 453 108.125] CT
0.149 GC
N
f-259944110
f
GR
GS
[1 0 0 1 453 30] CT
0.149 GC
N
f-1591485684
f
GR
GS
[1 0 0 1 453 30] CT
0.149 GC
N
f966182336
f
GR
GS
[1 0 0 1 453 30] CT
0.149 GC
N
f-259944110
f
GR
GS
1 GC
N
622 342.5 M
731 342.5 L
731 30 L
622 30 L
cp
f
GR
GS
1 GC
N
626.191 342.5 M
626.191 330.781 L
622 330.781 L
622 342.5 L
cp
636.6 342.5 M
636.6 254.609 L
626.191 254.609 L
626.191 342.5 L
cp
647.009 342.5 M
647.009 90.547 L
636.6 90.547 L
636.6 342.5 L
cp
657.417 342.5 M
657.417 135.469 L
647.009 135.469 L
647.009 342.5 L
cp
667.826 342.5 M
667.826 219.453 L
657.417 219.453 L
657.417 342.5 L
cp
678.235 342.5 M
678.235 287.813 L
667.826 287.813 L
667.826 342.5 L
cp
688.643 342.5 M
688.643 281.953 L
678.235 281.953 L
678.235 342.5 L
cp
699.052 342.5 M
699.052 207.734 L
688.643 207.734 L
688.643 342.5 L
cp
709.461 342.5 M
709.461 110.078 L
699.052 110.078 L
699.052 342.5 L
cp
719.87 342.5 M
719.87 184.297 L
709.461 184.297 L
709.461 342.5 L
cp
730.278 342.5 M
730.278 299.531 L
719.87 299.531 L
719.87 342.5 L
cp
f
GR
GS
2 setlinecap
10.0 ML
0.5 LW
N
622 342.5 M
622 330.781 L
626.191 330.781 L
S
GR
GS
2 setlinecap
10.0 ML
0.5 LW
N
626.191 342.5 M
626.191 342.5 L
626.191 254.609 L
636.6 254.609 L
S
GR
GS
2 setlinecap
10.0 ML
0.5 LW
N
636.6 342.5 M
636.6 342.5 L
636.6 90.547 L
647.009 90.547 L
647.009 342.5 L
647.009 342.5 L
S
GR
GS
2 setlinecap
10.0 ML
0.5 LW
N
647.009 135.469 M
657.417 135.469 L
657.417 342.5 L
657.417 342.5 L
S
GR
GS
2 setlinecap
10.0 ML
0.5 LW
N
657.417 219.453 M
667.826 219.453 L
667.826 342.5 L
667.826 342.5 L
S
GR
GS
2 setlinecap
10.0 ML
0.5 LW
N
667.826 287.813 M
678.235 287.813 L
S
GR
GS
2 setlinecap
10.0 ML
0.5 LW
N
678.235 342.5 M
678.235 342.5 L
678.235 281.953 L
688.643 281.953 L
S
GR
GS
2 setlinecap
10.0 ML
0.5 LW
N
688.643 342.5 M
688.643 342.5 L
688.643 207.734 L
699.052 207.734 L
S
GR
GS
2 setlinecap
10.0 ML
0.5 LW
N
699.052 342.5 M
699.052 342.5 L
699.052 110.078 L
709.461 110.078 L
709.461 342.5 L
709.461 342.5 L
S
GR
GS
2 setlinecap
10.0 ML
0.5 LW
N
709.461 184.297 M
719.87 184.297 L
719.87 342.5 L
719.87 342.5 L
S
GR
GS
2 setlinecap
10.0 ML
0.5 LW
N
719.87 299.531 M
730.278 299.531 L
730.278 342.5 L
S
GR
GS
0.149 GC
2 setlinecap
1 LJ
0.5 LW
N
622 342.5 M
731 342.5 L
S
GR
GS
0.149 GC
2 setlinecap
1 LJ
0.5 LW
N
622 30 M
731 30 L
S
GR
GS
0.149 GC
2 setlinecap
1 LJ
0.5 LW
N
622 342.5 M
622 339.375 L
S
GR
GS
0.149 GC
2 setlinecap
1 LJ
0.5 LW
N
676.5 342.5 M
676.5 339.375 L
S
GR
GS
0.149 GC
2 setlinecap
1 LJ
0.5 LW
N
731 342.5 M
731 339.375 L
S
GR
GS
0.149 GC
2 setlinecap
1 LJ
0.5 LW
N
622 30 M
622 33.125 L
S
GR
GS
0.149 GC
2 setlinecap
1 LJ
0.5 LW
N
676.5 30 M
676.5 33.125 L
S
GR
GS
0.149 GC
2 setlinecap
1 LJ
0.5 LW
N
731 30 M
731 33.125 L
S
GR
GS
[1 0 0 1 622 348.5] CT
0.149 GC
N
f1538679491
f
GR
GS
[1 0 0 1 622 348.5] CT
0.149 GC
N
f-1358577231
f
GR
GS
[1 0 0 1 676.5 348.5] CT
0.149 GC
N
f1536617579
f
GR
GS
[1 0 0 1 731 348.5] CT
0.149 GC
N
f1417885159
f
GR
GS
[1 0 0 1 676.50006 373.5] CT
0.149 GC
N
/f-1897121372{-12.537 18.48 M
-12.709 18.48 -12.709 18.308 QT
-12.709 18.292 -12.701 18.277 QT
-12.693 18.261 -12.693 18.23 QT
-5.115 2.964 L
-5.021 2.73 -4.724 2.73 QT
-4.428 2.73 L
-4.115 2.73 -4.021 2.964 QT
3.557 18.23 L
3.557 18.261 3.565 18.277 QT
3.572 18.292 3.572 18.308 QT
3.572 18.48 3.385 18.48 QT
-12.537 18.48 L
cp
-11.084 16.714 M
0.51 16.714 L
-5.287 5.042 L
-11.084 16.714 L
cp}def
f-1897121372
f
GR
GS
[1 0 0 1 676.50006 373.5] CT
0.149 GC
N
/f912526012{7.218 21.952 M
6.265 21.952 5.726 21.233 QT
5.187 20.514 5.187 19.546 QT
5.187 18.592 5.679 17.553 QT
6.171 16.514 7.023 15.835 QT
7.875 15.155 8.843 15.155 QT
9.281 15.155 9.64 15.397 QT
10 15.639 10.187 16.046 QT
11.031 12.702 L
11.093 12.452 11.109 12.296 QT
11.109 12.061 10.125 12.061 QT
9.984 12.061 9.984 11.858 QT
9.984 11.827 10.007 11.733 QT
10.031 11.639 10.078 11.585 QT
10.125 11.53 10.187 11.53 QT
12.218 11.374 L
12.39 11.374 12.39 11.561 QT
10.234 20.186 L
10.125 20.436 10.125 20.905 QT
10.125 21.546 10.562 21.546 QT
11.031 21.546 11.281 20.952 QT
11.531 20.358 11.687 19.577 QT
11.718 19.483 11.812 19.483 QT
12 19.483 L
12.046 19.483 12.086 19.538 QT
12.125 19.592 12.125 19.639 QT
11.859 20.686 11.546 21.319 QT
11.234 21.952 10.531 21.952 QT
10.031 21.952 9.64 21.655 QT
9.25 21.358 9.156 20.858 QT
8.187 21.952 7.218 21.952 QT
cp
7.234 21.546 M
7.781 21.546 8.289 21.139 QT
8.796 20.733 9.156 20.186 QT
9.171 20.171 9.171 20.139 QT
10 16.827 L
9.906 16.296 9.601 15.921 QT
9.296 15.546 8.812 15.546 QT
8.296 15.546 7.859 15.96 QT
7.421 16.374 7.125 16.936 QT
6.843 17.53 6.57 18.577 QT
6.296 19.624 6.296 20.202 QT
6.296 20.717 6.523 21.131 QT
6.75 21.546 7.234 21.546 QT
cp}def
f912526012
f
GR
GS
0.149 GC
2 setlinecap
1 LJ
0.5 LW
N
622 342.5 M
622 30 L
S
GR
GS
0.149 GC
2 setlinecap
1 LJ
0.5 LW
N
731 342.5 M
731 30 L
S
GR
GS
0.149 GC
2 setlinecap
1 LJ
0.5 LW
N
622 342.5 M
625.125 342.5 L
S
GR
GS
0.149 GC
2 setlinecap
1 LJ
0.5 LW
N
622 264.375 M
625.125 264.375 L
S
GR
GS
0.149 GC
2 setlinecap
1 LJ
0.5 LW
N
622 186.25 M
625.125 186.25 L
S
GR
GS
0.149 GC
2 setlinecap
1 LJ
0.5 LW
N
622 108.125 M
625.125 108.125 L
S
GR
GS
0.149 GC
2 setlinecap
1 LJ
0.5 LW
N
622 30 M
625.125 30 L
S
GR
GS
0.149 GC
2 setlinecap
1 LJ
0.5 LW
N
731 342.5 M
727.875 342.5 L
S
GR
GS
0.149 GC
2 setlinecap
1 LJ
0.5 LW
N
731 264.375 M
727.875 264.375 L
S
GR
GS
0.149 GC
2 setlinecap
1 LJ
0.5 LW
N
731 186.25 M
727.875 186.25 L
S
GR
GS
0.149 GC
2 setlinecap
1 LJ
0.5 LW
N
731 108.125 M
727.875 108.125 L
S
GR
GS
0.149 GC
2 setlinecap
1 LJ
0.5 LW
N
731 30 M
727.875 30 L
S
GR
GS
[1 0 0 1 616 342.5] CT
0.149 GC
N
f-259944110
f
GR
GS
[1 0 0 1 616 264.375] CT
0.149 GC
N
f-1848249440
f
GR
GS
[1 0 0 1 616 264.375] CT
0.149 GC
N
f-259944110
f
GR
GS
[1 0 0 1 616 186.25] CT
0.149 GC
N
f-1298802398
f
GR
GS
[1 0 0 1 616 186.25] CT
0.149 GC
N
f-259944110
f
GR
GS
[1 0 0 1 616 108.125] CT
0.149 GC
N
f-1591485684
f
GR
GS
[1 0 0 1 616 108.125] CT
0.149 GC
N
f-1760610010
f
GR
GS
[1 0 0 1 616 108.125] CT
0.149 GC
N
f-259944110
f
GR
GS
[1 0 0 1 616 30] CT
0.149 GC
N
f-1591485684
f
GR
GS
[1 0 0 1 616 30] CT
0.149 GC
N
f966182336
f
GR
GS
[1 0 0 1 616 30] CT
0.149 GC
N
f-259944110
f
GR
GS
1 GC
N
784.5 342.5 M
893.5 342.5 L
893.5 30 L
784.5 30 L
cp
f
GR
GS
1 GC
N
796.498 342.5 M
796.498 311.25 L
786.956 311.25 L
786.956 342.5 L
cp
806.039 342.5 M
806.039 289.766 L
796.498 289.766 L
796.498 342.5 L
cp
815.58 342.5 M
815.58 213.594 L
806.039 213.594 L
806.039 342.5 L
cp
825.122 342.5 M
825.122 178.438 L
815.58 178.438 L
815.58 342.5 L
cp
834.663 342.5 M
834.663 104.219 L
825.122 104.219 L
825.122 342.5 L
cp
844.204 342.5 M
844.204 82.734 L
834.663 82.734 L
834.663 342.5 L
cp
853.746 342.5 M
853.746 155 L
844.204 155 L
844.204 342.5 L
cp
863.287 342.5 M
863.287 217.5 L
853.746 217.5 L
853.746 342.5 L
cp
872.828 342.5 M
872.828 244.844 L
863.287 244.844 L
863.287 342.5 L
cp
882.37 342.5 M
882.37 281.953 L
872.828 281.953 L
872.828 342.5 L
cp
891.911 342.5 M
891.911 322.969 L
882.37 322.969 L
882.37 342.5 L
cp
f
GR
GS
2 setlinecap
10.0 ML
0.5 LW
N
786.956 342.5 M
786.956 311.25 L
796.498 311.25 L
S
GR
GS
2 setlinecap
10.0 ML
0.5 LW
N
796.498 342.5 M
796.498 342.5 L
796.498 289.766 L
806.039 289.766 L
S
GR
GS
2 setlinecap
10.0 ML
0.5 LW
N
806.039 342.5 M
806.039 342.5 L
806.039 213.594 L
815.58 213.594 L
S
GR
GS
2 setlinecap
10.0 ML
0.5 LW
N
815.58 342.5 M
815.58 342.5 L
815.58 178.438 L
825.122 178.438 L
S
GR
GS
2 setlinecap
10.0 ML
0.5 LW
N
825.122 342.5 M
825.122 342.5 L
825.122 104.219 L
834.663 104.219 L
S
GR
GS
2 setlinecap
10.0 ML
0.5 LW
N
834.663 342.5 M
834.663 342.5 L
834.663 82.734 L
844.204 82.734 L
844.204 342.5 L
844.204 342.5 L
S
GR
GS
2 setlinecap
10.0 ML
0.5 LW
N
844.204 155 M
853.746 155 L
853.746 342.5 L
853.746 342.5 L
S
GR
GS
2 setlinecap
10.0 ML
0.5 LW
N
853.746 217.5 M
863.287 217.5 L
863.287 342.5 L
863.287 342.5 L
S
GR
GS
2 setlinecap
10.0 ML
0.5 LW
N
863.287 244.844 M
872.828 244.844 L
872.828 342.5 L
872.828 342.5 L
S
GR
GS
2 setlinecap
10.0 ML
0.5 LW
N
872.828 281.953 M
882.37 281.953 L
882.37 342.5 L
882.37 342.5 L
S
GR
GS
2 setlinecap
10.0 ML
0.5 LW
N
882.37 322.969 M
891.911 322.969 L
891.911 342.5 L
S
GR
GS
0.149 GC
2 setlinecap
1 LJ
0.5 LW
N
784.5 342.5 M
893.5 342.5 L
S
GR
GS
0.149 GC
2 setlinecap
1 LJ
0.5 LW
N
784.5 30 M
893.5 30 L
S
GR
GS
0.149 GC
2 setlinecap
1 LJ
0.5 LW
N
784.5 342.5 M
784.5 339.375 L
S
GR
GS
0.149 GC
2 setlinecap
1 LJ
0.5 LW
N
839 342.5 M
839 339.375 L
S
GR
GS
0.149 GC
2 setlinecap
1 LJ
0.5 LW
N
893.5 342.5 M
893.5 339.375 L
S
GR
GS
0.149 GC
2 setlinecap
1 LJ
0.5 LW
N
784.5 30 M
784.5 33.125 L
S
GR
GS
0.149 GC
2 setlinecap
1 LJ
0.5 LW
N
839 30 M
839 33.125 L
S
GR
GS
0.149 GC
2 setlinecap
1 LJ
0.5 LW
N
893.5 30 M
893.5 33.125 L
S
GR
GS
[1 0 0 1 784.5 348.5] CT
0.149 GC
N
f1538679491
f
GR
GS
[1 0 0 1 784.5 348.5] CT
0.149 GC
N
f-1358577231
f
GR
GS
[1 0 0 1 839 348.5] CT
0.149 GC
N
f1536617579
f
GR
GS
[1 0 0 1 893.5 348.5] CT
0.149 GC
N
f1417885159
f
GR
GS
[1 0 0 1 839.00006 373.5] CT
0.149 GC
N
/f-101023751{-12.966 18.48 M
-13.137 18.48 -13.137 18.308 QT
-13.137 18.292 -13.13 18.277 QT
-13.122 18.261 -13.122 18.23 QT
-5.544 2.964 L
-5.45 2.73 -5.153 2.73 QT
-4.856 2.73 L
-4.544 2.73 -4.45 2.964 QT
3.128 18.23 L
3.128 18.261 3.136 18.277 QT
3.144 18.292 3.144 18.308 QT
3.144 18.48 2.956 18.48 QT
-12.966 18.48 L
cp
-11.512 16.714 M
0.081 16.714 L
-5.716 5.042 L
-11.512 16.714 L
cp}def
f-101023751
f
GR
GS
[1 0 0 1 839.00006 373.5] CT
0.149 GC
N
/f-525754072{4.977 21.514 M
4.977 21.421 4.993 21.374 QT
7.165 12.702 L
7.227 12.452 7.243 12.296 QT
7.243 12.061 6.274 12.061 QT
6.118 12.061 6.118 11.858 QT
6.118 11.827 6.149 11.733 QT
6.18 11.639 6.219 11.585 QT
6.258 11.53 6.321 11.53 QT
8.352 11.374 L
8.399 11.374 L
8.399 11.389 8.446 11.413 QT
8.493 11.436 8.508 11.452 QT
8.524 11.514 8.524 11.561 QT
7.352 16.249 L
8.29 15.155 9.555 15.155 QT
10.071 15.155 10.462 15.335 QT
10.852 15.514 11.063 15.889 QT
11.274 16.264 11.274 16.764 QT
11.274 17.389 11.001 18.256 QT
10.727 19.124 10.321 20.202 QT
10.102 20.702 10.102 21.108 QT
10.102 21.546 10.446 21.546 QT
11.04 21.546 11.43 20.921 QT
11.821 20.296 11.977 19.577 QT
12.008 19.483 12.102 19.483 QT
12.274 19.483 L
12.337 19.483 12.376 19.522 QT
12.415 19.561 12.415 19.624 QT
12.415 19.639 12.399 19.671 QT
12.274 20.202 12.008 20.725 QT
11.743 21.249 11.352 21.6 QT
10.962 21.952 10.415 21.952 QT
9.899 21.952 9.524 21.585 QT
9.149 21.217 9.149 20.702 QT
9.149 20.421 9.258 20.124 QT
9.696 18.983 9.977 18.1 QT
10.258 17.217 10.258 16.546 QT
10.258 16.108 10.087 15.827 QT
9.915 15.546 9.524 15.546 QT
8.712 15.546 8.11 16.038 QT
7.508 16.53 7.071 17.342 QT
6.055 21.436 L
5.993 21.655 5.829 21.803 QT
5.665 21.952 5.446 21.952 QT
5.243 21.952 5.11 21.819 QT
4.977 21.686 4.977 21.514 QT
cp}def
f-525754072
f
GR
GS
0.149 GC
2 setlinecap
1 LJ
0.5 LW
N
784.5 342.5 M
784.5 30 L
S
GR
GS
0.149 GC
2 setlinecap
1 LJ
0.5 LW
N
893.5 342.5 M
893.5 30 L
S
GR
GS
0.149 GC
2 setlinecap
1 LJ
0.5 LW
N
784.5 342.5 M
787.625 342.5 L
S
GR
GS
0.149 GC
2 setlinecap
1 LJ
0.5 LW
N
784.5 264.375 M
787.625 264.375 L
S
GR
GS
0.149 GC
2 setlinecap
1 LJ
0.5 LW
N
784.5 186.25 M
787.625 186.25 L
S
GR
GS
0.149 GC
2 setlinecap
1 LJ
0.5 LW
N
784.5 108.125 M
787.625 108.125 L
S
GR
GS
0.149 GC
2 setlinecap
1 LJ
0.5 LW
N
784.5 30 M
787.625 30 L
S
GR
GS
0.149 GC
2 setlinecap
1 LJ
0.5 LW
N
893.5 342.5 M
890.375 342.5 L
S
GR
GS
0.149 GC
2 setlinecap
1 LJ
0.5 LW
N
893.5 264.375 M
890.375 264.375 L
S
GR
GS
0.149 GC
2 setlinecap
1 LJ
0.5 LW
N
893.5 186.25 M
890.375 186.25 L
S
GR
GS
0.149 GC
2 setlinecap
1 LJ
0.5 LW
N
893.5 108.125 M
890.375 108.125 L
S
GR
GS
0.149 GC
2 setlinecap
1 LJ
0.5 LW
N
893.5 30 M
890.375 30 L
S
GR
GS
[1 0 0 1 778.5 342.5] CT
0.149 GC
N
f-259944110
f
GR
GS
[1 0 0 1 778.5 264.375] CT
0.149 GC
N
f-1848249440
f
GR
GS
[1 0 0 1 778.5 264.375] CT
0.149 GC
N
f-259944110
f
GR
GS
[1 0 0 1 778.5 186.25] CT
0.149 GC
N
f-1298802398
f
GR
GS
[1 0 0 1 778.5 186.25] CT
0.149 GC
N
f-259944110
f
GR
GS
[1 0 0 1 778.5 108.125] CT
0.149 GC
N
f-1591485684
f
GR
GS
[1 0 0 1 778.5 108.125] CT
0.149 GC
N
f-1760610010
f
GR
GS
[1 0 0 1 778.5 108.125] CT
0.149 GC
N
f-259944110
f
GR
GS
[1 0 0 1 778.5 30] CT
0.149 GC
N
f-1591485684
f
GR
GS
[1 0 0 1 778.5 30] CT
0.149 GC
N
f966182336
f
GR
GS
[1 0 0 1 778.5 30] CT
0.149 GC
N
f-259944110
f
GR
%%Trailer
%%Pages: 1
%%EOF
