%!PS-Adobe-3.0 EPSF-3.0
%%Creator: (MATLAB, The Mathworks, Inc. Version 9.3.0.713579 \(R2017b\). Operating System: Mac OS X)
%%Title: ./output_corr.eps
%%CreationDate: 2018-08-10T15:48:42
%%Pages: (atend)
%%BoundingBox:    81     2   783   212
%%LanguageLevel: 3
%%EndComments
%%BeginProlog
%%BeginResource: procset (Apache XML Graphics Std ProcSet) 1.2 0
%%Version: 1.2 0
%%Copyright: (Copyright 2001-2003,2010 The Apache Software Foundation. License terms: http://www.apache.org/licenses/LICENSE-2.0)
/bd{bind def}bind def
/ld{load def}bd
/GR/grestore ld
/GS/gsave ld
/RM/rmoveto ld
/C/curveto ld
/t/show ld
/L/lineto ld
/ML/setmiterlimit ld
/CT/concat ld
/f/fill ld
/N/newpath ld
/S/stroke ld
/CC/setcmykcolor ld
/A/ashow ld
/cp/closepath ld
/RC/setrgbcolor ld
/LJ/setlinejoin ld
/GC/setgray ld
/LW/setlinewidth ld
/M/moveto ld
/re {4 2 roll M
1 index 0 rlineto
0 exch rlineto
neg 0 rlineto
cp } bd
/_ctm matrix def
/_tm matrix def
/BT { _ctm currentmatrix pop matrix _tm copy pop 0 0 moveto } bd
/ET { _ctm setmatrix } bd
/iTm { _ctm setmatrix _tm concat } bd
/Tm { _tm astore pop iTm 0 0 moveto } bd
/ux 0.0 def
/uy 0.0 def
/F {
  /Tp exch def
  /Tf exch def
  Tf findfont Tp scalefont setfont
  /cf Tf def  /cs Tp def
} bd
/ULS {currentpoint /uy exch def /ux exch def} bd
/ULE {
  /Tcx currentpoint pop def
  gsave
  newpath
  cf findfont cs scalefont dup
  /FontMatrix get 0 get /Ts exch def /FontInfo get dup
  /UnderlinePosition get Ts mul /To exch def
  /UnderlineThickness get Ts mul /Tt exch def
  ux uy To add moveto  Tcx uy To add lineto
  Tt setlinewidth stroke
  grestore
} bd
/OLE {
  /Tcx currentpoint pop def
  gsave
  newpath
  cf findfont cs scalefont dup
  /FontMatrix get 0 get /Ts exch def /FontInfo get dup
  /UnderlinePosition get Ts mul /To exch def
  /UnderlineThickness get Ts mul /Tt exch def
  ux uy To add cs add moveto Tcx uy To add cs add lineto
  Tt setlinewidth stroke
  grestore
} bd
/SOE {
  /Tcx currentpoint pop def
  gsave
  newpath
  cf findfont cs scalefont dup
  /FontMatrix get 0 get /Ts exch def /FontInfo get dup
  /UnderlinePosition get Ts mul /To exch def
  /UnderlineThickness get Ts mul /Tt exch def
  ux uy To add cs 10 mul 26 idiv add moveto Tcx uy To add cs 10 mul 26 idiv add lineto
  Tt setlinewidth stroke
  grestore
} bd
/QT {
/Y22 exch store
/X22 exch store
/Y21 exch store
/X21 exch store
currentpoint
/Y21 load 2 mul add 3 div exch
/X21 load 2 mul add 3 div exch
/X21 load 2 mul /X22 load add 3 div
/Y21 load 2 mul /Y22 load add 3 div
/X22 load /Y22 load curveto
} bd
/SSPD {
dup length /d exch dict def
{
/v exch def
/k exch def
currentpagedevice k known {
/cpdv currentpagedevice k get def
v cpdv ne {
/upd false def
/nullv v type /nulltype eq def
/nullcpdv cpdv type /nulltype eq def
nullv nullcpdv or
{
/upd true def
} {
/sametype v type cpdv type eq def
sametype {
v type /arraytype eq {
/vlen v length def
/cpdvlen cpdv length def
vlen cpdvlen eq {
0 1 vlen 1 sub {
/i exch def
/obj v i get def
/cpdobj cpdv i get def
obj cpdobj ne {
/upd true def
exit
} if
} for
} {
/upd true def
} ifelse
} {
v type /dicttype eq {
v {
/dv exch def
/dk exch def
/cpddv cpdv dk get def
dv cpddv ne {
/upd true def
exit
} if
} forall
} {
/upd true def
} ifelse
} ifelse
} if
} ifelse
upd true eq {
d k v put
} if
} if
} if
} forall
d length 0 gt {
d setpagedevice
} if
} bd
/RE { % /NewFontName [NewEncodingArray] /FontName RE -
  findfont dup length dict begin
  {
    1 index /FID ne
    {def} {pop pop} ifelse
  } forall
  /Encoding exch def
  /FontName 1 index def
  currentdict definefont pop
  end
} bind def
%%EndResource
%%BeginResource: procset (Apache XML Graphics EPS ProcSet) 1.0 0
%%Version: 1.0 0
%%Copyright: (Copyright 2002-2003 The Apache Software Foundation. License terms: http://www.apache.org/licenses/LICENSE-2.0)
/BeginEPSF { %def
/b4_Inc_state save def         % Save state for cleanup
/dict_count countdictstack def % Count objects on dict stack
/op_count count 1 sub def      % Count objects on operand stack
userdict begin                 % Push userdict on dict stack
/showpage { } def              % Redefine showpage, { } = null proc
0 setgray 0 setlinecap         % Prepare graphics state
1 setlinewidth 0 setlinejoin
10 setmiterlimit [ ] 0 setdash newpath
/languagelevel where           % If level not equal to 1 then
{pop languagelevel             % set strokeadjust and
1 ne                           % overprint to their defaults.
{false setstrokeadjust false setoverprint
} if
} if
} bd
/EndEPSF { %def
count op_count sub {pop} repeat            % Clean up stacks
countdictstack dict_count sub {end} repeat
b4_Inc_state restore
} bd
%%EndResource
%FOPBeginFontDict
%%IncludeResource: font Courier-Oblique
%%IncludeResource: font Courier-BoldOblique
%%IncludeResource: font Courier-Bold
%%IncludeResource: font ZapfDingbats
%%IncludeResource: font Symbol
%%IncludeResource: font Helvetica
%%IncludeResource: font Helvetica-Oblique
%%IncludeResource: font Helvetica-Bold
%%IncludeResource: font Helvetica-BoldOblique
%%IncludeResource: font Times-Roman
%%IncludeResource: font Times-Italic
%%IncludeResource: font Times-Bold
%%IncludeResource: font Times-BoldItalic
%%IncludeResource: font Courier
%FOPEndFontDict
%%BeginResource: encoding WinAnsiEncoding
/WinAnsiEncoding [
/.notdef /.notdef /.notdef /.notdef /.notdef
/.notdef /.notdef /.notdef /.notdef /.notdef
/.notdef /.notdef /.notdef /.notdef /.notdef
/.notdef /.notdef /.notdef /.notdef /.notdef
/.notdef /.notdef /.notdef /.notdef /.notdef
/.notdef /.notdef /.notdef /.notdef /.notdef
/.notdef /.notdef /space /exclam /quotedbl
/numbersign /dollar /percent /ampersand /quotesingle
/parenleft /parenright /asterisk /plus /comma
/hyphen /period /slash /zero /one
/two /three /four /five /six
/seven /eight /nine /colon /semicolon
/less /equal /greater /question /at
/A /B /C /D /E
/F /G /H /I /J
/K /L /M /N /O
/P /Q /R /S /T
/U /V /W /X /Y
/Z /bracketleft /backslash /bracketright /asciicircum
/underscore /quoteleft /a /b /c
/d /e /f /g /h
/i /j /k /l /m
/n /o /p /q /r
/s /t /u /v /w
/x /y /z /braceleft /bar
/braceright /asciitilde /bullet /Euro /bullet
/quotesinglbase /florin /quotedblbase /ellipsis /dagger
/daggerdbl /circumflex /perthousand /Scaron /guilsinglleft
/OE /bullet /Zcaron /bullet /bullet
/quoteleft /quoteright /quotedblleft /quotedblright /bullet
/endash /emdash /asciitilde /trademark /scaron
/guilsinglright /oe /bullet /zcaron /Ydieresis
/space /exclamdown /cent /sterling /currency
/yen /brokenbar /section /dieresis /copyright
/ordfeminine /guillemotleft /logicalnot /sfthyphen /registered
/macron /degree /plusminus /twosuperior /threesuperior
/acute /mu /paragraph /middot /cedilla
/onesuperior /ordmasculine /guillemotright /onequarter /onehalf
/threequarters /questiondown /Agrave /Aacute /Acircumflex
/Atilde /Adieresis /Aring /AE /Ccedilla
/Egrave /Eacute /Ecircumflex /Edieresis /Igrave
/Iacute /Icircumflex /Idieresis /Eth /Ntilde
/Ograve /Oacute /Ocircumflex /Otilde /Odieresis
/multiply /Oslash /Ugrave /Uacute /Ucircumflex
/Udieresis /Yacute /Thorn /germandbls /agrave
/aacute /acircumflex /atilde /adieresis /aring
/ae /ccedilla /egrave /eacute /ecircumflex
/edieresis /igrave /iacute /icircumflex /idieresis
/eth /ntilde /ograve /oacute /ocircumflex
/otilde /odieresis /divide /oslash /ugrave
/uacute /ucircumflex /udieresis /yacute /thorn
/ydieresis
] def
%%EndResource
%FOPBeginFontReencode
/Courier-Oblique findfont
dup length dict begin
  {1 index /FID ne {def} {pop pop} ifelse} forall
  /Encoding WinAnsiEncoding def
  currentdict
end
/Courier-Oblique exch definefont pop
/Courier-BoldOblique findfont
dup length dict begin
  {1 index /FID ne {def} {pop pop} ifelse} forall
  /Encoding WinAnsiEncoding def
  currentdict
end
/Courier-BoldOblique exch definefont pop
/Courier-Bold findfont
dup length dict begin
  {1 index /FID ne {def} {pop pop} ifelse} forall
  /Encoding WinAnsiEncoding def
  currentdict
end
/Courier-Bold exch definefont pop
/Helvetica findfont
dup length dict begin
  {1 index /FID ne {def} {pop pop} ifelse} forall
  /Encoding WinAnsiEncoding def
  currentdict
end
/Helvetica exch definefont pop
/Helvetica-Oblique findfont
dup length dict begin
  {1 index /FID ne {def} {pop pop} ifelse} forall
  /Encoding WinAnsiEncoding def
  currentdict
end
/Helvetica-Oblique exch definefont pop
/Helvetica-Bold findfont
dup length dict begin
  {1 index /FID ne {def} {pop pop} ifelse} forall
  /Encoding WinAnsiEncoding def
  currentdict
end
/Helvetica-Bold exch definefont pop
/Helvetica-BoldOblique findfont
dup length dict begin
  {1 index /FID ne {def} {pop pop} ifelse} forall
  /Encoding WinAnsiEncoding def
  currentdict
end
/Helvetica-BoldOblique exch definefont pop
/Times-Roman findfont
dup length dict begin
  {1 index /FID ne {def} {pop pop} ifelse} forall
  /Encoding WinAnsiEncoding def
  currentdict
end
/Times-Roman exch definefont pop
/Times-Italic findfont
dup length dict begin
  {1 index /FID ne {def} {pop pop} ifelse} forall
  /Encoding WinAnsiEncoding def
  currentdict
end
/Times-Italic exch definefont pop
/Times-Bold findfont
dup length dict begin
  {1 index /FID ne {def} {pop pop} ifelse} forall
  /Encoding WinAnsiEncoding def
  currentdict
end
/Times-Bold exch definefont pop
/Times-BoldItalic findfont
dup length dict begin
  {1 index /FID ne {def} {pop pop} ifelse} forall
  /Encoding WinAnsiEncoding def
  currentdict
end
/Times-BoldItalic exch definefont pop
/Courier findfont
dup length dict begin
  {1 index /FID ne {def} {pop pop} ifelse} forall
  /Encoding WinAnsiEncoding def
  currentdict
end
/Courier exch definefont pop
%FOPEndFontReencode
%%EndProlog
%%Page: 1 1
%%PageBoundingBox: 0 0 864 216
%%BeginPageSetup
[1 0 0 -1 0 216] CT
%%EndPageSetup
GS
1 GC
N
0 0 864 216 re
f
GR
GS
1 GC
N
0 0 864 216 re
f
GR
GS
1 GC
N
112.5 180.5 M
296.5 180.5 L
296.5 16.5 L
112.5 16.5 L
cp
f
GR
GS
0.149 GC
2 setlinecap
1 LJ
0.5 LW
N
112.5 180.5 M
296.5 180.5 L
S
GR
GS
0.149 GC
2 setlinecap
1 LJ
0.5 LW
N
112.5 16.5 M
296.5 16.5 L
S
GR
GS
0.149 GC
2 setlinecap
1 LJ
0.5 LW
N
145.931 180.5 M
145.931 178.66 L
S
GR
GS
0.149 GC
2 setlinecap
1 LJ
0.5 LW
N
204.5 180.5 M
204.5 178.66 L
S
GR
GS
0.149 GC
2 setlinecap
1 LJ
0.5 LW
N
263.069 180.5 M
263.069 178.66 L
S
GR
GS
0.149 GC
2 setlinecap
1 LJ
0.5 LW
N
145.931 16.5 M
145.931 18.34 L
S
GR
GS
0.149 GC
2 setlinecap
1 LJ
0.5 LW
N
204.5 16.5 M
204.5 18.34 L
S
GR
GS
0.149 GC
2 setlinecap
1 LJ
0.5 LW
N
263.069 16.5 M
263.069 18.34 L
S
GR
GS
[1 0 0 1 145.93098 184.5] CT
0.149 GC
/Helvetica 10 F
GS
[1 0 0 1 0 0] CT
-5 10 moveto 
1 -1 scale
(-2) t 
GR
GR
GS
[1 0 0 1 204.5 184.5] CT
0.149 GC
/Helvetica 10 F
GS
[1 0 0 1 0 0] CT
-3 10 moveto 
1 -1 scale
(0) t 
GR
GR
GS
[1 0 0 1 263.06903 184.5] CT
0.149 GC
/Helvetica 10 F
GS
[1 0 0 1 0 0] CT
-3 10 moveto 
1 -1 scale
(2) t 
GR
GR
GS
[1 0 0 1 200 209] CT
0.149 GC
N
2.203 0.172 M
1.828 0.172 1.5 0.023 QT
1.172 -0.125 0.922 -0.391 QT
0.672 -0.656 0.555 -0.984 QT
0.438 -1.313 0.438 -1.703 QT
0.438 -2.391 0.766 -3.039 QT
1.094 -3.688 1.656 -4.156 QT
2.219 -4.625 2.875 -4.797 QT
2.547 -5.391 2.383 -5.82 QT
2.219 -6.25 2.219 -6.703 QT
2.219 -7.047 2.375 -7.297 QT
2.531 -7.547 2.805 -7.695 QT
3.078 -7.844 3.406 -7.844 QT
3.734 -7.844 4.703 -7.625 QT
4.969 -7.563 4.969 -7.328 QT
4.969 -7.141 4.828 -6.992 QT
4.688 -6.844 4.516 -6.844 QT
4.375 -6.844 4.266 -6.906 QT
4.156 -6.969 3.93 -7.125 QT
3.703 -7.281 3.516 -7.359 QT
3.328 -7.438 3.141 -7.438 QT
2.906 -7.438 2.727 -7.305 QT
2.547 -7.172 2.547 -6.953 QT
2.547 -6.594 2.859 -6.141 QT
3.172 -5.688 3.734 -4.984 QT
4.391 -4.156 4.391 -3.156 QT
4.391 -2.672 4.25 -2.094 QT
4.109 -1.516 3.836 -1.008 QT
3.563 -0.5 3.141 -0.164 QT
2.719 0.172 2.203 0.172 QT
cp
2.219 -0.141 M
2.656 -0.141 2.961 -0.586 QT
3.266 -1.031 3.43 -1.641 QT
3.594 -2.25 3.594 -2.672 QT
3.594 -3.5 3.016 -4.516 QT
2.438 -4.359 2.016 -3.844 QT
1.594 -3.328 1.383 -2.656 QT
1.172 -1.984 1.172 -1.391 QT
1.172 -0.859 1.445 -0.5 QT
1.719 -0.141 2.219 -0.141 QT
cp
f
GR
GS
[1 0 0 1 205 214] CT
0.149 GC
/Helvetica 8.8 F
GS
[1 0 0 1 0 0] CT
0 0 moveto 
1 -1 scale
(h) t 
GR
GR
GS
0.149 GC
2 setlinecap
1 LJ
0.5 LW
N
112.5 180.5 M
112.5 16.5 L
S
GR
GS
0.149 GC
2 setlinecap
1 LJ
0.5 LW
N
296.5 180.5 M
296.5 16.5 L
S
GR
GS
0.149 GC
2 setlinecap
1 LJ
0.5 LW
N
112.5 176.804 M
114.34 176.804 L
S
GR
GS
0.149 GC
2 setlinecap
1 LJ
0.5 LW
N
112.5 150.703 M
114.34 150.703 L
S
GR
GS
0.149 GC
2 setlinecap
1 LJ
0.5 LW
N
112.5 124.601 M
114.34 124.601 L
S
GR
GS
0.149 GC
2 setlinecap
1 LJ
0.5 LW
N
112.5 98.5 M
114.34 98.5 L
S
GR
GS
0.149 GC
2 setlinecap
1 LJ
0.5 LW
N
112.5 72.399 M
114.34 72.399 L
S
GR
GS
0.149 GC
2 setlinecap
1 LJ
0.5 LW
N
112.5 46.297 M
114.34 46.297 L
S
GR
GS
0.149 GC
2 setlinecap
1 LJ
0.5 LW
N
112.5 20.196 M
114.34 20.196 L
S
GR
GS
0.149 GC
2 setlinecap
1 LJ
0.5 LW
N
296.5 176.804 M
294.66 176.804 L
S
GR
GS
0.149 GC
2 setlinecap
1 LJ
0.5 LW
N
296.5 150.703 M
294.66 150.703 L
S
GR
GS
0.149 GC
2 setlinecap
1 LJ
0.5 LW
N
296.5 124.601 M
294.66 124.601 L
S
GR
GS
0.149 GC
2 setlinecap
1 LJ
0.5 LW
N
296.5 98.5 M
294.66 98.5 L
S
GR
GS
0.149 GC
2 setlinecap
1 LJ
0.5 LW
N
296.5 72.399 M
294.66 72.399 L
S
GR
GS
0.149 GC
2 setlinecap
1 LJ
0.5 LW
N
296.5 46.297 M
294.66 46.297 L
S
GR
GS
0.149 GC
2 setlinecap
1 LJ
0.5 LW
N
296.5 20.196 M
294.66 20.196 L
S
GR
GS
[1 0 0 1 108.5 176.80423] CT
0.149 GC
/Helvetica 10 F
GS
[1 0 0 1 0 0] CT
-10 3.5 moveto 
1 -1 scale
(-3) t 
GR
GR
GS
[1 0 0 1 108.5 150.70282] CT
0.149 GC
/Helvetica 10 F
GS
[1 0 0 1 0 0] CT
-10 3.5 moveto 
1 -1 scale
(-2) t 
GR
GR
GS
[1 0 0 1 108.5 124.60141] CT
0.149 GC
/Helvetica 10 F
GS
[1 0 0 1 0 0] CT
-10 3.5 moveto 
1 -1 scale
(-1) t 
GR
GR
GS
[1 0 0 1 108.5 98.5] CT
0.149 GC
/Helvetica 10 F
GS
[1 0 0 1 0 0] CT
-6 3.5 moveto 
1 -1 scale
(0) t 
GR
GR
GS
[1 0 0 1 108.5 72.39859] CT
0.149 GC
/Helvetica 10 F
GS
[1 0 0 1 0 0] CT
-6 3.5 moveto 
1 -1 scale
(1) t 
GR
GR
GS
[1 0 0 1 108.5 46.29718] CT
0.149 GC
/Helvetica 10 F
GS
[1 0 0 1 0 0] CT
-6 3.5 moveto 
1 -1 scale
(2) t 
GR
GR
GS
[1 0 0 1 108.5 20.19577] CT
0.149 GC
/Helvetica 10 F
GS
[1 0 0 1 0 0] CT
-6 3.5 moveto 
1 -1 scale
(3) t 
GR
GR
GS
[0 -1 1 0 89 104] CT
0.149 GC
N
/f-1934038764{2.203 0.172 M
1.828 0.172 1.5 0.023 QT
1.172 -0.125 0.922 -0.391 QT
0.672 -0.656 0.555 -0.984 QT
0.438 -1.313 0.438 -1.703 QT
0.438 -2.391 0.766 -3.039 QT
1.094 -3.688 1.656 -4.156 QT
2.219 -4.625 2.875 -4.797 QT
2.547 -5.391 2.383 -5.82 QT
2.219 -6.25 2.219 -6.703 QT
2.219 -7.047 2.375 -7.297 QT
2.531 -7.547 2.805 -7.695 QT
3.078 -7.844 3.406 -7.844 QT
3.734 -7.844 4.703 -7.625 QT
4.969 -7.563 4.969 -7.328 QT
4.969 -7.141 4.828 -6.992 QT
4.688 -6.844 4.516 -6.844 QT
4.375 -6.844 4.266 -6.906 QT
4.156 -6.969 3.93 -7.125 QT
3.703 -7.281 3.516 -7.359 QT
3.328 -7.438 3.141 -7.438 QT
2.906 -7.438 2.727 -7.305 QT
2.547 -7.172 2.547 -6.953 QT
2.547 -6.594 2.859 -6.141 QT
3.172 -5.688 3.734 -4.984 QT
4.391 -4.156 4.391 -3.156 QT
4.391 -2.672 4.25 -2.094 QT
4.109 -1.516 3.836 -1.008 QT
3.563 -0.5 3.141 -0.164 QT
2.719 0.172 2.203 0.172 QT
cp
2.219 -0.141 M
2.656 -0.141 2.961 -0.586 QT
3.266 -1.031 3.43 -1.641 QT
3.594 -2.25 3.594 -2.672 QT
3.594 -3.5 3.016 -4.516 QT
2.438 -4.359 2.016 -3.844 QT
1.594 -3.328 1.383 -2.656 QT
1.172 -1.984 1.172 -1.391 QT
1.172 -0.859 1.445 -0.5 QT
1.719 -0.141 2.219 -0.141 QT
cp}def
f-1934038764
f
GR
GS
[0 -1 1 0 94 99] CT
0.149 GC
/Helvetica 8.8 F
GS
[1 0 0 1 0 0] CT
0 0 moveto 
1 -1 scale
(d) t 
GR
GR
GS
[1 0 0 1 204.5002 15.125] CT
/Helvetica-Bold 11 F
GS
[1 0 0 1 0 0] CT
-13 -3 moveto 
1 -1 scale
(V=20) t 
GR
GR
GS
[1 0 0 1 247.69597 55.68883] CT
N
2 0 M
2 1.105 1.105 2 0 2 C
-1.105 2 -2 1.105 -2 0 C
-2 -1.105 -1.105 -2 0 -2 C
1.105 -2 2 -1.105 2 0 C
cp
f
GR
GS
[1 0 0 1 242.70503 57.56953] CT
N
/f1241251886{2 0 M
2 1.105 1.105 2 0 2 C
-1.105 2 -2 1.105 -2 0 C
-2 -1.105 -1.105 -2 0 -2 C
1.105 -2 2 -1.105 2 0 C
cp}def
f1241251886
f
GR
GS
[1 0 0 1 212.64897 82.62049] CT
N
f1241251886
f
GR
GS
[1 0 0 1 229.56461 62.68524] CT
N
f1241251886
f
GR
GS
[1 0 0 1 133.24789 154.00742] CT
N
f1241251886
f
GR
GS
[1 0 0 1 167.90436 152.96104] CT
N
f1241251886
f
GR
GS
[1 0 0 1 197.55272 128.21552] CT
N
f1241251886
f
GR
GS
[1 0 0 1 227.38956 69.55904] CT
N
f1241251886
f
GR
GS
[1 0 0 1 207.50832 134.28386] CT
N
f1241251886
f
GR
GS
[1 0 0 1 173.8802 153.48305] CT
N
f1241251886
f
GR
GS
[1 0 0 1 153.8242 134.55894] CT
N
f1241251886
f
GR
GS
[1 0 0 1 218.68788 60.32792] CT
N
f1241251886
f
GR
GS
[1 0 0 1 181.26489 143.7347] CT
N
f1241251886
f
GR
GS
[1 0 0 1 166.69632 148.2733] CT
N
f1241251886
f
GR
GS
[1 0 0 1 193.28836 126.22137] CT
N
f1241251886
f
GR
GS
[1 0 0 1 196.99203 141.83459] CT
N
f1241251886
f
GR
GS
[1 0 0 1 188.78024 142.26234] CT
N
f1241251886
f
GR
GS
[1 0 0 1 211.07152 67.10861] CT
N
f1241251886
f
GR
GS
[1 0 0 1 271.15732 43.46702] CT
N
f1241251886
f
GR
GS
[1 0 0 1 239.85117 50.34375] CT
N
f1241251886
f
GR
GS
[1 0 0 1 175.0083 151.09509] CT
N
f1241251886
f
GR
GS
[1 0 0 1 220.19223 72.30543] CT
N
f1241251886
f
GR
GS
[1 0 0 1 227.50134 59.66883] CT
N
f1241251886
f
GR
GS
[1 0 0 1 261.82794 51.75996] CT
N
f1241251886
f
GR
GS
[1 0 0 1 156.9548 155.4117] CT
N
f1241251886
f
GR
GS
[1 0 0 1 217.17403 120.56578] CT
N
f1241251886
f
GR
GS
[1 0 0 1 177.16074 151.10234] CT
N
f1241251886
f
GR
GS
[1 0 0 1 256.11029 54.72988] CT
N
f1241251886
f
GR
GS
[1 0 0 1 237.33237 64.08967] CT
N
f1241251886
f
GR
GS
[1 0 0 1 223.27524 62.65043] CT
N
f1241251886
f
GR
GS
[1 0 0 1 139.18744 174.692] CT
N
f1241251886
f
GR
GS
[1 0 0 1 212.80147 63.00091] CT
N
f1241251886
f
GR
GS
[1 0 0 1 221.14362 54.74341] CT
N
f1241251886
f
GR
GS
[1 0 0 1 280.63867 29.5069] CT
N
f1241251886
f
GR
GS
[1 0 0 1 213.60931 46.37371] CT
N
f1241251886
f
GR
GS
[1 0 0 1 178.33099 151.09698] CT
N
f1241251886
f
GR
GS
[1 0 0 1 197.10471 146.88351] CT
N
f1241251886
f
GR
GS
[1 0 0 1 254.29555 31.24607] CT
N
f1241251886
f
GR
GS
[1 0 0 1 216.34184 57.29593] CT
N
f1241251886
f
GR
GS
[1 0 0 1 188.87184 119.77091] CT
N
f1241251886
f
GR
GS
[1 0 0 1 143.03169 162.16685] CT
N
f1241251886
f
GR
GS
[1 0 0 1 184.99933 138.16438] CT
N
f1241251886
f
GR
GS
[1 0 0 1 239.90509 66.824] CT
N
f1241251886
f
GR
GS
[1 0 0 1 230.9545 56.52504] CT
N
f1241251886
f
GR
GS
[1 0 0 1 252.44772 44.79037] CT
N
f1241251886
f
GR
GS
[1 0 0 1 187.82536 151.25519] CT
N
f1241251886
f
GR
GS
[1 0 0 1 185.46664 124.94793] CT
N
f1241251886
f
GR
GS
[1 0 0 1 217.06912 131.97127] CT
N
f1241251886
f
GR
GS
[1 0 0 1 136.24573 164.39832] CT
N
f1241251886
f
GR
GS
[1 0 0 1 212.33148 108.81352] CT
N
f1241251886
f
GR
GS
[1 0 0 1 204.69211 66.15414] CT
N
f1241251886
f
GR
GS
[1 0 0 1 201.89738 144.03822] CT
N
f1241251886
f
GR
GS
[1 0 0 1 147.71815 163.75142] CT
N
f1241251886
f
GR
GS
[1 0 0 1 225.39754 59.27348] CT
N
f1241251886
f
GR
GS
[1 0 0 1 192.43555 142.38895] CT
N
f1241251886
f
GR
GS
[1 0 0 1 203.84959 127.60776] CT
N
f1241251886
f
GR
GS
[1 0 0 1 283.18008 40.18013] CT
N
f1241251886
f
GR
GS
[1 0 0 1 213.15271 115.52244] CT
N
f1241251886
f
GR
GS
[1 0 0 1 261.48929 25.72412] CT
N
f1241251886
f
GR
GS
[1 0 0 1 262.27405 31.64289] CT
N
f1241251886
f
GR
GS
[1 0 0 1 145.41577 152.59395] CT
N
f1241251886
f
GR
GS
[1 0 0 1 206.66557 136.22154] CT
N
f1241251886
f
GR
GS
[1 0 0 1 156.15939 158.5464] CT
N
f1241251886
f
GR
GS
[1 0 0 1 170.84198 153.67279] CT
N
f1241251886
f
GR
GS
[1 0 0 1 175.082 150.81258] CT
N
f1241251886
f
GR
GS
[1 0 0 1 220.8541 79.97385] CT
N
f1241251886
f
GR
GS
[1 0 0 1 279.79382 19.50792] CT
N
f1241251886
f
GR
GS
[1 0 0 1 155.33012 175.66502] CT
N
f1241251886
f
GR
GS
[1 0 0 1 176.09537 123.73943] CT
N
f1241251886
f
GR
GS
[1 0 0 1 207.34076 61.00616] CT
N
f1241251886
f
GR
GS
[1 0 0 1 235.53488 52.18061] CT
N
f1241251886
f
GR
GS
[1 0 0 1 164.8217 152.21426] CT
N
f1241251886
f
GR
GS
[1 0 0 1 183.58696 145.37801] CT
N
f1241251886
f
GR
GS
[1 0 0 1 168.29079 140.06543] CT
N
f1241251886
f
GR
GS
[1 0 0 1 233.65602 56.51461] CT
N
f1241251886
f
GR
GS
[1 0 0 1 220.60838 58.83487] CT
N
f1241251886
f
GR
GS
[1 0 0 1 163.40883 158.25284] CT
N
f1241251886
f
GR
GS
[1 0 0 1 189.12245 133.85956] CT
N
f1241251886
f
GR
GS
[1 0 0 1 186.06085 125.40108] CT
N
f1241251886
f
GR
GS
[1 0 0 1 230.38614 42.80353] CT
N
f1241251886
f
GR
GS
[1 0 0 1 204.47032 140.07941] CT
N
f1241251886
f
GR
GS
[1 0 0 1 168.50012 147.70999] CT
N
f1241251886
f
GR
GS
[1 0 0 1 208.84032 62.10709] CT
N
f1241251886
f
GR
GS
[1 0 0 1 141.49188 161.13075] CT
N
f1241251886
f
GR
GS
[1 0 0 1 163.37112 144.53999] CT
N
f1241251886
f
GR
GS
[1 0 0 1 223.34003 46.61407] CT
N
f1241251886
f
GR
GS
[1 0 0 1 255.28065 32.29657] CT
N
f1241251886
f
GR
GS
[1 0 0 1 175.82843 149.81592] CT
N
f1241251886
f
GR
GS
[1 0 0 1 232.10176 64.37951] CT
N
f1241251886
f
GR
GS
[1 0 0 1 237.78813 58.5334] CT
N
f1241251886
f
GR
GS
[1 0 0 1 179.90067 144.84181] CT
N
f1241251886
f
GR
GS
[1 0 0 1 164.27994 152.71411] CT
N
f1241251886
f
GR
GS
[1 0 0 1 169.43164 166.80179] CT
N
f1241251886
f
GR
GS
[1 0 0 1 232.14667 55.09586] CT
N
f1241251886
f
GR
GS
[1 0 0 1 203.87704 113.40442] CT
N
f1241251886
f
GR
GS
[1 0 0 1 181.87155 143.77223] CT
N
f1241251886
f
GR
GS
[1 0 0 1 214.72556 57.14198] CT
N
f1241251886
f
GR
GS
[1 0 0 1 195.43459 78.49454] CT
N
f1241251886
f
GR
GS
[1 0 0 1 151.72609 142.44778] CT
N
f1241251886
f
GR
GS
[1 0 0 1 209.54381 62.70573] CT
N
f1241251886
f
GR
GS
[1 0 0 1 155.09773 156.86218] CT
N
f1241251886
f
GR
GS
[1 0 0 1 189.62642 132.57922] CT
N
f1241251886
f
GR
GS
[1 0 0 1 249.33038 39.24993] CT
N
f1241251886
f
GR
GS
[1 0 0 1 162.13875 160.14708] CT
N
f1241251886
f
GR
GS
[1 0 0 1 159.07286 140.54918] CT
N
f1241251886
f
GR
GS
[1 0 0 1 239.28645 49.80909] CT
N
f1241251886
f
GR
GS
[1 0 0 1 248.73735 56.10044] CT
N
f1241251886
f
GR
GS
[1 0 0 1 203.3817 131.66425] CT
N
f1241251886
f
GR
GS
[1 0 0 1 185.26233 152.57541] CT
N
f1241251886
f
GR
GS
[1 0 0 1 217.45737 105.42542] CT
N
f1241251886
f
GR
GS
[1 0 0 1 232.15373 71.10181] CT
N
f1241251886
f
GR
GS
[1 0 0 1 267.94653 30.66939] CT
N
f1241251886
f
GR
GS
[1 0 0 1 228.82108 65.4691] CT
N
f1241251886
f
GR
GS
[1 0 0 1 270.08542 34.99142] CT
N
f1241251886
f
GR
GS
[1 0 0 1 271.88312 51.94651] CT
N
f1241251886
f
GR
GS
[1 0 0 1 201.50903 65.2814] CT
N
f1241251886
f
GR
GS
[1 0 0 1 261.94626 35.3564] CT
N
f1241251886
f
GR
GS
[1 0 0 1 251.21909 46.64439] CT
N
f1241251886
f
GR
GS
[1 0 0 1 282.72543 22.15725] CT
N
f1241251886
f
GR
GS
[1 0 0 1 264.04443 19.59656] CT
N
f1241251886
f
GR
GS
[1 0 0 1 165.39163 154.66112] CT
N
f1241251886
f
GR
GS
[1 0 0 1 268.53201 27.63836] CT
N
f1241251886
f
GR
GS
[1 0 0 1 238.99425 43.51593] CT
N
f1241251886
f
GR
GS
[1 0 0 1 160.86508 157.35103] CT
N
f1241251886
f
GR
GS
[1 0 0 1 182.05928 148.9747] CT
N
f1241251886
f
GR
GS
[1 0 0 1 170.90372 156.50636] CT
N
f1241251886
f
GR
GS
[1 0 0 1 202.89737 78.33492] CT
N
f1241251886
f
GR
GS
[1 0 0 1 166.4288 142.68581] CT
N
f1241251886
f
GR
GS
[1 0 0 1 250.55145 45.50572] CT
N
f1241251886
f
GR
GS
[1 0 0 1 230.40031 59.41396] CT
N
f1241251886
f
GR
GS
[1 0 0 1 174.26042 132.22202] CT
N
f1241251886
f
GR
GS
[1 0 0 1 207.05959 71.41125] CT
N
f1241251886
f
GR
GS
[1 0 0 1 189.41519 143.07285] CT
N
f1241251886
f
GR
GS
[1 0 0 1 163.60887 154.91243] CT
N
f1241251886
f
GR
GS
[1 0 0 1 194.36804 126.39984] CT
N
f1241251886
f
GR
GS
[1 0 0 1 130.40834 158.96045] CT
N
f1241251886
f
GR
GS
[1 0 0 1 128.66074 164.07932] CT
N
f1241251886
f
GR
GS
[1 0 0 1 141.96788 146.00887] CT
N
f1241251886
f
GR
GS
[1 0 0 1 250.84215 38.50185] CT
N
f1241251886
f
GR
GS
[1 0 0 1 228.77879 50.50369] CT
N
f1241251886
f
GR
GS
[1 0 0 1 218.39462 64.34065] CT
N
f1241251886
f
GR
GS
[1 0 0 1 201.78067 68.77309] CT
N
f1241251886
f
GR
GS
[1 0 0 1 143.88976 155.51666] CT
N
f1241251886
f
GR
GS
[1 0 0 1 274.98502 49.80683] CT
N
f1241251886
f
GR
GS
[1 0 0 1 163.97672 139.87343] CT
N
f1241251886
f
GR
GS
[1 0 0 1 209.83891 60.65654] CT
N
f1241251886
f
GR
GS
[1 0 0 1 263.94717 43.45842] CT
N
f1241251886
f
GR
GS
[1 0 0 1 225.55144 58.19442] CT
N
f1241251886
f
GR
GS
[1 0 0 1 226.17888 65.54729] CT
N
f1241251886
f
GR
GS
[1 0 0 1 266.41537 27.42406] CT
N
f1241251886
f
GR
GS
[1 0 0 1 179.96397 150.93352] CT
N
f1241251886
f
GR
GS
[1 0 0 1 227.45709 51.81294] CT
N
f1241251886
f
GR
GS
[1 0 0 1 181.37465 148.21051] CT
N
f1241251886
f
GR
GS
[1 0 0 1 202.34032 128.6519] CT
N
f1241251886
f
GR
GS
[1 0 0 1 161.36223 152.44289] CT
N
f1241251886
f
GR
GS
[1 0 0 1 208.29979 117.97242] CT
N
f1241251886
f
GR
GS
[1 0 0 1 171.84676 147.10838] CT
N
f1241251886
f
GR
GS
[1 0 0 1 125.35186 153.01237] CT
N
f1241251886
f
GR
GS
[1 0 0 1 157.67989 161.89497] CT
N
f1241251886
f
GR
GS
[1 0 0 1 251.04457 31.90329] CT
N
f1241251886
f
GR
GS
[1 0 0 1 266.2854 36.77529] CT
N
f1241251886
f
GR
GS
[1 0 0 1 162.0101 144.64867] CT
N
f1241251886
f
GR
GS
[1 0 0 1 171.38722 141.12497] CT
N
f1241251886
f
GR
GS
[1 0 0 1 261.85526 35.61033] CT
N
f1241251886
f
GR
GS
[1 0 0 1 204.70924 73.85413] CT
N
f1241251886
f
GR
GS
[1 0 0 1 236.42635 47.35346] CT
N
f1241251886
f
GR
GS
[1 0 0 1 291.08279 24.17922] CT
N
f1241251886
f
GR
GS
[1 0 0 1 213.5966 57.02857] CT
N
f1241251886
f
GR
GS
[1 0 0 1 149.06444 158.23489] CT
N
f1241251886
f
GR
GS
[1 0 0 1 220.8661 55.19493] CT
N
f1241251886
f
GR
GS
[1 0 0 1 210.99661 123.90329] CT
N
f1241251886
f
GR
GS
[1 0 0 1 123.74622 166.55046] CT
N
f1241251886
f
GR
GS
[1 0 0 1 146.30421 156.87489] CT
N
f1241251886
f
GR
GS
[1 0 0 1 235.01309 44.77307] CT
N
f1241251886
f
GR
GS
[1 0 0 1 272.40817 30.69685] CT
N
f1241251886
f
GR
GS
[1 0 0 1 212.78296 46.35864] CT
N
f1241251886
f
GR
GS
[1 0 0 1 179.53497 150.70805] CT
N
f1241251886
f
GR
GS
[1 0 0 1 260.05756 39.12107] CT
N
f1241251886
f
GR
GS
[1 0 0 1 233.41531 45.45876] CT
N
f1241251886
f
GR
GS
[1 0 0 1 219.57422 74.61009] CT
N
f1241251886
f
GR
GS
[1 0 0 1 174.79958 153.01561] CT
N
f1241251886
f
GR
GS
[1 0 0 1 261.82224 33.98518] CT
N
f1241251886
f
GR
GS
[1 0 0 1 147.79007 158.32213] CT
N
f1241251886
f
GR
GS
[1 0 0 1 155.5407 163.62772] CT
N
f1241251886
f
GR
GS
[1 0 0 1 225.31746 58.66519] CT
N
f1241251886
f
GR
GS
[1 0 0 1 233.54507 61.28463] CT
N
f1241251886
f
GR
GS
[1 0 0 1 198.4736 75.56178] CT
N
f1241251886
f
GR
GS
[1 0 0 1 265.17941 24.42355] CT
N
f1241251886
f
GR
GS
[1 0 0 1 192.23636 130.07401] CT
N
f1241251886
f
GR
GS
[1 0 0 1 155.52658 145.72745] CT
N
f1241251886
f
GR
GS
[1 0 0 1 204.89386 157.09322] CT
N
f1241251886
f
GR
GS
[1 0 0 1 260.5231 60.82004] CT
N
f1241251886
f
GR
GS
[1 0 0 1 167.72647 141.42238] CT
N
f1241251886
f
GR
GS
[1 0 0 1 203.817 64.88651] CT
N
f1241251886
f
GR
GS
[1 0 0 1 180.73363 135.98709] CT
N
f1241251886
f
GR
GS
[1 0 0 1 161.30663 164.70883] CT
N
f1241251886
f
GR
GS
[1 0 0 1 216.20874 71.87901] CT
N
f1241251886
f
GR
GS
[1 0 0 1 190.02921 139.6432] CT
N
f1241251886
f
GR
GS
[1 0 0 1 262.49188 27.84262] CT
N
f1241251886
f
GR
GS
[1 0 0 1 156.99089 147.739] CT
N
f1241251886
f
GR
GS
[1 0 0 1 164.90767 146.94997] CT
N
f1241251886
f
GR
GS
[1 0 0 1 224.2782 52.45039] CT
N
f1241251886
f
GR
GS
[1 0 0 1 169.02405 166.21992] CT
N
f1241251886
f
GR
GS
[1 0 0 1 251.34612 37.62224] CT
N
f1241251886
f
GR
GS
[1 0 0 1 172.03453 140.32236] CT
N
f1241251886
f
GR
GS
[1 0 0 1 221.49574 46.76449] CT
N
f1241251886
f
GR
GS
[1 0 0 1 204.84378 70.62698] CT
N
f1241251886
f
GR
GS
[1 0 0 1 200.05743 65.24851] CT
N
f1241251886
f
GR
GS
[1 0 0 1 174.06725 68.59773] CT
N
f1241251886
f
GR
GS
[1 0 0 1 140.75345 163.81598] CT
N
f1241251886
f
GR
GS
[1 0 0 1 160.96262 158.16975] CT
N
f1241251886
f
GR
GS
[1 0 0 1 160.5786 159.59238] CT
N
f1241251886
f
GR
GS
[1 0 0 1 194.0107 130.93489] CT
N
f1241251886
f
GR
GS
[1 0 0 1 166.71721 146.35793] CT
N
f1241251886
f
GR
GS
[1 0 0 1 154.00201 154.5182] CT
N
f1241251886
f
GR
GS
1 GC
N
355 180.5 M
539.5 180.5 L
539.5 16.5 L
355 16.5 L
cp
f
GR
GS
0.149 GC
2 setlinecap
1 LJ
0.5 LW
N
355 180.5 M
539.5 180.5 L
S
GR
GS
0.149 GC
2 setlinecap
1 LJ
0.5 LW
N
355 16.5 M
539.5 16.5 L
S
GR
GS
0.149 GC
2 setlinecap
1 LJ
0.5 LW
N
388.522 180.5 M
388.522 178.655 L
S
GR
GS
0.149 GC
2 setlinecap
1 LJ
0.5 LW
N
447.25 180.5 M
447.25 178.655 L
S
GR
GS
0.149 GC
2 setlinecap
1 LJ
0.5 LW
N
505.978 180.5 M
505.978 178.655 L
S
GR
GS
0.149 GC
2 setlinecap
1 LJ
0.5 LW
N
388.522 16.5 M
388.522 18.345 L
S
GR
GS
0.149 GC
2 setlinecap
1 LJ
0.5 LW
N
447.25 16.5 M
447.25 18.345 L
S
GR
GS
0.149 GC
2 setlinecap
1 LJ
0.5 LW
N
505.978 16.5 M
505.978 18.345 L
S
GR
GS
[1 0 0 1 388.52182 184.5] CT
0.149 GC
/Helvetica 10 F
GS
[1 0 0 1 0 0] CT
-5 10 moveto 
1 -1 scale
(-2) t 
GR
GR
GS
[1 0 0 1 447.25 184.5] CT
0.149 GC
/Helvetica 10 F
GS
[1 0 0 1 0 0] CT
-3 10 moveto 
1 -1 scale
(0) t 
GR
GR
GS
[1 0 0 1 505.97818 184.5] CT
0.149 GC
/Helvetica 10 F
GS
[1 0 0 1 0 0] CT
-3 10 moveto 
1 -1 scale
(2) t 
GR
GR
GS
[1 0 0 1 442 209] CT
0.149 GC
N
f-1934038764
f
GR
GS
[1 0 0 1 447 214] CT
0.149 GC
/Helvetica 8.8 F
GS
[1 0 0 1 0 0] CT
0 0 moveto 
1 -1 scale
(h) t 
GR
GR
GS
0.149 GC
2 setlinecap
1 LJ
0.5 LW
N
355 180.5 M
355 16.5 L
S
GR
GS
0.149 GC
2 setlinecap
1 LJ
0.5 LW
N
539.5 180.5 M
539.5 16.5 L
S
GR
GS
0.149 GC
2 setlinecap
1 LJ
0.5 LW
N
355 176.804 M
356.845 176.804 L
S
GR
GS
0.149 GC
2 setlinecap
1 LJ
0.5 LW
N
355 150.703 M
356.845 150.703 L
S
GR
GS
0.149 GC
2 setlinecap
1 LJ
0.5 LW
N
355 124.601 M
356.845 124.601 L
S
GR
GS
0.149 GC
2 setlinecap
1 LJ
0.5 LW
N
355 98.5 M
356.845 98.5 L
S
GR
GS
0.149 GC
2 setlinecap
1 LJ
0.5 LW
N
355 72.399 M
356.845 72.399 L
S
GR
GS
0.149 GC
2 setlinecap
1 LJ
0.5 LW
N
355 46.297 M
356.845 46.297 L
S
GR
GS
0.149 GC
2 setlinecap
1 LJ
0.5 LW
N
355 20.196 M
356.845 20.196 L
S
GR
GS
0.149 GC
2 setlinecap
1 LJ
0.5 LW
N
539.5 176.804 M
537.655 176.804 L
S
GR
GS
0.149 GC
2 setlinecap
1 LJ
0.5 LW
N
539.5 150.703 M
537.655 150.703 L
S
GR
GS
0.149 GC
2 setlinecap
1 LJ
0.5 LW
N
539.5 124.601 M
537.655 124.601 L
S
GR
GS
0.149 GC
2 setlinecap
1 LJ
0.5 LW
N
539.5 98.5 M
537.655 98.5 L
S
GR
GS
0.149 GC
2 setlinecap
1 LJ
0.5 LW
N
539.5 72.399 M
537.655 72.399 L
S
GR
GS
0.149 GC
2 setlinecap
1 LJ
0.5 LW
N
539.5 46.297 M
537.655 46.297 L
S
GR
GS
0.149 GC
2 setlinecap
1 LJ
0.5 LW
N
539.5 20.196 M
537.655 20.196 L
S
GR
GS
[1 0 0 1 351 176.80423] CT
0.149 GC
/Helvetica 10 F
GS
[1 0 0 1 0 0] CT
-10 3.5 moveto 
1 -1 scale
(-3) t 
GR
GR
GS
[1 0 0 1 351 150.70282] CT
0.149 GC
/Helvetica 10 F
GS
[1 0 0 1 0 0] CT
-10 3.5 moveto 
1 -1 scale
(-2) t 
GR
GR
GS
[1 0 0 1 351 124.60141] CT
0.149 GC
/Helvetica 10 F
GS
[1 0 0 1 0 0] CT
-10 3.5 moveto 
1 -1 scale
(-1) t 
GR
GR
GS
[1 0 0 1 351 98.5] CT
0.149 GC
/Helvetica 10 F
GS
[1 0 0 1 0 0] CT
-6 3.5 moveto 
1 -1 scale
(0) t 
GR
GR
GS
[1 0 0 1 351 72.39859] CT
0.149 GC
/Helvetica 10 F
GS
[1 0 0 1 0 0] CT
-6 3.5 moveto 
1 -1 scale
(1) t 
GR
GR
GS
[1 0 0 1 351 46.29718] CT
0.149 GC
/Helvetica 10 F
GS
[1 0 0 1 0 0] CT
-6 3.5 moveto 
1 -1 scale
(2) t 
GR
GR
GS
[1 0 0 1 351 20.19577] CT
0.149 GC
/Helvetica 10 F
GS
[1 0 0 1 0 0] CT
-6 3.5 moveto 
1 -1 scale
(3) t 
GR
GR
GS
[0 -1 1 0 332 104] CT
0.149 GC
N
f-1934038764
f
GR
GS
[0 -1 1 0 337 99] CT
0.149 GC
/Helvetica 8.8 F
GS
[1 0 0 1 0 0] CT
0 0 moveto 
1 -1 scale
(d) t 
GR
GR
GS
[1 0 0 1 447.25043 15.125] CT
/Helvetica-Bold 11 F
GS
[1 0 0 1 0 0] CT
-13 -3 moveto 
1 -1 scale
(V=11) t 
GR
GR
GS
[1 0 0 1 426.22742 147.11243] CT
N
f1241251886
f
GR
GS
[1 0 0 1 431.37747 79.94354] CT
N
f1241251886
f
GR
GS
[1 0 0 1 374.28241 174.56668] CT
N
f1241251886
f
GR
GS
[1 0 0 1 409.1525 150.87973] CT
N
f1241251886
f
GR
GS
[1 0 0 1 471.1633 40.40693] CT
N
f1241251886
f
GR
GS
[1 0 0 1 469.48181 58.4442] CT
N
f1241251886
f
GR
GS
[1 0 0 1 398.43668 141.39015] CT
N
f1241251886
f
GR
GS
[1 0 0 1 424.27487 130.76332] CT
N
f1241251886
f
GR
GS
[1 0 0 1 492.68994 60.88911] CT
N
f1241251886
f
GR
GS
[1 0 0 1 371.0647 158.53148] CT
N
f1241251886
f
GR
GS
[1 0 0 1 460.05051 58.37334] CT
N
f1241251886
f
GR
GS
[1 0 0 1 497.53259 51.07968] CT
N
f1241251886
f
GR
GS
[1 0 0 1 488.90182 48.00556] CT
N
f1241251886
f
GR
GS
[1 0 0 1 414.57446 137.69937] CT
N
f1241251886
f
GR
GS
[1 0 0 1 446.85196 80.61374] CT
N
f1241251886
f
GR
GS
[1 0 0 1 412.63617 152.52287] CT
N
f1241251886
f
GR
GS
[1 0 0 1 462.4689 114.10278] CT
N
f1241251886
f
GR
GS
[1 0 0 1 424.27502 131.43222] CT
N
f1241251886
f
GR
GS
[1 0 0 1 418.07602 129.4487] CT
N
f1241251886
f
GR
GS
[1 0 0 1 419.6467 134.88582] CT
N
f1241251886
f
GR
GS
[1 0 0 1 437.68253 120.48264] CT
N
f1241251886
f
GR
GS
[1 0 0 1 429.07343 73.47087] CT
N
f1241251886
f
GR
GS
[1 0 0 1 491.86603 23.79428] CT
N
f1241251886
f
GR
GS
[1 0 0 1 429.05103 128.91866] CT
N
f1241251886
f
GR
GS
[1 0 0 1 420.91183 128.39481] CT
N
f1241251886
f
GR
GS
[1 0 0 1 427.92584 142.93111] CT
N
f1241251886
f
GR
GS
[1 0 0 1 439.58881 120.41154] CT
N
f1241251886
f
GR
GS
[1 0 0 1 455.96875 59.88324] CT
N
f1241251886
f
GR
GS
[1 0 0 1 483.7551 49.48966] CT
N
f1241251886
f
GR
GS
[1 0 0 1 439.12506 147.32632] CT
N
f1241251886
f
GR
GS
[1 0 0 1 454.23785 77.32334] CT
N
f1241251886
f
GR
GS
[1 0 0 1 447.66556 117.63913] CT
N
f1241251886
f
GR
GS
[1 0 0 1 463.63766 67.37528] CT
N
f1241251886
f
GR
GS
[1 0 0 1 467.0368 56.07508] CT
N
f1241251886
f
GR
GS
[1 0 0 1 436.68024 157.68071] CT
N
f1241251886
f
GR
GS
[1 0 0 1 479.16122 54.16205] CT
N
f1241251886
f
GR
GS
[1 0 0 1 496.3714 38.32755] CT
N
f1241251886
f
GR
GS
[1 0 0 1 445.65839 87.96812] CT
N
f1241251886
f
GR
GS
[1 0 0 1 475.55783 54.5947] CT
N
f1241251886
f
GR
GS
[1 0 0 1 450.20187 126.89452] CT
N
f1241251886
f
GR
GS
[1 0 0 1 405.71725 151.5992] CT
N
f1241251886
f
GR
GS
[1 0 0 1 490.77118 46.84812] CT
N
f1241251886
f
GR
GS
[1 0 0 1 429.57541 83.47962] CT
N
f1241251886
f
GR
GS
[1 0 0 1 439.82404 120.8567] CT
N
f1241251886
f
GR
GS
[1 0 0 1 431.92029 123.35207] CT
N
f1241251886
f
GR
GS
[1 0 0 1 420.64883 126.9489] CT
N
f1241251886
f
GR
GS
[1 0 0 1 454.54065 103.50235] CT
N
f1241251886
f
GR
GS
[1 0 0 1 443.83685 78.31498] CT
N
f1241251886
f
GR
GS
[1 0 0 1 373.92117 159.57219] CT
N
f1241251886
f
GR
GS
[1 0 0 1 458.02286 125.77287] CT
N
f1241251886
f
GR
GS
[1 0 0 1 433.47098 126.5581] CT
N
f1241251886
f
GR
GS
[1 0 0 1 512.19928 24.16041] CT
N
f1241251886
f
GR
GS
[1 0 0 1 407.95935 158.43791] CT
N
f1241251886
f
GR
GS
[1 0 0 1 469.09946 65.55305] CT
N
f1241251886
f
GR
GS
[1 0 0 1 489.60959 70.41075] CT
N
f1241251886
f
GR
GS
[1 0 0 1 452.22226 96.66058] CT
N
f1241251886
f
GR
GS
[1 0 0 1 392.04205 134.97241] CT
N
f1241251886
f
GR
GS
[1 0 0 1 424.28598 132.71806] CT
N
f1241251886
f
GR
GS
[1 0 0 1 426.29123 124.09426] CT
N
f1241251886
f
GR
GS
[1 0 0 1 459.86237 122.34217] CT
N
f1241251886
f
GR
GS
[1 0 0 1 438.44058 70.24073] CT
N
f1241251886
f
GR
GS
[1 0 0 1 455.70615 115.90857] CT
N
f1241251886
f
GR
GS
[1 0 0 1 440.26834 82.42368] CT
N
f1241251886
f
GR
GS
[1 0 0 1 446.39935 57.59298] CT
N
f1241251886
f
GR
GS
[1 0 0 1 368.92331 166.88063] CT
N
f1241251886
f
GR
GS
[1 0 0 1 459.47491 145.90834] CT
N
f1241251886
f
GR
GS
[1 0 0 1 447.17789 86.18143] CT
N
f1241251886
f
GR
GS
[1 0 0 1 451.99924 160.33316] CT
N
f1241251886
f
GR
GS
[1 0 0 1 470.58636 63.37064] CT
N
f1241251886
f
GR
GS
[1 0 0 1 420.07568 144.91852] CT
N
f1241251886
f
GR
GS
[1 0 0 1 464.42743 146.98811] CT
N
f1241251886
f
GR
GS
[1 0 0 1 496.83542 55.72112] CT
N
f1241251886
f
GR
GS
[1 0 0 1 470.12997 41.42702] CT
N
f1241251886
f
GR
GS
[1 0 0 1 409.74625 150.0358] CT
N
f1241251886
f
GR
GS
[1 0 0 1 423.63892 143.26071] CT
N
f1241251886
f
GR
GS
[1 0 0 1 497.0408 52.99807] CT
N
f1241251886
f
GR
GS
[1 0 0 1 423.60138 120.79334] CT
N
f1241251886
f
GR
GS
[1 0 0 1 450.06357 49.65503] CT
N
f1241251886
f
GR
GS
[1 0 0 1 436.81345 84.32757] CT
N
f1241251886
f
GR
GS
[1 0 0 1 496.44998 41.20525] CT
N
f1241251886
f
GR
GS
[1 0 0 1 492.04755 47.4073] CT
N
f1241251886
f
GR
GS
[1 0 0 1 379.00882 152.90315] CT
N
f1241251886
f
GR
GS
[1 0 0 1 473.39752 87.58537] CT
N
f1241251886
f
GR
GS
[1 0 0 1 420.81329 138.53928] CT
N
f1241251886
f
GR
GS
[1 0 0 1 435.15494 146.94611] CT
N
f1241251886
f
GR
GS
[1 0 0 1 432.57764 140.62465] CT
N
f1241251886
f
GR
GS
[1 0 0 1 392.38382 159.62984] CT
N
f1241251886
f
GR
GS
[1 0 0 1 430.64087 140.22871] CT
N
f1241251886
f
GR
GS
[1 0 0 1 407.84402 150.42375] CT
N
f1241251886
f
GR
GS
[1 0 0 1 447.49402 80.16734] CT
N
f1241251886
f
GR
GS
[1 0 0 1 436.04904 86.05968] CT
N
f1241251886
f
GR
GS
[1 0 0 1 367.29089 173.46231] CT
N
f1241251886
f
GR
GS
[1 0 0 1 462.73962 48.4499] CT
N
f1241251886
f
GR
GS
[1 0 0 1 488.81705 54.13898] CT
N
f1241251886
f
GR
GS
[1 0 0 1 452.45041 66.8521] CT
N
f1241251886
f
GR
GS
[1 0 0 1 398.5741 148.51057] CT
N
f1241251886
f
GR
GS
[1 0 0 1 471.15524 59.07137] CT
N
f1241251886
f
GR
GS
[1 0 0 1 456.97672 124.27988] CT
N
f1241251886
f
GR
GS
[1 0 0 1 426.59747 142.30215] CT
N
f1241251886
f
GR
GS
[1 0 0 1 454.36163 114.86835] CT
N
f1241251886
f
GR
GS
[1 0 0 1 404.81497 151.80083] CT
N
f1241251886
f
GR
GS
[1 0 0 1 434.01147 144.8418] CT
N
f1241251886
f
GR
GS
[1 0 0 1 404.40311 156.86931] CT
N
f1241251886
f
GR
GS
[1 0 0 1 463.17798 50.53078] CT
N
f1241251886
f
GR
GS
[1 0 0 1 419.5065 148.14128] CT
N
f1241251886
f
GR
GS
[1 0 0 1 432.57907 144.28307] CT
N
f1241251886
f
GR
GS
[1 0 0 1 424.6308 143.63087] CT
N
f1241251886
f
GR
GS
[1 0 0 1 391.5618 158.43982] CT
N
f1241251886
f
GR
GS
[1 0 0 1 452.03845 107.03442] CT
N
f1241251886
f
GR
GS
[1 0 0 1 416.58865 143.91206] CT
N
f1241251886
f
GR
GS
[1 0 0 1 459.73639 60.545] CT
N
f1241251886
f
GR
GS
[1 0 0 1 463.54019 72.19285] CT
N
f1241251886
f
GR
GS
[1 0 0 1 454.15521 61.99212] CT
N
f1241251886
f
GR
GS
[1 0 0 1 430.42169 88.43618] CT
N
f1241251886
f
GR
GS
[1 0 0 1 452.99835 116.32804] CT
N
f1241251886
f
GR
GS
[1 0 0 1 463.41861 49.8077] CT
N
f1241251886
f
GR
GS
[1 0 0 1 446.50998 135.75237] CT
N
f1241251886
f
GR
GS
[1 0 0 1 442.75531 68.99967] CT
N
f1241251886
f
GR
GS
[1 0 0 1 384.60388 166.00778] CT
N
f1241251886
f
GR
GS
[1 0 0 1 385.73477 170.59116] CT
N
f1241251886
f
GR
GS
[1 0 0 1 442.32718 138.54807] CT
N
f1241251886
f
GR
GS
[1 0 0 1 495.91345 50.13048] CT
N
f1241251886
f
GR
GS
[1 0 0 1 484.34085 59.91205] CT
N
f1241251886
f
GR
GS
[1 0 0 1 447.94983 68.66335] CT
N
f1241251886
f
GR
GS
[1 0 0 1 450.04916 122.24773] CT
N
f1241251886
f
GR
GS
[1 0 0 1 434.87363 141.37782] CT
N
f1241251886
f
GR
GS
[1 0 0 1 472.92892 45.56231] CT
N
f1241251886
f
GR
GS
[1 0 0 1 401.72556 162.21121] CT
N
f1241251886
f
GR
GS
[1 0 0 1 381.48663 155.61192] CT
N
f1241251886
f
GR
GS
[1 0 0 1 480.66037 42.22676] CT
N
f1241251886
f
GR
GS
[1 0 0 1 402.10791 162.93825] CT
N
f1241251886
f
GR
GS
[1 0 0 1 488.95157 53.77825] CT
N
f1241251886
f
GR
GS
[1 0 0 1 425.59332 146.11911] CT
N
f1241251886
f
GR
GS
[1 0 0 1 419.59998 147.73027] CT
N
f1241251886
f
GR
GS
[1 0 0 1 472.37256 59.86026] CT
N
f1241251886
f
GR
GS
[1 0 0 1 420.34052 154.89832] CT
N
f1241251886
f
GR
GS
[1 0 0 1 489.40186 50.37296] CT
N
f1241251886
f
GR
GS
[1 0 0 1 444.24811 135.62691] CT
N
f1241251886
f
GR
GS
[1 0 0 1 486.20947 38.00832] CT
N
f1241251886
f
GR
GS
[1 0 0 1 443.4324 46.88877] CT
N
f1241251886
f
GR
GS
[1 0 0 1 420.34628 134.98624] CT
N
f1241251886
f
GR
GS
[1 0 0 1 400.7254 152.12297] CT
N
f1241251886
f
GR
GS
[1 0 0 1 372.64279 162.56514] CT
N
f1241251886
f
GR
GS
[1 0 0 1 526.52277 28.27125] CT
N
f1241251886
f
GR
GS
[1 0 0 1 448.90219 77.87722] CT
N
f1241251886
f
GR
GS
[1 0 0 1 487.71136 42.89491] CT
N
f1241251886
f
GR
GS
[1 0 0 1 461.32767 58.02039] CT
N
f1241251886
f
GR
GS
[1 0 0 1 451.61969 58.86115] CT
N
f1241251886
f
GR
GS
[1 0 0 1 433.92499 137.55498] CT
N
f1241251886
f
GR
GS
[1 0 0 1 478.67059 53.57729] CT
N
f1241251886
f
GR
GS
[1 0 0 1 461.08691 53.41319] CT
N
f1241251886
f
GR
GS
[1 0 0 1 490.09177 47.33207] CT
N
f1241251886
f
GR
GS
[1 0 0 1 483.74243 51.58459] CT
N
f1241251886
f
GR
GS
[1 0 0 1 466.07269 76.479] CT
N
f1241251886
f
GR
GS
[1 0 0 1 360.8541 177.44476] CT
N
f1241251886
f
GR
GS
[1 0 0 1 468.29083 69.50102] CT
N
f1241251886
f
GR
GS
[1 0 0 1 449.73325 133.37201] CT
N
f1241251886
f
GR
GS
[1 0 0 1 471.93121 71.08709] CT
N
f1241251886
f
GR
GS
[1 0 0 1 435.54874 136.12308] CT
N
f1241251886
f
GR
GS
[1 0 0 1 441.69397 139.76599] CT
N
f1241251886
f
GR
GS
[1 0 0 1 417.74753 139.88921] CT
N
f1241251886
f
GR
GS
[1 0 0 1 442.05814 135.44789] CT
N
f1241251886
f
GR
GS
[1 0 0 1 433.84518 148.01164] CT
N
f1241251886
f
GR
GS
[1 0 0 1 424.52438 137.01508] CT
N
f1241251886
f
GR
GS
[1 0 0 1 461.77237 46.14206] CT
N
f1241251886
f
GR
GS
[1 0 0 1 498.17685 51.24637] CT
N
f1241251886
f
GR
GS
[1 0 0 1 431.40759 135.84956] CT
N
f1241251886
f
GR
GS
[1 0 0 1 478.52814 51.22858] CT
N
f1241251886
f
GR
GS
[1 0 0 1 449.39575 83.41109] CT
N
f1241251886
f
GR
GS
[1 0 0 1 423.51566 145.57594] CT
N
f1241251886
f
GR
GS
[1 0 0 1 396.13434 146.41678] CT
N
f1241251886
f
GR
GS
[1 0 0 1 481.28186 63.60104] CT
N
f1241251886
f
GR
GS
[1 0 0 1 501.18964 41.64259] CT
N
f1241251886
f
GR
GS
[1 0 0 1 378.10162 160.16675] CT
N
f1241251886
f
GR
GS
[1 0 0 1 534.37445 39.26353] CT
N
f1241251886
f
GR
GS
[1 0 0 1 446.78897 122.77307] CT
N
f1241251886
f
GR
GS
[1 0 0 1 473.17773 56.4335] CT
N
f1241251886
f
GR
GS
[1 0 0 1 431.93756 87.94024] CT
N
f1241251886
f
GR
GS
[1 0 0 1 413.4212 146.76147] CT
N
f1241251886
f
GR
GS
[1 0 0 1 499.35892 41.92651] CT
N
f1241251886
f
GR
GS
[1 0 0 1 451.30081 73.6878] CT
N
f1241251886
f
GR
GS
[1 0 0 1 436.7702 124.7176] CT
N
f1241251886
f
GR
GS
[1 0 0 1 475.22034 53.11023] CT
N
f1241251886
f
GR
GS
[1 0 0 1 512.5611 36.71239] CT
N
f1241251886
f
GR
GS
[1 0 0 1 424.08093 151.96803] CT
N
f1241251886
f
GR
GS
[1 0 0 1 464.12213 61.54997] CT
N
f1241251886
f
GR
GS
[1 0 0 1 404.14673 162.2431] CT
N
f1241251886
f
GR
GS
[1 0 0 1 401.62619 142.00824] CT
N
f1241251886
f
GR
GS
[1 0 0 1 484.44751 66.93308] CT
N
f1241251886
f
GR
GS
[1 0 0 1 475.3681 51.77681] CT
N
f1241251886
f
GR
GS
[1 0 0 1 433.32858 140.08925] CT
N
f1241251886
f
GR
GS
[1 0 0 1 479.33774 42.58884] CT
N
f1241251886
f
GR
GS
[1 0 0 1 450.66266 133.73709] CT
N
f1241251886
f
GR
GS
[1 0 0 1 443.74448 104.84545] CT
N
f1241251886
f
GR
GS
[1 0 0 1 432.01434 138.12833] CT
N
f1241251886
f
GR
GS
[1 0 0 1 511.97928 46.47084] CT
N
f1241251886
f
GR
GS
[1 0 0 1 440.02399 138.82132] CT
N
f1241251886
f
GR
GS
[1 0 0 1 438.56134 81.64677] CT
N
f1241251886
f
GR
GS
[1 0 0 1 422.29916 89.66887] CT
N
f1241251886
f
GR
GS
[1 0 0 1 493.72037 47.93258] CT
N
f1241251886
f
GR
GS
[1 0 0 1 405.68423 151.57626] CT
N
f1241251886
f
GR
GS
[1 0 0 1 395.46667 158.83186] CT
N
f1241251886
f
GR
GS
[1 0 0 1 526.19324 33.93393] CT
N
f1241251886
f
GR
GS
[1 0 0 1 469.88538 43.01413] CT
N
f1241251886
f
GR
GS
[1 0 0 1 431.58102 148.44028] CT
N
f1241251886
f
GR
GS
[1 0 0 1 448.48792 137.57071] CT
N
f1241251886
f
GR
GS
[1 0 0 1 434.26404 69.31745] CT
N
f1241251886
f
GR
GS
[1 0 0 1 400.6322 144.2368] CT
N
f1241251886
f
GR
GS
[1 0 0 1 378.28943 162.79767] CT
N
f1241251886
f
GR
GS
[1 0 0 1 486.78799 56.56384] CT
N
f1241251886
f
GR
GS
[1 0 0 1 475.66104 48.29581] CT
N
f1241251886
f
GR
GS
[1 0 0 1 479.97504 44.47126] CT
N
f1241251886
f
GR
GS
[1 0 0 1 447.61667 115.15246] CT
N
f1241251886
f
GR
GS
[1 0 0 1 388.24533 153.86067] CT
N
f1241251886
f
GR
GS
[1 0 0 1 430.85709 116.78783] CT
N
f1241251886
f
GR
GS
[1 0 0 1 443.55292 55.89468] CT
N
f1241251886
f
GR
GS
[1 0 0 1 450.9581 50.26212] CT
N
f1241251886
f
GR
GS
[1 0 0 1 456.68906 60.68277] CT
N
f1241251886
f
GR
GS
[1 0 0 1 406.87119 132.41492] CT
N
f1241251886
f
GR
GS
[1 0 0 1 459.3147 41.59877] CT
N
f1241251886
f
GR
GS
[1 0 0 1 444.00586 63.88014] CT
N
f1241251886
f
GR
GS
[1 0 0 1 456.28934 56.87141] CT
N
f1241251886
f
GR
GS
[1 0 0 1 438.19131 110.87879] CT
N
f1241251886
f
GR
GS
[1 0 0 1 447.47516 128.49265] CT
N
f1241251886
f
GR
GS
[1 0 0 1 455.02313 58.17994] CT
N
f1241251886
f
GR
GS
[1 0 0 1 475.71365 47.45789] CT
N
f1241251886
f
GR
GS
[1 0 0 1 493.36899 43.27321] CT
N
f1241251886
f
GR
GS
[1 0 0 1 391.34732 153.76657] CT
N
f1241251886
f
GR
GS
[1 0 0 1 487.08572 68.02607] CT
N
f1241251886
f
GR
GS
[1 0 0 1 446.80731 119.62743] CT
N
f1241251886
f
GR
GS
[1 0 0 1 463.21725 50.44589] CT
N
f1241251886
f
GR
GS
[1 0 0 1 394.49509 160.69746] CT
N
f1241251886
f
GR
GS
[1 0 0 1 385.6871 159.49231] CT
N
f1241251886
f
GR
GS
1 GC
N
597.5 180.5 M
782 180.5 L
782 16.5 L
597.5 16.5 L
cp
f
GR
GS
0.149 GC
2 setlinecap
1 LJ
0.5 LW
N
597.5 180.5 M
782 180.5 L
S
GR
GS
0.149 GC
2 setlinecap
1 LJ
0.5 LW
N
597.5 16.5 M
782 16.5 L
S
GR
GS
0.149 GC
2 setlinecap
1 LJ
0.5 LW
N
631.022 180.5 M
631.022 178.655 L
S
GR
GS
0.149 GC
2 setlinecap
1 LJ
0.5 LW
N
689.75 180.5 M
689.75 178.655 L
S
GR
GS
0.149 GC
2 setlinecap
1 LJ
0.5 LW
N
748.478 180.5 M
748.478 178.655 L
S
GR
GS
0.149 GC
2 setlinecap
1 LJ
0.5 LW
N
631.022 16.5 M
631.022 18.345 L
S
GR
GS
0.149 GC
2 setlinecap
1 LJ
0.5 LW
N
689.75 16.5 M
689.75 18.345 L
S
GR
GS
0.149 GC
2 setlinecap
1 LJ
0.5 LW
N
748.478 16.5 M
748.478 18.345 L
S
GR
GS
[1 0 0 1 631.02185 184.5] CT
0.149 GC
/Helvetica 10 F
GS
[1 0 0 1 0 0] CT
-5 10 moveto 
1 -1 scale
(-2) t 
GR
GR
GS
[1 0 0 1 689.75 184.5] CT
0.149 GC
/Helvetica 10 F
GS
[1 0 0 1 0 0] CT
-3 10 moveto 
1 -1 scale
(0) t 
GR
GR
GS
[1 0 0 1 748.47815 184.5] CT
0.149 GC
/Helvetica 10 F
GS
[1 0 0 1 0 0] CT
-3 10 moveto 
1 -1 scale
(2) t 
GR
GR
GS
[1 0 0 1 685 209] CT
0.149 GC
N
f-1934038764
f
GR
GS
[1 0 0 1 690 214] CT
0.149 GC
/Helvetica 8.8 F
GS
[1 0 0 1 0 0] CT
0 0 moveto 
1 -1 scale
(h) t 
GR
GR
GS
0.149 GC
2 setlinecap
1 LJ
0.5 LW
N
597.5 180.5 M
597.5 16.5 L
S
GR
GS
0.149 GC
2 setlinecap
1 LJ
0.5 LW
N
782 180.5 M
782 16.5 L
S
GR
GS
0.149 GC
2 setlinecap
1 LJ
0.5 LW
N
597.5 176.804 M
599.345 176.804 L
S
GR
GS
0.149 GC
2 setlinecap
1 LJ
0.5 LW
N
597.5 150.703 M
599.345 150.703 L
S
GR
GS
0.149 GC
2 setlinecap
1 LJ
0.5 LW
N
597.5 124.601 M
599.345 124.601 L
S
GR
GS
0.149 GC
2 setlinecap
1 LJ
0.5 LW
N
597.5 98.5 M
599.345 98.5 L
S
GR
GS
0.149 GC
2 setlinecap
1 LJ
0.5 LW
N
597.5 72.399 M
599.345 72.399 L
S
GR
GS
0.149 GC
2 setlinecap
1 LJ
0.5 LW
N
597.5 46.297 M
599.345 46.297 L
S
GR
GS
0.149 GC
2 setlinecap
1 LJ
0.5 LW
N
597.5 20.196 M
599.345 20.196 L
S
GR
GS
0.149 GC
2 setlinecap
1 LJ
0.5 LW
N
782 176.804 M
780.155 176.804 L
S
GR
GS
0.149 GC
2 setlinecap
1 LJ
0.5 LW
N
782 150.703 M
780.155 150.703 L
S
GR
GS
0.149 GC
2 setlinecap
1 LJ
0.5 LW
N
782 124.601 M
780.155 124.601 L
S
GR
GS
0.149 GC
2 setlinecap
1 LJ
0.5 LW
N
782 98.5 M
780.155 98.5 L
S
GR
GS
0.149 GC
2 setlinecap
1 LJ
0.5 LW
N
782 72.399 M
780.155 72.399 L
S
GR
GS
0.149 GC
2 setlinecap
1 LJ
0.5 LW
N
782 46.297 M
780.155 46.297 L
S
GR
GS
0.149 GC
2 setlinecap
1 LJ
0.5 LW
N
782 20.196 M
780.155 20.196 L
S
GR
GS
[1 0 0 1 593.5 176.80423] CT
0.149 GC
/Helvetica 10 F
GS
[1 0 0 1 0 0] CT
-10 3.5 moveto 
1 -1 scale
(-3) t 
GR
GR
GS
[1 0 0 1 593.5 150.70282] CT
0.149 GC
/Helvetica 10 F
GS
[1 0 0 1 0 0] CT
-10 3.5 moveto 
1 -1 scale
(-2) t 
GR
GR
GS
[1 0 0 1 593.5 124.60141] CT
0.149 GC
/Helvetica 10 F
GS
[1 0 0 1 0 0] CT
-10 3.5 moveto 
1 -1 scale
(-1) t 
GR
GR
GS
[1 0 0 1 593.5 98.5] CT
0.149 GC
/Helvetica 10 F
GS
[1 0 0 1 0 0] CT
-6 3.5 moveto 
1 -1 scale
(0) t 
GR
GR
GS
[1 0 0 1 593.5 72.39859] CT
0.149 GC
/Helvetica 10 F
GS
[1 0 0 1 0 0] CT
-6 3.5 moveto 
1 -1 scale
(1) t 
GR
GR
GS
[1 0 0 1 593.5 46.29718] CT
0.149 GC
/Helvetica 10 F
GS
[1 0 0 1 0 0] CT
-6 3.5 moveto 
1 -1 scale
(2) t 
GR
GR
GS
[1 0 0 1 593.5 20.19577] CT
0.149 GC
/Helvetica 10 F
GS
[1 0 0 1 0 0] CT
-6 3.5 moveto 
1 -1 scale
(3) t 
GR
GR
GS
[0 -1 1 0 574 104] CT
0.149 GC
N
f-1934038764
f
GR
GS
[0 -1 1 0 579 99] CT
0.149 GC
/Helvetica 8.8 F
GS
[1 0 0 1 0 0] CT
0 0 moveto 
1 -1 scale
(d) t 
GR
GR
GS
[1 0 0 1 689.75067 15.125] CT
/Helvetica-Bold 11 F
GS
[1 0 0 1 0 0] CT
-10 -3 moveto 
1 -1 scale
(V=2) t 
GR
GR
GS
[1 0 0 1 644.64349 147.27899] CT
N
f1241251886
f
GR
GS
[1 0 0 1 643.9115 161.69257] CT
N
f1241251886
f
GR
GS
[1 0 0 1 670.86493 138.92152] CT
N
f1241251886
f
GR
GS
[1 0 0 1 676.65723 132.1479] CT
N
f1241251886
f
GR
GS
[1 0 0 1 701.35315 67.22056] CT
N
f1241251886
f
GR
GS
[1 0 0 1 659.81183 141.41933] CT
N
f1241251886
f
GR
GS
[1 0 0 1 678.41241 104.20441] CT
N
f1241251886
f
GR
GS
[1 0 0 1 692.82886 70.18732] CT
N
f1241251886
f
GR
GS
[1 0 0 1 698.11957 90.76728] CT
N
f1241251886
f
GR
GS
[1 0 0 1 679.74249 124.85475] CT
N
f1241251886
f
GR
GS
[1 0 0 1 695.80261 120.67674] CT
N
f1241251886
f
GR
GS
[1 0 0 1 713.32324 48.51572] CT
N
f1241251886
f
GR
GS
[1 0 0 1 759.47736 41.8336] CT
N
f1241251886
f
GR
GS
[1 0 0 1 656.26563 136.62938] CT
N
f1241251886
f
GR
GS
[1 0 0 1 709.5603 89.5479] CT
N
f1241251886
f
GR
GS
[1 0 0 1 736.31421 59.59325] CT
N
f1241251886
f
GR
GS
[1 0 0 1 701.03467 55.65994] CT
N
f1241251886
f
GR
GS
[1 0 0 1 627.91766 170.59677] CT
N
f1241251886
f
GR
GS
[1 0 0 1 644.70996 165.13782] CT
N
f1241251886
f
GR
GS
[1 0 0 1 638.65894 147.12505] CT
N
f1241251886
f
GR
GS
[1 0 0 1 668.83698 128.59541] CT
N
f1241251886
f
GR
GS
[1 0 0 1 696.92322 54.29907] CT
N
f1241251886
f
GR
GS
[1 0 0 1 689.39105 114.2851] CT
N
f1241251886
f
GR
GS
[1 0 0 1 678.98975 110.11624] CT
N
f1241251886
f
GR
GS
[1 0 0 1 656.65936 144.4995] CT
N
f1241251886
f
GR
GS
[1 0 0 1 669.92004 129.82957] CT
N
f1241251886
f
GR
GS
[1 0 0 1 669.95013 132.63141] CT
N
f1241251886
f
GR
GS
[1 0 0 1 677.73682 67.31053] CT
N
f1241251886
f
GR
GS
[1 0 0 1 628.82562 157.49242] CT
N
f1241251886
f
GR
GS
[1 0 0 1 642.88605 153.25766] CT
N
f1241251886
f
GR
GS
[1 0 0 1 644.67804 153.56775] CT
N
f1241251886
f
GR
GS
[1 0 0 1 614.46429 158.50513] CT
N
f1241251886
f
GR
GS
[1 0 0 1 642.72998 152.14206] CT
N
f1241251886
f
GR
GS
[1 0 0 1 691.49866 56.82919] CT
N
f1241251886
f
GR
GS
[1 0 0 1 691.9718 126.3865] CT
N
f1241251886
f
GR
GS
[1 0 0 1 697.21857 70.6543] CT
N
f1241251886
f
GR
GS
[1 0 0 1 721.6817 49.10682] CT
N
f1241251886
f
GR
GS
[1 0 0 1 696.57794 61.11518] CT
N
f1241251886
f
GR
GS
[1 0 0 1 706.98877 112.62782] CT
N
f1241251886
f
GR
GS
[1 0 0 1 692.09326 121.29853] CT
N
f1241251886
f
GR
GS
[1 0 0 1 704.9516 161.38885] CT
N
f1241251886
f
GR
GS
[1 0 0 1 612.50439 160.93825] CT
N
f1241251886
f
GR
GS
[1 0 0 1 741.64001 48.72038] CT
N
f1241251886
f
GR
GS
[1 0 0 1 706.4071 52.69318] CT
N
f1241251886
f
GR
GS
[1 0 0 1 665.86035 125.66084] CT
N
f1241251886
f
GR
GS
[1 0 0 1 663.69934 85.97971] CT
N
f1241251886
f
GR
GS
[1 0 0 1 695.25043 114.04972] CT
N
f1241251886
f
GR
GS
[1 0 0 1 719.81488 66.02081] CT
N
f1241251886
f
GR
GS
[1 0 0 1 659.29657 130.57613] CT
N
f1241251886
f
GR
GS
[1 0 0 1 670.36505 134.94414] CT
N
f1241251886
f
GR
GS
[1 0 0 1 708.99493 54.49212] CT
N
f1241251886
f
GR
GS
[1 0 0 1 739.69025 46.86852] CT
N
f1241251886
f
GR
GS
[1 0 0 1 745.93085 48.16261] CT
N
f1241251886
f
GR
GS
[1 0 0 1 684.43042 129.67401] CT
N
f1241251886
f
GR
GS
[1 0 0 1 752.05676 27.68166] CT
N
f1241251886
f
GR
GS
[1 0 0 1 775.36481 20.88569] CT
N
f1241251886
f
GR
GS
[1 0 0 1 731.78674 37.65118] CT
N
f1241251886
f
GR
GS
[1 0 0 1 607.70911 178.70343] CT
N
f1241251886
f
GR
GS
[1 0 0 1 702.35858 96.41441] CT
N
f1241251886
f
GR
GS
[1 0 0 1 686.43115 85.61003] CT
N
f1241251886
f
GR
GS
[1 0 0 1 658.74396 142.14073] CT
N
f1241251886
f
GR
GS
[1 0 0 1 714.76117 126.03438] CT
N
f1241251886
f
GR
GS
[1 0 0 1 702.17072 68.60784] CT
N
f1241251886
f
GR
GS
[1 0 0 1 684.64227 128.75212] CT
N
f1241251886
f
GR
GS
[1 0 0 1 740.87921 48.13161] CT
N
f1241251886
f
GR
GS
[1 0 0 1 737.78302 47.28325] CT
N
f1241251886
f
GR
GS
[1 0 0 1 713.59088 62.23962] CT
N
f1241251886
f
GR
GS
[1 0 0 1 680.60333 122.76363] CT
N
f1241251886
f
GR
GS
[1 0 0 1 666.95276 138.03535] CT
N
f1241251886
f
GR
GS
[1 0 0 1 713.0415 76.96111] CT
N
f1241251886
f
GR
GS
[1 0 0 1 642.91119 162.77815] CT
N
f1241251886
f
GR
GS
[1 0 0 1 728.02374 51.54396] CT
N
f1241251886
f
GR
GS
[1 0 0 1 696.43964 92.30576] CT
N
f1241251886
f
GR
GS
[1 0 0 1 689.57318 119.5596] CT
N
f1241251886
f
GR
GS
[1 0 0 1 648.02356 152.46812] CT
N
f1241251886
f
GR
GS
[1 0 0 1 696.00586 104.18347] CT
N
f1241251886
f
GR
GS
[1 0 0 1 678.54083 134.49072] CT
N
f1241251886
f
GR
GS
[1 0 0 1 687.90955 120.34714] CT
N
f1241251886
f
GR
GS
[1 0 0 1 670.80975 135.1011] CT
N
f1241251886
f
GR
GS
[1 0 0 1 695.60217 71.66451] CT
N
f1241251886
f
GR
GS
[1 0 0 1 676.94922 132.15865] CT
N
f1241251886
f
GR
GS
[1 0 0 1 661.28796 149.20926] CT
N
f1241251886
f
GR
GS
[1 0 0 1 615.84332 164.69235] CT
N
f1241251886
f
GR
GS
[1 0 0 1 710.64746 72.62534] CT
N
f1241251886
f
GR
GS
[1 0 0 1 693.93823 100.4549] CT
N
f1241251886
f
GR
GS
[1 0 0 1 730.04596 60.59175] CT
N
f1241251886
f
GR
GS
[1 0 0 1 666.18549 135.65457] CT
N
f1241251886
f
GR
GS
[1 0 0 1 700.78613 119.71725] CT
N
f1241251886
f
GR
GS
[1 0 0 1 750.52008 39.96954] CT
N
f1241251886
f
GR
GS
[1 0 0 1 655.63861 139.96201] CT
N
f1241251886
f
GR
GS
[1 0 0 1 697.24762 87.09943] CT
N
f1241251886
f
GR
GS
[1 0 0 1 681.23499 136.68822] CT
N
f1241251886
f
GR
GS
[1 0 0 1 674.07666 76.08568] CT
N
f1241251886
f
GR
GS
[1 0 0 1 667.07312 133.24916] CT
N
f1241251886
f
GR
GS
[1 0 0 1 722.4176 55.54635] CT
N
f1241251886
f
GR
GS
[1 0 0 1 683.25653 174.86426] CT
N
f1241251886
f
GR
GS
[1 0 0 1 671.59753 98.82176] CT
N
f1241251886
f
GR
GS
[1 0 0 1 681.81921 123.88528] CT
N
f1241251886
f
GR
GS
[1 0 0 1 683.45862 76.6108] CT
N
f1241251886
f
GR
GS
[1 0 0 1 680.64282 124.99927] CT
N
f1241251886
f
GR
GS
[1 0 0 1 727.47296 46.7183] CT
N
f1241251886
f
GR
GS
[1 0 0 1 702.047 62.52024] CT
N
f1241251886
f
GR
GS
[1 0 0 1 696.68555 104.59431] CT
N
f1241251886
f
GR
GS
[1 0 0 1 682.9931 85.93974] CT
N
f1241251886
f
GR
GS
[1 0 0 1 686.1366 105.97433] CT
N
f1241251886
f
GR
GS
[1 0 0 1 687.70166 65.22477] CT
N
f1241251886
f
GR
GS
[1 0 0 1 685.8255 130.29973] CT
N
f1241251886
f
GR
GS
[1 0 0 1 648.96008 159.79939] CT
N
f1241251886
f
GR
GS
[1 0 0 1 677.31555 129.18027] CT
N
f1241251886
f
GR
GS
[1 0 0 1 704.62018 107.19922] CT
N
f1241251886
f
GR
GS
[1 0 0 1 680.37311 85.4251] CT
N
f1241251886
f
GR
GS
[1 0 0 1 674.51764 130.68391] CT
N
f1241251886
f
GR
GS
[1 0 0 1 751.74475 39.10244] CT
N
f1241251886
f
GR
GS
[1 0 0 1 630.20856 163.99609] CT
N
f1241251886
f
GR
GS
[1 0 0 1 639.05829 151.69411] CT
N
f1241251886
f
GR
GS
[1 0 0 1 747.80566 38.39512] CT
N
f1241251886
f
GR
GS
[1 0 0 1 659.73126 147.96222] CT
N
f1241251886
f
GR
GS
[1 0 0 1 691.5061 88.46449] CT
N
f1241251886
f
GR
GS
[1 0 0 1 650.11249 158.23026] CT
N
f1241251886
f
GR
GS
[1 0 0 1 680.63873 139.10439] CT
N
f1241251886
f
GR
GS
[1 0 0 1 648.53455 138.87726] CT
N
f1241251886
f
GR
GS
[1 0 0 1 671.60803 125.22522] CT
N
f1241251886
f
GR
GS
[1 0 0 1 678.93396 143.64595] CT
N
f1241251886
f
GR
GS
[1 0 0 1 686.66663 78.45877] CT
N
f1241251886
f
GR
GS
[1 0 0 1 693.70972 63.90111] CT
N
f1241251886
f
GR
GS
[1 0 0 1 732.43329 55.18216] CT
N
f1241251886
f
GR
GS
[1 0 0 1 683.04858 106.87357] CT
N
f1241251886
f
GR
GS
[1 0 0 1 670.32623 142.80515] CT
N
f1241251886
f
GR
GS
[1 0 0 1 743.04272 39.52168] CT
N
f1241251886
f
GR
GS
[1 0 0 1 728.05847 49.43232] CT
N
f1241251886
f
GR
GS
[1 0 0 1 708.58984 87.38132] CT
N
f1241251886
f
GR
GS
[1 0 0 1 718.73669 65.83838] CT
N
f1241251886
f
GR
GS
[1 0 0 1 660.06659 138.08365] CT
N
f1241251886
f
GR
GS
[1 0 0 1 652.15991 125.71333] CT
N
f1241251886
f
GR
GS
[1 0 0 1 688.80328 129.86652] CT
N
f1241251886
f
GR
GS
[1 0 0 1 750.22357 40.52731] CT
N
f1241251886
f
GR
GS
[1 0 0 1 663.00427 149.2894] CT
N
f1241251886
f
GR
GS
[1 0 0 1 679.1911 123.06612] CT
N
f1241251886
f
GR
GS
[1 0 0 1 711.20496 68.95266] CT
N
f1241251886
f
GR
GS
[1 0 0 1 720.50244 48.4572] CT
N
f1241251886
f
GR
GS
[1 0 0 1 644.71564 152.29132] CT
N
f1241251886
f
GR
GS
[1 0 0 1 657.39386 135.33661] CT
N
f1241251886
f
GR
GS
[1 0 0 1 699.58685 50.32447] CT
N
f1241251886
f
GR
GS
[1 0 0 1 684.18707 124.92107] CT
N
f1241251886
f
GR
GS
[1 0 0 1 706.86346 64.69858] CT
N
f1241251886
f
GR
GS
[1 0 0 1 612.31744 170.32253] CT
N
f1241251886
f
GR
GS
[1 0 0 1 671.79456 88.53775] CT
N
f1241251886
f
GR
GS
[1 0 0 1 630.95837 154.95042] CT
N
f1241251886
f
GR
GS
[1 0 0 1 695.59393 103.46781] CT
N
f1241251886
f
GR
GS
[1 0 0 1 700.59515 118.98233] CT
N
f1241251886
f
GR
GS
[1 0 0 1 676.2052 138.04149] CT
N
f1241251886
f
GR
GS
[1 0 0 1 729.79828 39.88653] CT
N
f1241251886
f
GR
GS
[1 0 0 1 671.92731 111.98665] CT
N
f1241251886
f
GR
GS
[1 0 0 1 654.86603 146.24193] CT
N
f1241251886
f
GR
GS
[1 0 0 1 638.52802 152.05112] CT
N
f1241251886
f
GR
GS
[1 0 0 1 678.36206 128.48204] CT
N
f1241251886
f
GR
GS
[1 0 0 1 718.41534 50.44988] CT
N
f1241251886
f
GR
GS
[1 0 0 1 679.33466 117.88066] CT
N
f1241251886
f
GR
GS
[1 0 0 1 655.5528 146.48149] CT
N
f1241251886
f
GR
GS
[1 0 0 1 702.35083 93.70112] CT
N
f1241251886
f
GR
GS
[1 0 0 1 673.11664 124.86842] CT
N
f1241251886
f
GR
GS
[1 0 0 1 759.435 37.00592] CT
N
f1241251886
f
GR
GS
[1 0 0 1 704.29553 80.00163] CT
N
f1241251886
f
GR
GS
[1 0 0 1 642.4953 154.36128] CT
N
f1241251886
f
GR
GS
[1 0 0 1 699.29437 58.36176] CT
N
f1241251886
f
GR
GS
[1 0 0 1 687.93158 109.74616] CT
N
f1241251886
f
GR
GS
[1 0 0 1 665.02252 148.0574] CT
N
f1241251886
f
GR
GS
[1 0 0 1 718.07941 47.88662] CT
N
f1241251886
f
GR
GS
[1 0 0 1 708.87805 53.26954] CT
N
f1241251886
f
GR
GS
[1 0 0 1 680.83832 141.4614] CT
N
f1241251886
f
GR
GS
[1 0 0 1 724.13239 47.76262] CT
N
f1241251886
f
GR
GS
[1 0 0 1 637.78833 150.42783] CT
N
f1241251886
f
GR
GS
[1 0 0 1 716.90363 60.84196] CT
N
f1241251886
f
GR
GS
[1 0 0 1 736.21307 43.40728] CT
N
f1241251886
f
GR
GS
[1 0 0 1 631.49457 160.12032] CT
N
f1241251886
f
GR
GS
[1 0 0 1 693.8653 66.55571] CT
N
f1241251886
f
GR
GS
[1 0 0 1 670.27698 107.073] CT
N
f1241251886
f
GR
GS
[1 0 0 1 663.6933 145.96501] CT
N
f1241251886
f
GR
GS
[1 0 0 1 690.82202 77.44576] CT
N
f1241251886
f
GR
GS
[1 0 0 1 689.26123 126.23789] CT
N
f1241251886
f
GR
GS
[1 0 0 1 693.59949 58.98011] CT
N
f1241251886
f
GR
GS
[1 0 0 1 660.18286 143.40585] CT
N
f1241251886
f
GR
GS
[1 0 0 1 685.94989 110.76124] CT
N
f1241251886
f
GR
GS
[1 0 0 1 671.3797 126.30942] CT
N
f1241251886
f
GR
GS
[1 0 0 1 674.29761 80.24971] CT
N
f1241251886
f
GR
GS
[1 0 0 1 677.87671 134.35342] CT
N
f1241251886
f
GR
GS
[1 0 0 1 663.86639 144.29768] CT
N
f1241251886
f
GR
GS
[1 0 0 1 690.68219 121.90768] CT
N
f1241251886
f
GR
GS
[1 0 0 1 696.55701 52.00986] CT
N
f1241251886
f
GR
GS
[1 0 0 1 625.38654 164.74635] CT
N
f1241251886
f
GR
GS
[1 0 0 1 686.94049 81.91421] CT
N
f1241251886
f
GR
GS
[1 0 0 1 748.73346 48.44561] CT
N
f1241251886
f
GR
GS
[1 0 0 1 699.48065 74.62787] CT
N
f1241251886
f
GR
GS
[1 0 0 1 694.92963 72.35576] CT
N
f1241251886
f
GR
GS
[1 0 0 1 641.38898 151.1194] CT
N
f1241251886
f
GR
GS
[1 0 0 1 653.78412 150.92488] CT
N
f1241251886
f
GR
GS
[1 0 0 1 750.91052 34.45705] CT
N
f1241251886
f
GR
GS
[1 0 0 1 745.12567 38.03384] CT
N
f1241251886
f
GR
GS
[1 0 0 1 672.89545 91.54784] CT
N
f1241251886
f
GR
GS
[1 0 0 1 700.27295 72.10434] CT
N
f1241251886
f
GR
GS
[1 0 0 1 676.11688 89.63214] CT
N
f1241251886
f
GR
GS
[1 0 0 1 725.06995 70.44139] CT
N
f1241251886
f
GR
GS
[1 0 0 1 656.83679 152.15012] CT
N
f1241251886
f
GR
GS
[1 0 0 1 676.45813 85.18473] CT
N
f1241251886
f
GR
GS
[1 0 0 1 682.30969 110.40086] CT
N
f1241251886
f
GR
GS
[1 0 0 1 682.07904 98.34404] CT
N
f1241251886
f
GR
GS
[1 0 0 1 670.11395 142.40985] CT
N
f1241251886
f
GR
GS
[1 0 0 1 677.58777 151.31235] CT
N
f1241251886
f
GR
GS
[1 0 0 1 688.23413 133.03319] CT
N
f1241251886
f
GR
GS
[1 0 0 1 702.50623 57.48653] CT
N
f1241251886
f
GR
GS
[1 0 0 1 675.55212 139.22688] CT
N
f1241251886
f
GR
GS
[1 0 0 1 711.94531 49.98829] CT
N
f1241251886
f
GR
GS
[1 0 0 1 749.14886 33.32953] CT
N
f1241251886
f
GR
GS
[1 0 0 1 657.81891 149.75452] CT
N
f1241251886
f
GR
GS
[1 0 0 1 687.73523 102.27753] CT
N
f1241251886
f
GR
GS
[1 0 0 1 665.22913 149.84319] CT
N
f1241251886
f
GR
GS
[1 0 0 1 682.36768 117.82139] CT
N
f1241251886
f
GR
GS
[1 0 0 1 705.03674 55.1179] CT
N
f1241251886
f
GR
GS
[1 0 0 1 739.77374 37.07399] CT
N
f1241251886
f
GR
GS
[1 0 0 1 662.99213 145.34077] CT
N
f1241251886
f
GR
GS
[1 0 0 1 743.55774 39.64267] CT
N
f1241251886
f
GR
GS
[1 0 0 1 675.36755 104.76157] CT
N
f1241251886
f
GR
GS
[1 0 0 1 653.80115 153.72516] CT
N
f1241251886
f
GR
GS
[1 0 0 1 671.11139 136.88612] CT
N
f1241251886
f
GR
GS
[1 0 0 1 731.23352 52.58173] CT
N
f1241251886
f
GR
GS
[1 0 0 1 700.76111 107.45308] CT
N
f1241251886
f
GR
GS
[1 0 0 1 707.14374 54.80686] CT
N
f1241251886
f
GR
GS
[1 0 0 1 646.55383 142.02049] CT
N
f1241251886
f
GR
GS
[1 0 0 1 665.44849 130.28551] CT
N
f1241251886
f
GR
GS
[1 0 0 1 692.27667 98.66142] CT
N
f1241251886
f
GR
GS
[1 0 0 1 661.16205 140.76552] CT
N
f1241251886
f
GR
GS
[1 0 0 1 714.78644 58.87273] CT
N
f1241251886
f
GR
GS
[1 0 0 1 678.95813 138.95828] CT
N
f1241251886
f
GR
GS
[1 0 0 1 711.98352 69.9962] CT
N
f1241251886
f
GR
GS
[1 0 0 1 767.5282 22.09297] CT
N
f1241251886
f
GR
GS
[1 0 0 1 637.70587 154.56856] CT
N
f1241251886
f
GR
GS
[1 0 0 1 698.09552 58.03106] CT
N
f1241251886
f
GR
GS
[1 0 0 1 692.00836 54.80629] CT
N
f1241251886
f
GR
GS
[1 0 0 1 701.5174 61.78443] CT
N
f1241251886
f
GR
GS
[1 0 0 1 714.91583 113.21423] CT
N
f1241251886
f
GR
GS
[1 0 0 1 653.60254 154.53619] CT
N
f1241251886
f
GR
GS
[1 0 0 1 690.42511 109.11339] CT
N
f1241251886
f
GR
GS
[1 0 0 1 634.99023 162.56955] CT
N
f1241251886
f
GR
GS
[1 0 0 1 691.54114 121.7646] CT
N
f1241251886
f
GR
GS
[1 0 0 1 692.89258 75.31868] CT
N
f1241251886
f
GR
GS
[1 0 0 1 713.01276 70.98425] CT
N
f1241251886
f
GR
GS
[1 0 0 1 697.48053 59.66592] CT
N
f1241251886
f
GR
GS
[1 0 0 1 651.41779 128.80229] CT
N
f1241251886
f
GR
GS
[1 0 0 1 722.50653 47.38598] CT
N
f1241251886
f
GR
GS
[1 0 0 1 728.94324 41.08855] CT
N
f1241251886
f
GR
GS
[1 0 0 1 668.08704 142.44662] CT
N
f1241251886
f
GR
%%Trailer
%%Pages: 1
%%EOF
