%!PS-Adobe-3.0 EPSF-3.0
%%Creator: (MATLAB, The Mathworks, Inc. Version 9.3.0.713579 \(R2017b\). Operating System: Mac OS X)
%%Title: ./phi_dist.eps
%%CreationDate: 2018-06-28T16:46:05
%%Pages: (atend)
%%BoundingBox:     1     2   269   207
%%LanguageLevel: 3
%%EndComments
%%BeginProlog
%%BeginResource: procset (Apache XML Graphics Std ProcSet) 1.2 0
%%Version: 1.2 0
%%Copyright: (Copyright 2001-2003,2010 The Apache Software Foundation. License terms: http://www.apache.org/licenses/LICENSE-2.0)
/bd{bind def}bind def
/ld{load def}bd
/GR/grestore ld
/GS/gsave ld
/RM/rmoveto ld
/C/curveto ld
/t/show ld
/L/lineto ld
/ML/setmiterlimit ld
/CT/concat ld
/f/fill ld
/N/newpath ld
/S/stroke ld
/CC/setcmykcolor ld
/A/ashow ld
/cp/closepath ld
/RC/setrgbcolor ld
/LJ/setlinejoin ld
/GC/setgray ld
/LW/setlinewidth ld
/M/moveto ld
/re {4 2 roll M
1 index 0 rlineto
0 exch rlineto
neg 0 rlineto
cp } bd
/_ctm matrix def
/_tm matrix def
/BT { _ctm currentmatrix pop matrix _tm copy pop 0 0 moveto } bd
/ET { _ctm setmatrix } bd
/iTm { _ctm setmatrix _tm concat } bd
/Tm { _tm astore pop iTm 0 0 moveto } bd
/ux 0.0 def
/uy 0.0 def
/F {
  /Tp exch def
  /Tf exch def
  Tf findfont Tp scalefont setfont
  /cf Tf def  /cs Tp def
} bd
/ULS {currentpoint /uy exch def /ux exch def} bd
/ULE {
  /Tcx currentpoint pop def
  gsave
  newpath
  cf findfont cs scalefont dup
  /FontMatrix get 0 get /Ts exch def /FontInfo get dup
  /UnderlinePosition get Ts mul /To exch def
  /UnderlineThickness get Ts mul /Tt exch def
  ux uy To add moveto  Tcx uy To add lineto
  Tt setlinewidth stroke
  grestore
} bd
/OLE {
  /Tcx currentpoint pop def
  gsave
  newpath
  cf findfont cs scalefont dup
  /FontMatrix get 0 get /Ts exch def /FontInfo get dup
  /UnderlinePosition get Ts mul /To exch def
  /UnderlineThickness get Ts mul /Tt exch def
  ux uy To add cs add moveto Tcx uy To add cs add lineto
  Tt setlinewidth stroke
  grestore
} bd
/SOE {
  /Tcx currentpoint pop def
  gsave
  newpath
  cf findfont cs scalefont dup
  /FontMatrix get 0 get /Ts exch def /FontInfo get dup
  /UnderlinePosition get Ts mul /To exch def
  /UnderlineThickness get Ts mul /Tt exch def
  ux uy To add cs 10 mul 26 idiv add moveto Tcx uy To add cs 10 mul 26 idiv add lineto
  Tt setlinewidth stroke
  grestore
} bd
/QT {
/Y22 exch store
/X22 exch store
/Y21 exch store
/X21 exch store
currentpoint
/Y21 load 2 mul add 3 div exch
/X21 load 2 mul add 3 div exch
/X21 load 2 mul /X22 load add 3 div
/Y21 load 2 mul /Y22 load add 3 div
/X22 load /Y22 load curveto
} bd
/SSPD {
dup length /d exch dict def
{
/v exch def
/k exch def
currentpagedevice k known {
/cpdv currentpagedevice k get def
v cpdv ne {
/upd false def
/nullv v type /nulltype eq def
/nullcpdv cpdv type /nulltype eq def
nullv nullcpdv or
{
/upd true def
} {
/sametype v type cpdv type eq def
sametype {
v type /arraytype eq {
/vlen v length def
/cpdvlen cpdv length def
vlen cpdvlen eq {
0 1 vlen 1 sub {
/i exch def
/obj v i get def
/cpdobj cpdv i get def
obj cpdobj ne {
/upd true def
exit
} if
} for
} {
/upd true def
} ifelse
} {
v type /dicttype eq {
v {
/dv exch def
/dk exch def
/cpddv cpdv dk get def
dv cpddv ne {
/upd true def
exit
} if
} forall
} {
/upd true def
} ifelse
} ifelse
} if
} ifelse
upd true eq {
d k v put
} if
} if
} if
} forall
d length 0 gt {
d setpagedevice
} if
} bd
/RE { % /NewFontName [NewEncodingArray] /FontName RE -
  findfont dup length dict begin
  {
    1 index /FID ne
    {def} {pop pop} ifelse
  } forall
  /Encoding exch def
  /FontName 1 index def
  currentdict definefont pop
  end
} bind def
%%EndResource
%%BeginResource: procset (Apache XML Graphics EPS ProcSet) 1.0 0
%%Version: 1.0 0
%%Copyright: (Copyright 2002-2003 The Apache Software Foundation. License terms: http://www.apache.org/licenses/LICENSE-2.0)
/BeginEPSF { %def
/b4_Inc_state save def         % Save state for cleanup
/dict_count countdictstack def % Count objects on dict stack
/op_count count 1 sub def      % Count objects on operand stack
userdict begin                 % Push userdict on dict stack
/showpage { } def              % Redefine showpage, { } = null proc
0 setgray 0 setlinecap         % Prepare graphics state
1 setlinewidth 0 setlinejoin
10 setmiterlimit [ ] 0 setdash newpath
/languagelevel where           % If level not equal to 1 then
{pop languagelevel             % set strokeadjust and
1 ne                           % overprint to their defaults.
{false setstrokeadjust false setoverprint
} if
} if
} bd
/EndEPSF { %def
count op_count sub {pop} repeat            % Clean up stacks
countdictstack dict_count sub {end} repeat
b4_Inc_state restore
} bd
%%EndResource
%FOPBeginFontDict
%%IncludeResource: font Courier-Oblique
%%IncludeResource: font Courier-BoldOblique
%%IncludeResource: font Courier-Bold
%%IncludeResource: font ZapfDingbats
%%IncludeResource: font Symbol
%%IncludeResource: font Helvetica
%%IncludeResource: font Helvetica-Oblique
%%IncludeResource: font Helvetica-Bold
%%IncludeResource: font Helvetica-BoldOblique
%%IncludeResource: font Times-Roman
%%IncludeResource: font Times-Italic
%%IncludeResource: font Times-Bold
%%IncludeResource: font Times-BoldItalic
%%IncludeResource: font Courier
%FOPEndFontDict
%%BeginResource: encoding WinAnsiEncoding
/WinAnsiEncoding [
/.notdef /.notdef /.notdef /.notdef /.notdef
/.notdef /.notdef /.notdef /.notdef /.notdef
/.notdef /.notdef /.notdef /.notdef /.notdef
/.notdef /.notdef /.notdef /.notdef /.notdef
/.notdef /.notdef /.notdef /.notdef /.notdef
/.notdef /.notdef /.notdef /.notdef /.notdef
/.notdef /.notdef /space /exclam /quotedbl
/numbersign /dollar /percent /ampersand /quotesingle
/parenleft /parenright /asterisk /plus /comma
/hyphen /period /slash /zero /one
/two /three /four /five /six
/seven /eight /nine /colon /semicolon
/less /equal /greater /question /at
/A /B /C /D /E
/F /G /H /I /J
/K /L /M /N /O
/P /Q /R /S /T
/U /V /W /X /Y
/Z /bracketleft /backslash /bracketright /asciicircum
/underscore /quoteleft /a /b /c
/d /e /f /g /h
/i /j /k /l /m
/n /o /p /q /r
/s /t /u /v /w
/x /y /z /braceleft /bar
/braceright /asciitilde /bullet /Euro /bullet
/quotesinglbase /florin /quotedblbase /ellipsis /dagger
/daggerdbl /circumflex /perthousand /Scaron /guilsinglleft
/OE /bullet /Zcaron /bullet /bullet
/quoteleft /quoteright /quotedblleft /quotedblright /bullet
/endash /emdash /asciitilde /trademark /scaron
/guilsinglright /oe /bullet /zcaron /Ydieresis
/space /exclamdown /cent /sterling /currency
/yen /brokenbar /section /dieresis /copyright
/ordfeminine /guillemotleft /logicalnot /sfthyphen /registered
/macron /degree /plusminus /twosuperior /threesuperior
/acute /mu /paragraph /middot /cedilla
/onesuperior /ordmasculine /guillemotright /onequarter /onehalf
/threequarters /questiondown /Agrave /Aacute /Acircumflex
/Atilde /Adieresis /Aring /AE /Ccedilla
/Egrave /Eacute /Ecircumflex /Edieresis /Igrave
/Iacute /Icircumflex /Idieresis /Eth /Ntilde
/Ograve /Oacute /Ocircumflex /Otilde /Odieresis
/multiply /Oslash /Ugrave /Uacute /Ucircumflex
/Udieresis /Yacute /Thorn /germandbls /agrave
/aacute /acircumflex /atilde /adieresis /aring
/ae /ccedilla /egrave /eacute /ecircumflex
/edieresis /igrave /iacute /icircumflex /idieresis
/eth /ntilde /ograve /oacute /ocircumflex
/otilde /odieresis /divide /oslash /ugrave
/uacute /ucircumflex /udieresis /yacute /thorn
/ydieresis
] def
%%EndResource
%FOPBeginFontReencode
/Courier-Oblique findfont
dup length dict begin
  {1 index /FID ne {def} {pop pop} ifelse} forall
  /Encoding WinAnsiEncoding def
  currentdict
end
/Courier-Oblique exch definefont pop
/Courier-BoldOblique findfont
dup length dict begin
  {1 index /FID ne {def} {pop pop} ifelse} forall
  /Encoding WinAnsiEncoding def
  currentdict
end
/Courier-BoldOblique exch definefont pop
/Courier-Bold findfont
dup length dict begin
  {1 index /FID ne {def} {pop pop} ifelse} forall
  /Encoding WinAnsiEncoding def
  currentdict
end
/Courier-Bold exch definefont pop
/Helvetica findfont
dup length dict begin
  {1 index /FID ne {def} {pop pop} ifelse} forall
  /Encoding WinAnsiEncoding def
  currentdict
end
/Helvetica exch definefont pop
/Helvetica-Oblique findfont
dup length dict begin
  {1 index /FID ne {def} {pop pop} ifelse} forall
  /Encoding WinAnsiEncoding def
  currentdict
end
/Helvetica-Oblique exch definefont pop
/Helvetica-Bold findfont
dup length dict begin
  {1 index /FID ne {def} {pop pop} ifelse} forall
  /Encoding WinAnsiEncoding def
  currentdict
end
/Helvetica-Bold exch definefont pop
/Helvetica-BoldOblique findfont
dup length dict begin
  {1 index /FID ne {def} {pop pop} ifelse} forall
  /Encoding WinAnsiEncoding def
  currentdict
end
/Helvetica-BoldOblique exch definefont pop
/Times-Roman findfont
dup length dict begin
  {1 index /FID ne {def} {pop pop} ifelse} forall
  /Encoding WinAnsiEncoding def
  currentdict
end
/Times-Roman exch definefont pop
/Times-Italic findfont
dup length dict begin
  {1 index /FID ne {def} {pop pop} ifelse} forall
  /Encoding WinAnsiEncoding def
  currentdict
end
/Times-Italic exch definefont pop
/Times-Bold findfont
dup length dict begin
  {1 index /FID ne {def} {pop pop} ifelse} forall
  /Encoding WinAnsiEncoding def
  currentdict
end
/Times-Bold exch definefont pop
/Times-BoldItalic findfont
dup length dict begin
  {1 index /FID ne {def} {pop pop} ifelse} forall
  /Encoding WinAnsiEncoding def
  currentdict
end
/Times-BoldItalic exch definefont pop
/Courier findfont
dup length dict begin
  {1 index /FID ne {def} {pop pop} ifelse} forall
  /Encoding WinAnsiEncoding def
  currentdict
end
/Courier exch definefont pop
%FOPEndFontReencode
%%EndProlog
%%Page: 1 1
%%PageBoundingBox: 0 0 288 216
%%BeginPageSetup
[1 0 0 -1 0 216] CT
%%EndPageSetup
GS
1 GC
N
0 0 288 216 re
f
GR
GS
1 GC
N
0 0 288 216 re
f
GR
GS
1 GC
N
48 171.5 M
260.5 171.5 L
260.5 16 L
48 16 L
cp
f
GR
GS
0.149 GC
2 setlinecap
1 LJ
0.5 LW
N
48 171.5 M
260.5 171.5 L
S
GR
GS
0.149 GC
2 setlinecap
1 LJ
0.5 LW
N
48 171.5 M
48 169.375 L
S
GR
GS
0.149 GC
2 setlinecap
1 LJ
0.5 LW
N
101.125 171.5 M
101.125 169.375 L
S
GR
GS
0.149 GC
2 setlinecap
1 LJ
0.5 LW
N
154.25 171.5 M
154.25 169.375 L
S
GR
GS
0.149 GC
2 setlinecap
1 LJ
0.5 LW
N
207.375 171.5 M
207.375 169.375 L
S
GR
GS
0.149 GC
2 setlinecap
1 LJ
0.5 LW
N
260.5 171.5 M
260.5 169.375 L
S
GR
GS
[1 0 0 1 48 176.7] CT
0.149 GC
N
0 13.799 M
-1.953 13.799 -2.664 12.182 QT
-3.375 10.565 -3.375 8.331 QT
-3.375 6.94 -3.117 5.713 QT
-2.859 4.487 -2.109 3.635 QT
-1.359 2.784 0 2.784 QT
1.063 2.784 1.734 3.299 QT
2.406 3.815 2.758 4.627 QT
3.109 5.44 3.234 6.377 QT
3.359 7.315 3.359 8.331 QT
3.359 9.706 3.109 10.909 QT
2.859 12.112 2.117 12.956 QT
1.375 13.799 0 13.799 QT
cp
0 13.377 M
0.891 13.377 1.328 12.463 QT
1.766 11.549 1.867 10.44 QT
1.969 9.331 1.969 8.081 QT
1.969 6.877 1.867 5.862 QT
1.766 4.846 1.336 4.018 QT
0.906 3.19 0 3.19 QT
-0.906 3.19 -1.344 4.018 QT
-1.781 4.846 -1.883 5.862 QT
-1.984 6.877 -1.984 8.081 QT
-1.984 8.971 -1.938 9.76 QT
-1.891 10.549 -1.703 11.385 QT
-1.516 12.221 -1.102 12.799 QT
-0.688 13.377 0 13.377 QT
cp
f
GR
GS
[1 0 0 1 101.125 176.7] CT
0.149 GC
N
-11.069 13.799 M
-13.023 13.799 -13.734 12.182 QT
-14.444 10.565 -14.444 8.331 QT
-14.444 6.94 -14.187 5.713 QT
-13.929 4.487 -13.179 3.635 QT
-12.429 2.784 -11.069 2.784 QT
-10.007 2.784 -9.335 3.299 QT
-8.663 3.815 -8.312 4.627 QT
-7.96 5.44 -7.835 6.377 QT
-7.71 7.315 -7.71 8.331 QT
-7.71 9.706 -7.96 10.909 QT
-8.21 12.112 -8.952 12.956 QT
-9.694 13.799 -11.069 13.799 QT
cp
-11.069 13.377 M
-10.179 13.377 -9.741 12.463 QT
-9.304 11.549 -9.202 10.44 QT
-9.101 9.331 -9.101 8.081 QT
-9.101 6.877 -9.202 5.862 QT
-9.304 4.846 -9.734 4.018 QT
-10.163 3.19 -11.069 3.19 QT
-11.976 3.19 -12.413 4.018 QT
-12.851 4.846 -12.952 5.862 QT
-13.054 6.877 -13.054 8.081 QT
-13.054 8.971 -13.007 9.76 QT
-12.96 10.549 -12.773 11.385 QT
-12.585 12.221 -12.171 12.799 QT
-11.757 13.377 -11.069 13.377 QT
cp
f
GR
GS
[1 0 0 1 101.125 176.7] CT
0.149 GC
N
-5.726 12.549 M
-5.726 12.19 -5.46 11.932 QT
-5.194 11.674 -4.835 11.674 QT
-4.616 11.674 -4.405 11.792 QT
-4.194 11.909 -4.077 12.12 QT
-3.96 12.331 -3.96 12.549 QT
-3.96 12.909 -4.218 13.174 QT
-4.476 13.44 -4.835 13.44 QT
-5.194 13.44 -5.46 13.174 QT
-5.726 12.909 -5.726 12.549 QT
cp
f
GR
GS
[1 0 0 1 101.125 176.7] CT
0.149 GC
N
-1.234 11.612 M
-1.063 12.081 -0.727 12.463 QT
-0.391 12.846 0.078 13.065 QT
0.547 13.284 1.047 13.284 QT
2.203 13.284 2.641 12.385 QT
3.078 11.487 3.078 10.206 QT
3.078 9.643 3.055 9.268 QT
3.031 8.893 2.953 8.534 QT
2.797 7.971 2.43 7.549 QT
2.063 7.127 1.516 7.127 QT
0.984 7.127 0.594 7.292 QT
0.203 7.456 -0.039 7.674 QT
-0.281 7.893 -0.469 8.135 QT
-0.656 8.377 -0.703 8.393 QT
-0.875 8.393 L
-0.922 8.393 -0.977 8.346 QT
-1.031 8.299 -1.031 8.252 QT
-1.031 2.909 L
-1.031 2.862 -0.984 2.823 QT
-0.938 2.784 -0.875 2.784 QT
-0.828 2.784 L
0.25 3.299 1.453 3.299 QT
2.641 3.299 3.75 2.784 QT
3.797 2.784 L
3.844 2.784 3.891 2.823 QT
3.938 2.862 3.938 2.909 QT
3.938 3.049 L
3.938 3.127 3.906 3.127 QT
3.359 3.862 2.539 4.268 QT
1.719 4.674 0.828 4.674 QT
0.188 4.674 -0.484 4.487 QT
-0.484 7.518 L
0.047 7.081 0.469 6.901 QT
0.891 6.721 1.531 6.721 QT
2.422 6.721 3.117 7.229 QT
3.813 7.737 4.188 8.549 QT
4.563 9.362 4.563 10.221 QT
4.563 11.174 4.094 11.995 QT
3.625 12.815 2.813 13.307 QT
2 13.799 1.047 13.799 QT
0.25 13.799 -0.406 13.385 QT
-1.063 12.971 -1.445 12.284 QT
-1.828 11.596 -1.828 10.831 QT
-1.828 10.471 -1.594 10.245 QT
-1.359 10.018 -1 10.018 QT
-0.656 10.018 -0.414 10.245 QT
-0.172 10.471 -0.172 10.831 QT
-0.172 11.174 -0.414 11.409 QT
-0.656 11.643 -1 11.643 QT
-1.063 11.643 -1.133 11.635 QT
-1.203 11.627 -1.234 11.612 QT
cp
f
GR
GS
[1 0 0 1 101.125 176.7] CT
0.149 GC
N
7 13.159 M
7 13.081 7.063 12.909 QT
7.5 11.971 7.891 11.081 QT
8.281 10.19 8.586 9.338 QT
8.891 8.487 9.156 7.534 QT
8.125 7.534 L
7.547 7.534 7.039 7.901 QT
6.531 8.268 6.188 8.831 QT
6.156 8.893 6.094 8.893 QT
5.906 8.893 L
5.766 8.893 5.766 8.737 QT
5.766 8.706 5.797 8.643 QT
6.313 7.752 6.914 7.143 QT
7.516 6.534 8.266 6.534 QT
14.063 6.534 L
14.234 6.534 14.352 6.643 QT
14.469 6.752 14.469 6.94 QT
14.469 7.174 14.297 7.354 QT
14.125 7.534 13.891 7.534 QT
11.859 7.534 L
11.594 8.784 11.578 9.987 QT
11.578 11.518 12.109 12.768 QT
12.156 12.862 12.156 12.956 QT
12.156 13.127 12.055 13.276 QT
11.953 13.424 11.797 13.526 QT
11.641 13.627 11.453 13.627 QT
11.031 13.627 10.875 12.932 QT
10.719 12.237 10.719 11.596 QT
10.719 10.674 10.875 9.831 QT
11.031 8.987 11.375 7.534 QT
9.641 7.534 L
8.375 12.659 8.109 13.174 QT
7.891 13.627 7.484 13.627 QT
7.297 13.627 7.148 13.495 QT
7 13.362 7 13.159 QT
cp
f
GR
GS
[1 0 0 1 154.25 176.7] CT
0.149 GC
N
-3.222 13.159 M
-3.222 13.081 -3.16 12.909 QT
-2.722 11.971 -2.332 11.081 QT
-1.941 10.19 -1.636 9.338 QT
-1.332 8.487 -1.066 7.534 QT
-2.097 7.534 L
-2.675 7.534 -3.183 7.901 QT
-3.691 8.268 -4.035 8.831 QT
-4.066 8.893 -4.128 8.893 QT
-4.316 8.893 L
-4.457 8.893 -4.457 8.737 QT
-4.457 8.706 -4.425 8.643 QT
-3.91 7.752 -3.308 7.143 QT
-2.707 6.534 -1.957 6.534 QT
3.84 6.534 L
4.012 6.534 4.129 6.643 QT
4.247 6.752 4.247 6.94 QT
4.247 7.174 4.075 7.354 QT
3.903 7.534 3.668 7.534 QT
1.637 7.534 L
1.372 8.784 1.356 9.987 QT
1.356 11.518 1.887 12.768 QT
1.934 12.862 1.934 12.956 QT
1.934 13.127 1.832 13.276 QT
1.731 13.424 1.575 13.526 QT
1.418 13.627 1.231 13.627 QT
0.809 13.627 0.653 12.932 QT
0.497 12.237 0.497 11.596 QT
0.497 10.674 0.653 9.831 QT
0.809 8.987 1.153 7.534 QT
-0.582 7.534 L
-1.847 12.659 -2.113 13.174 QT
-2.332 13.627 -2.738 13.627 QT
-2.925 13.627 -3.074 13.495 QT
-3.222 13.362 -3.222 13.159 QT
cp
f
GR
GS
[1 0 0 1 207.375 176.7] CT
0.149 GC
N
-13.585 13.44 M
-13.585 12.877 L
-11.585 12.877 -11.585 12.362 QT
-11.585 3.971 L
-12.413 4.362 -13.679 4.362 QT
-13.679 3.799 L
-11.71 3.799 -10.71 2.784 QT
-10.491 2.784 L
-10.429 2.784 -10.382 2.823 QT
-10.335 2.862 -10.335 2.924 QT
-10.335 12.362 L
-10.335 12.877 -8.335 12.877 QT
-8.335 13.44 L
-13.585 13.44 L
cp
f
GR
GS
[1 0 0 1 207.375 176.7] CT
0.149 GC
N
/f-1286228019{-5.726 12.549 M
-5.726 12.19 -5.46 11.932 QT
-5.194 11.674 -4.835 11.674 QT
-4.616 11.674 -4.405 11.792 QT
-4.194 11.909 -4.077 12.12 QT
-3.96 12.331 -3.96 12.549 QT
-3.96 12.909 -4.218 13.174 QT
-4.476 13.44 -4.835 13.44 QT
-5.194 13.44 -5.46 13.174 QT
-5.726 12.909 -5.726 12.549 QT
cp}def
f-1286228019
f
GR
GS
[1 0 0 1 207.375 176.7] CT
0.149 GC
N
/f-142343948{-1.234 11.612 M
-1.063 12.081 -0.727 12.463 QT
-0.391 12.846 0.078 13.065 QT
0.547 13.284 1.047 13.284 QT
2.203 13.284 2.641 12.385 QT
3.078 11.487 3.078 10.206 QT
3.078 9.643 3.055 9.268 QT
3.031 8.893 2.953 8.534 QT
2.797 7.971 2.43 7.549 QT
2.063 7.127 1.516 7.127 QT
0.984 7.127 0.594 7.292 QT
0.203 7.456 -0.039 7.674 QT
-0.281 7.893 -0.469 8.135 QT
-0.656 8.377 -0.703 8.393 QT
-0.875 8.393 L
-0.922 8.393 -0.977 8.346 QT
-1.031 8.299 -1.031 8.252 QT
-1.031 2.909 L
-1.031 2.862 -0.984 2.823 QT
-0.938 2.784 -0.875 2.784 QT
-0.828 2.784 L
0.25 3.299 1.453 3.299 QT
2.641 3.299 3.75 2.784 QT
3.797 2.784 L
3.844 2.784 3.891 2.823 QT
3.938 2.862 3.938 2.909 QT
3.938 3.049 L
3.938 3.127 3.906 3.127 QT
3.359 3.862 2.539 4.268 QT
1.719 4.674 0.828 4.674 QT
0.188 4.674 -0.484 4.487 QT
-0.484 7.518 L
0.047 7.081 0.469 6.901 QT
0.891 6.721 1.531 6.721 QT
2.422 6.721 3.117 7.229 QT
3.813 7.737 4.188 8.549 QT
4.563 9.362 4.563 10.221 QT
4.563 11.174 4.094 11.995 QT
3.625 12.815 2.813 13.307 QT
2 13.799 1.047 13.799 QT
0.25 13.799 -0.406 13.385 QT
-1.063 12.971 -1.445 12.284 QT
-1.828 11.596 -1.828 10.831 QT
-1.828 10.471 -1.594 10.245 QT
-1.359 10.018 -1 10.018 QT
-0.656 10.018 -0.414 10.245 QT
-0.172 10.471 -0.172 10.831 QT
-0.172 11.174 -0.414 11.409 QT
-0.656 11.643 -1 11.643 QT
-1.063 11.643 -1.133 11.635 QT
-1.203 11.627 -1.234 11.612 QT
cp}def
f-142343948
f
GR
GS
[1 0 0 1 207.375 176.7] CT
0.149 GC
N
/f316633176{7 13.159 M
7 13.081 7.063 12.909 QT
7.5 11.971 7.891 11.081 QT
8.281 10.19 8.586 9.338 QT
8.891 8.487 9.156 7.534 QT
8.125 7.534 L
7.547 7.534 7.039 7.901 QT
6.531 8.268 6.188 8.831 QT
6.156 8.893 6.094 8.893 QT
5.906 8.893 L
5.766 8.893 5.766 8.737 QT
5.766 8.706 5.797 8.643 QT
6.313 7.752 6.914 7.143 QT
7.516 6.534 8.266 6.534 QT
14.063 6.534 L
14.234 6.534 14.352 6.643 QT
14.469 6.752 14.469 6.94 QT
14.469 7.174 14.297 7.354 QT
14.125 7.534 13.891 7.534 QT
11.859 7.534 L
11.594 8.784 11.578 9.987 QT
11.578 11.518 12.109 12.768 QT
12.156 12.862 12.156 12.956 QT
12.156 13.127 12.055 13.276 QT
11.953 13.424 11.797 13.526 QT
11.641 13.627 11.453 13.627 QT
11.031 13.627 10.875 12.932 QT
10.719 12.237 10.719 11.596 QT
10.719 10.674 10.875 9.831 QT
11.031 8.987 11.375 7.534 QT
9.641 7.534 L
8.375 12.659 8.109 13.174 QT
7.891 13.627 7.484 13.627 QT
7.297 13.627 7.148 13.495 QT
7 13.362 7 13.159 QT
cp}def
f316633176
f
GR
GS
[1 0 0 1 260.5 176.7] CT
0.149 GC
N
/f-1792824472{-8.05 13.44 M
-8.05 13.002 L
-8.05 12.971 -8.019 12.924 QT
-5.535 10.174 L
-4.972 9.565 -4.621 9.151 QT
-4.269 8.737 -3.925 8.198 QT
-3.582 7.659 -3.378 7.096 QT
-3.175 6.534 -3.175 5.909 QT
-3.175 5.252 -3.418 4.659 QT
-3.66 4.065 -4.144 3.706 QT
-4.628 3.346 -5.3 3.346 QT
-6.003 3.346 -6.558 3.76 QT
-7.113 4.174 -7.332 4.846 QT
-7.269 4.831 -7.16 4.831 QT
-6.8 4.831 -6.55 5.073 QT
-6.3 5.315 -6.3 5.69 QT
-6.3 6.065 -6.55 6.315 QT
-6.8 6.565 -7.16 6.565 QT
-7.535 6.565 -7.793 6.307 QT
-8.05 6.049 -8.05 5.69 QT
-8.05 5.096 -7.824 4.565 QT
-7.597 4.034 -7.168 3.627 QT
-6.738 3.221 -6.207 3.002 QT
-5.675 2.784 -5.066 2.784 QT
-4.16 2.784 -3.371 3.167 QT
-2.582 3.549 -2.121 4.26 QT
-1.66 4.971 -1.66 5.909 QT
-1.66 6.612 -1.964 7.237 QT
-2.269 7.862 -2.746 8.37 QT
-3.222 8.877 -3.964 9.526 QT
-4.707 10.174 -4.941 10.393 QT
-6.753 12.143 L
-5.207 12.143 L
-4.082 12.143 -3.316 12.12 QT
-2.55 12.096 -2.503 12.065 QT
-2.316 11.862 -2.128 10.581 QT
-1.66 10.581 L
-2.113 13.44 L
-8.05 13.44 L
cp}def
f-1792824472
f
GR
GS
[1 0 0 1 260.5 176.7] CT
0.149 GC
N
/f-1959788097{0.778 13.159 M
0.778 13.081 0.84 12.909 QT
1.278 11.971 1.668 11.081 QT
2.059 10.19 2.364 9.338 QT
2.668 8.487 2.934 7.534 QT
1.903 7.534 L
1.325 7.534 0.817 7.901 QT
0.309 8.268 -0.035 8.831 QT
-0.066 8.893 -0.128 8.893 QT
-0.316 8.893 L
-0.457 8.893 -0.457 8.737 QT
-0.457 8.706 -0.425 8.643 QT
0.09 7.752 0.692 7.143 QT
1.293 6.534 2.043 6.534 QT
7.84 6.534 L
8.012 6.534 8.129 6.643 QT
8.247 6.752 8.247 6.94 QT
8.247 7.174 8.075 7.354 QT
7.903 7.534 7.668 7.534 QT
5.637 7.534 L
5.372 8.784 5.356 9.987 QT
5.356 11.518 5.887 12.768 QT
5.934 12.862 5.934 12.956 QT
5.934 13.127 5.832 13.276 QT
5.731 13.424 5.575 13.526 QT
5.418 13.627 5.231 13.627 QT
4.809 13.627 4.653 12.932 QT
4.497 12.237 4.497 11.596 QT
4.497 10.674 4.653 9.831 QT
4.809 8.987 5.153 7.534 QT
3.418 7.534 L
2.153 12.659 1.887 13.174 QT
1.668 13.627 1.262 13.627 QT
1.075 13.627 0.926 13.495 QT
0.778 13.362 0.778 13.159 QT
cp}def
f-1959788097
f
GR
GS
[1 0 0 1 154.25011 196.8] CT
0.149 GC
N
/f-1087693607{-1.657 16.565 M
-0.939 13.674 L
-1.751 13.674 -2.454 13.292 QT
-3.157 12.909 -3.587 12.229 QT
-4.017 11.549 -4.017 10.752 QT
-4.017 9.877 -3.587 9.088 QT
-3.157 8.299 -2.407 7.659 QT
-1.657 7.018 -0.798 6.667 QT
0.061 6.315 0.905 6.315 QT
1.858 2.424 L
1.89 2.331 1.983 2.331 QT
2.186 2.331 L
2.249 2.331 2.288 2.385 QT
2.327 2.44 2.327 2.487 QT
1.358 6.315 L
1.968 6.315 2.53 6.534 QT
3.093 6.752 3.522 7.151 QT
3.952 7.549 4.194 8.081 QT
4.436 8.612 4.436 9.221 QT
4.436 10.096 4.007 10.885 QT
3.577 11.674 2.851 12.307 QT
2.124 12.94 1.233 13.307 QT
0.343 13.674 -0.47 13.674 QT
-1.204 16.627 L
-1.235 16.721 -1.345 16.721 QT
-1.532 16.721 L
-1.595 16.721 -1.626 16.667 QT
-1.657 16.612 -1.657 16.565 QT
cp
-0.845 13.237 M
0.796 6.737 L
0.39 6.737 -0.056 6.901 QT
-0.501 7.065 -0.899 7.315 QT
-1.298 7.565 -1.61 7.877 QT
-2.001 8.268 -2.298 8.799 QT
-2.595 9.331 -2.751 9.924 QT
-2.907 10.518 -2.907 11.081 QT
-2.907 11.69 -2.649 12.182 QT
-2.392 12.674 -1.923 12.956 QT
-1.454 13.237 -0.845 13.237 QT
cp
-0.36 13.237 M
0.233 13.237 0.913 12.893 QT
1.593 12.549 2.03 12.096 QT
2.64 11.502 2.983 10.635 QT
3.327 9.768 3.327 8.893 QT
3.327 8.299 3.069 7.799 QT
2.811 7.299 2.343 7.018 QT
1.874 6.737 1.265 6.737 QT
-0.36 13.237 L
cp}def
f-1087693607
f
GR
GS
0.149 GC
2 setlinecap
1 LJ
0.5 LW
N
48 171.5 M
48 16 L
S
GR
GS
0.149 GC
2 setlinecap
1 LJ
0.5 LW
N
48 171.5 M
50.125 171.5 L
S
GR
GS
0.149 GC
2 setlinecap
1 LJ
0.5 LW
N
48 93.75 M
50.125 93.75 L
S
GR
GS
0.149 GC
2 setlinecap
1 LJ
0.5 LW
N
48 16 M
50.125 16 L
S
GR
GS
[1 0 0 1 42.8 171.5] CT
0.149 GC
N
/f-778410435{-4 4.199 M
-5.953 4.199 -6.664 2.582 QT
-7.375 0.965 -7.375 -1.269 QT
-7.375 -2.66 -7.117 -3.887 QT
-6.859 -5.113 -6.109 -5.965 QT
-5.359 -6.816 -4 -6.816 QT
-2.938 -6.816 -2.266 -6.301 QT
-1.594 -5.785 -1.242 -4.973 QT
-0.891 -4.16 -0.766 -3.223 QT
-0.641 -2.285 -0.641 -1.269 QT
-0.641 0.106 -0.891 1.309 QT
-1.141 2.512 -1.883 3.356 QT
-2.625 4.199 -4 4.199 QT
cp
-4 3.777 M
-3.109 3.777 -2.672 2.863 QT
-2.234 1.949 -2.133 0.84 QT
-2.031 -0.269 -2.031 -1.519 QT
-2.031 -2.723 -2.133 -3.738 QT
-2.234 -4.754 -2.664 -5.582 QT
-3.094 -6.41 -4 -6.41 QT
-4.906 -6.41 -5.344 -5.582 QT
-5.781 -4.754 -5.883 -3.738 QT
-5.984 -2.723 -5.984 -1.519 QT
-5.984 -0.629 -5.938 0.16 QT
-5.891 0.949 -5.703 1.785 QT
-5.516 2.621 -5.102 3.199 QT
-4.688 3.777 -4 3.777 QT
cp}def
f-778410435
f
GR
GS
[1 0 0 1 42.8 93.75] CT
0.149 GC
N
/f1595697370{-16.445 4.199 M
-18.398 4.199 -19.109 2.582 QT
-19.82 0.965 -19.82 -1.269 QT
-19.82 -2.66 -19.562 -3.887 QT
-19.304 -5.113 -18.554 -5.965 QT
-17.804 -6.816 -16.445 -6.816 QT
-15.382 -6.816 -14.71 -6.301 QT
-14.038 -5.785 -13.687 -4.973 QT
-13.335 -4.16 -13.21 -3.223 QT
-13.085 -2.285 -13.085 -1.269 QT
-13.085 0.106 -13.335 1.309 QT
-13.585 2.512 -14.327 3.356 QT
-15.07 4.199 -16.445 4.199 QT
cp
-16.445 3.777 M
-15.554 3.777 -15.116 2.863 QT
-14.679 1.949 -14.577 0.84 QT
-14.476 -0.269 -14.476 -1.519 QT
-14.476 -2.723 -14.577 -3.738 QT
-14.679 -4.754 -15.109 -5.582 QT
-15.538 -6.41 -16.445 -6.41 QT
-17.351 -6.41 -17.788 -5.582 QT
-18.226 -4.754 -18.327 -3.738 QT
-18.429 -2.723 -18.429 -1.519 QT
-18.429 -0.629 -18.382 0.16 QT
-18.335 0.949 -18.148 1.785 QT
-17.96 2.621 -17.546 3.199 QT
-17.132 3.777 -16.445 3.777 QT
cp}def
f1595697370
f
GR
GS
[1 0 0 1 42.8 93.75] CT
0.149 GC
N
/f772294982{-11.101 2.949 M
-11.101 2.59 -10.835 2.332 QT
-10.569 2.074 -10.21 2.074 QT
-9.991 2.074 -9.78 2.192 QT
-9.569 2.309 -9.452 2.52 QT
-9.335 2.731 -9.335 2.949 QT
-9.335 3.309 -9.593 3.574 QT
-9.851 3.84 -10.21 3.84 QT
-10.569 3.84 -10.835 3.574 QT
-11.101 3.309 -11.101 2.949 QT
cp}def
f772294982
f
GR
GS
[1 0 0 1 42.8 93.75] CT
0.149 GC
N
/f-355840897{-7.203 3.84 M
-7.203 3.402 L
-7.203 3.371 -7.172 3.324 QT
-4.688 0.574 L
-4.125 -0.035 -3.773 -0.449 QT
-3.422 -0.863 -3.078 -1.402 QT
-2.734 -1.941 -2.531 -2.504 QT
-2.328 -3.066 -2.328 -3.691 QT
-2.328 -4.348 -2.57 -4.941 QT
-2.813 -5.535 -3.297 -5.894 QT
-3.781 -6.254 -4.453 -6.254 QT
-5.156 -6.254 -5.711 -5.84 QT
-6.266 -5.426 -6.484 -4.754 QT
-6.422 -4.769 -6.313 -4.769 QT
-5.953 -4.769 -5.703 -4.527 QT
-5.453 -4.285 -5.453 -3.91 QT
-5.453 -3.535 -5.703 -3.285 QT
-5.953 -3.035 -6.313 -3.035 QT
-6.688 -3.035 -6.945 -3.293 QT
-7.203 -3.551 -7.203 -3.91 QT
-7.203 -4.504 -6.977 -5.035 QT
-6.75 -5.566 -6.32 -5.973 QT
-5.891 -6.379 -5.359 -6.598 QT
-4.828 -6.816 -4.219 -6.816 QT
-3.313 -6.816 -2.523 -6.433 QT
-1.734 -6.051 -1.273 -5.34 QT
-0.813 -4.629 -0.813 -3.691 QT
-0.813 -2.988 -1.117 -2.363 QT
-1.422 -1.738 -1.898 -1.23 QT
-2.375 -0.723 -3.117 -0.074 QT
-3.859 0.574 -4.094 0.793 QT
-5.906 2.543 L
-4.359 2.543 L
-3.234 2.543 -2.469 2.52 QT
-1.703 2.496 -1.656 2.465 QT
-1.469 2.262 -1.281 0.981 QT
-0.813 0.981 L
-1.266 3.84 L
-7.203 3.84 L
cp}def
f-355840897
f
GR
GS
[1 0 0 1 42.8 16] CT
0.149 GC
N
f1595697370
f
GR
GS
[1 0 0 1 42.8 16] CT
0.149 GC
N
f772294982
f
GR
GS
[1 0 0 1 42.8 16] CT
0.149 GC
N
/f42575179{-7.547 1.199 M
-7.547 0.637 L
-2.609 -6.738 L
-2.547 -6.816 -2.438 -6.816 QT
-2.203 -6.816 L
-2.031 -6.816 -2.031 -6.644 QT
-2.031 0.637 L
-0.453 0.637 L
-0.453 1.199 L
-2.031 1.199 L
-2.031 2.762 L
-2.031 3.09 -1.563 3.184 QT
-1.094 3.277 -0.469 3.277 QT
-0.469 3.84 L
-4.875 3.84 L
-4.875 3.277 L
-4.266 3.277 -3.797 3.184 QT
-3.328 3.09 -3.328 2.762 QT
-3.328 1.199 L
-7.547 1.199 L
cp
-7.016 0.637 M
-3.234 0.637 L
-3.234 -5.035 L
-7.016 0.637 L
cp}def
f42575179
f
GR
GS
[0 -1 1 0 19.2 93.74992] CT
0.149 GC
N
/f-246412620{-15.42 -2.651 M
-15.561 -2.651 -15.561 -2.854 QT
-15.514 -3.213 -15.358 -3.213 QT
-14.842 -3.213 -14.647 -3.299 QT
-14.451 -3.385 -14.342 -3.76 QT
-12.53 -10.963 L
-12.42 -11.26 -12.42 -11.729 QT
-12.42 -12.416 -12.889 -12.416 QT
-13.389 -12.416 -13.631 -11.823 QT
-13.873 -11.229 -14.092 -10.307 QT
-14.092 -10.213 -14.233 -10.213 QT
-14.42 -10.213 L
-14.451 -10.213 -14.498 -10.268 QT
-14.545 -10.323 -14.545 -10.369 QT
-14.373 -11.073 -14.217 -11.557 QT
-14.061 -12.041 -13.717 -12.44 QT
-13.373 -12.838 -12.873 -12.838 QT
-12.326 -12.838 -11.912 -12.526 QT
-11.498 -12.213 -11.373 -11.682 QT
-10.936 -12.198 -10.405 -12.518 QT
-9.873 -12.838 -9.311 -12.838 QT
-8.639 -12.838 -8.147 -12.479 QT
-7.655 -12.119 -7.405 -11.533 QT
-7.155 -10.948 -7.155 -10.276 QT
-7.155 -9.244 -7.678 -8.143 QT
-8.201 -7.041 -9.108 -6.307 QT
-10.014 -5.573 -11.045 -5.573 QT
-11.514 -5.573 -11.889 -5.846 QT
-12.264 -6.119 -12.483 -6.541 QT
-13.201 -3.698 L
-13.248 -3.463 -13.248 -3.416 QT
-13.248 -3.213 -12.201 -3.213 QT
-12.03 -3.213 -12.03 -3.01 QT
-12.092 -2.791 -12.123 -2.721 QT
-12.155 -2.651 -12.311 -2.651 QT
-15.42 -2.651 L
cp
-11.03 -6.01 M
-10.467 -6.01 -9.99 -6.463 QT
-9.514 -6.916 -9.217 -7.494 QT
-8.998 -7.916 -8.811 -8.541 QT
-8.623 -9.166 -8.483 -9.869 QT
-8.342 -10.573 -8.342 -10.979 QT
-8.342 -11.354 -8.436 -11.674 QT
-8.53 -11.994 -8.756 -12.205 QT
-8.983 -12.416 -9.342 -12.416 QT
-9.936 -12.416 -10.451 -12.002 QT
-10.967 -11.588 -11.389 -10.963 QT
-11.389 -10.916 L
-12.28 -7.385 L
-12.17 -6.807 -11.858 -6.408 QT
-11.545 -6.01 -11.03 -6.01 QT
cp}def
f-246412620
f
GR
GS
[0 -1 1 0 19.2 93.74992] CT
0.149 GC
N
/f-248773660{-1.995 -1.791 M
-2.886 -2.494 -3.534 -3.401 QT
-4.183 -4.307 -4.589 -5.346 QT
-4.995 -6.385 -5.198 -7.51 QT
-5.401 -8.635 -5.401 -9.76 QT
-5.401 -10.916 -5.198 -12.041 QT
-4.995 -13.166 -4.581 -14.205 QT
-4.167 -15.244 -3.519 -16.151 QT
-2.87 -17.057 -1.995 -17.729 QT
-1.995 -17.76 -1.917 -17.76 QT
-1.776 -17.76 L
-1.73 -17.76 -1.69 -17.721 QT
-1.651 -17.682 -1.651 -17.619 QT
-1.651 -17.557 -1.683 -17.526 QT
-2.464 -16.76 -2.98 -15.885 QT
-3.495 -15.01 -3.815 -14.018 QT
-4.136 -13.026 -4.276 -11.971 QT
-4.417 -10.916 -4.417 -9.76 QT
-4.417 -4.666 -1.698 -2.026 QT
-1.651 -1.979 -1.651 -1.901 QT
-1.651 -1.854 -1.69 -1.807 QT
-1.73 -1.76 -1.776 -1.76 QT
-1.917 -1.76 L
-1.995 -1.76 -1.995 -1.791 QT
cp}def
f-248773660
f
GR
GS
[0 -1 1 0 19.2 93.74992] CT
0.149 GC
N
/f1400619441{2.368 -2.635 M
3.086 -5.526 L
2.274 -5.526 1.571 -5.908 QT
0.868 -6.291 0.438 -6.971 QT
0.008 -7.651 0.008 -8.448 QT
0.008 -9.323 0.438 -10.112 QT
0.868 -10.901 1.618 -11.541 QT
2.368 -12.182 3.227 -12.533 QT
4.086 -12.885 4.93 -12.885 QT
5.883 -16.776 L
5.915 -16.869 6.008 -16.869 QT
6.211 -16.869 L
6.274 -16.869 6.313 -16.815 QT
6.352 -16.76 6.352 -16.713 QT
5.383 -12.885 L
5.993 -12.885 6.555 -12.666 QT
7.118 -12.448 7.547 -12.049 QT
7.977 -11.651 8.219 -11.119 QT
8.461 -10.588 8.461 -9.979 QT
8.461 -9.104 8.032 -8.315 QT
7.602 -7.526 6.876 -6.893 QT
6.149 -6.26 5.258 -5.893 QT
4.368 -5.526 3.555 -5.526 QT
2.821 -2.573 L
2.79 -2.479 2.68 -2.479 QT
2.493 -2.479 L
2.43 -2.479 2.399 -2.533 QT
2.368 -2.588 2.368 -2.635 QT
cp
3.18 -5.963 M
4.821 -12.463 L
4.415 -12.463 3.969 -12.299 QT
3.524 -12.135 3.126 -11.885 QT
2.727 -11.635 2.415 -11.323 QT
2.024 -10.932 1.727 -10.401 QT
1.43 -9.869 1.274 -9.276 QT
1.118 -8.682 1.118 -8.119 QT
1.118 -7.51 1.376 -7.018 QT
1.633 -6.526 2.102 -6.244 QT
2.571 -5.963 3.18 -5.963 QT
cp
3.665 -5.963 M
4.258 -5.963 4.938 -6.307 QT
5.618 -6.651 6.055 -7.104 QT
6.665 -7.698 7.008 -8.565 QT
7.352 -9.432 7.352 -10.307 QT
7.352 -10.901 7.094 -11.401 QT
6.836 -11.901 6.368 -12.182 QT
5.899 -12.463 5.29 -12.463 QT
3.665 -5.963 L
cp}def
f1400619441
f
GR
GS
[0 -1 1 0 19.2 93.74992] CT
0.149 GC
N
/f896686834{9.839 -1.76 M
9.698 -1.76 9.698 -1.901 QT
9.698 -1.963 9.729 -1.994 QT
12.464 -4.666 12.464 -9.76 QT
12.464 -14.854 9.76 -17.494 QT
9.698 -17.526 9.698 -17.619 QT
9.698 -17.682 9.737 -17.721 QT
9.776 -17.76 9.839 -17.76 QT
9.979 -17.76 L
10.026 -17.76 10.057 -17.729 QT
11.214 -16.823 11.979 -15.526 QT
12.745 -14.229 13.096 -12.76 QT
13.448 -11.291 13.448 -9.76 QT
13.448 -8.635 13.26 -7.533 QT
13.073 -6.432 12.651 -5.362 QT
12.229 -4.291 11.589 -3.393 QT
10.948 -2.494 10.057 -1.791 QT
10.026 -1.76 9.979 -1.76 QT
9.839 -1.76 L
cp}def
f896686834
f
GR
GS
0.498 GC
N
53.175 157.084 M
48 157.084 L
48 171.5 L
53.175 171.5 L
58.349 171.5 L
58.349 157.084 L
cp
63.524 171.5 M
63.524 124.647 L
58.349 124.647 L
58.349 171.5 L
cp
68.698 171.5 M
68.698 131.856 L
63.524 131.856 L
63.524 171.5 L
cp
73.873 142.668 M
68.698 142.668 L
68.698 171.5 L
73.873 171.5 L
79.047 171.5 L
79.047 142.668 L
cp
84.222 171.5 M
84.222 103.023 L
79.047 103.023 L
79.047 171.5 L
cp
89.396 171.5 M
89.396 117.439 L
84.222 117.439 L
84.222 171.5 L
cp
94.571 171.5 M
94.571 142.668 L
89.396 142.668 L
89.396 171.5 L
cp
99.745 171.5 M
99.745 135.46 L
94.571 135.46 L
94.571 171.5 L
cp
104.92 171.5 M
104.92 95.815 L
99.745 95.815 L
99.745 171.5 L
cp
110.094 171.5 M
110.094 63.379 L
104.92 63.379 L
104.92 171.5 L
cp
115.269 95.815 M
110.094 95.815 L
110.094 171.5 L
115.269 171.5 L
120.443 171.5 L
120.443 95.815 L
cp
125.618 171.5 M
125.618 92.211 L
120.443 92.211 L
120.443 171.5 L
cp
130.792 171.5 M
130.792 106.627 L
125.618 106.627 L
125.618 171.5 L
cp
135.967 171.5 M
135.967 74.191 L
130.792 74.191 L
130.792 171.5 L
cp
141.141 171.5 M
141.141 88.607 L
135.967 88.607 L
135.967 171.5 L
cp
146.316 171.5 M
146.316 85.003 L
141.141 85.003 L
141.141 171.5 L
cp
151.49 171.5 M
151.49 103.023 L
146.316 103.023 L
146.316 171.5 L
cp
156.665 171.5 M
156.665 70.587 L
151.49 70.587 L
151.49 171.5 L
cp
161.84 171.5 M
161.84 81.399 L
156.665 81.399 L
156.665 171.5 L
cp
167.014 171.5 M
167.014 99.419 L
161.84 99.419 L
161.84 171.5 L
cp
172.189 171.5 M
172.189 45.359 L
167.014 45.359 L
167.014 171.5 L
cp
177.363 171.5 M
177.363 52.567 L
172.189 52.567 L
172.189 171.5 L
cp
182.538 171.5 M
182.538 66.983 L
177.363 66.983 L
177.363 171.5 L
cp
187.712 171.5 M
187.712 88.607 L
182.538 88.607 L
182.538 171.5 L
cp
192.887 171.5 M
192.887 74.191 L
187.712 74.191 L
187.712 171.5 L
cp
198.061 171.5 M
198.061 66.983 L
192.887 66.983 L
192.887 171.5 L
cp
203.236 171.5 M
203.236 99.419 L
198.061 99.419 L
198.061 171.5 L
cp
208.41 171.5 M
208.41 106.627 L
203.236 106.627 L
203.236 171.5 L
cp
213.585 171.5 M
213.585 131.856 L
208.41 131.856 L
208.41 171.5 L
cp
218.759 171.5 M
218.759 103.023 L
213.585 103.023 L
213.585 171.5 L
cp
223.934 124.647 M
218.759 124.647 L
218.759 171.5 L
223.934 171.5 L
229.108 171.5 L
229.108 124.647 L
cp
234.283 146.272 M
229.108 146.272 L
229.108 171.5 L
234.283 171.5 L
239.457 171.5 L
239.457 146.272 L
cp
244.632 171.5 M
244.632 153.48 L
239.457 153.48 L
239.457 171.5 L
cp
249.806 149.876 M
244.632 149.876 L
244.632 171.5 L
249.806 171.5 L
254.981 171.5 L
254.981 149.876 L
cp
260.156 171.5 M
260.156 153.48 L
254.981 153.48 L
254.981 171.5 L
cp
f
GR
GS
2 setlinecap
10.0 ML
0.5 LW
N
48 171.5 M
48 157.084 L
53.175 157.084 L
53.175 171.5 L
53.175 171.5 L
S
GR
GS
2 setlinecap
10.0 ML
0.5 LW
N
53.175 157.084 M
58.349 157.084 L
S
GR
GS
2 setlinecap
10.0 ML
0.5 LW
N
58.349 171.5 M
58.349 171.5 L
58.349 124.647 L
63.524 124.647 L
63.524 171.5 L
63.524 171.5 L
S
GR
GS
2 setlinecap
10.0 ML
0.5 LW
N
63.524 131.856 M
68.698 131.856 L
68.698 171.5 L
68.698 171.5 L
S
GR
GS
2 setlinecap
10.0 ML
0.5 LW
N
68.698 142.668 M
73.873 142.668 L
S
GR
GS
2 setlinecap
10.0 ML
0.5 LW
N
73.873 171.5 M
73.873 171.5 L
73.873 142.668 L
79.047 142.668 L
S
GR
GS
2 setlinecap
10.0 ML
0.5 LW
N
79.047 171.5 M
79.047 171.5 L
79.047 103.023 L
84.222 103.023 L
84.222 171.5 L
84.222 171.5 L
S
GR
GS
2 setlinecap
10.0 ML
0.5 LW
N
84.222 117.439 M
89.396 117.439 L
89.396 171.5 L
89.396 171.5 L
S
GR
GS
2 setlinecap
10.0 ML
0.5 LW
N
89.396 142.668 M
94.571 142.668 L
S
GR
GS
2 setlinecap
10.0 ML
0.5 LW
N
94.571 171.5 M
94.571 171.5 L
94.571 135.46 L
99.745 135.46 L
S
GR
GS
2 setlinecap
10.0 ML
0.5 LW
N
99.745 171.5 M
99.745 171.5 L
99.745 95.815 L
104.92 95.815 L
S
GR
GS
2 setlinecap
10.0 ML
0.5 LW
N
104.92 171.5 M
104.92 171.5 L
104.92 63.379 L
110.094 63.379 L
110.094 171.5 L
110.094 171.5 L
S
GR
GS
2 setlinecap
10.0 ML
0.5 LW
N
110.094 95.815 M
115.269 95.815 L
115.269 171.5 L
115.269 171.5 L
S
GR
GS
2 setlinecap
10.0 ML
0.5 LW
N
115.269 95.815 M
120.443 95.815 L
S
GR
GS
2 setlinecap
10.0 ML
0.5 LW
N
120.443 171.5 M
120.443 171.5 L
120.443 92.211 L
125.618 92.211 L
125.618 171.5 L
125.618 171.5 L
S
GR
GS
2 setlinecap
10.0 ML
0.5 LW
N
125.618 106.627 M
130.792 106.627 L
S
GR
GS
2 setlinecap
10.0 ML
0.5 LW
N
130.792 171.5 M
130.792 171.5 L
130.792 74.191 L
135.967 74.191 L
135.967 171.5 L
135.967 171.5 L
S
GR
GS
2 setlinecap
10.0 ML
0.5 LW
N
135.967 88.607 M
141.141 88.607 L
S
GR
GS
2 setlinecap
10.0 ML
0.5 LW
N
141.141 171.5 M
141.141 171.5 L
141.141 85.003 L
146.316 85.003 L
146.316 171.5 L
146.316 171.5 L
S
GR
GS
2 setlinecap
10.0 ML
0.5 LW
N
146.316 103.023 M
151.49 103.023 L
S
GR
GS
2 setlinecap
10.0 ML
0.5 LW
N
151.49 171.5 M
151.49 171.5 L
151.49 70.587 L
156.665 70.587 L
156.665 171.5 L
156.665 171.5 L
S
GR
GS
2 setlinecap
10.0 ML
0.5 LW
N
156.665 81.399 M
161.84 81.399 L
161.84 171.5 L
161.84 171.5 L
S
GR
GS
2 setlinecap
10.0 ML
0.5 LW
N
161.84 99.419 M
167.014 99.419 L
S
GR
GS
2 setlinecap
10.0 ML
0.5 LW
N
167.014 171.5 M
167.014 171.5 L
167.014 45.359 L
172.189 45.359 L
172.189 171.5 L
172.189 171.5 L
S
GR
GS
2 setlinecap
10.0 ML
0.5 LW
N
172.189 52.567 M
177.363 52.567 L
177.363 171.5 L
177.363 171.5 L
S
GR
GS
2 setlinecap
10.0 ML
0.5 LW
N
177.363 66.983 M
182.538 66.983 L
182.538 171.5 L
182.538 171.5 L
S
GR
GS
2 setlinecap
10.0 ML
0.5 LW
N
182.538 88.607 M
187.712 88.607 L
S
GR
GS
2 setlinecap
10.0 ML
0.5 LW
N
187.712 171.5 M
187.712 171.5 L
187.712 74.191 L
192.887 74.191 L
S
GR
GS
2 setlinecap
10.0 ML
0.5 LW
N
192.887 171.5 M
192.887 171.5 L
192.887 66.983 L
198.061 66.983 L
198.061 171.5 L
198.061 171.5 L
S
GR
GS
2 setlinecap
10.0 ML
0.5 LW
N
198.061 99.419 M
203.236 99.419 L
203.236 171.5 L
203.236 171.5 L
S
GR
GS
2 setlinecap
10.0 ML
0.5 LW
N
203.236 106.627 M
208.41 106.627 L
208.41 171.5 L
208.41 171.5 L
S
GR
GS
2 setlinecap
10.0 ML
0.5 LW
N
208.41 131.856 M
213.585 131.856 L
S
GR
GS
2 setlinecap
10.0 ML
0.5 LW
N
213.585 171.5 M
213.585 171.5 L
213.585 103.023 L
218.759 103.023 L
218.759 171.5 L
218.759 171.5 L
S
GR
GS
2 setlinecap
10.0 ML
0.5 LW
N
218.759 124.647 M
223.934 124.647 L
S
GR
GS
2 setlinecap
10.0 ML
0.5 LW
N
223.934 171.5 M
223.934 171.5 L
223.934 124.647 L
229.108 124.647 L
229.108 171.5 L
229.108 171.5 L
S
GR
GS
2 setlinecap
10.0 ML
0.5 LW
N
229.108 146.272 M
234.283 146.272 L
S
GR
GS
2 setlinecap
10.0 ML
0.5 LW
N
234.283 171.5 M
234.283 171.5 L
234.283 146.272 L
239.457 146.272 L
239.457 171.5 L
239.457 171.5 L
S
GR
GS
2 setlinecap
10.0 ML
0.5 LW
N
239.457 153.48 M
244.632 153.48 L
S
GR
GS
2 setlinecap
10.0 ML
0.5 LW
N
244.632 171.5 M
244.632 171.5 L
244.632 149.876 L
249.806 149.876 L
249.806 171.5 L
249.806 171.5 L
S
GR
GS
2 setlinecap
10.0 ML
0.5 LW
N
249.806 149.876 M
254.981 149.876 L
254.981 171.5 L
254.981 171.5 L
S
GR
GS
2 setlinecap
10.0 ML
0.5 LW
N
254.981 153.48 M
260.156 153.48 L
260.156 171.5 L
S
GR
GS
0.702 0 0 RC
1 LJ
2 LW
N
48 142.251 M
49.063 142.279 L
50.125 142.288 L
51.188 142.278 L
52.25 142.25 L
53.313 142.203 L
54.375 142.137 L
55.438 142.052 L
56.5 141.948 L
57.563 141.826 L
58.625 141.684 L
59.688 141.523 L
60.75 141.343 L
61.813 141.143 L
62.875 140.923 L
63.938 140.684 L
65 140.424 L
66.063 140.144 L
67.125 139.844 L
68.188 139.522 L
69.25 139.18 L
70.313 138.816 L
71.375 138.431 L
72.438 138.024 L
73.5 137.595 L
74.563 137.143 L
75.625 136.669 L
76.688 136.171 L
77.75 135.651 L
78.813 135.107 L
79.875 134.538 L
80.938 133.946 L
82 133.329 L
83.063 132.688 L
84.125 132.022 L
85.188 131.33 L
86.25 130.613 L
87.313 129.87 L
88.375 129.102 L
89.438 128.308 L
90.5 127.487 L
91.563 126.641 L
92.625 125.768 L
93.688 124.869 L
94.75 123.944 L
95.813 122.993 L
96.875 122.017 L
97.938 121.014 L
99 119.986 L
100.063 118.933 L
101.125 117.855 L
102.188 116.753 L
103.25 115.627 L
104.313 114.478 L
105.375 113.306 L
106.438 112.113 L
107.5 110.899 L
108.563 109.665 L
109.625 108.413 L
110.688 107.142 L
111.75 105.856 L
112.813 104.554 L
113.875 103.239 L
114.938 101.911 L
116 100.574 L
117.063 99.227 L
118.125 97.874 L
119.188 96.516 L
120.25 95.155 L
121.313 93.793 L
122.375 92.433 L
123.438 91.077 L
124.5 89.726 L
125.563 88.385 L
126.625 87.054 L
127.688 85.737 L
128.75 84.437 L
129.813 83.155 L
130.875 81.895 L
131.938 80.66 L
133 79.452 L
134.063 78.273 L
135.125 77.128 L
136.188 76.017 L
137.25 74.945 L
138.313 73.913 L
139.375 72.925 L
140.438 71.983 L
141.5 71.088 L
142.563 70.245 L
143.625 69.454 L
144.688 68.718 L
145.75 68.039 L
146.813 67.419 L
147.875 66.86 L
148.938 66.363 L
150 65.929 L
151.063 65.56 L
152.125 65.257 L
153.188 65.021 L
154.25 64.852 L
155.313 64.751 L
156.375 64.718 L
157.438 64.754 L
158.5 64.857 L
159.563 65.029 L
160.625 65.268 L
161.688 65.573 L
162.75 65.945 L
163.813 66.381 L
164.875 66.881 L
165.938 67.443 L
167 68.065 L
168.063 68.746 L
169.125 69.484 L
170.188 70.277 L
171.25 71.123 L
172.313 72.019 L
173.375 72.963 L
174.438 73.953 L
175.5 74.987 L
176.563 76.061 L
177.625 77.172 L
178.688 78.319 L
179.75 79.499 L
180.813 80.708 L
181.875 81.945 L
182.938 83.205 L
184 84.488 L
185.063 85.789 L
186.125 87.106 L
187.187 88.437 L
188.25 89.78 L
189.313 91.13 L
190.375 92.487 L
191.438 93.847 L
192.5 95.209 L
193.563 96.57 L
194.625 97.928 L
195.688 99.281 L
196.75 100.627 L
197.813 101.964 L
198.875 103.291 L
199.938 104.606 L
201 105.907 L
202.063 107.193 L
203.125 108.462 L
204.188 109.714 L
205.25 110.947 L
206.313 112.16 L
207.375 113.353 L
208.438 114.523 L
209.5 115.672 L
210.563 116.797 L
211.625 117.898 L
212.688 118.975 L
213.75 120.027 L
214.813 121.054 L
215.875 122.056 L
216.938 123.032 L
218 123.982 L
219.063 124.905 L
220.125 125.803 L
221.188 126.675 L
222.25 127.52 L
223.313 128.34 L
224.375 129.133 L
225.438 129.9 L
226.5 130.642 L
227.563 131.358 L
228.625 132.048 L
229.688 132.714 L
230.75 133.354 L
231.813 133.97 L
232.875 134.561 L
233.938 135.129 L
235 135.672 L
236.063 136.192 L
237.125 136.688 L
238.188 137.161 L
239.25 137.612 L
240.313 138.04 L
241.375 138.447 L
242.438 138.831 L
243.5 139.194 L
244.563 139.535 L
245.625 139.856 L
246.688 140.156 L
247.75 140.435 L
248.813 140.694 L
249.875 140.932 L
250.938 141.151 L
252 141.35 L
253.063 141.53 L
254.125 141.69 L
255.188 141.831 L
256.25 141.953 L
257.313 142.056 L
258.375 142.14 L
259.438 142.205 L
260.5 142.251 L
S
GR
%%Trailer
%%Pages: 1
%%EOF
