%!PS-Adobe-3.0 EPSF-3.0
%%Creator: (MATLAB, The Mathworks, Inc. Version 9.3.0.713579 \(R2017b\). Operating System: Mac OS X)
%%Title: ./phi_lam_corr.eps
%%CreationDate: 2018-08-10T15:48:42
%%Pages: (atend)
%%BoundingBox:    85     0   784   212
%%LanguageLevel: 3
%%EndComments
%%BeginProlog
%%BeginResource: procset (Apache XML Graphics Std ProcSet) 1.2 0
%%Version: 1.2 0
%%Copyright: (Copyright 2001-2003,2010 The Apache Software Foundation. License terms: http://www.apache.org/licenses/LICENSE-2.0)
/bd{bind def}bind def
/ld{load def}bd
/GR/grestore ld
/GS/gsave ld
/RM/rmoveto ld
/C/curveto ld
/t/show ld
/L/lineto ld
/ML/setmiterlimit ld
/CT/concat ld
/f/fill ld
/N/newpath ld
/S/stroke ld
/CC/setcmykcolor ld
/A/ashow ld
/cp/closepath ld
/RC/setrgbcolor ld
/LJ/setlinejoin ld
/GC/setgray ld
/LW/setlinewidth ld
/M/moveto ld
/re {4 2 roll M
1 index 0 rlineto
0 exch rlineto
neg 0 rlineto
cp } bd
/_ctm matrix def
/_tm matrix def
/BT { _ctm currentmatrix pop matrix _tm copy pop 0 0 moveto } bd
/ET { _ctm setmatrix } bd
/iTm { _ctm setmatrix _tm concat } bd
/Tm { _tm astore pop iTm 0 0 moveto } bd
/ux 0.0 def
/uy 0.0 def
/F {
  /Tp exch def
  /Tf exch def
  Tf findfont Tp scalefont setfont
  /cf Tf def  /cs Tp def
} bd
/ULS {currentpoint /uy exch def /ux exch def} bd
/ULE {
  /Tcx currentpoint pop def
  gsave
  newpath
  cf findfont cs scalefont dup
  /FontMatrix get 0 get /Ts exch def /FontInfo get dup
  /UnderlinePosition get Ts mul /To exch def
  /UnderlineThickness get Ts mul /Tt exch def
  ux uy To add moveto  Tcx uy To add lineto
  Tt setlinewidth stroke
  grestore
} bd
/OLE {
  /Tcx currentpoint pop def
  gsave
  newpath
  cf findfont cs scalefont dup
  /FontMatrix get 0 get /Ts exch def /FontInfo get dup
  /UnderlinePosition get Ts mul /To exch def
  /UnderlineThickness get Ts mul /Tt exch def
  ux uy To add cs add moveto Tcx uy To add cs add lineto
  Tt setlinewidth stroke
  grestore
} bd
/SOE {
  /Tcx currentpoint pop def
  gsave
  newpath
  cf findfont cs scalefont dup
  /FontMatrix get 0 get /Ts exch def /FontInfo get dup
  /UnderlinePosition get Ts mul /To exch def
  /UnderlineThickness get Ts mul /Tt exch def
  ux uy To add cs 10 mul 26 idiv add moveto Tcx uy To add cs 10 mul 26 idiv add lineto
  Tt setlinewidth stroke
  grestore
} bd
/QT {
/Y22 exch store
/X22 exch store
/Y21 exch store
/X21 exch store
currentpoint
/Y21 load 2 mul add 3 div exch
/X21 load 2 mul add 3 div exch
/X21 load 2 mul /X22 load add 3 div
/Y21 load 2 mul /Y22 load add 3 div
/X22 load /Y22 load curveto
} bd
/SSPD {
dup length /d exch dict def
{
/v exch def
/k exch def
currentpagedevice k known {
/cpdv currentpagedevice k get def
v cpdv ne {
/upd false def
/nullv v type /nulltype eq def
/nullcpdv cpdv type /nulltype eq def
nullv nullcpdv or
{
/upd true def
} {
/sametype v type cpdv type eq def
sametype {
v type /arraytype eq {
/vlen v length def
/cpdvlen cpdv length def
vlen cpdvlen eq {
0 1 vlen 1 sub {
/i exch def
/obj v i get def
/cpdobj cpdv i get def
obj cpdobj ne {
/upd true def
exit
} if
} for
} {
/upd true def
} ifelse
} {
v type /dicttype eq {
v {
/dv exch def
/dk exch def
/cpddv cpdv dk get def
dv cpddv ne {
/upd true def
exit
} if
} forall
} {
/upd true def
} ifelse
} ifelse
} if
} ifelse
upd true eq {
d k v put
} if
} if
} if
} forall
d length 0 gt {
d setpagedevice
} if
} bd
/RE { % /NewFontName [NewEncodingArray] /FontName RE -
  findfont dup length dict begin
  {
    1 index /FID ne
    {def} {pop pop} ifelse
  } forall
  /Encoding exch def
  /FontName 1 index def
  currentdict definefont pop
  end
} bind def
%%EndResource
%%BeginResource: procset (Apache XML Graphics EPS ProcSet) 1.0 0
%%Version: 1.0 0
%%Copyright: (Copyright 2002-2003 The Apache Software Foundation. License terms: http://www.apache.org/licenses/LICENSE-2.0)
/BeginEPSF { %def
/b4_Inc_state save def         % Save state for cleanup
/dict_count countdictstack def % Count objects on dict stack
/op_count count 1 sub def      % Count objects on operand stack
userdict begin                 % Push userdict on dict stack
/showpage { } def              % Redefine showpage, { } = null proc
0 setgray 0 setlinecap         % Prepare graphics state
1 setlinewidth 0 setlinejoin
10 setmiterlimit [ ] 0 setdash newpath
/languagelevel where           % If level not equal to 1 then
{pop languagelevel             % set strokeadjust and
1 ne                           % overprint to their defaults.
{false setstrokeadjust false setoverprint
} if
} if
} bd
/EndEPSF { %def
count op_count sub {pop} repeat            % Clean up stacks
countdictstack dict_count sub {end} repeat
b4_Inc_state restore
} bd
%%EndResource
%FOPBeginFontDict
%%IncludeResource: font Courier-Oblique
%%IncludeResource: font Courier-BoldOblique
%%IncludeResource: font Courier-Bold
%%IncludeResource: font ZapfDingbats
%%IncludeResource: font Symbol
%%IncludeResource: font Helvetica
%%IncludeResource: font Helvetica-Oblique
%%IncludeResource: font Helvetica-Bold
%%IncludeResource: font Helvetica-BoldOblique
%%IncludeResource: font Times-Roman
%%IncludeResource: font Times-Italic
%%IncludeResource: font Times-Bold
%%IncludeResource: font Times-BoldItalic
%%IncludeResource: font Courier
%FOPEndFontDict
%%BeginResource: encoding WinAnsiEncoding
/WinAnsiEncoding [
/.notdef /.notdef /.notdef /.notdef /.notdef
/.notdef /.notdef /.notdef /.notdef /.notdef
/.notdef /.notdef /.notdef /.notdef /.notdef
/.notdef /.notdef /.notdef /.notdef /.notdef
/.notdef /.notdef /.notdef /.notdef /.notdef
/.notdef /.notdef /.notdef /.notdef /.notdef
/.notdef /.notdef /space /exclam /quotedbl
/numbersign /dollar /percent /ampersand /quotesingle
/parenleft /parenright /asterisk /plus /comma
/hyphen /period /slash /zero /one
/two /three /four /five /six
/seven /eight /nine /colon /semicolon
/less /equal /greater /question /at
/A /B /C /D /E
/F /G /H /I /J
/K /L /M /N /O
/P /Q /R /S /T
/U /V /W /X /Y
/Z /bracketleft /backslash /bracketright /asciicircum
/underscore /quoteleft /a /b /c
/d /e /f /g /h
/i /j /k /l /m
/n /o /p /q /r
/s /t /u /v /w
/x /y /z /braceleft /bar
/braceright /asciitilde /bullet /Euro /bullet
/quotesinglbase /florin /quotedblbase /ellipsis /dagger
/daggerdbl /circumflex /perthousand /Scaron /guilsinglleft
/OE /bullet /Zcaron /bullet /bullet
/quoteleft /quoteright /quotedblleft /quotedblright /bullet
/endash /emdash /asciitilde /trademark /scaron
/guilsinglright /oe /bullet /zcaron /Ydieresis
/space /exclamdown /cent /sterling /currency
/yen /brokenbar /section /dieresis /copyright
/ordfeminine /guillemotleft /logicalnot /sfthyphen /registered
/macron /degree /plusminus /twosuperior /threesuperior
/acute /mu /paragraph /middot /cedilla
/onesuperior /ordmasculine /guillemotright /onequarter /onehalf
/threequarters /questiondown /Agrave /Aacute /Acircumflex
/Atilde /Adieresis /Aring /AE /Ccedilla
/Egrave /Eacute /Ecircumflex /Edieresis /Igrave
/Iacute /Icircumflex /Idieresis /Eth /Ntilde
/Ograve /Oacute /Ocircumflex /Otilde /Odieresis
/multiply /Oslash /Ugrave /Uacute /Ucircumflex
/Udieresis /Yacute /Thorn /germandbls /agrave
/aacute /acircumflex /atilde /adieresis /aring
/ae /ccedilla /egrave /eacute /ecircumflex
/edieresis /igrave /iacute /icircumflex /idieresis
/eth /ntilde /ograve /oacute /ocircumflex
/otilde /odieresis /divide /oslash /ugrave
/uacute /ucircumflex /udieresis /yacute /thorn
/ydieresis
] def
%%EndResource
%FOPBeginFontReencode
/Courier-Oblique findfont
dup length dict begin
  {1 index /FID ne {def} {pop pop} ifelse} forall
  /Encoding WinAnsiEncoding def
  currentdict
end
/Courier-Oblique exch definefont pop
/Courier-BoldOblique findfont
dup length dict begin
  {1 index /FID ne {def} {pop pop} ifelse} forall
  /Encoding WinAnsiEncoding def
  currentdict
end
/Courier-BoldOblique exch definefont pop
/Courier-Bold findfont
dup length dict begin
  {1 index /FID ne {def} {pop pop} ifelse} forall
  /Encoding WinAnsiEncoding def
  currentdict
end
/Courier-Bold exch definefont pop
/Helvetica findfont
dup length dict begin
  {1 index /FID ne {def} {pop pop} ifelse} forall
  /Encoding WinAnsiEncoding def
  currentdict
end
/Helvetica exch definefont pop
/Helvetica-Oblique findfont
dup length dict begin
  {1 index /FID ne {def} {pop pop} ifelse} forall
  /Encoding WinAnsiEncoding def
  currentdict
end
/Helvetica-Oblique exch definefont pop
/Helvetica-Bold findfont
dup length dict begin
  {1 index /FID ne {def} {pop pop} ifelse} forall
  /Encoding WinAnsiEncoding def
  currentdict
end
/Helvetica-Bold exch definefont pop
/Helvetica-BoldOblique findfont
dup length dict begin
  {1 index /FID ne {def} {pop pop} ifelse} forall
  /Encoding WinAnsiEncoding def
  currentdict
end
/Helvetica-BoldOblique exch definefont pop
/Times-Roman findfont
dup length dict begin
  {1 index /FID ne {def} {pop pop} ifelse} forall
  /Encoding WinAnsiEncoding def
  currentdict
end
/Times-Roman exch definefont pop
/Times-Italic findfont
dup length dict begin
  {1 index /FID ne {def} {pop pop} ifelse} forall
  /Encoding WinAnsiEncoding def
  currentdict
end
/Times-Italic exch definefont pop
/Times-Bold findfont
dup length dict begin
  {1 index /FID ne {def} {pop pop} ifelse} forall
  /Encoding WinAnsiEncoding def
  currentdict
end
/Times-Bold exch definefont pop
/Times-BoldItalic findfont
dup length dict begin
  {1 index /FID ne {def} {pop pop} ifelse} forall
  /Encoding WinAnsiEncoding def
  currentdict
end
/Times-BoldItalic exch definefont pop
/Courier findfont
dup length dict begin
  {1 index /FID ne {def} {pop pop} ifelse} forall
  /Encoding WinAnsiEncoding def
  currentdict
end
/Courier exch definefont pop
%FOPEndFontReencode
%%EndProlog
%%Page: 1 1
%%PageBoundingBox: 0 0 864 216
%%BeginPageSetup
[1 0 0 -1 0 216] CT
%%EndPageSetup
GS
1 GC
N
0 0 864 216 re
f
GR
GS
1 GC
N
0 0 864 216 re
f
GR
GS
1 GC
N
112.5 185.5 M
296.5 185.5 L
296.5 16.5 L
112.5 16.5 L
cp
f
GR
GS
0.149 GC
2 setlinecap
1 LJ
0.5 LW
N
112.5 185.5 M
296.5 185.5 L
S
GR
GS
0.149 GC
2 setlinecap
1 LJ
0.5 LW
N
112.5 16.5 M
296.5 16.5 L
S
GR
GS
0.149 GC
2 setlinecap
1 LJ
0.5 LW
N
112.5 185.5 M
112.5 183.66 L
S
GR
GS
0.149 GC
2 setlinecap
1 LJ
0.5 LW
N
171.069 185.5 M
171.069 183.66 L
S
GR
GS
0.149 GC
2 setlinecap
1 LJ
0.5 LW
N
229.638 185.5 M
229.638 183.66 L
S
GR
GS
0.149 GC
2 setlinecap
1 LJ
0.5 LW
N
288.207 185.5 M
288.207 183.66 L
S
GR
GS
0.149 GC
2 setlinecap
1 LJ
0.5 LW
N
112.5 16.5 M
112.5 18.34 L
S
GR
GS
0.149 GC
2 setlinecap
1 LJ
0.5 LW
N
171.069 16.5 M
171.069 18.34 L
S
GR
GS
0.149 GC
2 setlinecap
1 LJ
0.5 LW
N
229.638 16.5 M
229.638 18.34 L
S
GR
GS
0.149 GC
2 setlinecap
1 LJ
0.5 LW
N
288.207 16.5 M
288.207 18.34 L
S
GR
GS
[1 0 0 1 112.5 189.5] CT
0.149 GC
/Helvetica 10 F
GS
[1 0 0 1 0 0] CT
-3 10 moveto 
1 -1 scale
(0) t 
GR
GR
GS
[1 0 0 1 171.06902 189.5] CT
0.149 GC
/Helvetica 10 F
GS
[1 0 0 1 0 0] CT
-3 10 moveto 
1 -1 scale
(2) t 
GR
GR
GS
[1 0 0 1 229.63803 189.5] CT
0.149 GC
/Helvetica 10 F
GS
[1 0 0 1 0 0] CT
-3 10 moveto 
1 -1 scale
(4) t 
GR
GR
GS
[1 0 0 1 288.20706 189.5] CT
0.149 GC
/Helvetica 10 F
GS
[1 0 0 1 0 0] CT
-3 10 moveto 
1 -1 scale
(6) t 
GR
GR
GS
[1 0 0 1 201 214] CT
0.149 GC
N
2.125 2.141 M
2.625 0.156 L
2.063 0.156 1.578 -0.102 QT
1.094 -0.359 0.805 -0.828 QT
0.516 -1.297 0.516 -1.844 QT
0.516 -2.438 0.813 -2.984 QT
1.109 -3.531 1.617 -3.977 QT
2.125 -4.422 2.719 -4.656 QT
3.313 -4.891 3.891 -4.891 QT
4.563 -7.563 L
4.578 -7.625 4.641 -7.625 QT
4.781 -7.625 L
4.813 -7.625 4.844 -7.594 QT
4.875 -7.563 4.875 -7.531 QT
4.219 -4.891 L
4.625 -4.891 5.008 -4.742 QT
5.391 -4.594 5.695 -4.32 QT
6 -4.047 6.164 -3.68 QT
6.328 -3.313 6.328 -2.891 QT
6.328 -2.297 6.031 -1.758 QT
5.734 -1.219 5.234 -0.781 QT
4.734 -0.344 4.117 -0.094 QT
3.5 0.156 2.953 0.156 QT
2.438 2.188 L
2.422 2.25 2.359 2.25 QT
2.219 2.25 L
2.188 2.25 2.156 2.211 QT
2.125 2.172 2.125 2.141 QT
cp
2.703 -0.141 M
3.813 -4.609 L
3.547 -4.609 3.234 -4.5 QT
2.922 -4.391 2.656 -4.219 QT
2.391 -4.047 2.172 -3.813 QT
1.891 -3.547 1.688 -3.18 QT
1.484 -2.813 1.383 -2.414 QT
1.281 -2.016 1.281 -1.609 QT
1.281 -1.203 1.461 -0.867 QT
1.641 -0.531 1.961 -0.336 QT
2.281 -0.141 2.703 -0.141 QT
cp
3.031 -0.141 M
3.438 -0.141 3.906 -0.375 QT
4.375 -0.609 4.672 -0.922 QT
5.094 -1.328 5.328 -1.922 QT
5.563 -2.516 5.563 -3.125 QT
5.563 -3.531 5.383 -3.875 QT
5.203 -4.219 4.883 -4.414 QT
4.563 -4.609 4.141 -4.609 QT
3.031 -0.141 L
cp
f
GR
GS
0.149 GC
2 setlinecap
1 LJ
0.5 LW
N
112.5 185.5 M
112.5 16.5 L
S
GR
GS
0.149 GC
2 setlinecap
1 LJ
0.5 LW
N
296.5 185.5 M
296.5 16.5 L
S
GR
GS
0.149 GC
2 setlinecap
1 LJ
0.5 LW
N
112.5 181.692 M
114.34 181.692 L
S
GR
GS
0.149 GC
2 setlinecap
1 LJ
0.5 LW
N
112.5 154.794 M
114.34 154.794 L
S
GR
GS
0.149 GC
2 setlinecap
1 LJ
0.5 LW
N
112.5 127.897 M
114.34 127.897 L
S
GR
GS
0.149 GC
2 setlinecap
1 LJ
0.5 LW
N
112.5 101 M
114.34 101 L
S
GR
GS
0.149 GC
2 setlinecap
1 LJ
0.5 LW
N
112.5 74.103 M
114.34 74.103 L
S
GR
GS
0.149 GC
2 setlinecap
1 LJ
0.5 LW
N
112.5 47.206 M
114.34 47.206 L
S
GR
GS
0.149 GC
2 setlinecap
1 LJ
0.5 LW
N
112.5 20.308 M
114.34 20.308 L
S
GR
GS
0.149 GC
2 setlinecap
1 LJ
0.5 LW
N
296.5 181.692 M
294.66 181.692 L
S
GR
GS
0.149 GC
2 setlinecap
1 LJ
0.5 LW
N
296.5 154.794 M
294.66 154.794 L
S
GR
GS
0.149 GC
2 setlinecap
1 LJ
0.5 LW
N
296.5 127.897 M
294.66 127.897 L
S
GR
GS
0.149 GC
2 setlinecap
1 LJ
0.5 LW
N
296.5 101 M
294.66 101 L
S
GR
GS
0.149 GC
2 setlinecap
1 LJ
0.5 LW
N
296.5 74.103 M
294.66 74.103 L
S
GR
GS
0.149 GC
2 setlinecap
1 LJ
0.5 LW
N
296.5 47.206 M
294.66 47.206 L
S
GR
GS
0.149 GC
2 setlinecap
1 LJ
0.5 LW
N
296.5 20.308 M
294.66 20.308 L
S
GR
GS
[1 0 0 1 108.5 181.69156] CT
0.149 GC
/Helvetica 10 F
GS
[1 0 0 1 0 0] CT
-10 3.5 moveto 
1 -1 scale
(-3) t 
GR
GR
GS
[1 0 0 1 108.5 154.79437] CT
0.149 GC
/Helvetica 10 F
GS
[1 0 0 1 0 0] CT
-10 3.5 moveto 
1 -1 scale
(-2) t 
GR
GR
GS
[1 0 0 1 108.5 127.89719] CT
0.149 GC
/Helvetica 10 F
GS
[1 0 0 1 0 0] CT
-10 3.5 moveto 
1 -1 scale
(-1) t 
GR
GR
GS
[1 0 0 1 108.5 101] CT
0.149 GC
/Helvetica 10 F
GS
[1 0 0 1 0 0] CT
-6 3.5 moveto 
1 -1 scale
(0) t 
GR
GR
GS
[1 0 0 1 108.5 74.10281] CT
0.149 GC
/Helvetica 10 F
GS
[1 0 0 1 0 0] CT
-6 3.5 moveto 
1 -1 scale
(1) t 
GR
GR
GS
[1 0 0 1 108.5 47.20563] CT
0.149 GC
/Helvetica 10 F
GS
[1 0 0 1 0 0] CT
-6 3.5 moveto 
1 -1 scale
(2) t 
GR
GR
GS
[1 0 0 1 108.5 20.30844] CT
0.149 GC
/Helvetica 10 F
GS
[1 0 0 1 0 0] CT
-6 3.5 moveto 
1 -1 scale
(3) t 
GR
GR
GS
[0 -1 1 0 93 105] CT
0.149 GC
N
0.563 -0.188 M
0.563 -0.344 0.703 -0.5 QT
3.797 -3.531 L
2.703 -6.594 L
2.578 -6.938 2.438 -7.141 QT
2.297 -7.344 2.031 -7.344 QT
1.906 -7.344 1.906 -7.5 QT
1.906 -7.563 1.953 -7.594 QT
2 -7.625 2.063 -7.625 QT
3.219 -7.625 3.469 -6.953 QT
5.703 -0.719 L
5.844 -0.25 6 -0.094 QT
6.047 0 6.047 0.016 QT
6.047 0.125 5.969 0.125 QT
5.359 0.125 L
5.094 0.047 4.938 -0.359 QT
3.922 -3.172 L
1.266 -0.047 L
1.063 0.141 0.906 0.141 QT
0.781 0.141 0.672 0.047 QT
0.563 -0.047 0.563 -0.188 QT
cp
f
GR
GS
[1 0 0 1 204.5002 15.125] CT
/Helvetica-Bold 11 F
GS
[1 0 0 1 0 0] CT
-13 -3 moveto 
1 -1 scale
(V=20) t 
GR
GR
GS
[1 0 0 1 245.60509 119.24703] CT
N
2 0 M
2 1.105 1.105 2 0 2 C
-1.105 2 -2 1.105 -2 0 C
-2 -1.105 -1.105 -2 0 -2 C
1.105 -2 2 -1.105 2 0 C
cp
f
GR
GS
[1 0 0 1 277.3822 69.78342] CT
N
/f1241251886{2 0 M
2 1.105 1.105 2 0 2 C
-1.105 2 -2 1.105 -2 0 C
-2 -1.105 -1.105 -2 0 -2 C
1.105 -2 2 -1.105 2 0 C
cp}def
f1241251886
f
GR
GS
[1 0 0 1 223.44064 63.9463] CT
N
f1241251886
f
GR
GS
[1 0 0 1 249.00188 76.49361] CT
N
f1241251886
f
GR
GS
[1 0 0 1 152.11156 68.50831] CT
N
f1241251886
f
GR
GS
[1 0 0 1 117.48915 97.57376] CT
N
f1241251886
f
GR
GS
[1 0 0 1 173.45554 122.58703] CT
N
f1241251886
f
GR
GS
[1 0 0 1 253.55403 88.10991] CT
N
f1241251886
f
GR
GS
[1 0 0 1 185.99147 108.49094] CT
N
f1241251886
f
GR
GS
[1 0 0 1 148.79364 119.6461] CT
N
f1241251886
f
GR
GS
[1 0 0 1 228.15086 94.46329] CT
N
f1241251886
f
GR
GS
[1 0 0 1 281.47562 90.60884] CT
N
f1241251886
f
GR
GS
[1 0 0 1 167.24089 128.4314] CT
N
f1241251886
f
GR
GS
[1 0 0 1 161.62549 101.09562] CT
N
f1241251886
f
GR
GS
[1 0 0 1 225.81439 85.1721] CT
N
f1241251886
f
GR
GS
[1 0 0 1 192.70215 120.78375] CT
N
f1241251886
f
GR
GS
[1 0 0 1 140.30621 77.71082] CT
N
f1241251886
f
GR
GS
[1 0 0 1 211.43794 142.62984] CT
N
f1241251886
f
GR
GS
[1 0 0 1 241.70389 114.20737] CT
N
f1241251886
f
GR
GS
[1 0 0 1 248.8008 120.85064] CT
N
f1241251886
f
GR
GS
[1 0 0 1 141.66771 109.01445] CT
N
f1241251886
f
GR
GS
[1 0 0 1 256.06006 100.90847] CT
N
f1241251886
f
GR
GS
[1 0 0 1 215.78345 145.87628] CT
N
f1241251886
f
GR
GS
[1 0 0 1 232.42049 108.15019] CT
N
f1241251886
f
GR
GS
[1 0 0 1 166.11513 86.22617] CT
N
f1241251886
f
GR
GS
[1 0 0 1 170.45364 101.2858] CT
N
f1241251886
f
GR
GS
[1 0 0 1 189.50084 130.70566] CT
N
f1241251886
f
GR
GS
[1 0 0 1 206.85156 94.85403] CT
N
f1241251886
f
GR
GS
[1 0 0 1 230.6259 98.79103] CT
N
f1241251886
f
GR
GS
[1 0 0 1 213.75327 76.63727] CT
N
f1241251886
f
GR
GS
[1 0 0 1 126.47618 145.29391] CT
N
f1241251886
f
GR
GS
[1 0 0 1 203.3934 139.02405] CT
N
f1241251886
f
GR
GS
[1 0 0 1 191.89107 63.88632] CT
N
f1241251886
f
GR
GS
[1 0 0 1 267.53976 119.44782] CT
N
f1241251886
f
GR
GS
[1 0 0 1 219.34003 101.17708] CT
N
f1241251886
f
GR
GS
[1 0 0 1 136.3029 113.87988] CT
N
f1241251886
f
GR
GS
[1 0 0 1 145.95831 116.50605] CT
N
f1241251886
f
GR
GS
[1 0 0 1 286.59937 117.15282] CT
N
f1241251886
f
GR
GS
[1 0 0 1 241.00659 64.68523] CT
N
f1241251886
f
GR
GS
[1 0 0 1 222.70628 69.60242] CT
N
f1241251886
f
GR
GS
[1 0 0 1 241.16371 62.59764] CT
N
f1241251886
f
GR
GS
[1 0 0 1 209.08911 146.24394] CT
N
f1241251886
f
GR
GS
[1 0 0 1 263.9761 94.51846] CT
N
f1241251886
f
GR
GS
[1 0 0 1 197.33812 113.78626] CT
N
f1241251886
f
GR
GS
[1 0 0 1 266.96021 135.98299] CT
N
f1241251886
f
GR
GS
[1 0 0 1 267.49124 50.87359] CT
N
f1241251886
f
GR
GS
[1 0 0 1 198.12665 61.67642] CT
N
f1241251886
f
GR
GS
[1 0 0 1 218.061 150.32005] CT
N
f1241251886
f
GR
GS
[1 0 0 1 203.53951 131.82735] CT
N
f1241251886
f
GR
GS
[1 0 0 1 169.07437 119.12134] CT
N
f1241251886
f
GR
GS
[1 0 0 1 192.55618 133.36256] CT
N
f1241251886
f
GR
GS
[1 0 0 1 153.90417 110.77303] CT
N
f1241251886
f
GR
GS
[1 0 0 1 174.62466 95.63952] CT
N
f1241251886
f
GR
GS
[1 0 0 1 267.76791 100.49802] CT
N
f1241251886
f
GR
GS
[1 0 0 1 160.30385 109.69278] CT
N
f1241251886
f
GR
GS
[1 0 0 1 207.46318 93.68777] CT
N
f1241251886
f
GR
GS
[1 0 0 1 248.26178 130.20938] CT
N
f1241251886
f
GR
GS
[1 0 0 1 182.35556 142.99998] CT
N
f1241251886
f
GR
GS
[1 0 0 1 257.08139 75.1452] CT
N
f1241251886
f
GR
GS
[1 0 0 1 123.41975 88.18049] CT
N
f1241251886
f
GR
GS
[1 0 0 1 132.90195 84.58981] CT
N
f1241251886
f
GR
GS
[1 0 0 1 194.91281 147.65405] CT
N
f1241251886
f
GR
GS
[1 0 0 1 295.40942 129.45821] CT
N
f1241251886
f
GR
GS
[1 0 0 1 179.52678 103.41138] CT
N
f1241251886
f
GR
GS
[1 0 0 1 138.74402 105.77649] CT
N
f1241251886
f
GR
GS
[1 0 0 1 235.48849 79.0788] CT
N
f1241251886
f
GR
GS
[1 0 0 1 164.07344 112.31908] CT
N
f1241251886
f
GR
GS
[1 0 0 1 291.03387 118.82056] CT
N
f1241251886
f
GR
GS
[1 0 0 1 187.93134 59.97606] CT
N
f1241251886
f
GR
GS
[1 0 0 1 248.90808 74.70807] CT
N
f1241251886
f
GR
GS
[1 0 0 1 280.96802 92.69715] CT
N
f1241251886
f
GR
GS
[1 0 0 1 150.4725 71.94155] CT
N
f1241251886
f
GR
GS
[1 0 0 1 134.53583 102.95499] CT
N
f1241251886
f
GR
GS
[1 0 0 1 185.45758 92.27625] CT
N
f1241251886
f
GR
GS
[1 0 0 1 262.08966 98.33717] CT
N
f1241251886
f
GR
GS
[1 0 0 1 223.82925 116.14564] CT
N
f1241251886
f
GR
GS
[1 0 0 1 186.59537 122.66715] CT
N
f1241251886
f
GR
GS
[1 0 0 1 170.86713 120.85209] CT
N
f1241251886
f
GR
GS
[1 0 0 1 177.37888 150.16704] CT
N
f1241251886
f
GR
GS
[1 0 0 1 281.24078 75.01888] CT
N
f1241251886
f
GR
GS
[1 0 0 1 140.08833 103.88097] CT
N
f1241251886
f
GR
GS
[1 0 0 1 153.78264 98.81472] CT
N
f1241251886
f
GR
GS
[1 0 0 1 248.91995 79.03834] CT
N
f1241251886
f
GR
GS
[1 0 0 1 165.9808 106.79824] CT
N
f1241251886
f
GR
GS
[1 0 0 1 206.34399 140.26541] CT
N
f1241251886
f
GR
GS
[1 0 0 1 169.76332 58.0933] CT
N
f1241251886
f
GR
GS
[1 0 0 1 125.18382 73.6912] CT
N
f1241251886
f
GR
GS
[1 0 0 1 139.04851 105.5787] CT
N
f1241251886
f
GR
GS
[1 0 0 1 176.56575 102.05861] CT
N
f1241251886
f
GR
GS
[1 0 0 1 218.68253 144.88678] CT
N
f1241251886
f
GR
GS
[1 0 0 1 120.98123 105.42348] CT
N
f1241251886
f
GR
GS
[1 0 0 1 158.10451 103.07784] CT
N
f1241251886
f
GR
GS
[1 0 0 1 146.8219 126.9056] CT
N
f1241251886
f
GR
GS
[1 0 0 1 272.84195 79.29548] CT
N
f1241251886
f
GR
GS
[1 0 0 1 221.68872 90.00958] CT
N
f1241251886
f
GR
GS
[1 0 0 1 175.83304 86.45031] CT
N
f1241251886
f
GR
GS
[1 0 0 1 186.96271 125.04253] CT
N
f1241251886
f
GR
GS
[1 0 0 1 246.87314 89.27354] CT
N
f1241251886
f
GR
GS
[1 0 0 1 158.80586 66.46902] CT
N
f1241251886
f
GR
GS
[1 0 0 1 207.1226 137.49324] CT
N
f1241251886
f
GR
GS
[1 0 0 1 280.09344 24.40866] CT
N
f1241251886
f
GR
GS
[1 0 0 1 185.16653 123.55209] CT
N
f1241251886
f
GR
GS
[1 0 0 1 248.66629 113.0212] CT
N
f1241251886
f
GR
GS
[1 0 0 1 128.75032 91.01831] CT
N
f1241251886
f
GR
GS
[1 0 0 1 200.88818 123.99823] CT
N
f1241251886
f
GR
GS
[1 0 0 1 242.13611 117.59713] CT
N
f1241251886
f
GR
GS
[1 0 0 1 258.06845 107.7622] CT
N
f1241251886
f
GR
GS
[1 0 0 1 210.43925 64.59801] CT
N
f1241251886
f
GR
GS
[1 0 0 1 204.29041 157.92731] CT
N
f1241251886
f
GR
GS
[1 0 0 1 221.53239 84.3148] CT
N
f1241251886
f
GR
GS
[1 0 0 1 218.88541 134.88861] CT
N
f1241251886
f
GR
GS
[1 0 0 1 248.48914 140.63791] CT
N
f1241251886
f
GR
GS
[1 0 0 1 176.96335 88.05254] CT
N
f1241251886
f
GR
GS
[1 0 0 1 236.85342 123.02898] CT
N
f1241251886
f
GR
GS
[1 0 0 1 236.89192 133.45172] CT
N
f1241251886
f
GR
GS
[1 0 0 1 227.78116 95.4047] CT
N
f1241251886
f
GR
GS
[1 0 0 1 269.75751 124.9874] CT
N
f1241251886
f
GR
GS
[1 0 0 1 248.5041 110.38627] CT
N
f1241251886
f
GR
GS
[1 0 0 1 257.68182 145.93846] CT
N
f1241251886
f
GR
GS
[1 0 0 1 291.556 60.95347] CT
N
f1241251886
f
GR
GS
[1 0 0 1 174.70389 111.75403] CT
N
f1241251886
f
GR
GS
[1 0 0 1 234.61809 125.41011] CT
N
f1241251886
f
GR
GS
[1 0 0 1 295.25629 77.52834] CT
N
f1241251886
f
GR
GS
[1 0 0 1 284.8313 150.17393] CT
N
f1241251886
f
GR
GS
[1 0 0 1 141.29155 108.64237] CT
N
f1241251886
f
GR
GS
[1 0 0 1 176.1198 101.2589] CT
N
f1241251886
f
GR
GS
[1 0 0 1 233.88083 99.88016] CT
N
f1241251886
f
GR
GS
[1 0 0 1 171.51335 56.76601] CT
N
f1241251886
f
GR
GS
[1 0 0 1 235.93657 104.73385] CT
N
f1241251886
f
GR
GS
[1 0 0 1 227.43617 75.64226] CT
N
f1241251886
f
GR
GS
[1 0 0 1 139.67249 97.76217] CT
N
f1241251886
f
GR
GS
[1 0 0 1 258.64993 86.43224] CT
N
f1241251886
f
GR
GS
[1 0 0 1 200.14371 80.96162] CT
N
f1241251886
f
GR
GS
[1 0 0 1 145.52858 126.35802] CT
N
f1241251886
f
GR
GS
[1 0 0 1 202.65988 76.67597] CT
N
f1241251886
f
GR
GS
[1 0 0 1 144.62938 87.1021] CT
N
f1241251886
f
GR
GS
[1 0 0 1 155.26068 75.23132] CT
N
f1241251886
f
GR
GS
[1 0 0 1 200.93102 116.95384] CT
N
f1241251886
f
GR
GS
[1 0 0 1 287.75616 117.64061] CT
N
f1241251886
f
GR
GS
[1 0 0 1 227.40314 117.66449] CT
N
f1241251886
f
GR
GS
[1 0 0 1 260.61465 96.74364] CT
N
f1241251886
f
GR
GS
[1 0 0 1 233.00299 85.29707] CT
N
f1241251886
f
GR
GS
[1 0 0 1 139.73984 84.13773] CT
N
f1241251886
f
GR
GS
[1 0 0 1 230.30652 104.3103] CT
N
f1241251886
f
GR
GS
[1 0 0 1 162.71327 69.66537] CT
N
f1241251886
f
GR
GS
[1 0 0 1 186.27744 129.58675] CT
N
f1241251886
f
GR
GS
[1 0 0 1 275.76205 137.4167] CT
N
f1241251886
f
GR
GS
[1 0 0 1 216.25394 122.02438] CT
N
f1241251886
f
GR
GS
[1 0 0 1 182.12373 125.92931] CT
N
f1241251886
f
GR
GS
[1 0 0 1 126.47701 85.24094] CT
N
f1241251886
f
GR
GS
[1 0 0 1 139.84486 75.29131] CT
N
f1241251886
f
GR
GS
[1 0 0 1 208.5956 67.10775] CT
N
f1241251886
f
GR
GS
[1 0 0 1 238.26575 88.02346] CT
N
f1241251886
f
GR
GS
[1 0 0 1 174.62953 50.08133] CT
N
f1241251886
f
GR
GS
[1 0 0 1 182.24936 101.59841] CT
N
f1241251886
f
GR
GS
[1 0 0 1 183.17908 111.05275] CT
N
f1241251886
f
GR
GS
[1 0 0 1 184.72166 93.36698] CT
N
f1241251886
f
GR
GS
[1 0 0 1 147.93167 56.71588] CT
N
f1241251886
f
GR
GS
[1 0 0 1 165.63374 81.71468] CT
N
f1241251886
f
GR
GS
[1 0 0 1 121.61459 96.20437] CT
N
f1241251886
f
GR
GS
[1 0 0 1 261.37204 118.30487] CT
N
f1241251886
f
GR
GS
[1 0 0 1 159.04739 104.40033] CT
N
f1241251886
f
GR
GS
[1 0 0 1 146.34355 92.5431] CT
N
f1241251886
f
GR
GS
[1 0 0 1 250.2632 121.1991] CT
N
f1241251886
f
GR
GS
[1 0 0 1 192.29056 68.6785] CT
N
f1241251886
f
GR
GS
[1 0 0 1 194.91829 134.98466] CT
N
f1241251886
f
GR
GS
[1 0 0 1 122.19939 57.48691] CT
N
f1241251886
f
GR
GS
[1 0 0 1 156.35072 96.06113] CT
N
f1241251886
f
GR
GS
[1 0 0 1 161.02258 72.98285] CT
N
f1241251886
f
GR
GS
[1 0 0 1 193.67882 122.47583] CT
N
f1241251886
f
GR
GS
[1 0 0 1 200.37604 62.29431] CT
N
f1241251886
f
GR
GS
[1 0 0 1 151.39883 86.62466] CT
N
f1241251886
f
GR
GS
[1 0 0 1 258.31631 117.99943] CT
N
f1241251886
f
GR
GS
[1 0 0 1 256.67606 84.52843] CT
N
f1241251886
f
GR
GS
[1 0 0 1 266.02225 129.45984] CT
N
f1241251886
f
GR
GS
[1 0 0 1 239.1752 56.47123] CT
N
f1241251886
f
GR
GS
[1 0 0 1 162.18097 117.61511] CT
N
f1241251886
f
GR
GS
[1 0 0 1 123.20873 75.7766] CT
N
f1241251886
f
GR
GS
[1 0 0 1 135.25043 125.73823] CT
N
f1241251886
f
GR
GS
[1 0 0 1 260.67874 96.5415] CT
N
f1241251886
f
GR
GS
[1 0 0 1 178.64951 110.97993] CT
N
f1241251886
f
GR
GS
[1 0 0 1 293.13834 86.95436] CT
N
f1241251886
f
GR
GS
[1 0 0 1 163.98837 103.40737] CT
N
f1241251886
f
GR
GS
[1 0 0 1 169.81441 111.81788] CT
N
f1241251886
f
GR
GS
[1 0 0 1 258.19894 114.20154] CT
N
f1241251886
f
GR
GS
[1 0 0 1 229.92572 102.02787] CT
N
f1241251886
f
GR
GS
[1 0 0 1 191.01836 134.86522] CT
N
f1241251886
f
GR
GS
[1 0 0 1 134.66615 83.714] CT
N
f1241251886
f
GR
GS
[1 0 0 1 203.78197 75.26508] CT
N
f1241251886
f
GR
GS
[1 0 0 1 168.24451 94.39582] CT
N
f1241251886
f
GR
GS
[1 0 0 1 146.83957 109.72518] CT
N
f1241251886
f
GR
GS
[1 0 0 1 220.166 106.50645] CT
N
f1241251886
f
GR
GS
[1 0 0 1 238.7114 113.79424] CT
N
f1241251886
f
GR
GS
[1 0 0 1 286.11224 124.17964] CT
N
f1241251886
f
GR
GS
[1 0 0 1 176.73222 64.44975] CT
N
f1241251886
f
GR
GS
[1 0 0 1 166.63092 106.58955] CT
N
f1241251886
f
GR
GS
[1 0 0 1 166.21927 111.95757] CT
N
f1241251886
f
GR
GS
[1 0 0 1 206.26306 73.69144] CT
N
f1241251886
f
GR
GS
[1 0 0 1 116.80528 83.37619] CT
N
f1241251886
f
GR
GS
[1 0 0 1 159.95137 80.23483] CT
N
f1241251886
f
GR
GS
[1 0 0 1 182.54451 77.89954] CT
N
f1241251886
f
GR
GS
[1 0 0 1 185.16153 58.89647] CT
N
f1241251886
f
GR
GS
[1 0 0 1 160.03308 133.12273] CT
N
f1241251886
f
GR
GS
[1 0 0 1 209.77611 74.65836] CT
N
f1241251886
f
GR
GS
[1 0 0 1 253.9082 93.45787] CT
N
f1241251886
f
GR
GS
[1 0 0 1 255.23666 92.52801] CT
N
f1241251886
f
GR
GS
[1 0 0 1 235.4183 104.73162] CT
N
f1241251886
f
GR
GS
[1 0 0 1 234.97868 98.37095] CT
N
f1241251886
f
GR
GS
[1 0 0 1 221.62115 63.14605] CT
N
f1241251886
f
GR
GS
[1 0 0 1 163.17183 78.11603] CT
N
f1241251886
f
GR
GS
[1 0 0 1 166.72307 85.39053] CT
N
f1241251886
f
GR
GS
[1 0 0 1 140.34769 111.70414] CT
N
f1241251886
f
GR
GS
[1 0 0 1 229.71442 91.18417] CT
N
f1241251886
f
GR
GS
[1 0 0 1 197.19258 87.66177] CT
N
f1241251886
f
GR
GS
[1 0 0 1 143.57451 63.5224] CT
N
f1241251886
f
GR
GS
1 GC
N
355 185.5 M
539.5 185.5 L
539.5 16.5 L
355 16.5 L
cp
f
GR
GS
0.149 GC
2 setlinecap
1 LJ
0.5 LW
N
355 185.5 M
539.5 185.5 L
S
GR
GS
0.149 GC
2 setlinecap
1 LJ
0.5 LW
N
355 16.5 M
539.5 16.5 L
S
GR
GS
0.149 GC
2 setlinecap
1 LJ
0.5 LW
N
355 185.5 M
355 183.655 L
S
GR
GS
0.149 GC
2 setlinecap
1 LJ
0.5 LW
N
413.728 185.5 M
413.728 183.655 L
S
GR
GS
0.149 GC
2 setlinecap
1 LJ
0.5 LW
N
472.456 185.5 M
472.456 183.655 L
S
GR
GS
0.149 GC
2 setlinecap
1 LJ
0.5 LW
N
531.185 185.5 M
531.185 183.655 L
S
GR
GS
0.149 GC
2 setlinecap
1 LJ
0.5 LW
N
355 16.5 M
355 18.345 L
S
GR
GS
0.149 GC
2 setlinecap
1 LJ
0.5 LW
N
413.728 16.5 M
413.728 18.345 L
S
GR
GS
0.149 GC
2 setlinecap
1 LJ
0.5 LW
N
472.456 16.5 M
472.456 18.345 L
S
GR
GS
0.149 GC
2 setlinecap
1 LJ
0.5 LW
N
531.185 16.5 M
531.185 18.345 L
S
GR
GS
[1 0 0 1 355 189.5] CT
0.149 GC
/Helvetica 10 F
GS
[1 0 0 1 0 0] CT
-3 10 moveto 
1 -1 scale
(0) t 
GR
GR
GS
[1 0 0 1 413.72818 189.5] CT
0.149 GC
/Helvetica 10 F
GS
[1 0 0 1 0 0] CT
-3 10 moveto 
1 -1 scale
(2) t 
GR
GR
GS
[1 0 0 1 472.45636 189.5] CT
0.149 GC
/Helvetica 10 F
GS
[1 0 0 1 0 0] CT
-3 10 moveto 
1 -1 scale
(4) t 
GR
GR
GS
[1 0 0 1 531.18451 189.5] CT
0.149 GC
/Helvetica 10 F
GS
[1 0 0 1 0 0] CT
-3 10 moveto 
1 -1 scale
(6) t 
GR
GR
GS
[1 0 0 1 443 214] CT
0.149 GC
N
/f1382406663{2.125 2.141 M
2.625 0.156 L
2.063 0.156 1.578 -0.102 QT
1.094 -0.359 0.805 -0.828 QT
0.516 -1.297 0.516 -1.844 QT
0.516 -2.438 0.813 -2.984 QT
1.109 -3.531 1.617 -3.977 QT
2.125 -4.422 2.719 -4.656 QT
3.313 -4.891 3.891 -4.891 QT
4.563 -7.563 L
4.578 -7.625 4.641 -7.625 QT
4.781 -7.625 L
4.813 -7.625 4.844 -7.594 QT
4.875 -7.563 4.875 -7.531 QT
4.219 -4.891 L
4.625 -4.891 5.008 -4.742 QT
5.391 -4.594 5.695 -4.32 QT
6 -4.047 6.164 -3.68 QT
6.328 -3.313 6.328 -2.891 QT
6.328 -2.297 6.031 -1.758 QT
5.734 -1.219 5.234 -0.781 QT
4.734 -0.344 4.117 -0.094 QT
3.5 0.156 2.953 0.156 QT
2.438 2.188 L
2.422 2.25 2.359 2.25 QT
2.219 2.25 L
2.188 2.25 2.156 2.211 QT
2.125 2.172 2.125 2.141 QT
cp
2.703 -0.141 M
3.813 -4.609 L
3.547 -4.609 3.234 -4.5 QT
2.922 -4.391 2.656 -4.219 QT
2.391 -4.047 2.172 -3.813 QT
1.891 -3.547 1.688 -3.18 QT
1.484 -2.813 1.383 -2.414 QT
1.281 -2.016 1.281 -1.609 QT
1.281 -1.203 1.461 -0.867 QT
1.641 -0.531 1.961 -0.336 QT
2.281 -0.141 2.703 -0.141 QT
cp
3.031 -0.141 M
3.438 -0.141 3.906 -0.375 QT
4.375 -0.609 4.672 -0.922 QT
5.094 -1.328 5.328 -1.922 QT
5.563 -2.516 5.563 -3.125 QT
5.563 -3.531 5.383 -3.875 QT
5.203 -4.219 4.883 -4.414 QT
4.563 -4.609 4.141 -4.609 QT
3.031 -0.141 L
cp}def
f1382406663
f
GR
GS
0.149 GC
2 setlinecap
1 LJ
0.5 LW
N
355 185.5 M
355 16.5 L
S
GR
GS
0.149 GC
2 setlinecap
1 LJ
0.5 LW
N
539.5 185.5 M
539.5 16.5 L
S
GR
GS
0.149 GC
2 setlinecap
1 LJ
0.5 LW
N
355 181.692 M
356.845 181.692 L
S
GR
GS
0.149 GC
2 setlinecap
1 LJ
0.5 LW
N
355 154.794 M
356.845 154.794 L
S
GR
GS
0.149 GC
2 setlinecap
1 LJ
0.5 LW
N
355 127.897 M
356.845 127.897 L
S
GR
GS
0.149 GC
2 setlinecap
1 LJ
0.5 LW
N
355 101 M
356.845 101 L
S
GR
GS
0.149 GC
2 setlinecap
1 LJ
0.5 LW
N
355 74.103 M
356.845 74.103 L
S
GR
GS
0.149 GC
2 setlinecap
1 LJ
0.5 LW
N
355 47.206 M
356.845 47.206 L
S
GR
GS
0.149 GC
2 setlinecap
1 LJ
0.5 LW
N
355 20.308 M
356.845 20.308 L
S
GR
GS
0.149 GC
2 setlinecap
1 LJ
0.5 LW
N
539.5 181.692 M
537.655 181.692 L
S
GR
GS
0.149 GC
2 setlinecap
1 LJ
0.5 LW
N
539.5 154.794 M
537.655 154.794 L
S
GR
GS
0.149 GC
2 setlinecap
1 LJ
0.5 LW
N
539.5 127.897 M
537.655 127.897 L
S
GR
GS
0.149 GC
2 setlinecap
1 LJ
0.5 LW
N
539.5 101 M
537.655 101 L
S
GR
GS
0.149 GC
2 setlinecap
1 LJ
0.5 LW
N
539.5 74.103 M
537.655 74.103 L
S
GR
GS
0.149 GC
2 setlinecap
1 LJ
0.5 LW
N
539.5 47.206 M
537.655 47.206 L
S
GR
GS
0.149 GC
2 setlinecap
1 LJ
0.5 LW
N
539.5 20.308 M
537.655 20.308 L
S
GR
GS
[1 0 0 1 351 181.69156] CT
0.149 GC
/Helvetica 10 F
GS
[1 0 0 1 0 0] CT
-10 3.5 moveto 
1 -1 scale
(-3) t 
GR
GR
GS
[1 0 0 1 351 154.79437] CT
0.149 GC
/Helvetica 10 F
GS
[1 0 0 1 0 0] CT
-10 3.5 moveto 
1 -1 scale
(-2) t 
GR
GR
GS
[1 0 0 1 351 127.89719] CT
0.149 GC
/Helvetica 10 F
GS
[1 0 0 1 0 0] CT
-10 3.5 moveto 
1 -1 scale
(-1) t 
GR
GR
GS
[1 0 0 1 351 101] CT
0.149 GC
/Helvetica 10 F
GS
[1 0 0 1 0 0] CT
-6 3.5 moveto 
1 -1 scale
(0) t 
GR
GR
GS
[1 0 0 1 351 74.10281] CT
0.149 GC
/Helvetica 10 F
GS
[1 0 0 1 0 0] CT
-6 3.5 moveto 
1 -1 scale
(1) t 
GR
GR
GS
[1 0 0 1 351 47.20563] CT
0.149 GC
/Helvetica 10 F
GS
[1 0 0 1 0 0] CT
-6 3.5 moveto 
1 -1 scale
(2) t 
GR
GR
GS
[1 0 0 1 351 20.30844] CT
0.149 GC
/Helvetica 10 F
GS
[1 0 0 1 0 0] CT
-6 3.5 moveto 
1 -1 scale
(3) t 
GR
GR
GS
[0 -1 1 0 336 105] CT
0.149 GC
N
/f-189070263{0.563 -0.188 M
0.563 -0.344 0.703 -0.5 QT
3.797 -3.531 L
2.703 -6.594 L
2.578 -6.938 2.438 -7.141 QT
2.297 -7.344 2.031 -7.344 QT
1.906 -7.344 1.906 -7.5 QT
1.906 -7.563 1.953 -7.594 QT
2 -7.625 2.063 -7.625 QT
3.219 -7.625 3.469 -6.953 QT
5.703 -0.719 L
5.844 -0.25 6 -0.094 QT
6.047 0 6.047 0.016 QT
6.047 0.125 5.969 0.125 QT
5.359 0.125 L
5.094 0.047 4.938 -0.359 QT
3.922 -3.172 L
1.266 -0.047 L
1.063 0.141 0.906 0.141 QT
0.781 0.141 0.672 0.047 QT
0.563 -0.047 0.563 -0.188 QT
cp}def
f-189070263
f
GR
GS
[1 0 0 1 447.25043 15.125] CT
/Helvetica-Bold 11 F
GS
[1 0 0 1 0 0] CT
-13 -3 moveto 
1 -1 scale
(V=11) t 
GR
GR
GS
[1 0 0 1 408.55481 108.88992] CT
N
f1241251886
f
GR
GS
[1 0 0 1 483.46857 71.60155] CT
N
f1241251886
f
GR
GS
[1 0 0 1 374.45508 136.82367] CT
N
f1241251886
f
GR
GS
[1 0 0 1 389.3902 125.19143] CT
N
f1241251886
f
GR
GS
[1 0 0 1 486.87589 80.3641] CT
N
f1241251886
f
GR
GS
[1 0 0 1 511.75308 86.91615] CT
N
f1241251886
f
GR
GS
[1 0 0 1 467.3746 142.88245] CT
N
f1241251886
f
GR
GS
[1 0 0 1 366.6095 106.2451] CT
N
f1241251886
f
GR
GS
[1 0 0 1 475.10953 58.2801] CT
N
f1241251886
f
GR
GS
[1 0 0 1 397.28403 74.74556] CT
N
f1241251886
f
GR
GS
[1 0 0 1 468.88309 72.32376] CT
N
f1241251886
f
GR
GS
[1 0 0 1 479.96872 114.09756] CT
N
f1241251886
f
GR
GS
[1 0 0 1 515.24976 100.00458] CT
N
f1241251886
f
GR
GS
[1 0 0 1 436.45905 93.16088] CT
N
f1241251886
f
GR
GS
[1 0 0 1 414.84799 143.16769] CT
N
f1241251886
f
GR
GS
[1 0 0 1 410.39127 110.4966] CT
N
f1241251886
f
GR
GS
[1 0 0 1 466.62643 126.58562] CT
N
f1241251886
f
GR
GS
[1 0 0 1 459.56122 93.54407] CT
N
f1241251886
f
GR
GS
[1 0 0 1 425.40793 76.12899] CT
N
f1241251886
f
GR
GS
[1 0 0 1 476.99841 101.14352] CT
N
f1241251886
f
GR
GS
[1 0 0 1 458.85498 114.22493] CT
N
f1241251886
f
GR
GS
[1 0 0 1 469.07419 76.40984] CT
N
f1241251886
f
GR
GS
[1 0 0 1 496.7558 81.21295] CT
N
f1241251886
f
GR
GS
[1 0 0 1 386.5112 111.60433] CT
N
f1241251886
f
GR
GS
[1 0 0 1 445.00638 125.48232] CT
N
f1241251886
f
GR
GS
[1 0 0 1 467.79214 116.21219] CT
N
f1241251886
f
GR
GS
[1 0 0 1 485.50662 107.52583] CT
N
f1241251886
f
GR
GS
[1 0 0 1 419.82858 101.02953] CT
N
f1241251886
f
GR
GS
[1 0 0 1 439.00372 77.81259] CT
N
f1241251886
f
GR
GS
[1 0 0 1 403.40332 113.35966] CT
N
f1241251886
f
GR
GS
[1 0 0 1 492.01321 79.85422] CT
N
f1241251886
f
GR
GS
[1 0 0 1 459.52094 73.47692] CT
N
f1241251886
f
GR
GS
[1 0 0 1 457.64468 74.66565] CT
N
f1241251886
f
GR
GS
[1 0 0 1 444.63531 51.98704] CT
N
f1241251886
f
GR
GS
[1 0 0 1 436.40973 157.82484] CT
N
f1241251886
f
GR
GS
[1 0 0 1 489.18298 125.96156] CT
N
f1241251886
f
GR
GS
[1 0 0 1 357.49304 73.99615] CT
N
f1241251886
f
GR
GS
[1 0 0 1 488.50403 101.71488] CT
N
f1241251886
f
GR
GS
[1 0 0 1 507.30133 113.87201] CT
N
f1241251886
f
GR
GS
[1 0 0 1 462.33499 82.13813] CT
N
f1241251886
f
GR
GS
[1 0 0 1 449.95499 158.23607] CT
N
f1241251886
f
GR
GS
[1 0 0 1 484.36511 121.1806] CT
N
f1241251886
f
GR
GS
[1 0 0 1 407.7908 89.76776] CT
N
f1241251886
f
GR
GS
[1 0 0 1 465.11533 96.69675] CT
N
f1241251886
f
GR
GS
[1 0 0 1 405.17545 103.54912] CT
N
f1241251886
f
GR
GS
[1 0 0 1 453.2955 69.36317] CT
N
f1241251886
f
GR
GS
[1 0 0 1 405.73517 100.12097] CT
N
f1241251886
f
GR
GS
[1 0 0 1 378.67291 62.44245] CT
N
f1241251886
f
GR
GS
[1 0 0 1 447.68268 117.30042] CT
N
f1241251886
f
GR
GS
[1 0 0 1 395.51535 114.85484] CT
N
f1241251886
f
GR
GS
[1 0 0 1 470.28427 101.88969] CT
N
f1241251886
f
GR
GS
[1 0 0 1 366.88065 76.97234] CT
N
f1241251886
f
GR
GS
[1 0 0 1 399.44812 104.91553] CT
N
f1241251886
f
GR
GS
[1 0 0 1 487.79184 123.66969] CT
N
f1241251886
f
GR
GS
[1 0 0 1 441.14798 134.06326] CT
N
f1241251886
f
GR
GS
[1 0 0 1 435.21393 147.08357] CT
N
f1241251886
f
GR
GS
[1 0 0 1 448.28125 112.10599] CT
N
f1241251886
f
GR
GS
[1 0 0 1 469.10568 76.15624] CT
N
f1241251886
f
GR
GS
[1 0 0 1 432.50342 77.39975] CT
N
f1241251886
f
GR
GS
[1 0 0 1 478.56412 138.61975] CT
N
f1241251886
f
GR
GS
[1 0 0 1 445.78333 50.26548] CT
N
f1241251886
f
GR
GS
[1 0 0 1 396.08102 103.10361] CT
N
f1241251886
f
GR
GS
[1 0 0 1 458.37442 146.7735] CT
N
f1241251886
f
GR
GS
[1 0 0 1 412.84177 118.19592] CT
N
f1241251886
f
GR
GS
[1 0 0 1 527.34479 144.95651] CT
N
f1241251886
f
GR
GS
[1 0 0 1 459.69815 74.94003] CT
N
f1241251886
f
GR
GS
[1 0 0 1 460.40826 142.66031] CT
N
f1241251886
f
GR
GS
[1 0 0 1 425.36121 149.48776] CT
N
f1241251886
f
GR
GS
[1 0 0 1 512.0459 122.25889] CT
N
f1241251886
f
GR
GS
[1 0 0 1 371.43591 103.29239] CT
N
f1241251886
f
GR
GS
[1 0 0 1 401.1955 117.89855] CT
N
f1241251886
f
GR
GS
[1 0 0 1 487.6886 115.84883] CT
N
f1241251886
f
GR
GS
[1 0 0 1 492.93741 127.16879] CT
N
f1241251886
f
GR
GS
[1 0 0 1 501.51816 121.60764] CT
N
f1241251886
f
GR
GS
[1 0 0 1 436.82388 136.30144] CT
N
f1241251886
f
GR
GS
[1 0 0 1 465.05743 113.76941] CT
N
f1241251886
f
GR
GS
[1 0 0 1 482.3472 127.71591] CT
N
f1241251886
f
GR
GS
[1 0 0 1 366.97314 142.0043] CT
N
f1241251886
f
GR
GS
[1 0 0 1 483.78513 132.14937] CT
N
f1241251886
f
GR
GS
[1 0 0 1 499.56659 137.58609] CT
N
f1241251886
f
GR
GS
[1 0 0 1 498.79712 134.59941] CT
N
f1241251886
f
GR
GS
[1 0 0 1 356.79541 115.83163] CT
N
f1241251886
f
GR
GS
[1 0 0 1 473.58356 92.03155] CT
N
f1241251886
f
GR
GS
[1 0 0 1 417.30453 81.27371] CT
N
f1241251886
f
GR
GS
[1 0 0 1 406.01718 113.2282] CT
N
f1241251886
f
GR
GS
[1 0 0 1 438.85538 123.81325] CT
N
f1241251886
f
GR
GS
[1 0 0 1 402.31079 67.80854] CT
N
f1241251886
f
GR
GS
[1 0 0 1 459.44727 75.45288] CT
N
f1241251886
f
GR
GS
[1 0 0 1 410.93991 114.03176] CT
N
f1241251886
f
GR
GS
[1 0 0 1 445.49472 151.60928] CT
N
f1241251886
f
GR
GS
[1 0 0 1 475.81427 110.06641] CT
N
f1241251886
f
GR
GS
[1 0 0 1 493.73312 69.77048] CT
N
f1241251886
f
GR
GS
[1 0 0 1 487.85336 110.02551] CT
N
f1241251886
f
GR
GS
[1 0 0 1 479.7659 112.05016] CT
N
f1241251886
f
GR
GS
[1 0 0 1 411.13556 111.42305] CT
N
f1241251886
f
GR
GS
[1 0 0 1 394.75897 78.38919] CT
N
f1241251886
f
GR
GS
[1 0 0 1 511.22757 100.18956] CT
N
f1241251886
f
GR
GS
[1 0 0 1 477.09256 90.46588] CT
N
f1241251886
f
GR
GS
[1 0 0 1 429.25745 57.84354] CT
N
f1241251886
f
GR
GS
[1 0 0 1 462.34808 71.91658] CT
N
f1241251886
f
GR
GS
[1 0 0 1 408.08817 85.3457] CT
N
f1241251886
f
GR
GS
[1 0 0 1 469.0264 158.94611] CT
N
f1241251886
f
GR
GS
[1 0 0 1 391.8938 77.04348] CT
N
f1241251886
f
GR
GS
[1 0 0 1 462.25977 77.17534] CT
N
f1241251886
f
GR
GS
[1 0 0 1 419.06277 77.38156] CT
N
f1241251886
f
GR
GS
[1 0 0 1 408.0065 108.02654] CT
N
f1241251886
f
GR
GS
[1 0 0 1 416.03522 107.92687] CT
N
f1241251886
f
GR
GS
[1 0 0 1 411.94089 87.57648] CT
N
f1241251886
f
GR
GS
[1 0 0 1 445.10025 66.05546] CT
N
f1241251886
f
GR
GS
[1 0 0 1 390.64969 99.59867] CT
N
f1241251886
f
GR
GS
[1 0 0 1 503.9808 108.19558] CT
N
f1241251886
f
GR
GS
[1 0 0 1 460.48358 140.15749] CT
N
f1241251886
f
GR
GS
[1 0 0 1 393.39771 53.26582] CT
N
f1241251886
f
GR
GS
[1 0 0 1 475.03372 81.90382] CT
N
f1241251886
f
GR
GS
[1 0 0 1 464.44366 91.63579] CT
N
f1241251886
f
GR
GS
[1 0 0 1 462.00897 113.25915] CT
N
f1241251886
f
GR
GS
[1 0 0 1 442.13577 131.82704] CT
N
f1241251886
f
GR
GS
[1 0 0 1 458.72253 70.61296] CT
N
f1241251886
f
GR
GS
[1 0 0 1 405.69064 86.2633] CT
N
f1241251886
f
GR
GS
[1 0 0 1 435.58426 141.6613] CT
N
f1241251886
f
GR
GS
[1 0 0 1 458.24503 118.97367] CT
N
f1241251886
f
GR
GS
[1 0 0 1 471.77399 126.6053] CT
N
f1241251886
f
GR
GS
[1 0 0 1 466.05759 103.8341] CT
N
f1241251886
f
GR
GS
[1 0 0 1 488.19247 88.36834] CT
N
f1241251886
f
GR
GS
[1 0 0 1 369.56085 82.9607] CT
N
f1241251886
f
GR
GS
[1 0 0 1 442.49405 133.99736] CT
N
f1241251886
f
GR
GS
[1 0 0 1 369.0307 71.38971] CT
N
f1241251886
f
GR
GS
[1 0 0 1 383.65756 124.48512] CT
N
f1241251886
f
GR
GS
[1 0 0 1 385.61838 75.79202] CT
N
f1241251886
f
GR
GS
[1 0 0 1 366.87103 91.73627] CT
N
f1241251886
f
GR
GS
[1 0 0 1 405.85577 158.8644] CT
N
f1241251886
f
GR
GS
[1 0 0 1 530.56158 82.539] CT
N
f1241251886
f
GR
GS
[1 0 0 1 462.5882 72.86488] CT
N
f1241251886
f
GR
GS
[1 0 0 1 422.11334 70.62011] CT
N
f1241251886
f
GR
GS
[1 0 0 1 469.75882 119.50557] CT
N
f1241251886
f
GR
GS
[1 0 0 1 377.45282 86.57368] CT
N
f1241251886
f
GR
GS
[1 0 0 1 472.82895 143.60635] CT
N
f1241251886
f
GR
GS
[1 0 0 1 392.99805 108.16904] CT
N
f1241251886
f
GR
GS
[1 0 0 1 497.67749 68.61478] CT
N
f1241251886
f
GR
GS
[1 0 0 1 506.45486 133.75629] CT
N
f1241251886
f
GR
GS
[1 0 0 1 446.10083 135.22472] CT
N
f1241251886
f
GR
GS
[1 0 0 1 409.45584 58.42723] CT
N
f1241251886
f
GR
GS
[1 0 0 1 453.48795 50.95816] CT
N
f1241251886
f
GR
GS
[1 0 0 1 509.34338 145.35846] CT
N
f1241251886
f
GR
GS
[1 0 0 1 446.86517 135.00496] CT
N
f1241251886
f
GR
GS
[1 0 0 1 516.05206 119.83029] CT
N
f1241251886
f
GR
GS
[1 0 0 1 430.9718 81.70151] CT
N
f1241251886
f
GR
GS
[1 0 0 1 512.11694 90.01166] CT
N
f1241251886
f
GR
GS
[1 0 0 1 482.66556 112.40411] CT
N
f1241251886
f
GR
GS
[1 0 0 1 480.11105 102.88702] CT
N
f1241251886
f
GR
GS
[1 0 0 1 437.16434 71.54652] CT
N
f1241251886
f
GR
GS
[1 0 0 1 482.37527 105.98056] CT
N
f1241251886
f
GR
GS
[1 0 0 1 449.03946 63.04665] CT
N
f1241251886
f
GR
GS
[1 0 0 1 506.96576 94.76814] CT
N
f1241251886
f
GR
GS
[1 0 0 1 404.23807 56.52192] CT
N
f1241251886
f
GR
GS
[1 0 0 1 446.78244 144.51628] CT
N
f1241251886
f
GR
GS
[1 0 0 1 423.59708 118.24207] CT
N
f1241251886
f
GR
GS
[1 0 0 1 434.7077 145.95164] CT
N
f1241251886
f
GR
GS
[1 0 0 1 408.25549 115.57104] CT
N
f1241251886
f
GR
GS
[1 0 0 1 399.96674 97.85325] CT
N
f1241251886
f
GR
GS
[1 0 0 1 427.98004 134.1757] CT
N
f1241251886
f
GR
GS
[1 0 0 1 464.64758 78.7066] CT
N
f1241251886
f
GR
GS
[1 0 0 1 416.22879 140.94241] CT
N
f1241251886
f
GR
GS
[1 0 0 1 449.86316 58.69502] CT
N
f1241251886
f
GR
GS
[1 0 0 1 500.17746 94.5293] CT
N
f1241251886
f
GR
GS
[1 0 0 1 471.63904 109.21299] CT
N
f1241251886
f
GR
GS
[1 0 0 1 432.11966 69.49007] CT
N
f1241251886
f
GR
GS
[1 0 0 1 468.41806 141.18794] CT
N
f1241251886
f
GR
GS
[1 0 0 1 481.03372 96.40593] CT
N
f1241251886
f
GR
GS
[1 0 0 1 468.85181 132.13754] CT
N
f1241251886
f
GR
GS
[1 0 0 1 419.86346 110.00006] CT
N
f1241251886
f
GR
GS
[1 0 0 1 447.92325 73.15324] CT
N
f1241251886
f
GR
GS
[1 0 0 1 498.91324 139.39059] CT
N
f1241251886
f
GR
GS
[1 0 0 1 407.41202 80.27818] CT
N
f1241251886
f
GR
GS
[1 0 0 1 477.59689 109.2022] CT
N
f1241251886
f
GR
GS
[1 0 0 1 459.45529 85.05579] CT
N
f1241251886
f
GR
GS
[1 0 0 1 510.66635 101.09439] CT
N
f1241251886
f
GR
GS
[1 0 0 1 434.31967 115.94476] CT
N
f1241251886
f
GR
GS
[1 0 0 1 440.81271 110.94798] CT
N
f1241251886
f
GR
GS
[1 0 0 1 472.08786 124.35153] CT
N
f1241251886
f
GR
GS
[1 0 0 1 466.64526 79.0708] CT
N
f1241251886
f
GR
GS
[1 0 0 1 472.55865 144.77112] CT
N
f1241251886
f
GR
GS
[1 0 0 1 481.07214 150.76538] CT
N
f1241251886
f
GR
GS
[1 0 0 1 498.76926 115.45164] CT
N
f1241251886
f
GR
GS
[1 0 0 1 462.55023 130.82695] CT
N
f1241251886
f
GR
GS
[1 0 0 1 455.88397 108.36906] CT
N
f1241251886
f
GR
GS
[1 0 0 1 426.21381 110.59863] CT
N
f1241251886
f
GR
GS
[1 0 0 1 430.20264 88.64545] CT
N
f1241251886
f
GR
GS
[1 0 0 1 469.44684 109.0784] CT
N
f1241251886
f
GR
GS
[1 0 0 1 468.93948 154.79533] CT
N
f1241251886
f
GR
GS
[1 0 0 1 432.68866 70.03727] CT
N
f1241251886
f
GR
GS
[1 0 0 1 466.26407 101.10567] CT
N
f1241251886
f
GR
GS
[1 0 0 1 468.31998 87.35525] CT
N
f1241251886
f
GR
GS
[1 0 0 1 446.01547 74.03456] CT
N
f1241251886
f
GR
GS
[1 0 0 1 536.21967 70.12828] CT
N
f1241251886
f
GR
GS
[1 0 0 1 481.19003 145.59491] CT
N
f1241251886
f
GR
GS
[1 0 0 1 456.45154 85.61137] CT
N
f1241251886
f
GR
GS
[1 0 0 1 434.90298 121.15728] CT
N
f1241251886
f
GR
GS
[1 0 0 1 464.63129 159.81252] CT
N
f1241251886
f
GR
GS
[1 0 0 1 480.43997 115.65392] CT
N
f1241251886
f
GR
GS
[1 0 0 1 396.26733 85.22926] CT
N
f1241251886
f
GR
GS
[1 0 0 1 384.5137 68.3298] CT
N
f1241251886
f
GR
GS
[1 0 0 1 377.58478 85.79949] CT
N
f1241251886
f
GR
GS
[1 0 0 1 488.48083 106.26714] CT
N
f1241251886
f
GR
GS
[1 0 0 1 418.88037 122.51465] CT
N
f1241251886
f
GR
GS
[1 0 0 1 415.04898 122.60014] CT
N
f1241251886
f
GR
GS
[1 0 0 1 483.67996 74.28178] CT
N
f1241251886
f
GR
GS
[1 0 0 1 481.01254 93.2734] CT
N
f1241251886
f
GR
GS
[1 0 0 1 387.94714 93.37806] CT
N
f1241251886
f
GR
GS
[1 0 0 1 386.7265 101.96647] CT
N
f1241251886
f
GR
GS
[1 0 0 1 513.23523 102.48373] CT
N
f1241251886
f
GR
GS
[1 0 0 1 488.1553 121.01855] CT
N
f1241251886
f
GR
GS
[1 0 0 1 464.03085 89.6017] CT
N
f1241251886
f
GR
GS
[1 0 0 1 407.35583 96.61671] CT
N
f1241251886
f
GR
GS
[1 0 0 1 456.36649 51.8674] CT
N
f1241251886
f
GR
GS
[1 0 0 1 452.3934 56.31213] CT
N
f1241251886
f
GR
GS
[1 0 0 1 496.57645 92.61332] CT
N
f1241251886
f
GR
GS
[1 0 0 1 484.26703 98.20132] CT
N
f1241251886
f
GR
GS
[1 0 0 1 436.61606 61.00056] CT
N
f1241251886
f
GR
GS
[1 0 0 1 472.46005 83.54658] CT
N
f1241251886
f
GR
GS
[1 0 0 1 467.0809 75.33508] CT
N
f1241251886
f
GR
GS
[1 0 0 1 471.85452 82.53699] CT
N
f1241251886
f
GR
GS
[1 0 0 1 414.39374 102.61443] CT
N
f1241251886
f
GR
GS
[1 0 0 1 455.5376 68.3932] CT
N
f1241251886
f
GR
GS
[1 0 0 1 500.03857 94.24886] CT
N
f1241251886
f
GR
GS
[1 0 0 1 462.66779 151.0789] CT
N
f1241251886
f
GR
GS
[1 0 0 1 485.83951 106.96404] CT
N
f1241251886
f
GR
GS
[1 0 0 1 417.24185 56.55045] CT
N
f1241251886
f
GR
GS
[1 0 0 1 452.65921 112.8115] CT
N
f1241251886
f
GR
GS
[1 0 0 1 434.28287 66.57569] CT
N
f1241251886
f
GR
GS
[1 0 0 1 506.48563 110.05339] CT
N
f1241251886
f
GR
GS
[1 0 0 1 400.46381 71.44774] CT
N
f1241251886
f
GR
GS
[1 0 0 1 387.00537 71.76984] CT
N
f1241251886
f
GR
GS
1 GC
N
597.5 185.5 M
782 185.5 L
782 16.5 L
597.5 16.5 L
cp
f
GR
GS
0.149 GC
2 setlinecap
1 LJ
0.5 LW
N
597.5 185.5 M
782 185.5 L
S
GR
GS
0.149 GC
2 setlinecap
1 LJ
0.5 LW
N
597.5 16.5 M
782 16.5 L
S
GR
GS
0.149 GC
2 setlinecap
1 LJ
0.5 LW
N
597.5 185.5 M
597.5 183.655 L
S
GR
GS
0.149 GC
2 setlinecap
1 LJ
0.5 LW
N
656.228 185.5 M
656.228 183.655 L
S
GR
GS
0.149 GC
2 setlinecap
1 LJ
0.5 LW
N
714.956 185.5 M
714.956 183.655 L
S
GR
GS
0.149 GC
2 setlinecap
1 LJ
0.5 LW
N
773.685 185.5 M
773.685 183.655 L
S
GR
GS
0.149 GC
2 setlinecap
1 LJ
0.5 LW
N
597.5 16.5 M
597.5 18.345 L
S
GR
GS
0.149 GC
2 setlinecap
1 LJ
0.5 LW
N
656.228 16.5 M
656.228 18.345 L
S
GR
GS
0.149 GC
2 setlinecap
1 LJ
0.5 LW
N
714.956 16.5 M
714.956 18.345 L
S
GR
GS
0.149 GC
2 setlinecap
1 LJ
0.5 LW
N
773.685 16.5 M
773.685 18.345 L
S
GR
GS
[1 0 0 1 597.5 189.5] CT
0.149 GC
/Helvetica 10 F
GS
[1 0 0 1 0 0] CT
-3 10 moveto 
1 -1 scale
(0) t 
GR
GR
GS
[1 0 0 1 656.22815 189.5] CT
0.149 GC
/Helvetica 10 F
GS
[1 0 0 1 0 0] CT
-3 10 moveto 
1 -1 scale
(2) t 
GR
GR
GS
[1 0 0 1 714.95636 189.5] CT
0.149 GC
/Helvetica 10 F
GS
[1 0 0 1 0 0] CT
-3 10 moveto 
1 -1 scale
(4) t 
GR
GR
GS
[1 0 0 1 773.68451 189.5] CT
0.149 GC
/Helvetica 10 F
GS
[1 0 0 1 0 0] CT
-3 10 moveto 
1 -1 scale
(6) t 
GR
GR
GS
[1 0 0 1 686 214] CT
0.149 GC
N
f1382406663
f
GR
GS
0.149 GC
2 setlinecap
1 LJ
0.5 LW
N
597.5 185.5 M
597.5 16.5 L
S
GR
GS
0.149 GC
2 setlinecap
1 LJ
0.5 LW
N
782 185.5 M
782 16.5 L
S
GR
GS
0.149 GC
2 setlinecap
1 LJ
0.5 LW
N
597.5 181.692 M
599.345 181.692 L
S
GR
GS
0.149 GC
2 setlinecap
1 LJ
0.5 LW
N
597.5 154.794 M
599.345 154.794 L
S
GR
GS
0.149 GC
2 setlinecap
1 LJ
0.5 LW
N
597.5 127.897 M
599.345 127.897 L
S
GR
GS
0.149 GC
2 setlinecap
1 LJ
0.5 LW
N
597.5 101 M
599.345 101 L
S
GR
GS
0.149 GC
2 setlinecap
1 LJ
0.5 LW
N
597.5 74.103 M
599.345 74.103 L
S
GR
GS
0.149 GC
2 setlinecap
1 LJ
0.5 LW
N
597.5 47.206 M
599.345 47.206 L
S
GR
GS
0.149 GC
2 setlinecap
1 LJ
0.5 LW
N
597.5 20.308 M
599.345 20.308 L
S
GR
GS
0.149 GC
2 setlinecap
1 LJ
0.5 LW
N
782 181.692 M
780.155 181.692 L
S
GR
GS
0.149 GC
2 setlinecap
1 LJ
0.5 LW
N
782 154.794 M
780.155 154.794 L
S
GR
GS
0.149 GC
2 setlinecap
1 LJ
0.5 LW
N
782 127.897 M
780.155 127.897 L
S
GR
GS
0.149 GC
2 setlinecap
1 LJ
0.5 LW
N
782 101 M
780.155 101 L
S
GR
GS
0.149 GC
2 setlinecap
1 LJ
0.5 LW
N
782 74.103 M
780.155 74.103 L
S
GR
GS
0.149 GC
2 setlinecap
1 LJ
0.5 LW
N
782 47.206 M
780.155 47.206 L
S
GR
GS
0.149 GC
2 setlinecap
1 LJ
0.5 LW
N
782 20.308 M
780.155 20.308 L
S
GR
GS
[1 0 0 1 593.5 181.69156] CT
0.149 GC
/Helvetica 10 F
GS
[1 0 0 1 0 0] CT
-10 3.5 moveto 
1 -1 scale
(-3) t 
GR
GR
GS
[1 0 0 1 593.5 154.79437] CT
0.149 GC
/Helvetica 10 F
GS
[1 0 0 1 0 0] CT
-10 3.5 moveto 
1 -1 scale
(-2) t 
GR
GR
GS
[1 0 0 1 593.5 127.89719] CT
0.149 GC
/Helvetica 10 F
GS
[1 0 0 1 0 0] CT
-10 3.5 moveto 
1 -1 scale
(-1) t 
GR
GR
GS
[1 0 0 1 593.5 101] CT
0.149 GC
/Helvetica 10 F
GS
[1 0 0 1 0 0] CT
-6 3.5 moveto 
1 -1 scale
(0) t 
GR
GR
GS
[1 0 0 1 593.5 74.10281] CT
0.149 GC
/Helvetica 10 F
GS
[1 0 0 1 0 0] CT
-6 3.5 moveto 
1 -1 scale
(1) t 
GR
GR
GS
[1 0 0 1 593.5 47.20563] CT
0.149 GC
/Helvetica 10 F
GS
[1 0 0 1 0 0] CT
-6 3.5 moveto 
1 -1 scale
(2) t 
GR
GR
GS
[1 0 0 1 593.5 20.30844] CT
0.149 GC
/Helvetica 10 F
GS
[1 0 0 1 0 0] CT
-6 3.5 moveto 
1 -1 scale
(3) t 
GR
GR
GS
[0 -1 1 0 578 105] CT
0.149 GC
N
f-189070263
f
GR
GS
[1 0 0 1 689.75067 15.125] CT
/Helvetica-Bold 11 F
GS
[1 0 0 1 0 0] CT
-10 -3 moveto 
1 -1 scale
(V=2) t 
GR
GR
GS
[1 0 0 1 711.36719 33.98275] CT
N
f1241251886
f
GR
GS
[1 0 0 1 626.16284 134.43704] CT
N
f1241251886
f
GR
GS
[1 0 0 1 619.45953 103.01504] CT
N
f1241251886
f
GR
GS
[1 0 0 1 632.93207 101.93261] CT
N
f1241251886
f
GR
GS
[1 0 0 1 723.17133 87.86462] CT
N
f1241251886
f
GR
GS
[1 0 0 1 772.45111 74.22964] CT
N
f1241251886
f
GR
GS
[1 0 0 1 697.93762 66.79916] CT
N
f1241251886
f
GR
GS
[1 0 0 1 707.5799 84.09074] CT
N
f1241251886
f
GR
GS
[1 0 0 1 709.06659 73.75254] CT
N
f1241251886
f
GR
GS
[1 0 0 1 652.26447 112.89228] CT
N
f1241251886
f
GR
GS
[1 0 0 1 671.92023 126.06732] CT
N
f1241251886
f
GR
GS
[1 0 0 1 742.18762 108.24704] CT
N
f1241251886
f
GR
GS
[1 0 0 1 606.38861 59.8348] CT
N
f1241251886
f
GR
GS
[1 0 0 1 670.27887 133.88402] CT
N
f1241251886
f
GR
GS
[1 0 0 1 666.11456 128.12537] CT
N
f1241251886
f
GR
GS
[1 0 0 1 690.13269 75.20299] CT
N
f1241251886
f
GR
GS
[1 0 0 1 728.98279 96.26883] CT
N
f1241251886
f
GR
GS
[1 0 0 1 762.56543 130.81592] CT
N
f1241251886
f
GR
GS
[1 0 0 1 675.67505 65.55705] CT
N
f1241251886
f
GR
GS
[1 0 0 1 638.69006 70.908] CT
N
f1241251886
f
GR
GS
[1 0 0 1 691.48993 143.37988] CT
N
f1241251886
f
GR
GS
[1 0 0 1 727.4726 82.37933] CT
N
f1241251886
f
GR
GS
[1 0 0 1 707.05017 75.36713] CT
N
f1241251886
f
GR
GS
[1 0 0 1 683.75336 63.78256] CT
N
f1241251886
f
GR
GS
[1 0 0 1 656.03638 74.81746] CT
N
f1241251886
f
GR
GS
[1 0 0 1 613.51178 74.92282] CT
N
f1241251886
f
GR
GS
[1 0 0 1 724.33258 145.44275] CT
N
f1241251886
f
GR
GS
[1 0 0 1 693.50922 51.10641] CT
N
f1241251886
f
GR
GS
[1 0 0 1 679.86462 69.24934] CT
N
f1241251886
f
GR
GS
[1 0 0 1 624.58075 70.20678] CT
N
f1241251886
f
GR
GS
[1 0 0 1 654.71393 63.69714] CT
N
f1241251886
f
GR
GS
[1 0 0 1 748.41071 144.31474] CT
N
f1241251886
f
GR
GS
[1 0 0 1 672.28729 64.39133] CT
N
f1241251886
f
GR
GS
[1 0 0 1 728.72504 56.11543] CT
N
f1241251886
f
GR
GS
[1 0 0 1 708.03485 73.36608] CT
N
f1241251886
f
GR
GS
[1 0 0 1 710.66583 54.53407] CT
N
f1241251886
f
GR
GS
[1 0 0 1 669.92621 72.92377] CT
N
f1241251886
f
GR
GS
[1 0 0 1 736.13293 82.8653] CT
N
f1241251886
f
GR
GS
[1 0 0 1 702.55731 64.81273] CT
N
f1241251886
f
GR
GS
[1 0 0 1 644.53723 55.58849] CT
N
f1241251886
f
GR
GS
[1 0 0 1 723.84149 154.50398] CT
N
f1241251886
f
GR
GS
[1 0 0 1 631.04358 64.42314] CT
N
f1241251886
f
GR
GS
[1 0 0 1 607.63623 78.13125] CT
N
f1241251886
f
GR
GS
[1 0 0 1 718.08813 58.53622] CT
N
f1241251886
f
GR
GS
[1 0 0 1 668.73151 105.37944] CT
N
f1241251886
f
GR
GS
[1 0 0 1 682.1228 111.4896] CT
N
f1241251886
f
GR
GS
[1 0 0 1 660.60803 113.14458] CT
N
f1241251886
f
GR
GS
[1 0 0 1 692.50378 118.20979] CT
N
f1241251886
f
GR
GS
[1 0 0 1 676.07422 119.71228] CT
N
f1241251886
f
GR
GS
[1 0 0 1 674.37469 120.54893] CT
N
f1241251886
f
GR
GS
[1 0 0 1 703.39606 125.33168] CT
N
f1241251886
f
GR
GS
[1 0 0 1 694.18457 124.06722] CT
N
f1241251886
f
GR
GS
[1 0 0 1 727.29584 132.33228] CT
N
f1241251886
f
GR
GS
[1 0 0 1 703.59705 121.01958] CT
N
f1241251886
f
GR
GS
[1 0 0 1 685.08533 115.32182] CT
N
f1241251886
f
GR
GS
[1 0 0 1 718.27319 121.31819] CT
N
f1241251886
f
GR
GS
[1 0 0 1 613.93329 123.47617] CT
N
f1241251886
f
GR
GS
[1 0 0 1 625.19031 82.34416] CT
N
f1241251886
f
GR
GS
[1 0 0 1 708.80505 73.4114] CT
N
f1241251886
f
GR
GS
[1 0 0 1 745.63196 124.01118] CT
N
f1241251886
f
GR
GS
[1 0 0 1 607.84503 111.32945] CT
N
f1241251886
f
GR
GS
[1 0 0 1 645.60608 135.13174] CT
N
f1241251886
f
GR
GS
[1 0 0 1 669.64435 129.6769] CT
N
f1241251886
f
GR
GS
[1 0 0 1 654.40686 78.01283] CT
N
f1241251886
f
GR
GS
[1 0 0 1 729.9187 113.66997] CT
N
f1241251886
f
GR
GS
[1 0 0 1 611.97723 100.19833] CT
N
f1241251886
f
GR
GS
[1 0 0 1 695.21863 81.19765] CT
N
f1241251886
f
GR
GS
[1 0 0 1 690.98071 60.32954] CT
N
f1241251886
f
GR
GS
[1 0 0 1 646.58362 70.57118] CT
N
f1241251886
f
GR
GS
[1 0 0 1 728.61017 129.8739] CT
N
f1241251886
f
GR
GS
[1 0 0 1 781.27759 129.91948] CT
N
f1241251886
f
GR
GS
[1 0 0 1 715.08325 128.34889] CT
N
f1241251886
f
GR
GS
[1 0 0 1 725.21149 128.42152] CT
N
f1241251886
f
GR
GS
[1 0 0 1 672.44751 114.39954] CT
N
f1241251886
f
GR
GS
[1 0 0 1 672.57056 92.87151] CT
N
f1241251886
f
GR
GS
[1 0 0 1 718.3244 125.77328] CT
N
f1241251886
f
GR
GS
[1 0 0 1 661.29559 82.04401] CT
N
f1241251886
f
GR
GS
[1 0 0 1 647.40088 92.79038] CT
N
f1241251886
f
GR
GS
[1 0 0 1 684.68677 71.5085] CT
N
f1241251886
f
GR
GS
[1 0 0 1 729.89612 81.99619] CT
N
f1241251886
f
GR
GS
[1 0 0 1 711.8183 124.92594] CT
N
f1241251886
f
GR
GS
[1 0 0 1 703.67487 141.41832] CT
N
f1241251886
f
GR
GS
[1 0 0 1 678.4483 56.32022] CT
N
f1241251886
f
GR
GS
[1 0 0 1 678.62604 79.26804] CT
N
f1241251886
f
GR
GS
[1 0 0 1 673.37292 108.31711] CT
N
f1241251886
f
GR
GS
[1 0 0 1 660.46844 116.59512] CT
N
f1241251886
f
GR
GS
[1 0 0 1 665.46069 143.20474] CT
N
f1241251886
f
GR
GS
[1 0 0 1 710.52808 60.12941] CT
N
f1241251886
f
GR
GS
[1 0 0 1 739.74561 141.78268] CT
N
f1241251886
f
GR
GS
[1 0 0 1 658.32397 84.68309] CT
N
f1241251886
f
GR
GS
[1 0 0 1 718.2724 119.20774] CT
N
f1241251886
f
GR
GS
[1 0 0 1 682.39484 75.22233] CT
N
f1241251886
f
GR
GS
[1 0 0 1 699.43347 135.30486] CT
N
f1241251886
f
GR
GS
[1 0 0 1 671.63739 69.32365] CT
N
f1241251886
f
GR
GS
[1 0 0 1 739.5556 118.53735] CT
N
f1241251886
f
GR
GS
[1 0 0 1 749.07251 142.81734] CT
N
f1241251886
f
GR
GS
[1 0 0 1 703.14703 58.96435] CT
N
f1241251886
f
GR
GS
[1 0 0 1 680.90405 61.98163] CT
N
f1241251886
f
GR
GS
[1 0 0 1 707.90576 65.34196] CT
N
f1241251886
f
GR
GS
[1 0 0 1 661.48596 128.01465] CT
N
f1241251886
f
GR
GS
[1 0 0 1 725.34985 118.73949] CT
N
f1241251886
f
GR
GS
[1 0 0 1 719.31183 103.75832] CT
N
f1241251886
f
GR
GS
[1 0 0 1 717.16266 90.71539] CT
N
f1241251886
f
GR
GS
[1 0 0 1 681.4054 66.83293] CT
N
f1241251886
f
GR
GS
[1 0 0 1 680.26154 72.28912] CT
N
f1241251886
f
GR
GS
[1 0 0 1 649.72864 62.4744] CT
N
f1241251886
f
GR
GS
[1 0 0 1 701.03625 61.00583] CT
N
f1241251886
f
GR
GS
[1 0 0 1 647.84198 68.04554] CT
N
f1241251886
f
GR
GS
[1 0 0 1 694.58417 71.93516] CT
N
f1241251886
f
GR
GS
[1 0 0 1 653.15802 100.20884] CT
N
f1241251886
f
GR
GS
[1 0 0 1 662.62799 114.87352] CT
N
f1241251886
f
GR
GS
[1 0 0 1 647.22815 111.22224] CT
N
f1241251886
f
GR
GS
[1 0 0 1 651.70679 132.82339] CT
N
f1241251886
f
GR
GS
[1 0 0 1 771.2478 137.92729] CT
N
f1241251886
f
GR
GS
[1 0 0 1 625.40045 66.28073] CT
N
f1241251886
f
GR
GS
[1 0 0 1 615.48578 79.22556] CT
N
f1241251886
f
GR
GS
[1 0 0 1 676.1012 109.78992] CT
N
f1241251886
f
GR
GS
[1 0 0 1 716.58942 54.00492] CT
N
f1241251886
f
GR
GS
[1 0 0 1 760.51923 123.90423] CT
N
f1241251886
f
GR
GS
[1 0 0 1 702.30841 143.88947] CT
N
f1241251886
f
GR
GS
[1 0 0 1 670.2146 93.74394] CT
N
f1241251886
f
GR
GS
[1 0 0 1 642.51752 114.24598] CT
N
f1241251886
f
GR
GS
[1 0 0 1 736.80133 139.12067] CT
N
f1241251886
f
GR
GS
[1 0 0 1 740.40179 124.28259] CT
N
f1241251886
f
GR
GS
[1 0 0 1 729.7984 113.30906] CT
N
f1241251886
f
GR
GS
[1 0 0 1 742.1618 135.3166] CT
N
f1241251886
f
GR
GS
[1 0 0 1 689.7196 75.30627] CT
N
f1241251886
f
GR
GS
[1 0 0 1 624.70941 74.51521] CT
N
f1241251886
f
GR
GS
[1 0 0 1 747.42084 136.54831] CT
N
f1241251886
f
GR
GS
[1 0 0 1 670.52808 108.1521] CT
N
f1241251886
f
GR
GS
[1 0 0 1 671.6991 96.46205] CT
N
f1241251886
f
GR
GS
[1 0 0 1 727.01392 116.62096] CT
N
f1241251886
f
GR
GS
[1 0 0 1 671.69885 68.04967] CT
N
f1241251886
f
GR
GS
[1 0 0 1 666.17371 78.03419] CT
N
f1241251886
f
GR
GS
[1 0 0 1 699.08545 124.24236] CT
N
f1241251886
f
GR
GS
[1 0 0 1 733.68231 120.55946] CT
N
f1241251886
f
GR
GS
[1 0 0 1 660.46844 83.32922] CT
N
f1241251886
f
GR
GS
[1 0 0 1 687.10919 66.92506] CT
N
f1241251886
f
GR
GS
[1 0 0 1 733.99701 132.22691] CT
N
f1241251886
f
GR
GS
[1 0 0 1 694.39276 73.45956] CT
N
f1241251886
f
GR
GS
[1 0 0 1 665.40955 91.74915] CT
N
f1241251886
f
GR
GS
[1 0 0 1 648.2334 87.79337] CT
N
f1241251886
f
GR
GS
[1 0 0 1 730.65796 120.42181] CT
N
f1241251886
f
GR
GS
[1 0 0 1 700.9585 69.92254] CT
N
f1241251886
f
GR
GS
[1 0 0 1 721.87366 81.80532] CT
N
f1241251886
f
GR
GS
[1 0 0 1 665.91229 88.77779] CT
N
f1241251886
f
GR
GS
[1 0 0 1 708.12183 60.21411] CT
N
f1241251886
f
GR
GS
[1 0 0 1 649.91425 70.40197] CT
N
f1241251886
f
GR
GS
[1 0 0 1 695.71741 54.53756] CT
N
f1241251886
f
GR
GS
[1 0 0 1 625.50983 70.11377] CT
N
f1241251886
f
GR
GS
[1 0 0 1 680.89197 78.11591] CT
N
f1241251886
f
GR
GS
[1 0 0 1 716.71472 118.62304] CT
N
f1241251886
f
GR
GS
[1 0 0 1 668.19928 91.21162] CT
N
f1241251886
f
GR
GS
[1 0 0 1 688.39099 116.41106] CT
N
f1241251886
f
GR
GS
[1 0 0 1 648.84686 62.6456] CT
N
f1241251886
f
GR
GS
[1 0 0 1 697.99249 87.42983] CT
N
f1241251886
f
GR
GS
[1 0 0 1 698.66022 79.37681] CT
N
f1241251886
f
GR
GS
[1 0 0 1 691.05951 66.72413] CT
N
f1241251886
f
GR
GS
[1 0 0 1 664.93066 69.78217] CT
N
f1241251886
f
GR
GS
[1 0 0 1 692.02155 106.07558] CT
N
f1241251886
f
GR
GS
[1 0 0 1 663.12573 70.85737] CT
N
f1241251886
f
GR
GS
[1 0 0 1 724.4762 134.28212] CT
N
f1241251886
f
GR
GS
[1 0 0 1 689.89313 109.28652] CT
N
f1241251886
f
GR
GS
[1 0 0 1 764.68536 119.30976] CT
N
f1241251886
f
GR
GS
[1 0 0 1 682.61401 120.79082] CT
N
f1241251886
f
GR
GS
[1 0 0 1 628.75128 79.80187] CT
N
f1241251886
f
GR
GS
[1 0 0 1 774.33453 141.8284] CT
N
f1241251886
f
GR
GS
[1 0 0 1 719.57574 116.95163] CT
N
f1241251886
f
GR
GS
[1 0 0 1 710.85779 79.88989] CT
N
f1241251886
f
GR
GS
[1 0 0 1 697.61139 66.97847] CT
N
f1241251886
f
GR
GS
[1 0 0 1 733.62042 116.18477] CT
N
f1241251886
f
GR
GS
[1 0 0 1 752.60779 100.67171] CT
N
f1241251886
f
GR
GS
[1 0 0 1 671.49701 101.31436] CT
N
f1241251886
f
GR
GS
[1 0 0 1 734.08246 110.24641] CT
N
f1241251886
f
GR
GS
[1 0 0 1 622.29163 61.68542] CT
N
f1241251886
f
GR
GS
[1 0 0 1 752.58752 113.88223] CT
N
f1241251886
f
GR
GS
[1 0 0 1 736.32068 135.83281] CT
N
f1241251886
f
GR
GS
[1 0 0 1 699.48279 75.42981] CT
N
f1241251886
f
GR
GS
[1 0 0 1 711.01355 123.05252] CT
N
f1241251886
f
GR
GS
[1 0 0 1 684.91467 54.07819] CT
N
f1241251886
f
GR
GS
[1 0 0 1 726.09735 115.05386] CT
N
f1241251886
f
GR
GS
[1 0 0 1 707.08691 107.83344] CT
N
f1241251886
f
GR
GS
[1 0 0 1 723.44019 102.28718] CT
N
f1241251886
f
GR
GS
[1 0 0 1 709.0484 98.92735] CT
N
f1241251886
f
GR
GS
[1 0 0 1 719.8916 106.45675] CT
N
f1241251886
f
GR
GS
[1 0 0 1 678.21735 69.86439] CT
N
f1241251886
f
GR
GS
[1 0 0 1 698.48877 140.72993] CT
N
f1241251886
f
GR
GS
[1 0 0 1 705.46869 89.63894] CT
N
f1241251886
f
GR
GS
[1 0 0 1 708.21747 89.04274] CT
N
f1241251886
f
GR
GS
[1 0 0 1 761.50323 98.17448] CT
N
f1241251886
f
GR
GS
[1 0 0 1 706.75073 68.20647] CT
N
f1241251886
f
GR
GS
[1 0 0 1 760.88544 107.79414] CT
N
f1241251886
f
GR
GS
[1 0 0 1 700.76184 63.77988] CT
N
f1241251886
f
GR
GS
[1 0 0 1 714.0647 76.09241] CT
N
f1241251886
f
GR
GS
[1 0 0 1 607.91699 48.33532] CT
N
f1241251886
f
GR
GS
[1 0 0 1 599.28601 112.56369] CT
N
f1241251886
f
GR
GS
[1 0 0 1 610.97064 73.77393] CT
N
f1241251886
f
GR
GS
[1 0 0 1 720.33179 142.63515] CT
N
f1241251886
f
GR
GS
[1 0 0 1 666.75806 110.52066] CT
N
f1241251886
f
GR
GS
[1 0 0 1 687.57379 133.6422] CT
N
f1241251886
f
GR
GS
[1 0 0 1 658.87897 87.00426] CT
N
f1241251886
f
GR
GS
[1 0 0 1 719.67798 82.55824] CT
N
f1241251886
f
GR
GS
[1 0 0 1 658.13263 94.26218] CT
N
f1241251886
f
GR
GS
[1 0 0 1 721.98328 101.09666] CT
N
f1241251886
f
GR
GS
[1 0 0 1 693.93604 72.70638] CT
N
f1241251886
f
GR
GS
[1 0 0 1 695.10327 84.76987] CT
N
f1241251886
f
GR
GS
[1 0 0 1 683.802 72.90923] CT
N
f1241251886
f
GR
GS
[1 0 0 1 646.11786 87.80152] CT
N
f1241251886
f
GR
GS
[1 0 0 1 643.47699 99.23621] CT
N
f1241251886
f
GR
GS
[1 0 0 1 698.83539 122.67843] CT
N
f1241251886
f
GR
GS
[1 0 0 1 649.99963 92.74021] CT
N
f1241251886
f
GR
GS
[1 0 0 1 704.97546 100.02558] CT
N
f1241251886
f
GR
GS
[1 0 0 1 703.63922 118.70339] CT
N
f1241251886
f
GR
GS
[1 0 0 1 675.23364 101.18222] CT
N
f1241251886
f
GR
GS
[1 0 0 1 700.27087 89.87238] CT
N
f1241251886
f
GR
GS
[1 0 0 1 651.4361 74.43744] CT
N
f1241251886
f
GR
GS
[1 0 0 1 688.45471 76.17255] CT
N
f1241251886
f
GR
GS
[1 0 0 1 706.59296 104.56145] CT
N
f1241251886
f
GR
GS
[1 0 0 1 754.94318 100.31439] CT
N
f1241251886
f
GR
GS
[1 0 0 1 686.0423 102.9199] CT
N
f1241251886
f
GR
GS
[1 0 0 1 713.79736 100.41018] CT
N
f1241251886
f
GR
GS
[1 0 0 1 696.52765 76.38062] CT
N
f1241251886
f
GR
GS
[1 0 0 1 657.97424 66.19978] CT
N
f1241251886
f
GR
GS
[1 0 0 1 613.36096 90.00762] CT
N
f1241251886
f
GR
GS
[1 0 0 1 736.98956 105.85535] CT
N
f1241251886
f
GR
GS
[1 0 0 1 659.54858 106.07365] CT
N
f1241251886
f
GR
GS
[1 0 0 1 684.39154 120.27412] CT
N
f1241251886
f
GR
GS
[1 0 0 1 662.88861 58.55316] CT
N
f1241251886
f
GR
GS
[1 0 0 1 663.21271 97.98727] CT
N
f1241251886
f
GR
GS
[1 0 0 1 685.37439 59.14256] CT
N
f1241251886
f
GR
GS
[1 0 0 1 692.10846 78.74102] CT
N
f1241251886
f
GR
GS
[1 0 0 1 681.29333 65.20139] CT
N
f1241251886
f
GR
GS
[1 0 0 1 624.24548 104.84351] CT
N
f1241251886
f
GR
GS
[1 0 0 1 656.81024 69.77192] CT
N
f1241251886
f
GR
GS
[1 0 0 1 704.66608 120.10833] CT
N
f1241251886
f
GR
GS
[1 0 0 1 605.92218 93.64434] CT
N
f1241251886
f
GR
GS
[1 0 0 1 660.15802 123.16793] CT
N
f1241251886
f
GR
GS
[1 0 0 1 719.7417 84.22887] CT
N
f1241251886
f
GR
GS
[1 0 0 1 707.91052 81.89471] CT
N
f1241251886
f
GR
GS
[1 0 0 1 703.25897 60.85057] CT
N
f1241251886
f
GR
GS
[1 0 0 1 773.97076 117.94937] CT
N
f1241251886
f
GR
GS
[1 0 0 1 709.62708 68.60471] CT
N
f1241251886
f
GR
GS
[1 0 0 1 612.98975 69.59081] CT
N
f1241251886
f
GR
GS
[1 0 0 1 644.19641 94.98367] CT
N
f1241251886
f
GR
GS
[1 0 0 1 653.46509 74.91605] CT
N
f1241251886
f
GR
GS
[1 0 0 1 675.35663 111.8382] CT
N
f1241251886
f
GR
GS
[1 0 0 1 681.66608 100.42424] CT
N
f1241251886
f
GR
GS
[1 0 0 1 673.93127 83.70689] CT
N
f1241251886
f
GR
GS
[1 0 0 1 721.27808 122.01881] CT
N
f1241251886
f
GR
GS
[1 0 0 1 720.23486 68.84871] CT
N
f1241251886
f
GR
GS
[1 0 0 1 651.11884 130.47604] CT
N
f1241251886
f
GR
%%Trailer
%%Pages: 1
%%EOF
