%!PS-Adobe-3.0 EPSF-3.0
%%Creator: (MATLAB, The Mathworks, Inc. Version 9.3.0.713579 \(R2017b\). Operating System: Mac OS X)
%%Title: ./plotVM.eps
%%CreationDate: 2018-08-05T10:20:46
%%Pages: (atend)
%%BoundingBox:    24     6   512   396
%%LanguageLevel: 3
%%EndComments
%%BeginProlog
%%BeginResource: procset (Apache XML Graphics Std ProcSet) 1.2 0
%%Version: 1.2 0
%%Copyright: (Copyright 2001-2003,2010 The Apache Software Foundation. License terms: http://www.apache.org/licenses/LICENSE-2.0)
/bd{bind def}bind def
/ld{load def}bd
/GR/grestore ld
/GS/gsave ld
/RM/rmoveto ld
/C/curveto ld
/t/show ld
/L/lineto ld
/ML/setmiterlimit ld
/CT/concat ld
/f/fill ld
/N/newpath ld
/S/stroke ld
/CC/setcmykcolor ld
/A/ashow ld
/cp/closepath ld
/RC/setrgbcolor ld
/LJ/setlinejoin ld
/GC/setgray ld
/LW/setlinewidth ld
/M/moveto ld
/re {4 2 roll M
1 index 0 rlineto
0 exch rlineto
neg 0 rlineto
cp } bd
/_ctm matrix def
/_tm matrix def
/BT { _ctm currentmatrix pop matrix _tm copy pop 0 0 moveto } bd
/ET { _ctm setmatrix } bd
/iTm { _ctm setmatrix _tm concat } bd
/Tm { _tm astore pop iTm 0 0 moveto } bd
/ux 0.0 def
/uy 0.0 def
/F {
  /Tp exch def
  /Tf exch def
  Tf findfont Tp scalefont setfont
  /cf Tf def  /cs Tp def
} bd
/ULS {currentpoint /uy exch def /ux exch def} bd
/ULE {
  /Tcx currentpoint pop def
  gsave
  newpath
  cf findfont cs scalefont dup
  /FontMatrix get 0 get /Ts exch def /FontInfo get dup
  /UnderlinePosition get Ts mul /To exch def
  /UnderlineThickness get Ts mul /Tt exch def
  ux uy To add moveto  Tcx uy To add lineto
  Tt setlinewidth stroke
  grestore
} bd
/OLE {
  /Tcx currentpoint pop def
  gsave
  newpath
  cf findfont cs scalefont dup
  /FontMatrix get 0 get /Ts exch def /FontInfo get dup
  /UnderlinePosition get Ts mul /To exch def
  /UnderlineThickness get Ts mul /Tt exch def
  ux uy To add cs add moveto Tcx uy To add cs add lineto
  Tt setlinewidth stroke
  grestore
} bd
/SOE {
  /Tcx currentpoint pop def
  gsave
  newpath
  cf findfont cs scalefont dup
  /FontMatrix get 0 get /Ts exch def /FontInfo get dup
  /UnderlinePosition get Ts mul /To exch def
  /UnderlineThickness get Ts mul /Tt exch def
  ux uy To add cs 10 mul 26 idiv add moveto Tcx uy To add cs 10 mul 26 idiv add lineto
  Tt setlinewidth stroke
  grestore
} bd
/QT {
/Y22 exch store
/X22 exch store
/Y21 exch store
/X21 exch store
currentpoint
/Y21 load 2 mul add 3 div exch
/X21 load 2 mul add 3 div exch
/X21 load 2 mul /X22 load add 3 div
/Y21 load 2 mul /Y22 load add 3 div
/X22 load /Y22 load curveto
} bd
/SSPD {
dup length /d exch dict def
{
/v exch def
/k exch def
currentpagedevice k known {
/cpdv currentpagedevice k get def
v cpdv ne {
/upd false def
/nullv v type /nulltype eq def
/nullcpdv cpdv type /nulltype eq def
nullv nullcpdv or
{
/upd true def
} {
/sametype v type cpdv type eq def
sametype {
v type /arraytype eq {
/vlen v length def
/cpdvlen cpdv length def
vlen cpdvlen eq {
0 1 vlen 1 sub {
/i exch def
/obj v i get def
/cpdobj cpdv i get def
obj cpdobj ne {
/upd true def
exit
} if
} for
} {
/upd true def
} ifelse
} {
v type /dicttype eq {
v {
/dv exch def
/dk exch def
/cpddv cpdv dk get def
dv cpddv ne {
/upd true def
exit
} if
} forall
} {
/upd true def
} ifelse
} ifelse
} if
} ifelse
upd true eq {
d k v put
} if
} if
} if
} forall
d length 0 gt {
d setpagedevice
} if
} bd
/RE { % /NewFontName [NewEncodingArray] /FontName RE -
  findfont dup length dict begin
  {
    1 index /FID ne
    {def} {pop pop} ifelse
  } forall
  /Encoding exch def
  /FontName 1 index def
  currentdict definefont pop
  end
} bind def
%%EndResource
%%BeginResource: procset (Apache XML Graphics EPS ProcSet) 1.0 0
%%Version: 1.0 0
%%Copyright: (Copyright 2002-2003 The Apache Software Foundation. License terms: http://www.apache.org/licenses/LICENSE-2.0)
/BeginEPSF { %def
/b4_Inc_state save def         % Save state for cleanup
/dict_count countdictstack def % Count objects on dict stack
/op_count count 1 sub def      % Count objects on operand stack
userdict begin                 % Push userdict on dict stack
/showpage { } def              % Redefine showpage, { } = null proc
0 setgray 0 setlinecap         % Prepare graphics state
1 setlinewidth 0 setlinejoin
10 setmiterlimit [ ] 0 setdash newpath
/languagelevel where           % If level not equal to 1 then
{pop languagelevel             % set strokeadjust and
1 ne                           % overprint to their defaults.
{false setstrokeadjust false setoverprint
} if
} if
} bd
/EndEPSF { %def
count op_count sub {pop} repeat            % Clean up stacks
countdictstack dict_count sub {end} repeat
b4_Inc_state restore
} bd
%%EndResource
%FOPBeginFontDict
%%IncludeResource: font Courier-Oblique
%%IncludeResource: font Courier-BoldOblique
%%IncludeResource: font Courier-Bold
%%IncludeResource: font ZapfDingbats
%%IncludeResource: font Symbol
%%IncludeResource: font Helvetica
%%IncludeResource: font Helvetica-Oblique
%%IncludeResource: font Helvetica-Bold
%%IncludeResource: font Helvetica-BoldOblique
%%IncludeResource: font Times-Roman
%%IncludeResource: font Times-Italic
%%IncludeResource: font Times-Bold
%%IncludeResource: font Times-BoldItalic
%%IncludeResource: font Courier
%FOPEndFontDict
%%BeginResource: encoding WinAnsiEncoding
/WinAnsiEncoding [
/.notdef /.notdef /.notdef /.notdef /.notdef
/.notdef /.notdef /.notdef /.notdef /.notdef
/.notdef /.notdef /.notdef /.notdef /.notdef
/.notdef /.notdef /.notdef /.notdef /.notdef
/.notdef /.notdef /.notdef /.notdef /.notdef
/.notdef /.notdef /.notdef /.notdef /.notdef
/.notdef /.notdef /space /exclam /quotedbl
/numbersign /dollar /percent /ampersand /quotesingle
/parenleft /parenright /asterisk /plus /comma
/hyphen /period /slash /zero /one
/two /three /four /five /six
/seven /eight /nine /colon /semicolon
/less /equal /greater /question /at
/A /B /C /D /E
/F /G /H /I /J
/K /L /M /N /O
/P /Q /R /S /T
/U /V /W /X /Y
/Z /bracketleft /backslash /bracketright /asciicircum
/underscore /quoteleft /a /b /c
/d /e /f /g /h
/i /j /k /l /m
/n /o /p /q /r
/s /t /u /v /w
/x /y /z /braceleft /bar
/braceright /asciitilde /bullet /Euro /bullet
/quotesinglbase /florin /quotedblbase /ellipsis /dagger
/daggerdbl /circumflex /perthousand /Scaron /guilsinglleft
/OE /bullet /Zcaron /bullet /bullet
/quoteleft /quoteright /quotedblleft /quotedblright /bullet
/endash /emdash /asciitilde /trademark /scaron
/guilsinglright /oe /bullet /zcaron /Ydieresis
/space /exclamdown /cent /sterling /currency
/yen /brokenbar /section /dieresis /copyright
/ordfeminine /guillemotleft /logicalnot /sfthyphen /registered
/macron /degree /plusminus /twosuperior /threesuperior
/acute /mu /paragraph /middot /cedilla
/onesuperior /ordmasculine /guillemotright /onequarter /onehalf
/threequarters /questiondown /Agrave /Aacute /Acircumflex
/Atilde /Adieresis /Aring /AE /Ccedilla
/Egrave /Eacute /Ecircumflex /Edieresis /Igrave
/Iacute /Icircumflex /Idieresis /Eth /Ntilde
/Ograve /Oacute /Ocircumflex /Otilde /Odieresis
/multiply /Oslash /Ugrave /Uacute /Ucircumflex
/Udieresis /Yacute /Thorn /germandbls /agrave
/aacute /acircumflex /atilde /adieresis /aring
/ae /ccedilla /egrave /eacute /ecircumflex
/edieresis /igrave /iacute /icircumflex /idieresis
/eth /ntilde /ograve /oacute /ocircumflex
/otilde /odieresis /divide /oslash /ugrave
/uacute /ucircumflex /udieresis /yacute /thorn
/ydieresis
] def
%%EndResource
%FOPBeginFontReencode
/Courier-Oblique findfont
dup length dict begin
  {1 index /FID ne {def} {pop pop} ifelse} forall
  /Encoding WinAnsiEncoding def
  currentdict
end
/Courier-Oblique exch definefont pop
/Courier-BoldOblique findfont
dup length dict begin
  {1 index /FID ne {def} {pop pop} ifelse} forall
  /Encoding WinAnsiEncoding def
  currentdict
end
/Courier-BoldOblique exch definefont pop
/Courier-Bold findfont
dup length dict begin
  {1 index /FID ne {def} {pop pop} ifelse} forall
  /Encoding WinAnsiEncoding def
  currentdict
end
/Courier-Bold exch definefont pop
/Helvetica findfont
dup length dict begin
  {1 index /FID ne {def} {pop pop} ifelse} forall
  /Encoding WinAnsiEncoding def
  currentdict
end
/Helvetica exch definefont pop
/Helvetica-Oblique findfont
dup length dict begin
  {1 index /FID ne {def} {pop pop} ifelse} forall
  /Encoding WinAnsiEncoding def
  currentdict
end
/Helvetica-Oblique exch definefont pop
/Helvetica-Bold findfont
dup length dict begin
  {1 index /FID ne {def} {pop pop} ifelse} forall
  /Encoding WinAnsiEncoding def
  currentdict
end
/Helvetica-Bold exch definefont pop
/Helvetica-BoldOblique findfont
dup length dict begin
  {1 index /FID ne {def} {pop pop} ifelse} forall
  /Encoding WinAnsiEncoding def
  currentdict
end
/Helvetica-BoldOblique exch definefont pop
/Times-Roman findfont
dup length dict begin
  {1 index /FID ne {def} {pop pop} ifelse} forall
  /Encoding WinAnsiEncoding def
  currentdict
end
/Times-Roman exch definefont pop
/Times-Italic findfont
dup length dict begin
  {1 index /FID ne {def} {pop pop} ifelse} forall
  /Encoding WinAnsiEncoding def
  currentdict
end
/Times-Italic exch definefont pop
/Times-Bold findfont
dup length dict begin
  {1 index /FID ne {def} {pop pop} ifelse} forall
  /Encoding WinAnsiEncoding def
  currentdict
end
/Times-Bold exch definefont pop
/Times-BoldItalic findfont
dup length dict begin
  {1 index /FID ne {def} {pop pop} ifelse} forall
  /Encoding WinAnsiEncoding def
  currentdict
end
/Times-BoldItalic exch definefont pop
/Courier findfont
dup length dict begin
  {1 index /FID ne {def} {pop pop} ifelse} forall
  /Encoding WinAnsiEncoding def
  currentdict
end
/Courier exch definefont pop
%FOPEndFontReencode
%%EndProlog
%%Page: 1 1
%%PageBoundingBox: 0 0 560 420
%%BeginPageSetup
[1 0 0 -1 0 420] CT
%%EndPageSetup
GS
1 GC
N
0 0 560 420 re
f
GR
GS
1 GC
N
0 0 560 420 re
f
GR
GS
1 GC
N
73 373.5 M
507 373.5 L
507 31.5 L
73 31.5 L
cp
f
GR
GS
0.149 GC
2 setlinecap
1 LJ
0.5 LW
N
73 373.5 M
507 373.5 L
S
GR
GS
0.149 GC
2 setlinecap
1 LJ
0.5 LW
N
73 31.5 M
507 31.5 L
S
GR
GS
0.149 GC
2 setlinecap
1 LJ
0.5 LW
N
73 373.5 M
73 369.16 L
S
GR
GS
0.149 GC
2 setlinecap
1 LJ
0.5 LW
N
290 373.5 M
290 369.16 L
S
GR
GS
0.149 GC
2 setlinecap
1 LJ
0.5 LW
N
507 373.5 M
507 369.16 L
S
GR
GS
0.149 GC
2 setlinecap
1 LJ
0.5 LW
N
73 31.5 M
73 35.84 L
S
GR
GS
0.149 GC
2 setlinecap
1 LJ
0.5 LW
N
290 31.5 M
290 35.84 L
S
GR
GS
0.149 GC
2 setlinecap
1 LJ
0.5 LW
N
507 31.5 M
507 35.84 L
S
GR
GS
[1 0 0 1 72.99999 378.70001] CT
0.149 GC
N
-9.429 9.752 M
-9.569 9.752 -9.655 9.651 QT
-9.741 9.549 -9.741 9.44 QT
-9.741 9.315 -9.655 9.213 QT
-9.569 9.112 -9.429 9.112 QT
-0.257 9.112 L
-0.132 9.112 -0.046 9.213 QT
0.04 9.315 0.04 9.44 QT
0.04 9.549 -0.046 9.651 QT
-0.132 9.752 -0.257 9.752 QT
-9.429 9.752 L
cp
f
GR
GS
[1 0 0 1 72.99999 378.70001] CT
0.149 GC
N
3 13.159 M
3 13.081 3.063 12.909 QT
3.5 11.971 3.891 11.081 QT
4.281 10.19 4.586 9.338 QT
4.891 8.487 5.156 7.534 QT
4.125 7.534 L
3.547 7.534 3.039 7.901 QT
2.531 8.268 2.188 8.831 QT
2.156 8.893 2.094 8.893 QT
1.906 8.893 L
1.766 8.893 1.766 8.737 QT
1.766 8.706 1.797 8.643 QT
2.313 7.752 2.914 7.143 QT
3.516 6.534 4.266 6.534 QT
10.063 6.534 L
10.234 6.534 10.352 6.643 QT
10.469 6.752 10.469 6.94 QT
10.469 7.174 10.297 7.354 QT
10.125 7.534 9.891 7.534 QT
7.859 7.534 L
7.594 8.784 7.578 9.987 QT
7.578 11.518 8.109 12.768 QT
8.156 12.862 8.156 12.956 QT
8.156 13.127 8.055 13.276 QT
7.953 13.424 7.797 13.526 QT
7.641 13.627 7.453 13.627 QT
7.031 13.627 6.875 12.932 QT
6.719 12.237 6.719 11.596 QT
6.719 10.674 6.875 9.831 QT
7.031 8.987 7.375 7.534 QT
5.641 7.534 L
4.375 12.659 4.109 13.174 QT
3.891 13.627 3.484 13.627 QT
3.297 13.627 3.148 13.495 QT
3 13.362 3 13.159 QT
cp
f
GR
GS
[1 0 0 1 290 378.70001] CT
0.149 GC
N
0 13.799 M
-1.953 13.799 -2.664 12.182 QT
-3.375 10.565 -3.375 8.331 QT
-3.375 6.94 -3.117 5.713 QT
-2.859 4.487 -2.109 3.635 QT
-1.359 2.784 0 2.784 QT
1.063 2.784 1.734 3.299 QT
2.406 3.815 2.758 4.627 QT
3.109 5.44 3.234 6.377 QT
3.359 7.315 3.359 8.331 QT
3.359 9.706 3.109 10.909 QT
2.859 12.112 2.117 12.956 QT
1.375 13.799 0 13.799 QT
cp
0 13.377 M
0.891 13.377 1.328 12.463 QT
1.766 11.549 1.867 10.44 QT
1.969 9.331 1.969 8.081 QT
1.969 6.877 1.867 5.862 QT
1.766 4.846 1.336 4.018 QT
0.906 3.19 0 3.19 QT
-0.906 3.19 -1.344 4.018 QT
-1.781 4.846 -1.883 5.862 QT
-1.984 6.877 -1.984 8.081 QT
-1.984 8.971 -1.938 9.76 QT
-1.891 10.549 -1.703 11.385 QT
-1.516 12.221 -1.102 12.799 QT
-0.688 13.377 0 13.377 QT
cp
f
GR
GS
[1 0 0 1 507 378.70001] CT
0.149 GC
N
-3.222 13.159 M
-3.222 13.081 -3.16 12.909 QT
-2.722 11.971 -2.332 11.081 QT
-1.941 10.19 -1.636 9.338 QT
-1.332 8.487 -1.066 7.534 QT
-2.097 7.534 L
-2.675 7.534 -3.183 7.901 QT
-3.691 8.268 -4.035 8.831 QT
-4.066 8.893 -4.128 8.893 QT
-4.316 8.893 L
-4.457 8.893 -4.457 8.737 QT
-4.457 8.706 -4.425 8.643 QT
-3.91 7.752 -3.308 7.143 QT
-2.707 6.534 -1.957 6.534 QT
3.84 6.534 L
4.012 6.534 4.129 6.643 QT
4.247 6.752 4.247 6.94 QT
4.247 7.174 4.075 7.354 QT
3.903 7.534 3.668 7.534 QT
1.637 7.534 L
1.372 8.784 1.356 9.987 QT
1.356 11.518 1.887 12.768 QT
1.934 12.862 1.934 12.956 QT
1.934 13.127 1.832 13.276 QT
1.731 13.424 1.575 13.526 QT
1.418 13.627 1.231 13.627 QT
0.809 13.627 0.653 12.932 QT
0.497 12.237 0.497 11.596 QT
0.497 10.674 0.653 9.831 QT
0.809 8.987 1.153 7.534 QT
-0.582 7.534 L
-1.847 12.659 -2.113 13.174 QT
-2.332 13.627 -2.738 13.627 QT
-2.925 13.627 -3.074 13.495 QT
-3.222 13.362 -3.222 13.159 QT
cp
f
GR
GS
[1 0 0 1 290.00021 398.88] CT
0.149 GC
N
-3.623 14.268 M
-3.311 14.518 -2.733 14.518 QT
-2.17 14.518 -1.733 13.971 QT
-1.295 13.425 -1.139 12.784 QT
-0.326 9.596 L
-0.139 8.721 -0.139 8.409 QT
-0.139 7.956 -0.389 7.628 QT
-0.639 7.3 -1.076 7.3 QT
-1.654 7.3 -2.154 7.651 QT
-2.654 8.003 -2.998 8.557 QT
-3.342 9.112 -3.483 9.675 QT
-3.514 9.784 -3.623 9.784 QT
-3.842 9.784 L
-3.983 9.784 -3.983 9.612 QT
-3.983 9.565 L
-3.811 8.893 -3.389 8.26 QT
-2.967 7.628 -2.358 7.229 QT
-1.748 6.831 -1.045 6.831 QT
-0.389 6.831 0.142 7.182 QT
0.674 7.534 0.892 8.143 QT
1.205 7.581 1.681 7.206 QT
2.158 6.831 2.736 6.831 QT
3.111 6.831 3.517 6.964 QT
3.924 7.096 4.181 7.378 QT
4.439 7.659 4.439 8.081 QT
4.439 8.55 4.142 8.878 QT
3.846 9.206 3.392 9.206 QT
3.096 9.206 2.908 9.018 QT
2.721 8.831 2.721 8.55 QT
2.721 8.175 2.978 7.885 QT
3.236 7.596 3.596 7.55 QT
3.267 7.3 2.689 7.3 QT
2.111 7.3 1.689 7.831 QT
1.267 8.362 1.096 9.034 QT
0.299 12.206 L
0.111 12.925 0.111 13.393 QT
0.111 13.846 0.369 14.182 QT
0.627 14.518 1.049 14.518 QT
1.892 14.518 2.556 13.768 QT
3.221 13.018 3.439 12.143 QT
3.471 12.034 3.58 12.034 QT
3.799 12.034 L
3.861 12.034 3.908 12.081 QT
3.955 12.128 3.955 12.19 QT
3.955 12.206 3.939 12.237 QT
3.674 13.315 2.861 14.151 QT
2.049 14.987 1.017 14.987 QT
0.361 14.987 -0.17 14.628 QT
-0.701 14.268 -0.92 13.675 QT
-1.201 14.19 -1.701 14.589 QT
-2.201 14.987 -2.764 14.987 QT
-3.154 14.987 -3.561 14.846 QT
-3.967 14.706 -4.225 14.425 QT
-4.483 14.143 -4.483 13.721 QT
-4.483 13.3 -4.186 12.948 QT
-3.889 12.596 -3.451 12.596 QT
-3.154 12.596 -2.951 12.784 QT
-2.748 12.971 -2.748 13.253 QT
-2.748 13.628 -2.998 13.909 QT
-3.248 14.19 -3.623 14.268 QT
cp
f
GR
GS
0.149 GC
2 setlinecap
1 LJ
0.5 LW
N
73 373.5 M
73 31.5 L
S
GR
GS
0.149 GC
2 setlinecap
1 LJ
0.5 LW
N
507 373.5 M
507 31.5 L
S
GR
GS
0.149 GC
2 setlinecap
1 LJ
0.5 LW
N
73 373.5 M
77.34 373.5 L
S
GR
GS
0.149 GC
2 setlinecap
1 LJ
0.5 LW
N
73 259.5 M
77.34 259.5 L
S
GR
GS
0.149 GC
2 setlinecap
1 LJ
0.5 LW
N
73 145.5 M
77.34 145.5 L
S
GR
GS
0.149 GC
2 setlinecap
1 LJ
0.5 LW
N
73 31.5 M
77.34 31.5 L
S
GR
GS
0.149 GC
2 setlinecap
1 LJ
0.5 LW
N
507 373.5 M
502.66 373.5 L
S
GR
GS
0.149 GC
2 setlinecap
1 LJ
0.5 LW
N
507 259.5 M
502.66 259.5 L
S
GR
GS
0.149 GC
2 setlinecap
1 LJ
0.5 LW
N
507 145.5 M
502.66 145.5 L
S
GR
GS
0.149 GC
2 setlinecap
1 LJ
0.5 LW
N
507 31.5 M
502.66 31.5 L
S
GR
GS
[1 0 0 1 67.8 373.5] CT
0.149 GC
N
-4 4.199 M
-5.953 4.199 -6.664 2.582 QT
-7.375 0.965 -7.375 -1.269 QT
-7.375 -2.66 -7.117 -3.887 QT
-6.859 -5.113 -6.109 -5.965 QT
-5.359 -6.816 -4 -6.816 QT
-2.938 -6.816 -2.266 -6.301 QT
-1.594 -5.785 -1.242 -4.973 QT
-0.891 -4.16 -0.766 -3.223 QT
-0.641 -2.285 -0.641 -1.269 QT
-0.641 0.106 -0.891 1.309 QT
-1.141 2.512 -1.883 3.356 QT
-2.625 4.199 -4 4.199 QT
cp
-4 3.777 M
-3.109 3.777 -2.672 2.863 QT
-2.234 1.949 -2.133 0.84 QT
-2.031 -0.269 -2.031 -1.519 QT
-2.031 -2.723 -2.133 -3.738 QT
-2.234 -4.754 -2.664 -5.582 QT
-3.094 -6.41 -4 -6.41 QT
-4.906 -6.41 -5.344 -5.582 QT
-5.781 -4.754 -5.883 -3.738 QT
-5.984 -2.723 -5.984 -1.519 QT
-5.984 -0.629 -5.938 0.16 QT
-5.891 0.949 -5.703 1.785 QT
-5.516 2.621 -5.102 3.199 QT
-4.688 3.777 -4 3.777 QT
cp
f
GR
GS
[1 0 0 1 67.8 259.5] CT
0.149 GC
N
-16.445 4.199 M
-18.398 4.199 -19.109 2.582 QT
-19.82 0.965 -19.82 -1.269 QT
-19.82 -2.66 -19.562 -3.887 QT
-19.304 -5.113 -18.554 -5.965 QT
-17.804 -6.816 -16.445 -6.816 QT
-15.382 -6.816 -14.71 -6.301 QT
-14.038 -5.785 -13.687 -4.973 QT
-13.335 -4.16 -13.21 -3.223 QT
-13.085 -2.285 -13.085 -1.269 QT
-13.085 0.106 -13.335 1.309 QT
-13.585 2.512 -14.327 3.356 QT
-15.07 4.199 -16.445 4.199 QT
cp
-16.445 3.777 M
-15.554 3.777 -15.116 2.863 QT
-14.679 1.949 -14.577 0.84 QT
-14.476 -0.269 -14.476 -1.519 QT
-14.476 -2.723 -14.577 -3.738 QT
-14.679 -4.754 -15.109 -5.582 QT
-15.538 -6.41 -16.445 -6.41 QT
-17.351 -6.41 -17.788 -5.582 QT
-18.226 -4.754 -18.327 -3.738 QT
-18.429 -2.723 -18.429 -1.519 QT
-18.429 -0.629 -18.382 0.16 QT
-18.335 0.949 -18.148 1.785 QT
-17.96 2.621 -17.546 3.199 QT
-17.132 3.777 -16.445 3.777 QT
cp
f
GR
GS
[1 0 0 1 67.8 259.5] CT
0.149 GC
N
-11.101 2.949 M
-11.101 2.59 -10.835 2.332 QT
-10.569 2.074 -10.21 2.074 QT
-9.991 2.074 -9.78 2.192 QT
-9.569 2.309 -9.452 2.52 QT
-9.335 2.731 -9.335 2.949 QT
-9.335 3.309 -9.593 3.574 QT
-9.851 3.84 -10.21 3.84 QT
-10.569 3.84 -10.835 3.574 QT
-11.101 3.309 -11.101 2.949 QT
cp
f
GR
GS
[1 0 0 1 67.8 259.5] CT
0.149 GC
N
-6.609 2.012 M
-6.438 2.481 -6.102 2.863 QT
-5.766 3.246 -5.297 3.465 QT
-4.828 3.684 -4.328 3.684 QT
-3.172 3.684 -2.734 2.785 QT
-2.297 1.887 -2.297 0.606 QT
-2.297 0.043 -2.32 -0.332 QT
-2.344 -0.707 -2.422 -1.066 QT
-2.578 -1.629 -2.945 -2.051 QT
-3.313 -2.473 -3.859 -2.473 QT
-4.391 -2.473 -4.781 -2.308 QT
-5.172 -2.144 -5.414 -1.926 QT
-5.656 -1.707 -5.844 -1.465 QT
-6.031 -1.223 -6.078 -1.207 QT
-6.25 -1.207 L
-6.297 -1.207 -6.352 -1.254 QT
-6.406 -1.301 -6.406 -1.348 QT
-6.406 -6.691 L
-6.406 -6.738 -6.359 -6.777 QT
-6.313 -6.816 -6.25 -6.816 QT
-6.203 -6.816 L
-5.125 -6.301 -3.922 -6.301 QT
-2.734 -6.301 -1.625 -6.816 QT
-1.578 -6.816 L
-1.531 -6.816 -1.484 -6.777 QT
-1.438 -6.738 -1.438 -6.691 QT
-1.438 -6.551 L
-1.438 -6.473 -1.469 -6.473 QT
-2.016 -5.738 -2.836 -5.332 QT
-3.656 -4.926 -4.547 -4.926 QT
-5.188 -4.926 -5.859 -5.113 QT
-5.859 -2.082 L
-5.328 -2.519 -4.906 -2.699 QT
-4.484 -2.879 -3.844 -2.879 QT
-2.953 -2.879 -2.258 -2.371 QT
-1.563 -1.863 -1.188 -1.051 QT
-0.813 -0.238 -0.813 0.621 QT
-0.813 1.574 -1.281 2.395 QT
-1.75 3.215 -2.563 3.707 QT
-3.375 4.199 -4.328 4.199 QT
-5.125 4.199 -5.781 3.785 QT
-6.438 3.371 -6.82 2.684 QT
-7.203 1.996 -7.203 1.231 QT
-7.203 0.871 -6.969 0.645 QT
-6.734 0.418 -6.375 0.418 QT
-6.031 0.418 -5.789 0.645 QT
-5.547 0.871 -5.547 1.231 QT
-5.547 1.574 -5.789 1.809 QT
-6.031 2.043 -6.375 2.043 QT
-6.438 2.043 -6.508 2.035 QT
-6.578 2.027 -6.609 2.012 QT
cp
f
GR
GS
[1 0 0 1 67.8 145.5] CT
0.149 GC
N
-6.516 3.84 M
-6.516 3.277 L
-4.516 3.277 -4.516 2.762 QT
-4.516 -5.629 L
-5.344 -5.238 -6.609 -5.238 QT
-6.609 -5.801 L
-4.641 -5.801 -3.641 -6.816 QT
-3.422 -6.816 L
-3.359 -6.816 -3.313 -6.777 QT
-3.266 -6.738 -3.266 -6.676 QT
-3.266 2.762 L
-3.266 3.277 -1.266 3.277 QT
-1.266 3.84 L
-6.516 3.84 L
cp
f
GR
GS
[1 0 0 1 67.8 31.5] CT
0.149 GC
N
-18.96 3.84 M
-18.96 3.277 L
-16.96 3.277 -16.96 2.762 QT
-16.96 -5.629 L
-17.788 -5.238 -19.054 -5.238 QT
-19.054 -5.801 L
-17.085 -5.801 -16.085 -6.816 QT
-15.866 -6.816 L
-15.804 -6.816 -15.757 -6.777 QT
-15.71 -6.738 -15.71 -6.676 QT
-15.71 2.762 L
-15.71 3.277 -13.71 3.277 QT
-13.71 3.84 L
-18.96 3.84 L
cp
f
GR
GS
[1 0 0 1 67.8 31.5] CT
0.149 GC
N
/f772294982{-11.101 2.949 M
-11.101 2.59 -10.835 2.332 QT
-10.569 2.074 -10.21 2.074 QT
-9.991 2.074 -9.78 2.192 QT
-9.569 2.309 -9.452 2.52 QT
-9.335 2.731 -9.335 2.949 QT
-9.335 3.309 -9.593 3.574 QT
-9.851 3.84 -10.21 3.84 QT
-10.569 3.84 -10.835 3.574 QT
-11.101 3.309 -11.101 2.949 QT
cp}def
f772294982
f
GR
GS
[1 0 0 1 67.8 31.5] CT
0.149 GC
N
/f1964111568{-6.609 2.012 M
-6.438 2.481 -6.102 2.863 QT
-5.766 3.246 -5.297 3.465 QT
-4.828 3.684 -4.328 3.684 QT
-3.172 3.684 -2.734 2.785 QT
-2.297 1.887 -2.297 0.606 QT
-2.297 0.043 -2.32 -0.332 QT
-2.344 -0.707 -2.422 -1.066 QT
-2.578 -1.629 -2.945 -2.051 QT
-3.313 -2.473 -3.859 -2.473 QT
-4.391 -2.473 -4.781 -2.308 QT
-5.172 -2.144 -5.414 -1.926 QT
-5.656 -1.707 -5.844 -1.465 QT
-6.031 -1.223 -6.078 -1.207 QT
-6.25 -1.207 L
-6.297 -1.207 -6.352 -1.254 QT
-6.406 -1.301 -6.406 -1.348 QT
-6.406 -6.691 L
-6.406 -6.738 -6.359 -6.777 QT
-6.313 -6.816 -6.25 -6.816 QT
-6.203 -6.816 L
-5.125 -6.301 -3.922 -6.301 QT
-2.734 -6.301 -1.625 -6.816 QT
-1.578 -6.816 L
-1.531 -6.816 -1.484 -6.777 QT
-1.438 -6.738 -1.438 -6.691 QT
-1.438 -6.551 L
-1.438 -6.473 -1.469 -6.473 QT
-2.016 -5.738 -2.836 -5.332 QT
-3.656 -4.926 -4.547 -4.926 QT
-5.188 -4.926 -5.859 -5.113 QT
-5.859 -2.082 L
-5.328 -2.519 -4.906 -2.699 QT
-4.484 -2.879 -3.844 -2.879 QT
-2.953 -2.879 -2.258 -2.371 QT
-1.563 -1.863 -1.188 -1.051 QT
-0.813 -0.238 -0.813 0.621 QT
-0.813 1.574 -1.281 2.395 QT
-1.75 3.215 -2.563 3.707 QT
-3.375 4.199 -4.328 4.199 QT
-5.125 4.199 -5.781 3.785 QT
-6.438 3.371 -6.82 2.684 QT
-7.203 1.996 -7.203 1.231 QT
-7.203 0.871 -6.969 0.645 QT
-6.734 0.418 -6.375 0.418 QT
-6.031 0.418 -5.789 0.645 QT
-5.547 0.871 -5.547 1.231 QT
-5.547 1.574 -5.789 1.809 QT
-6.031 2.043 -6.375 2.043 QT
-6.438 2.043 -6.508 2.035 QT
-6.578 2.027 -6.609 2.012 QT
cp}def
f1964111568
f
GR
GS
[0 -1 1 0 44.3555 202.49983] CT
0.149 GC
N
/f-35359857{-16.755 -2.852 M
-16.911 -2.852 -16.911 -3.07 QT
-16.848 -3.477 -16.676 -3.477 QT
-16.114 -3.477 -15.887 -3.578 QT
-15.661 -3.68 -15.551 -4.086 QT
-13.52 -12.195 L
-13.38 -12.524 -13.38 -13.055 QT
-13.38 -13.82 -13.911 -13.82 QT
-14.473 -13.82 -14.747 -13.149 QT
-15.02 -12.477 -15.27 -11.445 QT
-15.27 -11.336 -15.426 -11.336 QT
-15.63 -11.336 L
-15.676 -11.336 -15.731 -11.406 QT
-15.786 -11.477 -15.786 -11.524 QT
-15.583 -12.305 -15.403 -12.852 QT
-15.223 -13.399 -14.84 -13.844 QT
-14.458 -14.289 -13.895 -14.289 QT
-13.27 -14.289 -12.809 -13.945 QT
-12.348 -13.602 -12.208 -12.992 QT
-11.723 -13.57 -11.122 -13.93 QT
-10.52 -14.289 -9.895 -14.289 QT
-9.145 -14.289 -8.583 -13.883 QT
-8.02 -13.477 -7.739 -12.828 QT
-7.458 -12.18 -7.458 -11.414 QT
-7.458 -10.258 -8.051 -9.016 QT
-8.645 -7.774 -9.661 -6.953 QT
-10.676 -6.133 -11.833 -6.133 QT
-12.364 -6.133 -12.794 -6.43 QT
-13.223 -6.727 -13.458 -7.211 QT
-14.27 -4.008 L
-14.317 -3.758 -14.317 -3.711 QT
-14.317 -3.477 -13.13 -3.477 QT
-12.958 -3.477 -12.958 -3.242 QT
-13.02 -3.008 -13.059 -2.93 QT
-13.098 -2.852 -13.255 -2.852 QT
-16.755 -2.852 L
cp
-11.817 -6.602 M
-11.192 -6.602 -10.661 -7.117 QT
-10.13 -7.633 -9.786 -8.274 QT
-9.536 -8.758 -9.325 -9.461 QT
-9.114 -10.164 -8.958 -10.953 QT
-8.801 -11.742 -8.801 -12.211 QT
-8.801 -12.617 -8.911 -12.977 QT
-9.02 -13.336 -9.27 -13.578 QT
-9.52 -13.82 -9.926 -13.82 QT
-10.583 -13.82 -11.169 -13.352 QT
-11.755 -12.883 -12.239 -12.195 QT
-12.239 -12.133 L
-13.223 -8.149 L
-13.098 -7.508 -12.747 -7.055 QT
-12.395 -6.602 -11.817 -6.602 QT
cp}def
f-35359857
f
GR
GS
[0 -1 1 0 44.3555 202.49983] CT
0.149 GC
N
/f-738780871{-1.868 -1.867 M
-2.868 -2.664 -3.595 -3.688 QT
-4.321 -4.711 -4.782 -5.867 QT
-5.243 -7.024 -5.47 -8.289 QT
-5.696 -9.555 -5.696 -10.836 QT
-5.696 -12.133 -5.47 -13.399 QT
-5.243 -14.664 -4.775 -15.828 QT
-4.306 -16.992 -3.571 -18.016 QT
-2.837 -19.039 -1.868 -19.805 QT
-1.868 -19.836 -1.775 -19.836 QT
-1.603 -19.836 L
-1.556 -19.836 -1.509 -19.789 QT
-1.462 -19.742 -1.462 -19.68 QT
-1.462 -19.602 -1.509 -19.57 QT
-2.384 -18.695 -2.97 -17.711 QT
-3.556 -16.727 -3.907 -15.617 QT
-4.259 -14.508 -4.423 -13.32 QT
-4.587 -12.133 -4.587 -10.836 QT
-4.587 -5.117 -1.525 -2.149 QT
-1.462 -2.086 -1.462 -1.992 QT
-1.462 -1.945 -1.517 -1.891 QT
-1.571 -1.836 -1.603 -1.836 QT
-1.775 -1.836 L
-1.868 -1.836 -1.868 -1.867 QT
cp}def
f-738780871
f
GR
GS
[0 -1 1 0 44.3555 202.49983] CT
0.149 GC
N
/f1555298302{0.804 -6.852 M
1.117 -6.602 1.695 -6.602 QT
2.257 -6.602 2.695 -7.149 QT
3.132 -7.695 3.289 -8.336 QT
4.101 -11.524 L
4.289 -12.399 4.289 -12.711 QT
4.289 -13.164 4.039 -13.492 QT
3.789 -13.82 3.351 -13.82 QT
2.773 -13.82 2.273 -13.469 QT
1.773 -13.117 1.429 -12.563 QT
1.086 -12.008 0.945 -11.445 QT
0.914 -11.336 0.804 -11.336 QT
0.586 -11.336 L
0.445 -11.336 0.445 -11.508 QT
0.445 -11.555 L
0.617 -12.227 1.039 -12.86 QT
1.461 -13.492 2.07 -13.891 QT
2.679 -14.289 3.382 -14.289 QT
4.039 -14.289 4.57 -13.938 QT
5.101 -13.586 5.32 -12.977 QT
5.632 -13.539 6.109 -13.914 QT
6.586 -14.289 7.164 -14.289 QT
7.539 -14.289 7.945 -14.156 QT
8.351 -14.024 8.609 -13.742 QT
8.867 -13.461 8.867 -13.039 QT
8.867 -12.57 8.57 -12.242 QT
8.273 -11.914 7.82 -11.914 QT
7.523 -11.914 7.336 -12.102 QT
7.148 -12.289 7.148 -12.57 QT
7.148 -12.945 7.406 -13.235 QT
7.664 -13.524 8.023 -13.57 QT
7.695 -13.82 7.117 -13.82 QT
6.539 -13.82 6.117 -13.289 QT
5.695 -12.758 5.523 -12.086 QT
4.726 -8.914 L
4.539 -8.195 4.539 -7.727 QT
4.539 -7.274 4.796 -6.938 QT
5.054 -6.602 5.476 -6.602 QT
6.32 -6.602 6.984 -7.352 QT
7.648 -8.102 7.867 -8.977 QT
7.898 -9.086 8.007 -9.086 QT
8.226 -9.086 L
8.289 -9.086 8.336 -9.039 QT
8.382 -8.992 8.382 -8.93 QT
8.382 -8.914 8.367 -8.883 QT
8.101 -7.805 7.289 -6.969 QT
6.476 -6.133 5.445 -6.133 QT
4.789 -6.133 4.257 -6.492 QT
3.726 -6.852 3.507 -7.445 QT
3.226 -6.93 2.726 -6.531 QT
2.226 -6.133 1.664 -6.133 QT
1.273 -6.133 0.867 -6.274 QT
0.461 -6.414 0.203 -6.695 QT
-0.055 -6.977 -0.055 -7.399 QT
-0.055 -7.82 0.242 -8.172 QT
0.539 -8.524 0.976 -8.524 QT
1.273 -8.524 1.476 -8.336 QT
1.679 -8.149 1.679 -7.867 QT
1.679 -7.492 1.429 -7.211 QT
1.179 -6.93 0.804 -6.852 QT
cp}def
f1555298302
f
GR
GS
[0 -1 1 0 44.3555 202.49983] CT
0.149 GC
N
/f745907386{10.629 -1.836 M
10.473 -1.836 10.473 -1.992 QT
10.473 -2.07 10.504 -2.102 QT
13.582 -5.117 13.582 -10.836 QT
13.582 -16.555 10.535 -19.524 QT
10.473 -19.57 10.473 -19.68 QT
10.473 -19.742 10.519 -19.789 QT
10.566 -19.836 10.629 -19.836 QT
10.801 -19.836 L
10.848 -19.836 10.879 -19.805 QT
12.176 -18.789 13.035 -17.328 QT
13.894 -15.867 14.293 -14.211 QT
14.691 -12.555 14.691 -10.836 QT
14.691 -9.555 14.48 -8.32 QT
14.269 -7.086 13.801 -5.891 QT
13.332 -4.695 12.605 -3.68 QT
11.879 -2.664 10.879 -1.867 QT
10.848 -1.836 10.801 -1.836 QT
10.629 -1.836 L
cp}def
f745907386
f
GR
GS
1 LJ
N
73 373.5 M
74.085 373.5 L
75.17 373.5 L
76.255 373.5 L
77.34 373.5 L
78.425 373.5 L
79.51 373.5 L
80.595 373.5 L
81.68 373.5 L
82.765 373.5 L
83.85 373.5 L
84.935 373.5 L
86.02 373.5 L
87.105 373.5 L
88.19 373.5 L
89.275 373.5 L
90.36 373.5 L
91.445 373.5 L
92.53 373.5 L
93.615 373.5 L
94.7 373.5 L
95.785 373.5 L
96.87 373.5 L
97.955 373.5 L
99.04 373.5 L
100.125 373.5 L
101.21 373.5 L
102.295 373.5 L
103.38 373.5 L
104.465 373.5 L
105.55 373.5 L
106.635 373.5 L
107.72 373.5 L
108.805 373.5 L
109.89 373.5 L
110.975 373.5 L
112.06 373.5 L
113.145 373.5 L
114.23 373.5 L
115.315 373.5 L
116.4 373.5 L
117.485 373.5 L
118.57 373.5 L
119.655 373.5 L
120.74 373.5 L
121.825 373.5 L
122.91 373.5 L
123.995 373.5 L
125.08 373.5 L
126.165 373.5 L
127.25 373.5 L
128.335 373.5 L
129.42 373.5 L
130.505 373.5 L
131.59 373.5 L
132.675 373.5 L
133.76 373.5 L
134.845 373.5 L
135.93 373.5 L
137.015 373.5 L
138.1 373.5 L
139.185 373.5 L
140.27 373.5 L
141.355 373.5 L
142.44 373.5 L
143.525 373.5 L
144.61 373.5 L
145.695 373.5 L
146.78 373.5 L
147.865 373.5 L
148.95 373.5 L
150.035 373.5 L
151.12 373.5 L
152.205 373.5 L
153.29 373.5 L
154.375 373.5 L
155.46 373.5 L
156.545 373.5 L
157.63 373.5 L
158.715 373.5 L
159.8 373.5 L
160.885 373.499 L
161.97 373.499 L
163.055 373.499 L
164.14 373.499 L
165.225 373.499 L
166.31 373.499 L
167.395 373.499 L
168.48 373.498 L
169.565 373.498 L
170.65 373.498 L
171.735 373.497 L
172.82 373.497 L
173.905 373.496 L
174.99 373.496 L
176.075 373.495 L
177.16 373.494 L
178.245 373.493 L
179.33 373.492 L
180.415 373.49 L
181.5 373.489 L
182.585 373.487 L
183.67 373.484 L
184.755 373.482 L
185.84 373.479 L
186.925 373.475 L
188.01 373.47 L
189.095 373.465 L
190.18 373.46 L
191.265 373.453 L
192.35 373.445 L
193.435 373.435 L
194.52 373.424 L
195.605 373.411 L
196.69 373.396 L
197.775 373.379 L
198.86 373.359 L
199.945 373.335 L
201.03 373.308 L
202.115 373.276 L
203.2 373.24 L
204.285 373.197 L
205.37 373.148 L
206.455 373.092 L
207.54 373.026 L
208.625 372.951 L
209.71 372.864 L
210.795 372.765 L
211.88 372.65 L
212.965 372.519 L
214.05 372.369 L
215.135 372.198 L
216.22 372.002 L
217.305 371.779 L
218.39 371.525 L
219.475 371.236 L
220.56 370.909 L
221.645 370.538 L
222.73 370.119 L
223.815 369.646 L
224.9 369.113 L
225.985 368.514 L
227.07 367.841 L
228.155 367.088 L
229.24 366.246 L
230.325 365.306 L
231.41 364.259 L
232.495 363.096 L
233.58 361.806 L
234.665 360.379 L
235.75 358.803 L
236.835 357.067 L
237.92 355.159 L
239.005 353.067 L
240.09 350.778 L
241.175 348.28 L
242.26 345.56 L
243.345 342.607 L
244.43 339.408 L
245.515 335.952 L
246.6 332.228 L
247.685 328.227 L
248.77 323.939 L
249.855 319.357 L
250.94 314.475 L
252.025 309.289 L
253.11 303.796 L
254.195 297.995 L
255.28 291.889 L
256.365 285.482 L
257.45 278.782 L
258.535 271.798 L
259.62 264.545 L
260.705 257.038 L
261.79 249.296 L
262.875 241.344 L
263.96 233.208 L
265.045 224.916 L
266.13 216.501 L
267.215 208 L
268.3 199.45 L
269.385 190.894 L
270.47 182.374 L
271.555 173.936 L
272.64 165.628 L
273.725 157.497 L
274.81 149.594 L
275.895 141.967 L
276.98 134.665 L
278.065 127.737 L
279.15 121.23 L
280.235 115.19 L
281.32 109.659 L
282.405 104.677 L
283.49 100.281 L
284.575 96.503 L
285.66 93.372 L
286.745 90.911 L
287.83 89.14 L
288.915 88.071 L
290 87.714 L
291.085 88.071 L
292.17 89.14 L
293.255 90.911 L
294.34 93.372 L
295.425 96.503 L
296.51 100.281 L
297.595 104.677 L
298.68 109.659 L
299.765 115.19 L
300.85 121.23 L
301.935 127.737 L
303.02 134.665 L
304.105 141.967 L
305.19 149.594 L
306.275 157.497 L
307.36 165.628 L
308.445 173.936 L
309.53 182.374 L
310.615 190.894 L
311.7 199.45 L
312.785 208 L
313.87 216.501 L
314.955 224.916 L
316.04 233.208 L
317.125 241.344 L
318.21 249.296 L
319.295 257.038 L
320.38 264.545 L
321.465 271.798 L
322.55 278.782 L
323.635 285.482 L
324.72 291.889 L
325.805 297.995 L
326.89 303.796 L
327.975 309.289 L
329.06 314.475 L
330.145 319.357 L
331.23 323.939 L
332.315 328.227 L
333.4 332.228 L
334.485 335.952 L
335.57 339.408 L
336.655 342.607 L
337.74 345.56 L
338.825 348.28 L
339.91 350.778 L
340.995 353.067 L
342.08 355.159 L
343.165 357.067 L
344.25 358.803 L
345.335 360.379 L
346.42 361.806 L
347.505 363.096 L
348.59 364.259 L
349.675 365.306 L
350.76 366.246 L
351.845 367.088 L
352.93 367.841 L
354.015 368.514 L
355.1 369.113 L
356.185 369.646 L
357.27 370.119 L
358.355 370.538 L
359.44 370.909 L
360.525 371.236 L
361.61 371.525 L
362.695 371.779 L
363.78 372.002 L
364.865 372.198 L
365.95 372.369 L
367.035 372.519 L
368.12 372.65 L
369.205 372.765 L
370.29 372.864 L
371.375 372.951 L
372.46 373.026 L
373.545 373.092 L
374.63 373.148 L
375.715 373.197 L
376.8 373.24 L
377.885 373.276 L
378.97 373.308 L
380.055 373.335 L
381.14 373.359 L
382.225 373.379 L
383.31 373.396 L
384.395 373.411 L
385.48 373.424 L
386.565 373.435 L
387.65 373.445 L
388.735 373.453 L
389.82 373.46 L
390.905 373.465 L
391.99 373.47 L
393.075 373.475 L
394.16 373.479 L
395.245 373.482 L
396.33 373.484 L
397.415 373.487 L
398.5 373.489 L
399.585 373.49 L
400.67 373.492 L
401.755 373.493 L
402.84 373.494 L
403.925 373.495 L
405.01 373.496 L
406.095 373.496 L
407.18 373.497 L
408.265 373.497 L
409.35 373.498 L
410.435 373.498 L
411.52 373.498 L
412.605 373.499 L
413.69 373.499 L
414.775 373.499 L
415.86 373.499 L
416.945 373.499 L
418.03 373.499 L
419.115 373.499 L
420.2 373.5 L
421.285 373.5 L
422.37 373.5 L
423.455 373.5 L
424.54 373.5 L
425.625 373.5 L
426.71 373.5 L
427.795 373.5 L
428.88 373.5 L
429.965 373.5 L
431.05 373.5 L
432.135 373.5 L
433.22 373.5 L
434.305 373.5 L
435.39 373.5 L
436.475 373.5 L
437.56 373.5 L
438.645 373.5 L
439.73 373.5 L
440.815 373.5 L
441.9 373.5 L
442.985 373.5 L
444.07 373.5 L
445.155 373.5 L
446.24 373.5 L
447.325 373.5 L
448.41 373.5 L
449.495 373.5 L
450.58 373.5 L
451.665 373.5 L
452.75 373.5 L
453.835 373.5 L
454.92 373.5 L
456.005 373.5 L
457.09 373.5 L
458.175 373.5 L
459.26 373.5 L
460.345 373.5 L
461.43 373.5 L
462.515 373.5 L
463.6 373.5 L
464.685 373.5 L
465.77 373.5 L
466.855 373.5 L
467.94 373.5 L
469.025 373.5 L
470.11 373.5 L
471.195 373.5 L
472.28 373.5 L
473.365 373.5 L
474.45 373.5 L
475.535 373.5 L
476.62 373.5 L
477.705 373.5 L
478.79 373.5 L
479.875 373.5 L
480.96 373.5 L
482.045 373.5 L
483.13 373.5 L
484.215 373.5 L
485.3 373.5 L
486.385 373.5 L
487.47 373.5 L
488.555 373.5 L
489.64 373.5 L
490.725 373.5 L
491.81 373.5 L
492.895 373.5 L
493.98 373.5 L
495.065 373.5 L
496.15 373.5 L
497.235 373.5 L
498.32 373.5 L
499.405 373.5 L
500.49 373.5 L
501.575 373.5 L
502.66 373.5 L
503.745 373.5 L
504.83 373.5 L
505.915 373.5 L
507 373.5 L
S
GR
GS
1 LJ
N
73 372.646 M
74.085 372.646 L
75.17 372.645 L
76.255 372.644 L
77.34 372.642 L
78.425 372.639 L
79.51 372.636 L
80.595 372.633 L
81.68 372.629 L
82.765 372.624 L
83.85 372.619 L
84.935 372.613 L
86.02 372.607 L
87.105 372.6 L
88.19 372.592 L
89.275 372.584 L
90.36 372.575 L
91.445 372.566 L
92.53 372.556 L
93.615 372.545 L
94.7 372.533 L
95.785 372.521 L
96.87 372.508 L
97.955 372.494 L
99.04 372.48 L
100.125 372.464 L
101.21 372.448 L
102.295 372.431 L
103.38 372.413 L
104.465 372.394 L
105.55 372.374 L
106.635 372.354 L
107.72 372.332 L
108.805 372.309 L
109.89 372.285 L
110.975 372.259 L
112.06 372.233 L
113.145 372.205 L
114.23 372.176 L
115.315 372.146 L
116.4 372.115 L
117.485 372.081 L
118.57 372.047 L
119.655 372.01 L
120.74 371.973 L
121.825 371.933 L
122.91 371.892 L
123.995 371.848 L
125.08 371.803 L
126.165 371.756 L
127.25 371.706 L
128.335 371.655 L
129.42 371.601 L
130.505 371.545 L
131.59 371.486 L
132.675 371.424 L
133.76 371.36 L
134.845 371.293 L
135.93 371.223 L
137.015 371.15 L
138.1 371.074 L
139.185 370.994 L
140.27 370.91 L
141.355 370.823 L
142.44 370.732 L
143.525 370.637 L
144.61 370.538 L
145.695 370.434 L
146.78 370.326 L
147.865 370.213 L
148.95 370.095 L
150.035 369.971 L
151.12 369.842 L
152.205 369.708 L
153.29 369.567 L
154.375 369.421 L
155.46 369.267 L
156.545 369.107 L
157.63 368.94 L
158.715 368.766 L
159.8 368.584 L
160.885 368.394 L
161.97 368.195 L
163.055 367.988 L
164.14 367.772 L
165.225 367.547 L
166.31 367.311 L
167.395 367.066 L
168.48 366.81 L
169.565 366.543 L
170.65 366.264 L
171.735 365.974 L
172.82 365.671 L
173.905 365.355 L
174.99 365.027 L
176.075 364.684 L
177.16 364.327 L
178.245 363.955 L
179.33 363.568 L
180.415 363.165 L
181.5 362.746 L
182.585 362.309 L
183.67 361.855 L
184.755 361.383 L
185.84 360.892 L
186.925 360.381 L
188.01 359.851 L
189.095 359.3 L
190.18 358.727 L
191.265 358.133 L
192.35 357.517 L
193.435 356.877 L
194.52 356.213 L
195.605 355.525 L
196.69 354.812 L
197.775 354.074 L
198.86 353.309 L
199.945 352.517 L
201.03 351.698 L
202.115 350.851 L
203.2 349.975 L
204.285 349.07 L
205.37 348.136 L
206.455 347.171 L
207.54 346.176 L
208.625 345.149 L
209.71 344.091 L
210.795 343.001 L
211.88 341.879 L
212.965 340.724 L
214.05 339.537 L
215.135 338.316 L
216.22 337.062 L
217.305 335.775 L
218.39 334.455 L
219.475 333.101 L
220.56 331.714 L
221.645 330.293 L
222.73 328.84 L
223.815 327.354 L
224.9 325.836 L
225.985 324.286 L
227.07 322.704 L
228.155 321.092 L
229.24 319.45 L
230.325 317.778 L
231.41 316.078 L
232.495 314.351 L
233.58 312.597 L
234.665 310.818 L
235.75 309.015 L
236.835 307.19 L
237.92 305.344 L
239.005 303.478 L
240.09 301.594 L
241.175 299.694 L
242.26 297.78 L
243.345 295.854 L
244.43 293.918 L
245.515 291.973 L
246.6 290.023 L
247.685 288.07 L
248.77 286.115 L
249.855 284.162 L
250.94 282.213 L
252.025 280.27 L
253.11 278.337 L
254.195 276.416 L
255.28 274.51 L
256.365 272.622 L
257.45 270.755 L
258.535 268.911 L
259.62 267.095 L
260.705 265.307 L
261.79 263.552 L
262.875 261.833 L
263.96 260.153 L
265.045 258.514 L
266.13 256.919 L
267.215 255.372 L
268.3 253.875 L
269.385 252.432 L
270.47 251.044 L
271.555 249.714 L
272.64 248.445 L
273.725 247.24 L
274.81 246.1 L
275.895 245.029 L
276.98 244.028 L
278.065 243.099 L
279.15 242.244 L
280.235 241.466 L
281.32 240.764 L
282.405 240.142 L
283.49 239.6 L
284.575 239.14 L
285.66 238.762 L
286.745 238.467 L
287.83 238.256 L
288.915 238.129 L
290 238.086 L
291.085 238.129 L
292.17 238.256 L
293.255 238.467 L
294.34 238.762 L
295.425 239.14 L
296.51 239.6 L
297.595 240.142 L
298.68 240.764 L
299.765 241.466 L
300.85 242.244 L
301.935 243.099 L
303.02 244.028 L
304.105 245.029 L
305.19 246.1 L
306.275 247.24 L
307.36 248.445 L
308.445 249.714 L
309.53 251.044 L
310.615 252.432 L
311.7 253.875 L
312.785 255.372 L
313.87 256.919 L
314.955 258.514 L
316.04 260.153 L
317.125 261.833 L
318.21 263.552 L
319.295 265.307 L
320.38 267.095 L
321.465 268.911 L
322.55 270.755 L
323.635 272.622 L
324.72 274.51 L
325.805 276.416 L
326.89 278.337 L
327.975 280.27 L
329.06 282.213 L
330.145 284.162 L
331.23 286.115 L
332.315 288.07 L
333.4 290.023 L
334.485 291.973 L
335.57 293.918 L
336.655 295.854 L
337.74 297.78 L
338.825 299.694 L
339.91 301.594 L
340.995 303.478 L
342.08 305.344 L
343.165 307.19 L
344.25 309.015 L
345.335 310.818 L
346.42 312.597 L
347.505 314.351 L
348.59 316.078 L
349.675 317.778 L
350.76 319.45 L
351.845 321.092 L
352.93 322.704 L
354.015 324.286 L
355.1 325.836 L
356.185 327.354 L
357.27 328.84 L
358.355 330.293 L
359.44 331.714 L
360.525 333.101 L
361.61 334.455 L
362.695 335.775 L
363.78 337.062 L
364.865 338.316 L
365.95 339.537 L
367.035 340.724 L
368.12 341.879 L
369.205 343.001 L
370.29 344.091 L
371.375 345.149 L
372.46 346.176 L
373.545 347.171 L
374.63 348.136 L
375.715 349.07 L
376.8 349.975 L
377.885 350.851 L
378.97 351.698 L
380.055 352.517 L
381.14 353.309 L
382.225 354.074 L
383.31 354.812 L
384.395 355.525 L
385.48 356.213 L
386.565 356.877 L
387.65 357.517 L
388.735 358.133 L
389.82 358.727 L
390.905 359.3 L
391.99 359.851 L
393.075 360.381 L
394.16 360.892 L
395.245 361.383 L
396.33 361.855 L
397.415 362.309 L
398.5 362.746 L
399.585 363.165 L
400.67 363.568 L
401.755 363.955 L
402.84 364.327 L
403.925 364.684 L
405.01 365.027 L
406.095 365.355 L
407.18 365.671 L
408.265 365.974 L
409.35 366.264 L
410.435 366.543 L
411.52 366.81 L
412.605 367.066 L
413.69 367.311 L
414.775 367.547 L
415.86 367.772 L
416.945 367.988 L
418.03 368.195 L
419.115 368.394 L
420.2 368.584 L
421.285 368.766 L
422.37 368.94 L
423.455 369.107 L
424.54 369.267 L
425.625 369.421 L
426.71 369.567 L
427.795 369.708 L
428.88 369.842 L
429.965 369.971 L
431.05 370.095 L
432.135 370.213 L
433.22 370.326 L
434.305 370.434 L
435.39 370.538 L
436.475 370.637 L
437.56 370.732 L
438.645 370.823 L
439.73 370.91 L
440.815 370.994 L
441.9 371.074 L
442.985 371.15 L
444.07 371.223 L
445.155 371.293 L
446.24 371.36 L
447.325 371.424 L
448.41 371.486 L
449.495 371.545 L
450.58 371.601 L
451.665 371.655 L
452.75 371.706 L
453.835 371.756 L
454.92 371.803 L
456.005 371.848 L
457.09 371.892 L
458.175 371.933 L
459.26 371.973 L
460.345 372.01 L
461.43 372.047 L
462.515 372.081 L
463.6 372.115 L
464.685 372.146 L
465.77 372.176 L
466.855 372.205 L
467.94 372.233 L
469.025 372.259 L
470.11 372.285 L
471.195 372.309 L
472.28 372.332 L
473.365 372.354 L
474.45 372.374 L
475.535 372.394 L
476.62 372.413 L
477.705 372.431 L
478.79 372.448 L
479.875 372.464 L
480.96 372.48 L
482.045 372.494 L
483.13 372.508 L
484.215 372.521 L
485.3 372.533 L
486.385 372.545 L
487.47 372.556 L
488.555 372.566 L
489.64 372.575 L
490.725 372.584 L
491.81 372.592 L
492.895 372.6 L
493.98 372.607 L
495.065 372.613 L
496.15 372.619 L
497.235 372.624 L
498.32 372.629 L
499.405 372.633 L
500.49 372.636 L
501.575 372.639 L
502.66 372.642 L
503.745 372.644 L
504.83 372.645 L
505.915 372.646 L
507 372.646 L
S
GR
GS
1 LJ
N
73 350.268 M
74.085 350.267 L
75.17 350.263 L
76.255 350.257 L
77.34 350.249 L
78.425 350.239 L
79.51 350.226 L
80.595 350.211 L
81.68 350.194 L
82.765 350.174 L
83.85 350.152 L
84.935 350.127 L
86.02 350.101 L
87.105 350.071 L
88.19 350.04 L
89.275 350.006 L
90.36 349.97 L
91.445 349.932 L
92.53 349.891 L
93.615 349.848 L
94.7 349.802 L
95.785 349.755 L
96.87 349.705 L
97.955 349.652 L
99.04 349.597 L
100.125 349.54 L
101.21 349.48 L
102.295 349.419 L
103.38 349.354 L
104.465 349.288 L
105.55 349.219 L
106.635 349.147 L
107.72 349.074 L
108.805 348.997 L
109.89 348.919 L
110.975 348.838 L
112.06 348.755 L
113.145 348.669 L
114.23 348.581 L
115.315 348.491 L
116.4 348.398 L
117.485 348.303 L
118.57 348.206 L
119.655 348.106 L
120.74 348.004 L
121.825 347.899 L
122.91 347.792 L
123.995 347.682 L
125.08 347.571 L
126.165 347.456 L
127.25 347.34 L
128.335 347.221 L
129.42 347.1 L
130.505 346.976 L
131.59 346.85 L
132.675 346.721 L
133.76 346.59 L
134.845 346.457 L
135.93 346.322 L
137.015 346.184 L
138.1 346.044 L
139.185 345.901 L
140.27 345.756 L
141.355 345.609 L
142.44 345.459 L
143.525 345.307 L
144.61 345.153 L
145.695 344.997 L
146.78 344.838 L
147.865 344.677 L
148.95 344.514 L
150.035 344.348 L
151.12 344.18 L
152.205 344.01 L
153.29 343.838 L
154.375 343.664 L
155.46 343.487 L
156.545 343.309 L
157.63 343.128 L
158.715 342.945 L
159.8 342.76 L
160.885 342.572 L
161.97 342.383 L
163.055 342.192 L
164.14 341.999 L
165.225 341.803 L
166.31 341.606 L
167.395 341.407 L
168.48 341.206 L
169.565 341.003 L
170.65 340.799 L
171.735 340.592 L
172.82 340.384 L
173.905 340.174 L
174.99 339.962 L
176.075 339.749 L
177.16 339.534 L
178.245 339.317 L
179.33 339.099 L
180.415 338.879 L
181.5 338.658 L
182.585 338.436 L
183.67 338.212 L
184.755 337.987 L
185.84 337.76 L
186.925 337.532 L
188.01 337.304 L
189.095 337.074 L
190.18 336.843 L
191.265 336.611 L
192.35 336.378 L
193.435 336.144 L
194.52 335.909 L
195.605 335.674 L
196.69 335.438 L
197.775 335.201 L
198.86 334.963 L
199.945 334.726 L
201.03 334.487 L
202.115 334.249 L
203.2 334.01 L
204.285 333.77 L
205.37 333.531 L
206.455 333.292 L
207.54 333.052 L
208.625 332.813 L
209.71 332.574 L
210.795 332.335 L
211.88 332.096 L
212.965 331.858 L
214.05 331.62 L
215.135 331.383 L
216.22 331.146 L
217.305 330.91 L
218.39 330.675 L
219.475 330.441 L
220.56 330.207 L
221.645 329.975 L
222.73 329.744 L
223.815 329.515 L
224.9 329.286 L
225.985 329.059 L
227.07 328.834 L
228.155 328.61 L
229.24 328.388 L
230.325 328.167 L
231.41 327.949 L
232.495 327.732 L
233.58 327.518 L
234.665 327.305 L
235.75 327.095 L
236.835 326.888 L
237.92 326.682 L
239.005 326.48 L
240.09 326.28 L
241.175 326.082 L
242.26 325.887 L
243.345 325.696 L
244.43 325.507 L
245.515 325.321 L
246.6 325.139 L
247.685 324.959 L
248.77 324.783 L
249.855 324.611 L
250.94 324.442 L
252.025 324.276 L
253.11 324.114 L
254.195 323.956 L
255.28 323.802 L
256.365 323.651 L
257.45 323.505 L
258.535 323.362 L
259.62 323.224 L
260.705 323.09 L
261.79 322.96 L
262.875 322.834 L
263.96 322.713 L
265.045 322.596 L
266.13 322.484 L
267.215 322.376 L
268.3 322.273 L
269.385 322.175 L
270.47 322.081 L
271.555 321.992 L
272.64 321.908 L
273.725 321.829 L
274.81 321.754 L
275.895 321.685 L
276.98 321.62 L
278.065 321.561 L
279.15 321.507 L
280.235 321.458 L
281.32 321.413 L
282.405 321.374 L
283.49 321.341 L
284.575 321.312 L
285.66 321.288 L
286.745 321.27 L
287.83 321.257 L
288.915 321.249 L
290 321.247 L
291.085 321.249 L
292.17 321.257 L
293.255 321.27 L
294.34 321.288 L
295.425 321.312 L
296.51 321.341 L
297.595 321.374 L
298.68 321.413 L
299.765 321.458 L
300.85 321.507 L
301.935 321.561 L
303.02 321.62 L
304.105 321.685 L
305.19 321.754 L
306.275 321.829 L
307.36 321.908 L
308.445 321.992 L
309.53 322.081 L
310.615 322.175 L
311.7 322.273 L
312.785 322.376 L
313.87 322.484 L
314.955 322.596 L
316.04 322.713 L
317.125 322.834 L
318.21 322.96 L
319.295 323.09 L
320.38 323.224 L
321.465 323.362 L
322.55 323.505 L
323.635 323.651 L
324.72 323.802 L
325.805 323.956 L
326.89 324.114 L
327.975 324.276 L
329.06 324.442 L
330.145 324.611 L
331.23 324.783 L
332.315 324.959 L
333.4 325.139 L
334.485 325.321 L
335.57 325.507 L
336.655 325.696 L
337.74 325.887 L
338.825 326.082 L
339.91 326.28 L
340.995 326.48 L
342.08 326.682 L
343.165 326.888 L
344.25 327.095 L
345.335 327.305 L
346.42 327.518 L
347.505 327.732 L
348.59 327.949 L
349.675 328.167 L
350.76 328.388 L
351.845 328.61 L
352.93 328.834 L
354.015 329.059 L
355.1 329.286 L
356.185 329.515 L
357.27 329.744 L
358.355 329.975 L
359.44 330.207 L
360.525 330.441 L
361.61 330.675 L
362.695 330.91 L
363.78 331.146 L
364.865 331.383 L
365.95 331.62 L
367.035 331.858 L
368.12 332.096 L
369.205 332.335 L
370.29 332.574 L
371.375 332.813 L
372.46 333.052 L
373.545 333.292 L
374.63 333.531 L
375.715 333.77 L
376.8 334.01 L
377.885 334.249 L
378.97 334.487 L
380.055 334.726 L
381.14 334.963 L
382.225 335.201 L
383.31 335.438 L
384.395 335.674 L
385.48 335.909 L
386.565 336.144 L
387.65 336.378 L
388.735 336.611 L
389.82 336.843 L
390.905 337.074 L
391.99 337.304 L
393.075 337.532 L
394.16 337.76 L
395.245 337.987 L
396.33 338.212 L
397.415 338.436 L
398.5 338.658 L
399.585 338.879 L
400.67 339.099 L
401.755 339.317 L
402.84 339.534 L
403.925 339.749 L
405.01 339.962 L
406.095 340.174 L
407.18 340.384 L
408.265 340.592 L
409.35 340.799 L
410.435 341.003 L
411.52 341.206 L
412.605 341.407 L
413.69 341.606 L
414.775 341.803 L
415.86 341.999 L
416.945 342.192 L
418.03 342.383 L
419.115 342.572 L
420.2 342.76 L
421.285 342.945 L
422.37 343.128 L
423.455 343.309 L
424.54 343.487 L
425.625 343.664 L
426.71 343.838 L
427.795 344.01 L
428.88 344.18 L
429.965 344.348 L
431.05 344.514 L
432.135 344.677 L
433.22 344.838 L
434.305 344.997 L
435.39 345.153 L
436.475 345.307 L
437.56 345.459 L
438.645 345.609 L
439.73 345.756 L
440.815 345.901 L
441.9 346.044 L
442.985 346.184 L
444.07 346.322 L
445.155 346.457 L
446.24 346.59 L
447.325 346.721 L
448.41 346.85 L
449.495 346.976 L
450.58 347.1 L
451.665 347.221 L
452.75 347.34 L
453.835 347.456 L
454.92 347.571 L
456.005 347.682 L
457.09 347.792 L
458.175 347.899 L
459.26 348.004 L
460.345 348.106 L
461.43 348.206 L
462.515 348.303 L
463.6 348.398 L
464.685 348.491 L
465.77 348.581 L
466.855 348.669 L
467.94 348.755 L
469.025 348.838 L
470.11 348.919 L
471.195 348.997 L
472.28 349.074 L
473.365 349.147 L
474.45 349.219 L
475.535 349.288 L
476.62 349.354 L
477.705 349.419 L
478.79 349.48 L
479.875 349.54 L
480.96 349.597 L
482.045 349.652 L
483.13 349.705 L
484.215 349.755 L
485.3 349.802 L
486.385 349.848 L
487.47 349.891 L
488.555 349.932 L
489.64 349.97 L
490.725 350.006 L
491.81 350.04 L
492.895 350.071 L
493.98 350.101 L
495.065 350.127 L
496.15 350.152 L
497.235 350.174 L
498.32 350.194 L
499.405 350.211 L
500.49 350.226 L
501.575 350.239 L
502.66 350.249 L
503.745 350.257 L
504.83 350.263 L
505.915 350.267 L
507 350.268 L
S
GR
%%Trailer
%%Pages: 1
%%EOF
