%!PS-Adobe-3.0 EPSF-3.0
%%Creator: (MATLAB, The Mathworks, Inc. Version 9.3.0.713579 \(R2017b\). Operating System: Mac OS X)
%%Title: ./response_4.eps
%%CreationDate: 2018-06-29T09:13:55
%%Pages: (atend)
%%BoundingBox:     8     1   139   144
%%LanguageLevel: 3
%%EndComments
%%BeginProlog
%%BeginResource: procset (Apache XML Graphics Std ProcSet) 1.2 0
%%Version: 1.2 0
%%Copyright: (Copyright 2001-2003,2010 The Apache Software Foundation. License terms: http://www.apache.org/licenses/LICENSE-2.0)
/bd{bind def}bind def
/ld{load def}bd
/GR/grestore ld
/GS/gsave ld
/RM/rmoveto ld
/C/curveto ld
/t/show ld
/L/lineto ld
/ML/setmiterlimit ld
/CT/concat ld
/f/fill ld
/N/newpath ld
/S/stroke ld
/CC/setcmykcolor ld
/A/ashow ld
/cp/closepath ld
/RC/setrgbcolor ld
/LJ/setlinejoin ld
/GC/setgray ld
/LW/setlinewidth ld
/M/moveto ld
/re {4 2 roll M
1 index 0 rlineto
0 exch rlineto
neg 0 rlineto
cp } bd
/_ctm matrix def
/_tm matrix def
/BT { _ctm currentmatrix pop matrix _tm copy pop 0 0 moveto } bd
/ET { _ctm setmatrix } bd
/iTm { _ctm setmatrix _tm concat } bd
/Tm { _tm astore pop iTm 0 0 moveto } bd
/ux 0.0 def
/uy 0.0 def
/F {
  /Tp exch def
  /Tf exch def
  Tf findfont Tp scalefont setfont
  /cf Tf def  /cs Tp def
} bd
/ULS {currentpoint /uy exch def /ux exch def} bd
/ULE {
  /Tcx currentpoint pop def
  gsave
  newpath
  cf findfont cs scalefont dup
  /FontMatrix get 0 get /Ts exch def /FontInfo get dup
  /UnderlinePosition get Ts mul /To exch def
  /UnderlineThickness get Ts mul /Tt exch def
  ux uy To add moveto  Tcx uy To add lineto
  Tt setlinewidth stroke
  grestore
} bd
/OLE {
  /Tcx currentpoint pop def
  gsave
  newpath
  cf findfont cs scalefont dup
  /FontMatrix get 0 get /Ts exch def /FontInfo get dup
  /UnderlinePosition get Ts mul /To exch def
  /UnderlineThickness get Ts mul /Tt exch def
  ux uy To add cs add moveto Tcx uy To add cs add lineto
  Tt setlinewidth stroke
  grestore
} bd
/SOE {
  /Tcx currentpoint pop def
  gsave
  newpath
  cf findfont cs scalefont dup
  /FontMatrix get 0 get /Ts exch def /FontInfo get dup
  /UnderlinePosition get Ts mul /To exch def
  /UnderlineThickness get Ts mul /Tt exch def
  ux uy To add cs 10 mul 26 idiv add moveto Tcx uy To add cs 10 mul 26 idiv add lineto
  Tt setlinewidth stroke
  grestore
} bd
/QT {
/Y22 exch store
/X22 exch store
/Y21 exch store
/X21 exch store
currentpoint
/Y21 load 2 mul add 3 div exch
/X21 load 2 mul add 3 div exch
/X21 load 2 mul /X22 load add 3 div
/Y21 load 2 mul /Y22 load add 3 div
/X22 load /Y22 load curveto
} bd
/SSPD {
dup length /d exch dict def
{
/v exch def
/k exch def
currentpagedevice k known {
/cpdv currentpagedevice k get def
v cpdv ne {
/upd false def
/nullv v type /nulltype eq def
/nullcpdv cpdv type /nulltype eq def
nullv nullcpdv or
{
/upd true def
} {
/sametype v type cpdv type eq def
sametype {
v type /arraytype eq {
/vlen v length def
/cpdvlen cpdv length def
vlen cpdvlen eq {
0 1 vlen 1 sub {
/i exch def
/obj v i get def
/cpdobj cpdv i get def
obj cpdobj ne {
/upd true def
exit
} if
} for
} {
/upd true def
} ifelse
} {
v type /dicttype eq {
v {
/dv exch def
/dk exch def
/cpddv cpdv dk get def
dv cpddv ne {
/upd true def
exit
} if
} forall
} {
/upd true def
} ifelse
} ifelse
} if
} ifelse
upd true eq {
d k v put
} if
} if
} if
} forall
d length 0 gt {
d setpagedevice
} if
} bd
/RE { % /NewFontName [NewEncodingArray] /FontName RE -
  findfont dup length dict begin
  {
    1 index /FID ne
    {def} {pop pop} ifelse
  } forall
  /Encoding exch def
  /FontName 1 index def
  currentdict definefont pop
  end
} bind def
%%EndResource
%%BeginResource: procset (Apache XML Graphics EPS ProcSet) 1.0 0
%%Version: 1.0 0
%%Copyright: (Copyright 2002-2003 The Apache Software Foundation. License terms: http://www.apache.org/licenses/LICENSE-2.0)
/BeginEPSF { %def
/b4_Inc_state save def         % Save state for cleanup
/dict_count countdictstack def % Count objects on dict stack
/op_count count 1 sub def      % Count objects on operand stack
userdict begin                 % Push userdict on dict stack
/showpage { } def              % Redefine showpage, { } = null proc
0 setgray 0 setlinecap         % Prepare graphics state
1 setlinewidth 0 setlinejoin
10 setmiterlimit [ ] 0 setdash newpath
/languagelevel where           % If level not equal to 1 then
{pop languagelevel             % set strokeadjust and
1 ne                           % overprint to their defaults.
{false setstrokeadjust false setoverprint
} if
} if
} bd
/EndEPSF { %def
count op_count sub {pop} repeat            % Clean up stacks
countdictstack dict_count sub {end} repeat
b4_Inc_state restore
} bd
%%EndResource
%FOPBeginFontDict
%%IncludeResource: font Courier-Oblique
%%IncludeResource: font Courier-BoldOblique
%%IncludeResource: font Courier-Bold
%%IncludeResource: font ZapfDingbats
%%IncludeResource: font Symbol
%%IncludeResource: font Helvetica
%%IncludeResource: font Helvetica-Oblique
%%IncludeResource: font Helvetica-Bold
%%IncludeResource: font Helvetica-BoldOblique
%%IncludeResource: font Times-Roman
%%IncludeResource: font Times-Italic
%%IncludeResource: font Times-Bold
%%IncludeResource: font Times-BoldItalic
%%IncludeResource: font Courier
%FOPEndFontDict
%%BeginResource: encoding WinAnsiEncoding
/WinAnsiEncoding [
/.notdef /.notdef /.notdef /.notdef /.notdef
/.notdef /.notdef /.notdef /.notdef /.notdef
/.notdef /.notdef /.notdef /.notdef /.notdef
/.notdef /.notdef /.notdef /.notdef /.notdef
/.notdef /.notdef /.notdef /.notdef /.notdef
/.notdef /.notdef /.notdef /.notdef /.notdef
/.notdef /.notdef /space /exclam /quotedbl
/numbersign /dollar /percent /ampersand /quotesingle
/parenleft /parenright /asterisk /plus /comma
/hyphen /period /slash /zero /one
/two /three /four /five /six
/seven /eight /nine /colon /semicolon
/less /equal /greater /question /at
/A /B /C /D /E
/F /G /H /I /J
/K /L /M /N /O
/P /Q /R /S /T
/U /V /W /X /Y
/Z /bracketleft /backslash /bracketright /asciicircum
/underscore /quoteleft /a /b /c
/d /e /f /g /h
/i /j /k /l /m
/n /o /p /q /r
/s /t /u /v /w
/x /y /z /braceleft /bar
/braceright /asciitilde /bullet /Euro /bullet
/quotesinglbase /florin /quotedblbase /ellipsis /dagger
/daggerdbl /circumflex /perthousand /Scaron /guilsinglleft
/OE /bullet /Zcaron /bullet /bullet
/quoteleft /quoteright /quotedblleft /quotedblright /bullet
/endash /emdash /asciitilde /trademark /scaron
/guilsinglright /oe /bullet /zcaron /Ydieresis
/space /exclamdown /cent /sterling /currency
/yen /brokenbar /section /dieresis /copyright
/ordfeminine /guillemotleft /logicalnot /sfthyphen /registered
/macron /degree /plusminus /twosuperior /threesuperior
/acute /mu /paragraph /middot /cedilla
/onesuperior /ordmasculine /guillemotright /onequarter /onehalf
/threequarters /questiondown /Agrave /Aacute /Acircumflex
/Atilde /Adieresis /Aring /AE /Ccedilla
/Egrave /Eacute /Ecircumflex /Edieresis /Igrave
/Iacute /Icircumflex /Idieresis /Eth /Ntilde
/Ograve /Oacute /Ocircumflex /Otilde /Odieresis
/multiply /Oslash /Ugrave /Uacute /Ucircumflex
/Udieresis /Yacute /Thorn /germandbls /agrave
/aacute /acircumflex /atilde /adieresis /aring
/ae /ccedilla /egrave /eacute /ecircumflex
/edieresis /igrave /iacute /icircumflex /idieresis
/eth /ntilde /ograve /oacute /ocircumflex
/otilde /odieresis /divide /oslash /ugrave
/uacute /ucircumflex /udieresis /yacute /thorn
/ydieresis
] def
%%EndResource
%FOPBeginFontReencode
/Courier-Oblique findfont
dup length dict begin
  {1 index /FID ne {def} {pop pop} ifelse} forall
  /Encoding WinAnsiEncoding def
  currentdict
end
/Courier-Oblique exch definefont pop
/Courier-BoldOblique findfont
dup length dict begin
  {1 index /FID ne {def} {pop pop} ifelse} forall
  /Encoding WinAnsiEncoding def
  currentdict
end
/Courier-BoldOblique exch definefont pop
/Courier-Bold findfont
dup length dict begin
  {1 index /FID ne {def} {pop pop} ifelse} forall
  /Encoding WinAnsiEncoding def
  currentdict
end
/Courier-Bold exch definefont pop
/Helvetica findfont
dup length dict begin
  {1 index /FID ne {def} {pop pop} ifelse} forall
  /Encoding WinAnsiEncoding def
  currentdict
end
/Helvetica exch definefont pop
/Helvetica-Oblique findfont
dup length dict begin
  {1 index /FID ne {def} {pop pop} ifelse} forall
  /Encoding WinAnsiEncoding def
  currentdict
end
/Helvetica-Oblique exch definefont pop
/Helvetica-Bold findfont
dup length dict begin
  {1 index /FID ne {def} {pop pop} ifelse} forall
  /Encoding WinAnsiEncoding def
  currentdict
end
/Helvetica-Bold exch definefont pop
/Helvetica-BoldOblique findfont
dup length dict begin
  {1 index /FID ne {def} {pop pop} ifelse} forall
  /Encoding WinAnsiEncoding def
  currentdict
end
/Helvetica-BoldOblique exch definefont pop
/Times-Roman findfont
dup length dict begin
  {1 index /FID ne {def} {pop pop} ifelse} forall
  /Encoding WinAnsiEncoding def
  currentdict
end
/Times-Roman exch definefont pop
/Times-Italic findfont
dup length dict begin
  {1 index /FID ne {def} {pop pop} ifelse} forall
  /Encoding WinAnsiEncoding def
  currentdict
end
/Times-Italic exch definefont pop
/Times-Bold findfont
dup length dict begin
  {1 index /FID ne {def} {pop pop} ifelse} forall
  /Encoding WinAnsiEncoding def
  currentdict
end
/Times-Bold exch definefont pop
/Times-BoldItalic findfont
dup length dict begin
  {1 index /FID ne {def} {pop pop} ifelse} forall
  /Encoding WinAnsiEncoding def
  currentdict
end
/Times-BoldItalic exch definefont pop
/Courier findfont
dup length dict begin
  {1 index /FID ne {def} {pop pop} ifelse} forall
  /Encoding WinAnsiEncoding def
  currentdict
end
/Courier exch definefont pop
%FOPEndFontReencode
%%EndProlog
%%Page: 1 1
%%PageBoundingBox: 0 0 144 144
%%BeginPageSetup
[1 0 0 -1 0 144] CT
%%EndPageSetup
GS
1 GC
N
0 0 144 144 re
f
GR
GS
1 GC
N
0 0 144 144 re
f
GR
GS
1 GC
N
129.5 70.75 M
129.325 66.341 L
128.799 61.959 L
127.928 57.633 L
126.715 53.39 L
125.169 49.256 L
123.3 45.259 L
121.119 41.423 L
118.64 37.772 L
115.878 34.329 L
112.852 31.117 L
109.581 28.156 L
106.084 25.464 L
102.385 23.058 L
98.506 20.953 L
94.472 19.164 L
90.309 17.7 L
86.042 16.572 L
81.7 15.787 L
77.309 15.349 L
72.897 15.261 L
68.491 15.524 L
64.121 16.136 L
59.813 17.094 L
55.595 18.391 L
51.493 20.018 L
47.534 21.967 L
43.742 24.224 L
40.141 26.775 L
36.754 29.604 L
33.603 32.693 L
30.707 36.023 L
28.085 39.573 L
25.753 43.319 L
23.726 47.239 L
22.017 51.308 L
20.636 55.499 L
19.593 59.787 L
18.894 64.144 L
18.544 68.544 L
18.544 72.956 L
18.894 77.356 L
19.593 81.713 L
20.636 86.001 L
22.017 90.192 L
23.726 94.261 L
25.753 98.181 L
28.085 101.927 L
30.707 105.477 L
33.603 108.807 L
36.754 111.896 L
40.141 114.725 L
43.742 117.276 L
47.534 119.533 L
51.493 121.482 L
55.595 123.109 L
59.813 124.406 L
64.121 125.364 L
68.491 125.976 L
72.897 126.239 L
77.309 126.151 L
81.7 125.713 L
86.042 124.928 L
90.309 123.8 L
94.472 122.336 L
98.506 120.547 L
102.385 118.442 L
106.084 116.036 L
109.581 113.344 L
112.852 110.383 L
115.878 107.171 L
118.64 103.728 L
121.119 100.077 L
123.3 96.241 L
125.169 92.244 L
126.715 88.11 L
127.928 83.867 L
128.799 79.541 L
129.325 75.159 L
cp
f
GR
GS
0.873 GC
1 LJ
0.5 LW
N
74 70.75 M
129.5 70.75 L
S
GR
GS
0.873 GC
1 LJ
0.5 LW
N
74 70.75 M
113.244 31.506 L
S
GR
GS
0.873 GC
1 LJ
0.5 LW
N
74 70.75 M
74 15.25 L
S
GR
GS
0.873 GC
1 LJ
0.5 LW
N
74 70.75 M
34.756 31.506 L
S
GR
GS
0.873 GC
1 LJ
0.5 LW
N
74 70.75 M
18.5 70.75 L
S
GR
GS
0.873 GC
1 LJ
0.5 LW
N
74 70.75 M
34.756 109.994 L
S
GR
GS
0.873 GC
1 LJ
0.5 LW
N
74 70.75 M
74 126.25 L
S
GR
GS
0.873 GC
1 LJ
0.5 LW
N
74 70.75 M
113.244 109.994 L
S
GR
GS
0.498 GC
N
74 70.75 M
69.599 66.349 L
69.177 66.817 L
68.804 67.325 L
cp
74 70.75 M
70.752 68.61 L
70.552 68.949 L
70.388 69.307 L
cp
74 70.75 M
67.498 68.153 L
67.269 68.824 L
67.109 69.515 L
cp
74 70.75 M
65.577 69.24 L
65.468 70.1 L
65.446 70.967 L
cp
74 70.75 M
67.001 70.927 L
67.055 71.635 L
67.18 72.333 L
cp
74 70.75 M
69.453 71.805 L
69.583 72.26 L
69.759 72.699 L
cp
74 70.75 M
64.104 75.297 L
64.615 76.275 L
65.222 77.196 L
cp
74 70.75 M
66.476 76.275 L
67.073 77.008 L
67.742 77.677 L
68.475 78.274 L
69.264 78.795 L
cp
74 70.75 M
68.87 79.465 L
69.778 79.939 L
70.729 80.319 L
cp
74 70.75 M
68.716 86.208 L
70.307 86.663 L
71.936 86.955 L
cp
74 70.75 M
71.15 93.129 L
73.429 93.302 L
75.713 93.244 L
cp
74 70.75 M
75.004 83.936 L
76.333 83.767 L
77.638 83.464 L
cp
74 70.75 M
80.42 93.187 L
82.657 92.422 L
84.805 91.435 L
cp
74 70.75 M
86.246 94.193 L
88.555 92.834 L
90.714 91.248 L
cp
74 70.75 M
87.765 87.631 L
89.402 86.152 L
90.881 84.515 L
cp
74 70.75 M
94.498 87.464 L
96.084 85.305 L
97.443 82.996 L
cp
74 70.75 M
94.685 81.555 L
95.672 79.407 L
96.437 77.17 L
96.971 74.867 L
97.27 72.522 L
cp
74 70.75 M
103.475 72.995 L
103.551 70.001 L
103.324 67.015 L
102.796 64.068 L
101.972 61.189 L
cp
74 70.75 M
98.291 62.447 L
97.327 60.032 L
96.123 57.727 L
cp
74 70.75 M
98.134 56.543 L
96.573 54.175 L
94.78 51.976 L
cp
74 70.75 M
91.317 55.105 L
89.645 53.433 L
87.813 51.939 L
cp
74 70.75 M
89.655 49.431 L
87.418 47.957 L
85.043 46.716 L
cp
74 70.75 M
86.017 44.596 L
83.309 43.514 L
80.506 42.712 L
cp
74 70.75 M
79.451 47.259 L
77.047 46.828 L
74.611 46.642 L
cp
74 70.75 M
74.571 48.198 L
72.287 48.256 L
70.02 48.544 L
cp
74 70.75 M
70.706 52.373 L
68.864 52.8 L
67.074 53.412 L
cp
74 70.75 M
71.403 64.248 L
70.758 64.544 L
70.147 64.904 L
cp
74 70.75 M
68.435 62.306 L
67.609 62.912 L
66.849 63.599 L
cp
f
GR
GS
2 setlinecap
10.0 ML
0.5 LW
N
74 70.75 M
69.599 66.349 L
69.177 66.817 L
68.804 67.325 L
74 70.75 L
74 70.75 L
74 70.75 L
S
GR
GS
2 setlinecap
10.0 ML
0.5 LW
N
70.752 68.61 M
70.552 68.949 L
70.388 69.307 L
S
GR
GS
2 setlinecap
10.0 ML
0.5 LW
N
74 70.75 M
74 70.75 L
74 70.75 L
S
GR
GS
2 setlinecap
10.0 ML
0.5 LW
N
74 70.75 M
67.498 68.153 L
67.269 68.824 L
67.109 69.515 L
S
GR
GS
2 setlinecap
10.0 ML
0.5 LW
N
74 70.75 M
74 70.75 L
74 70.75 L
S
GR
GS
2 setlinecap
10.0 ML
0.5 LW
N
74 70.75 M
65.577 69.24 L
65.468 70.1 L
65.446 70.967 L
74 70.75 L
74 70.75 L
74 70.75 L
S
GR
GS
2 setlinecap
10.0 ML
0.5 LW
N
67.001 70.927 M
67.055 71.635 L
67.18 72.333 L
74 70.75 L
74 70.75 L
74 70.75 L
S
GR
GS
2 setlinecap
10.0 ML
0.5 LW
N
69.453 71.805 M
69.583 72.26 L
69.759 72.699 L
S
GR
GS
2 setlinecap
10.0 ML
0.5 LW
N
74 70.75 M
74 70.75 L
74 70.75 L
S
GR
GS
2 setlinecap
10.0 ML
0.5 LW
N
74 70.75 M
64.104 75.297 L
64.615 76.275 L
65.222 77.196 L
74 70.75 L
74 70.75 L
74 70.75 L
S
GR
GS
2 setlinecap
10.0 ML
0.5 LW
N
66.476 76.275 M
67.073 77.008 L
67.742 77.677 L
74 70.75 L
74 70.75 L
74 70.75 L
S
GR
GS
2 setlinecap
10.0 ML
0.5 LW
N
67.742 77.677 M
68.475 78.274 L
69.264 78.795 L
S
GR
GS
2 setlinecap
10.0 ML
0.5 LW
N
74 70.75 M
74 70.75 L
74 70.75 L
S
GR
GS
2 setlinecap
10.0 ML
0.5 LW
N
74 70.75 M
68.87 79.465 L
69.778 79.939 L
70.729 80.319 L
S
GR
GS
2 setlinecap
10.0 ML
0.5 LW
N
74 70.75 M
74 70.75 L
74 70.75 L
S
GR
GS
2 setlinecap
10.0 ML
0.5 LW
N
74 70.75 M
68.716 86.208 L
70.307 86.663 L
71.936 86.955 L
S
GR
GS
2 setlinecap
10.0 ML
0.5 LW
N
74 70.75 M
74 70.75 L
74 70.75 L
S
GR
GS
2 setlinecap
10.0 ML
0.5 LW
N
74 70.75 M
71.15 93.129 L
73.429 93.302 L
75.713 93.244 L
74 70.75 L
74 70.75 L
74 70.75 L
S
GR
GS
2 setlinecap
10.0 ML
0.5 LW
N
75.004 83.936 M
76.333 83.767 L
77.638 83.464 L
S
GR
GS
2 setlinecap
10.0 ML
0.5 LW
N
74 70.75 M
74 70.75 L
74 70.75 L
S
GR
GS
2 setlinecap
10.0 ML
0.5 LW
N
74 70.75 M
80.42 93.187 L
82.657 92.422 L
84.805 91.435 L
S
GR
GS
2 setlinecap
10.0 ML
0.5 LW
N
74 70.75 M
74 70.75 L
74 70.75 L
S
GR
GS
2 setlinecap
10.0 ML
0.5 LW
N
74 70.75 M
86.246 94.193 L
88.555 92.834 L
90.714 91.248 L
74 70.75 L
74 70.75 L
74 70.75 L
S
GR
GS
2 setlinecap
10.0 ML
0.5 LW
N
87.765 87.631 M
89.402 86.152 L
90.881 84.515 L
S
GR
GS
2 setlinecap
10.0 ML
0.5 LW
N
74 70.75 M
74 70.75 L
74 70.75 L
S
GR
GS
2 setlinecap
10.0 ML
0.5 LW
N
74 70.75 M
94.498 87.464 L
96.084 85.305 L
97.443 82.996 L
74 70.75 L
74 70.75 L
74 70.75 L
S
GR
GS
2 setlinecap
10.0 ML
0.5 LW
N
94.685 81.555 M
95.672 79.407 L
96.437 77.17 L
74 70.75 L
74 70.75 L
74 70.75 L
S
GR
GS
2 setlinecap
10.0 ML
0.5 LW
N
96.437 77.17 M
96.971 74.867 L
97.27 72.522 L
S
GR
GS
2 setlinecap
10.0 ML
0.5 LW
N
74 70.75 M
74 70.75 L
74 70.75 L
S
GR
GS
2 setlinecap
10.0 ML
0.5 LW
N
74 70.75 M
103.475 72.995 L
103.551 70.001 L
103.324 67.015 L
S
GR
GS
2 setlinecap
10.0 ML
0.5 LW
N
74 70.75 M
74 70.75 L
74 70.75 L
S
GR
GS
2 setlinecap
10.0 ML
0.5 LW
N
74 70.75 M
103.324 67.015 L
102.796 64.068 L
101.972 61.189 L
74 70.75 L
74 70.75 L
74 70.75 L
S
GR
GS
2 setlinecap
10.0 ML
0.5 LW
N
98.291 62.447 M
97.327 60.032 L
96.123 57.727 L
S
GR
GS
2 setlinecap
10.0 ML
0.5 LW
N
74 70.75 M
74 70.75 L
74 70.75 L
S
GR
GS
2 setlinecap
10.0 ML
0.5 LW
N
74 70.75 M
98.134 56.543 L
96.573 54.175 L
94.78 51.976 L
74 70.75 L
74 70.75 L
74 70.75 L
S
GR
GS
2 setlinecap
10.0 ML
0.5 LW
N
91.317 55.105 M
89.645 53.433 L
87.813 51.939 L
S
GR
GS
2 setlinecap
10.0 ML
0.5 LW
N
74 70.75 M
74 70.75 L
74 70.75 L
S
GR
GS
2 setlinecap
10.0 ML
0.5 LW
N
74 70.75 M
89.655 49.431 L
87.418 47.957 L
85.043 46.716 L
S
GR
GS
2 setlinecap
10.0 ML
0.5 LW
N
74 70.75 M
74 70.75 L
74 70.75 L
S
GR
GS
2 setlinecap
10.0 ML
0.5 LW
N
74 70.75 M
86.017 44.596 L
83.309 43.514 L
80.506 42.712 L
74 70.75 L
74 70.75 L
74 70.75 L
S
GR
GS
2 setlinecap
10.0 ML
0.5 LW
N
79.451 47.259 M
77.047 46.828 L
74.611 46.642 L
74 70.75 L
74 70.75 L
74 70.75 L
S
GR
GS
2 setlinecap
10.0 ML
0.5 LW
N
74.571 48.198 M
72.287 48.256 L
70.02 48.544 L
74 70.75 L
74 70.75 L
74 70.75 L
S
GR
GS
2 setlinecap
10.0 ML
0.5 LW
N
70.706 52.373 M
68.864 52.8 L
67.074 53.412 L
74 70.75 L
74 70.75 L
74 70.75 L
S
GR
GS
2 setlinecap
10.0 ML
0.5 LW
N
71.403 64.248 M
70.758 64.544 L
70.147 64.904 L
S
GR
GS
2 setlinecap
10.0 ML
0.5 LW
N
74 70.75 M
74 70.75 L
74 70.75 L
S
GR
GS
2 setlinecap
10.0 ML
0.5 LW
N
74 70.75 M
68.435 62.306 L
67.609 62.912 L
66.849 63.599 L
74 70.75 L
74 70.75 L
74 70.75 L
S
GR
GS
1 LJ
0.75 LW
N
129.5 70.75 M
129.39 67.265 L
129.062 63.794 L
128.517 60.35 L
127.756 56.948 L
126.784 53.6 L
125.603 50.319 L
124.218 47.119 L
122.635 44.013 L
120.86 41.012 L
118.9 38.128 L
116.763 35.373 L
114.458 32.758 L
111.992 30.292 L
109.377 27.987 L
106.622 25.85 L
103.738 23.89 L
100.737 22.115 L
97.631 20.532 L
94.431 19.147 L
91.15 17.966 L
87.802 16.994 L
84.4 16.233 L
80.956 15.688 L
77.485 15.36 L
74 15.25 L
70.515 15.36 L
67.044 15.688 L
63.6 16.233 L
60.198 16.994 L
56.85 17.966 L
53.569 19.147 L
50.369 20.532 L
47.263 22.115 L
44.262 23.89 L
41.378 25.85 L
38.623 27.987 L
36.008 30.292 L
33.542 32.758 L
31.237 35.373 L
29.1 38.128 L
27.14 41.012 L
25.365 44.013 L
23.782 47.119 L
22.397 50.319 L
21.216 53.6 L
20.244 56.948 L
19.483 60.35 L
18.938 63.794 L
18.61 67.265 L
18.5 70.75 L
18.61 74.235 L
18.938 77.706 L
19.483 81.15 L
20.244 84.552 L
21.216 87.9 L
22.397 91.181 L
23.782 94.381 L
25.365 97.487 L
27.14 100.488 L
29.1 103.372 L
31.237 106.127 L
33.542 108.742 L
36.008 111.208 L
38.623 113.513 L
41.378 115.65 L
44.262 117.61 L
47.263 119.385 L
50.369 120.968 L
53.569 122.353 L
56.85 123.534 L
60.198 124.506 L
63.6 125.267 L
67.044 125.812 L
70.515 126.14 L
74 126.25 L
77.485 126.14 L
80.956 125.812 L
84.4 125.267 L
87.802 124.506 L
91.15 123.534 L
94.431 122.353 L
97.631 120.968 L
100.737 119.385 L
103.738 117.61 L
106.622 115.65 L
109.377 113.513 L
111.992 111.208 L
114.458 108.742 L
116.763 106.127 L
118.9 103.372 L
120.86 100.488 L
122.635 97.487 L
124.218 94.381 L
125.603 91.181 L
126.784 87.9 L
127.756 84.552 L
128.517 81.15 L
129.062 77.706 L
129.39 74.235 L
129.5 70.75 L
S
GR
GS
0.873 GC
2 setlinecap
1 LJ
0.5 LW
N
129.5 70.75 M
129.325 66.341 L
128.799 61.959 L
127.928 57.633 L
126.715 53.39 L
125.169 49.256 L
123.3 45.259 L
121.119 41.423 L
118.64 37.772 L
115.878 34.329 L
112.852 31.117 L
109.581 28.156 L
106.084 25.464 L
102.385 23.058 L
98.506 20.953 L
94.472 19.164 L
90.309 17.7 L
86.042 16.572 L
81.7 15.787 L
77.309 15.349 L
72.897 15.261 L
68.491 15.524 L
64.121 16.136 L
59.813 17.094 L
55.595 18.391 L
51.493 20.018 L
47.534 21.967 L
43.742 24.224 L
40.141 26.775 L
36.754 29.604 L
33.603 32.693 L
30.707 36.023 L
28.085 39.573 L
25.753 43.319 L
23.726 47.239 L
22.017 51.308 L
20.636 55.499 L
19.593 59.787 L
18.894 64.144 L
18.544 68.544 L
18.544 72.956 L
18.894 77.356 L
19.593 81.713 L
20.636 86.001 L
22.017 90.192 L
23.726 94.261 L
25.753 98.181 L
28.085 101.927 L
30.707 105.477 L
33.603 108.807 L
36.754 111.896 L
40.141 114.725 L
43.742 117.276 L
47.534 119.533 L
51.493 121.482 L
55.595 123.109 L
59.813 124.406 L
64.121 125.364 L
68.491 125.976 L
72.897 126.239 L
77.309 126.151 L
81.7 125.713 L
86.042 124.928 L
90.309 123.8 L
94.472 122.336 L
98.506 120.547 L
102.385 118.442 L
106.084 116.036 L
109.581 113.344 L
112.852 110.383 L
115.878 107.171 L
118.64 103.728 L
121.119 100.077 L
123.3 96.241 L
125.169 92.244 L
126.715 88.11 L
127.928 83.867 L
128.799 79.541 L
129.325 75.159 L
129.5 70.75 L
S
GR
GS
[1 0 0 1 133.5 70.75] CT
0.149 GC
N
2.5 2.619 M
1.281 2.619 0.836 1.611 QT
0.391 0.603 0.391 -0.788 QT
0.391 -1.663 0.547 -2.428 QT
0.703 -3.194 1.18 -3.725 QT
1.656 -4.256 2.5 -4.256 QT
3.156 -4.256 3.578 -3.936 QT
4 -3.616 4.219 -3.108 QT
4.438 -2.6 4.516 -2.014 QT
4.594 -1.428 4.594 -0.788 QT
4.594 0.072 4.438 0.822 QT
4.281 1.572 3.82 2.095 QT
3.359 2.619 2.5 2.619 QT
cp
2.5 2.353 M
3.063 2.353 3.336 1.783 QT
3.609 1.212 3.672 0.525 QT
3.734 -0.163 3.734 -0.944 QT
3.734 -1.709 3.672 -2.342 QT
3.609 -2.975 3.336 -3.491 QT
3.063 -4.006 2.5 -4.006 QT
1.938 -4.006 1.664 -3.483 QT
1.391 -2.959 1.328 -2.334 QT
1.266 -1.709 1.266 -0.944 QT
1.266 -0.397 1.289 0.095 QT
1.313 0.587 1.43 1.119 QT
1.547 1.65 1.813 2.002 QT
2.078 2.353 2.5 2.353 QT
cp
f
GR
GS
[1 0 0 1 116.07285 28.67715] CT
0.149 GC
N
1.903 -7.662 M
1.903 -7.694 1.934 -7.772 QT
2.137 -8.178 2.302 -8.569 QT
2.466 -8.959 2.598 -9.326 QT
2.731 -9.694 2.856 -10.115 QT
2.403 -10.115 L
2.153 -10.115 1.927 -9.959 QT
1.7 -9.803 1.559 -9.553 QT
1.544 -9.522 1.512 -9.522 QT
1.434 -9.522 L
1.372 -9.522 1.372 -9.6 QT
1.372 -9.615 1.387 -9.631 QT
1.606 -10.022 1.872 -10.287 QT
2.137 -10.553 2.466 -10.553 QT
4.997 -10.553 L
5.075 -10.553 5.122 -10.506 QT
5.169 -10.459 5.169 -10.381 QT
5.169 -10.272 5.098 -10.194 QT
5.028 -10.115 4.919 -10.115 QT
4.028 -10.115 L
3.919 -9.569 3.903 -9.053 QT
3.903 -8.381 4.153 -7.834 QT
4.169 -7.787 4.169 -7.74 QT
4.169 -7.678 4.122 -7.608 QT
4.075 -7.537 4.005 -7.498 QT
3.934 -7.459 3.856 -7.459 QT
3.669 -7.459 3.606 -7.756 QT
3.544 -8.053 3.544 -8.35 QT
3.544 -8.74 3.606 -9.115 QT
3.669 -9.49 3.825 -10.115 QT
3.059 -10.115 L
2.512 -7.881 2.403 -7.647 QT
2.294 -7.459 2.122 -7.459 QT
2.044 -7.459 1.973 -7.514 QT
1.903 -7.569 1.903 -7.662 QT
cp
f
GR
GS
[1 0 0 1 116.07285 28.67715] CT
0.149 GC
N
1.2 -6.3 4.241 0.4 re
f
GR
GS
[1 0 0 1 116.07285 28.67715] CT
0.149 GC
N
1.758 -1.308 M
1.758 -1.558 L
3.93 -4.777 L
3.946 -4.808 4.008 -4.808 QT
4.102 -4.808 L
4.18 -4.808 4.18 -4.73 QT
4.18 -1.558 L
4.868 -1.558 L
4.868 -1.308 L
4.18 -1.308 L
4.18 -0.62 L
4.18 -0.48 4.383 -0.441 QT
4.586 -0.402 4.868 -0.402 QT
4.868 -0.152 L
2.93 -0.152 L
2.93 -0.402 L
3.211 -0.402 3.414 -0.441 QT
3.618 -0.48 3.618 -0.62 QT
3.618 -1.308 L
1.758 -1.308 L
cp
1.993 -1.558 M
3.649 -1.558 L
3.649 -4.027 L
1.993 -1.558 L
cp
f
GR
GS
[1 0 0 1 74 11.25] CT
0.149 GC
N
-1.418 -7.662 M
-1.418 -7.694 -1.386 -7.772 QT
-1.183 -8.178 -1.019 -8.569 QT
-0.855 -8.959 -0.722 -9.326 QT
-0.589 -9.694 -0.464 -10.115 QT
-0.918 -10.115 L
-1.168 -10.115 -1.394 -9.959 QT
-1.621 -9.803 -1.761 -9.553 QT
-1.777 -9.522 -1.808 -9.522 QT
-1.886 -9.522 L
-1.949 -9.522 -1.949 -9.6 QT
-1.949 -9.615 -1.933 -9.631 QT
-1.714 -10.022 -1.449 -10.287 QT
-1.183 -10.553 -0.855 -10.553 QT
1.676 -10.553 L
1.754 -10.553 1.801 -10.506 QT
1.848 -10.459 1.848 -10.381 QT
1.848 -10.272 1.778 -10.194 QT
1.707 -10.115 1.598 -10.115 QT
0.707 -10.115 L
0.598 -9.569 0.582 -9.053 QT
0.582 -8.381 0.832 -7.834 QT
0.848 -7.787 0.848 -7.74 QT
0.848 -7.678 0.801 -7.608 QT
0.754 -7.537 0.684 -7.498 QT
0.614 -7.459 0.536 -7.459 QT
0.348 -7.459 0.286 -7.756 QT
0.223 -8.053 0.223 -8.35 QT
0.223 -8.74 0.286 -9.115 QT
0.348 -9.49 0.504 -10.115 QT
-0.261 -10.115 L
-0.808 -7.881 -0.918 -7.647 QT
-1.027 -7.459 -1.199 -7.459 QT
-1.277 -7.459 -1.347 -7.514 QT
-1.418 -7.569 -1.418 -7.662 QT
cp
f
GR
GS
[1 0 0 1 74 11.25] CT
0.149 GC
N
-2.121 -6.3 4.241 0.4 re
f
GR
GS
[1 0 0 1 74 11.25] CT
0.149 GC
N
-1.406 -0.152 M
-1.406 -0.339 L
-1.406 -0.355 -1.391 -0.37 QT
-0.297 -1.574 L
-0.047 -1.855 0.102 -2.034 QT
0.25 -2.214 0.398 -2.449 QT
0.547 -2.683 0.641 -2.925 QT
0.734 -3.167 0.734 -3.449 QT
0.734 -3.73 0.625 -3.995 QT
0.516 -4.261 0.305 -4.417 QT
0.094 -4.574 -0.203 -4.574 QT
-0.5 -4.574 -0.742 -4.386 QT
-0.984 -4.199 -1.094 -3.917 QT
-1.063 -3.917 -1.016 -3.917 QT
-0.859 -3.917 -0.75 -3.816 QT
-0.641 -3.714 -0.641 -3.542 QT
-0.641 -3.386 -0.75 -3.269 QT
-0.859 -3.152 -1.016 -3.152 QT
-1.172 -3.152 -1.289 -3.269 QT
-1.406 -3.386 -1.406 -3.542 QT
-1.406 -3.808 -1.305 -4.034 QT
-1.203 -4.261 -1.016 -4.441 QT
-0.828 -4.62 -0.594 -4.714 QT
-0.359 -4.808 -0.094 -4.808 QT
0.297 -4.808 0.641 -4.644 QT
0.984 -4.48 1.188 -4.167 QT
1.391 -3.855 1.391 -3.449 QT
1.391 -3.136 1.258 -2.863 QT
1.125 -2.589 0.922 -2.37 QT
0.719 -2.152 0.391 -1.863 QT
0.063 -1.574 -0.047 -1.48 QT
-0.828 -0.714 L
-0.156 -0.714 L
0.328 -0.714 0.664 -0.722 QT
1 -0.73 1.016 -0.761 QT
1.109 -0.839 1.188 -1.402 QT
1.391 -1.402 L
1.203 -0.152 L
-1.406 -0.152 L
cp
f
GR
GS
[1 0 0 1 31.92715 28.67715] CT
0.149 GC
N
-8.269 -8.084 M
-8.113 -7.834 -7.832 -7.717 QT
-7.551 -7.6 -7.238 -7.6 QT
-6.832 -7.6 -6.66 -7.951 QT
-6.488 -8.303 -6.488 -8.74 QT
-6.488 -8.944 -6.527 -9.139 QT
-6.566 -9.334 -6.652 -9.506 QT
-6.738 -9.678 -6.887 -9.78 QT
-7.035 -9.881 -7.238 -9.881 QT
-7.707 -9.881 L
-7.769 -9.881 -7.769 -9.944 QT
-7.769 -10.006 L
-7.769 -10.069 -7.707 -10.069 QT
-7.332 -10.1 L
-7.082 -10.1 -6.918 -10.28 QT
-6.754 -10.459 -6.676 -10.725 QT
-6.598 -10.99 -6.598 -11.225 QT
-6.598 -11.569 -6.754 -11.78 QT
-6.91 -11.99 -7.238 -11.99 QT
-7.504 -11.99 -7.746 -11.897 QT
-7.988 -11.803 -8.129 -11.584 QT
-8.113 -11.6 -8.105 -11.6 QT
-8.098 -11.6 -8.082 -11.6 QT
-7.926 -11.6 -7.824 -11.49 QT
-7.723 -11.381 -7.723 -11.225 QT
-7.723 -11.069 -7.824 -10.959 QT
-7.926 -10.85 -8.082 -10.85 QT
-8.238 -10.85 -8.348 -10.959 QT
-8.457 -11.069 -8.457 -11.225 QT
-8.457 -11.522 -8.277 -11.748 QT
-8.098 -11.975 -7.809 -12.084 QT
-7.519 -12.194 -7.238 -12.194 QT
-7.019 -12.194 -6.785 -12.131 QT
-6.551 -12.069 -6.363 -11.951 QT
-6.176 -11.834 -6.051 -11.655 QT
-5.926 -11.475 -5.926 -11.225 QT
-5.926 -10.944 -6.059 -10.694 QT
-6.191 -10.444 -6.418 -10.264 QT
-6.644 -10.084 -6.926 -9.99 QT
-6.613 -9.928 -6.34 -9.756 QT
-6.066 -9.584 -5.902 -9.319 QT
-5.738 -9.053 -5.738 -8.74 QT
-5.738 -8.365 -5.949 -8.053 QT
-6.16 -7.74 -6.512 -7.561 QT
-6.863 -7.381 -7.238 -7.381 QT
-7.566 -7.381 -7.894 -7.506 QT
-8.223 -7.631 -8.434 -7.881 QT
-8.644 -8.131 -8.644 -8.475 QT
-8.644 -8.662 -8.527 -8.772 QT
-8.41 -8.881 -8.238 -8.881 QT
-8.129 -8.881 -8.035 -8.834 QT
-7.941 -8.787 -7.887 -8.686 QT
-7.832 -8.584 -7.832 -8.475 QT
-7.832 -8.303 -7.949 -8.194 QT
-8.066 -8.084 -8.238 -8.084 QT
-8.269 -8.084 L
cp
f
GR
GS
[1 0 0 1 31.92715 28.67715] CT
0.149 GC
N
-4.738 -7.662 M
-4.738 -7.694 -4.707 -7.772 QT
-4.504 -8.178 -4.34 -8.569 QT
-4.176 -8.959 -4.043 -9.326 QT
-3.91 -9.694 -3.785 -10.115 QT
-4.238 -10.115 L
-4.488 -10.115 -4.715 -9.959 QT
-4.941 -9.803 -5.082 -9.553 QT
-5.098 -9.522 -5.129 -9.522 QT
-5.207 -9.522 L
-5.269 -9.522 -5.269 -9.6 QT
-5.269 -9.615 -5.254 -9.631 QT
-5.035 -10.022 -4.769 -10.287 QT
-4.504 -10.553 -4.176 -10.553 QT
-1.644 -10.553 L
-1.566 -10.553 -1.519 -10.506 QT
-1.473 -10.459 -1.473 -10.381 QT
-1.473 -10.272 -1.543 -10.194 QT
-1.613 -10.115 -1.723 -10.115 QT
-2.613 -10.115 L
-2.723 -9.569 -2.738 -9.053 QT
-2.738 -8.381 -2.488 -7.834 QT
-2.473 -7.787 -2.473 -7.74 QT
-2.473 -7.678 -2.519 -7.608 QT
-2.566 -7.537 -2.637 -7.498 QT
-2.707 -7.459 -2.785 -7.459 QT
-2.973 -7.459 -3.035 -7.756 QT
-3.098 -8.053 -3.098 -8.35 QT
-3.098 -8.74 -3.035 -9.115 QT
-2.973 -9.49 -2.816 -10.115 QT
-3.582 -10.115 L
-4.129 -7.881 -4.238 -7.647 QT
-4.348 -7.459 -4.519 -7.459 QT
-4.598 -7.459 -4.668 -7.514 QT
-4.738 -7.569 -4.738 -7.662 QT
cp
f
GR
GS
[1 0 0 1 31.92715 28.67715] CT
0.149 GC
N
-8.941 -6.3 7.741 0.4 re
f
GR
GS
[1 0 0 1 31.92715 28.67715] CT
0.149 GC
N
-6.633 -1.308 M
-6.633 -1.558 L
-4.461 -4.777 L
-4.446 -4.808 -4.383 -4.808 QT
-4.289 -4.808 L
-4.211 -4.808 -4.211 -4.73 QT
-4.211 -1.558 L
-3.524 -1.558 L
-3.524 -1.308 L
-4.211 -1.308 L
-4.211 -0.62 L
-4.211 -0.48 -4.008 -0.441 QT
-3.805 -0.402 -3.524 -0.402 QT
-3.524 -0.152 L
-5.461 -0.152 L
-5.461 -0.402 L
-5.18 -0.402 -4.977 -0.441 QT
-4.774 -0.48 -4.774 -0.62 QT
-4.774 -1.308 L
-6.633 -1.308 L
cp
-6.399 -1.558 M
-4.743 -1.558 L
-4.743 -4.027 L
-6.399 -1.558 L
cp
f
GR
GS
[1 0 0 1 14.5 70.75] CT
0.149 GC
N
-5.043 2.228 M
-5.043 2.181 -5.012 2.072 QT
-4.731 1.494 -4.489 0.931 QT
-4.247 0.369 -4.051 -0.163 QT
-3.856 -0.694 -3.7 -1.288 QT
-4.34 -1.288 L
-4.7 -1.288 -5.02 -1.061 QT
-5.34 -0.834 -5.543 -0.475 QT
-5.575 -0.444 -5.606 -0.444 QT
-5.731 -0.444 L
-5.825 -0.444 -5.825 -0.538 QT
-5.825 -0.553 -5.793 -0.6 QT
-5.465 -1.163 -5.098 -1.538 QT
-4.731 -1.913 -4.262 -1.913 QT
-0.622 -1.913 L
-0.528 -1.913 -0.457 -1.842 QT
-0.387 -1.772 -0.387 -1.663 QT
-0.387 -1.506 -0.489 -1.397 QT
-0.59 -1.288 -0.731 -1.288 QT
-2.012 -1.288 L
-2.168 -0.506 -2.184 0.244 QT
-2.184 1.197 -1.856 1.978 QT
-1.825 2.041 -1.825 2.103 QT
-1.825 2.212 -1.887 2.306 QT
-1.95 2.4 -2.051 2.455 QT
-2.153 2.509 -2.262 2.509 QT
-2.528 2.509 -2.622 2.08 QT
-2.715 1.65 -2.715 1.244 QT
-2.715 0.681 -2.622 0.15 QT
-2.528 -0.381 -2.309 -1.288 QT
-3.403 -1.288 L
-4.184 1.916 -4.356 2.244 QT
-4.497 2.509 -4.747 2.509 QT
-4.856 2.509 -4.95 2.431 QT
-5.043 2.353 -5.043 2.228 QT
cp
f
GR
GS
[1 0 0 1 31.92715 112.82285] CT
0.149 GC
N
-8.332 3.714 M
-8.254 3.917 -8.105 4.089 QT
-7.957 4.261 -7.754 4.355 QT
-7.551 4.449 -7.332 4.449 QT
-6.832 4.449 -6.644 4.05 QT
-6.457 3.652 -6.457 3.089 QT
-6.457 2.855 -6.465 2.691 QT
-6.473 2.527 -6.504 2.37 QT
-6.566 2.12 -6.73 1.933 QT
-6.894 1.745 -7.129 1.745 QT
-7.363 1.745 -7.535 1.824 QT
-7.707 1.902 -7.809 1.995 QT
-7.91 2.089 -7.996 2.191 QT
-8.082 2.292 -8.098 2.308 QT
-8.176 2.308 L
-8.191 2.308 -8.223 2.285 QT
-8.254 2.261 -8.254 2.245 QT
-8.254 -0.098 L
-8.254 -0.114 -8.23 -0.13 QT
-8.207 -0.145 -8.176 -0.145 QT
-8.16 -0.145 L
-7.691 0.074 -7.16 0.074 QT
-6.644 0.074 -6.16 -0.145 QT
-6.129 -0.145 L
-6.113 -0.145 -6.09 -0.13 QT
-6.066 -0.114 -6.066 -0.098 QT
-6.066 -0.036 L
-6.066 -0.005 -6.082 -0.005 QT
-6.316 0.324 -6.684 0.503 QT
-7.051 0.683 -7.426 0.683 QT
-7.707 0.683 -8.004 0.605 QT
-8.004 1.917 L
-7.769 1.73 -7.59 1.652 QT
-7.41 1.574 -7.129 1.574 QT
-6.738 1.574 -6.434 1.792 QT
-6.129 2.011 -5.965 2.37 QT
-5.801 2.73 -5.801 3.105 QT
-5.801 3.527 -6.004 3.886 QT
-6.207 4.245 -6.566 4.456 QT
-6.926 4.667 -7.332 4.667 QT
-7.676 4.667 -7.965 4.488 QT
-8.254 4.308 -8.426 4.011 QT
-8.598 3.714 -8.598 3.37 QT
-8.598 3.214 -8.496 3.113 QT
-8.394 3.011 -8.238 3.011 QT
-8.082 3.011 -7.98 3.113 QT
-7.879 3.214 -7.879 3.37 QT
-7.879 3.527 -7.98 3.628 QT
-8.082 3.73 -8.238 3.73 QT
-8.254 3.73 -8.285 3.722 QT
-8.316 3.714 -8.332 3.714 QT
cp
f
GR
GS
[1 0 0 1 31.92715 112.82285] CT
0.149 GC
N
-4.738 4.386 M
-4.738 4.355 -4.707 4.277 QT
-4.504 3.87 -4.34 3.48 QT
-4.176 3.089 -4.043 2.722 QT
-3.91 2.355 -3.785 1.933 QT
-4.238 1.933 L
-4.488 1.933 -4.715 2.089 QT
-4.941 2.245 -5.082 2.495 QT
-5.098 2.527 -5.129 2.527 QT
-5.207 2.527 L
-5.269 2.527 -5.269 2.449 QT
-5.269 2.433 -5.254 2.417 QT
-5.035 2.027 -4.769 1.761 QT
-4.504 1.495 -4.176 1.495 QT
-1.644 1.495 L
-1.566 1.495 -1.519 1.542 QT
-1.473 1.589 -1.473 1.667 QT
-1.473 1.777 -1.543 1.855 QT
-1.613 1.933 -1.723 1.933 QT
-2.613 1.933 L
-2.723 2.48 -2.738 2.995 QT
-2.738 3.667 -2.488 4.214 QT
-2.473 4.261 -2.473 4.308 QT
-2.473 4.37 -2.519 4.441 QT
-2.566 4.511 -2.637 4.55 QT
-2.707 4.589 -2.785 4.589 QT
-2.973 4.589 -3.035 4.292 QT
-3.098 3.995 -3.098 3.699 QT
-3.098 3.308 -3.035 2.933 QT
-2.973 2.558 -2.816 1.933 QT
-3.582 1.933 L
-4.129 4.167 -4.238 4.402 QT
-4.348 4.589 -4.519 4.589 QT
-4.598 4.589 -4.668 4.535 QT
-4.738 4.48 -4.738 4.386 QT
cp
f
GR
GS
[1 0 0 1 31.92715 112.82285] CT
0.149 GC
N
-8.941 5.748 7.741 0.4 re
f
GR
GS
[1 0 0 1 31.92715 112.82285] CT
0.149 GC
N
-6.633 10.741 M
-6.633 10.491 L
-4.461 7.272 L
-4.446 7.241 -4.383 7.241 QT
-4.289 7.241 L
-4.211 7.241 -4.211 7.319 QT
-4.211 10.491 L
-3.524 10.491 L
-3.524 10.741 L
-4.211 10.741 L
-4.211 11.428 L
-4.211 11.569 -4.008 11.608 QT
-3.805 11.647 -3.524 11.647 QT
-3.524 11.897 L
-5.461 11.897 L
-5.461 11.647 L
-5.18 11.647 -4.977 11.608 QT
-4.774 11.569 -4.774 11.428 QT
-4.774 10.741 L
-6.633 10.741 L
cp
-6.399 10.491 M
-4.743 10.491 L
-4.743 8.022 L
-6.399 10.491 L
cp
f
GR
GS
[1 0 0 1 74 130.25] CT
0.149 GC
N
-3.199 3.964 M
-3.043 4.214 -2.761 4.331 QT
-2.48 4.449 -2.168 4.449 QT
-1.761 4.449 -1.589 4.097 QT
-1.418 3.745 -1.418 3.308 QT
-1.418 3.105 -1.457 2.91 QT
-1.496 2.714 -1.582 2.542 QT
-1.668 2.37 -1.816 2.269 QT
-1.964 2.167 -2.168 2.167 QT
-2.636 2.167 L
-2.699 2.167 -2.699 2.105 QT
-2.699 2.042 L
-2.699 1.98 -2.636 1.98 QT
-2.261 1.949 L
-2.011 1.949 -1.847 1.769 QT
-1.683 1.589 -1.605 1.324 QT
-1.527 1.058 -1.527 0.824 QT
-1.527 0.48 -1.683 0.269 QT
-1.839 0.058 -2.168 0.058 QT
-2.433 0.058 -2.675 0.152 QT
-2.918 0.245 -3.058 0.464 QT
-3.043 0.449 -3.035 0.449 QT
-3.027 0.449 -3.011 0.449 QT
-2.855 0.449 -2.753 0.558 QT
-2.652 0.667 -2.652 0.824 QT
-2.652 0.98 -2.753 1.089 QT
-2.855 1.199 -3.011 1.199 QT
-3.168 1.199 -3.277 1.089 QT
-3.386 0.98 -3.386 0.824 QT
-3.386 0.527 -3.207 0.3 QT
-3.027 0.074 -2.738 -0.036 QT
-2.449 -0.145 -2.168 -0.145 QT
-1.949 -0.145 -1.714 -0.083 QT
-1.48 -0.02 -1.293 0.097 QT
-1.105 0.214 -0.98 0.394 QT
-0.855 0.574 -0.855 0.824 QT
-0.855 1.105 -0.988 1.355 QT
-1.121 1.605 -1.347 1.785 QT
-1.574 1.964 -1.855 2.058 QT
-1.543 2.12 -1.269 2.292 QT
-0.996 2.464 -0.832 2.73 QT
-0.668 2.995 -0.668 3.308 QT
-0.668 3.683 -0.878 3.995 QT
-1.089 4.308 -1.441 4.488 QT
-1.793 4.667 -2.168 4.667 QT
-2.496 4.667 -2.824 4.542 QT
-3.152 4.417 -3.363 4.167 QT
-3.574 3.917 -3.574 3.574 QT
-3.574 3.386 -3.457 3.277 QT
-3.339 3.167 -3.168 3.167 QT
-3.058 3.167 -2.964 3.214 QT
-2.871 3.261 -2.816 3.363 QT
-2.761 3.464 -2.761 3.574 QT
-2.761 3.745 -2.878 3.855 QT
-2.996 3.964 -3.168 3.964 QT
-3.199 3.964 L
cp
f
GR
GS
[1 0 0 1 74 130.25] CT
0.149 GC
N
0.332 4.386 M
0.332 4.355 0.364 4.277 QT
0.567 3.87 0.731 3.48 QT
0.895 3.089 1.028 2.722 QT
1.161 2.355 1.286 1.933 QT
0.832 1.933 L
0.582 1.933 0.356 2.089 QT
0.129 2.245 -0.011 2.495 QT
-0.027 2.527 -0.058 2.527 QT
-0.136 2.527 L
-0.199 2.527 -0.199 2.449 QT
-0.199 2.433 -0.183 2.417 QT
0.036 2.027 0.301 1.761 QT
0.567 1.495 0.895 1.495 QT
3.426 1.495 L
3.504 1.495 3.551 1.542 QT
3.598 1.589 3.598 1.667 QT
3.598 1.777 3.528 1.855 QT
3.457 1.933 3.348 1.933 QT
2.457 1.933 L
2.348 2.48 2.332 2.995 QT
2.332 3.667 2.582 4.214 QT
2.598 4.261 2.598 4.308 QT
2.598 4.37 2.551 4.441 QT
2.504 4.511 2.434 4.55 QT
2.364 4.589 2.286 4.589 QT
2.098 4.589 2.036 4.292 QT
1.973 3.995 1.973 3.699 QT
1.973 3.308 2.036 2.933 QT
2.098 2.558 2.254 1.933 QT
1.489 1.933 L
0.942 4.167 0.832 4.402 QT
0.723 4.589 0.551 4.589 QT
0.473 4.589 0.403 4.535 QT
0.332 4.48 0.332 4.386 QT
cp
f
GR
GS
[1 0 0 1 74 130.25] CT
0.149 GC
N
-3.871 5.748 7.741 0.4 re
f
GR
GS
[1 0 0 1 74 130.25] CT
0.149 GC
N
-1.406 11.897 M
-1.406 11.709 L
-1.406 11.694 -1.391 11.678 QT
-0.297 10.475 L
-0.047 10.194 0.102 10.014 QT
0.25 9.834 0.398 9.6 QT
0.547 9.366 0.641 9.123 QT
0.734 8.881 0.734 8.6 QT
0.734 8.319 0.625 8.053 QT
0.516 7.787 0.305 7.631 QT
0.094 7.475 -0.203 7.475 QT
-0.5 7.475 -0.742 7.662 QT
-0.984 7.85 -1.094 8.131 QT
-1.063 8.131 -1.016 8.131 QT
-0.859 8.131 -0.75 8.233 QT
-0.641 8.334 -0.641 8.506 QT
-0.641 8.662 -0.75 8.78 QT
-0.859 8.897 -1.016 8.897 QT
-1.172 8.897 -1.289 8.78 QT
-1.406 8.662 -1.406 8.506 QT
-1.406 8.241 -1.305 8.014 QT
-1.203 7.787 -1.016 7.608 QT
-0.828 7.428 -0.594 7.334 QT
-0.359 7.241 -0.094 7.241 QT
0.297 7.241 0.641 7.405 QT
0.984 7.569 1.188 7.881 QT
1.391 8.194 1.391 8.6 QT
1.391 8.912 1.258 9.186 QT
1.125 9.459 0.922 9.678 QT
0.719 9.897 0.391 10.186 QT
0.063 10.475 -0.047 10.569 QT
-0.828 11.334 L
-0.156 11.334 L
0.328 11.334 0.664 11.327 QT
1 11.319 1.016 11.287 QT
1.109 11.209 1.188 10.647 QT
1.391 10.647 L
1.203 11.897 L
-1.406 11.897 L
cp
f
GR
GS
[1 0 0 1 116.07285 112.82285] CT
0.149 GC
N
2.419 4.324 M
2.419 3.933 2.489 3.566 QT
2.559 3.199 2.684 2.831 QT
2.809 2.464 2.997 2.113 QT
3.184 1.761 3.419 1.464 QT
4.044 0.574 L
3.247 0.574 L
2.012 0.574 1.966 0.605 QT
1.872 0.714 1.794 1.245 QT
1.591 1.245 L
1.825 -0.223 L
2.028 -0.223 L
2.028 -0.192 L
2.028 -0.067 2.458 -0.036 QT
2.887 -0.005 3.294 -0.005 QT
4.591 -0.005 L
4.591 0.183 L
4.591 0.183 4.591 0.191 QT
4.591 0.199 4.591 0.199 QT
3.622 1.558 L
3.262 2.089 3.177 2.73 QT
3.091 3.37 3.091 4.324 QT
3.091 4.464 2.989 4.566 QT
2.887 4.667 2.762 4.667 QT
2.622 4.667 2.52 4.566 QT
2.419 4.464 2.419 4.324 QT
cp
f
GR
GS
[1 0 0 1 116.07285 112.82285] CT
0.149 GC
N
5.403 4.386 M
5.403 4.355 5.434 4.277 QT
5.637 3.87 5.802 3.48 QT
5.966 3.089 6.098 2.722 QT
6.231 2.355 6.356 1.933 QT
5.903 1.933 L
5.653 1.933 5.427 2.089 QT
5.2 2.245 5.059 2.495 QT
5.044 2.527 5.012 2.527 QT
4.934 2.527 L
4.872 2.527 4.872 2.449 QT
4.872 2.433 4.887 2.417 QT
5.106 2.027 5.372 1.761 QT
5.637 1.495 5.966 1.495 QT
8.497 1.495 L
8.575 1.495 8.622 1.542 QT
8.669 1.589 8.669 1.667 QT
8.669 1.777 8.598 1.855 QT
8.528 1.933 8.419 1.933 QT
7.528 1.933 L
7.419 2.48 7.403 2.995 QT
7.403 3.667 7.653 4.214 QT
7.669 4.261 7.669 4.308 QT
7.669 4.37 7.622 4.441 QT
7.575 4.511 7.505 4.55 QT
7.434 4.589 7.356 4.589 QT
7.169 4.589 7.106 4.292 QT
7.044 3.995 7.044 3.699 QT
7.044 3.308 7.106 2.933 QT
7.169 2.558 7.325 1.933 QT
6.559 1.933 L
6.012 4.167 5.903 4.402 QT
5.794 4.589 5.622 4.589 QT
5.544 4.589 5.473 4.535 QT
5.403 4.48 5.403 4.386 QT
cp
f
GR
GS
[1 0 0 1 116.07285 112.82285] CT
0.149 GC
N
1.2 5.748 7.741 0.4 re
f
GR
GS
[1 0 0 1 116.07285 112.82285] CT
0.149 GC
N
3.508 10.741 M
3.508 10.491 L
5.68 7.272 L
5.696 7.241 5.758 7.241 QT
5.852 7.241 L
5.93 7.241 5.93 7.319 QT
5.93 10.491 L
6.618 10.491 L
6.618 10.741 L
5.93 10.741 L
5.93 11.428 L
5.93 11.569 6.133 11.608 QT
6.336 11.647 6.618 11.647 QT
6.618 11.897 L
4.68 11.897 L
4.68 11.647 L
4.961 11.647 5.164 11.608 QT
5.368 11.569 5.368 11.428 QT
5.368 10.741 L
3.508 10.741 L
cp
3.743 10.491 M
5.399 10.491 L
5.399 8.022 L
3.743 10.491 L
cp
f
GR
%%Trailer
%%Pages: 1
%%EOF
