%!PS-Adobe-3.0 EPSF-3.0
%%Creator: (MATLAB, The Mathworks, Inc. Version 9.3.0.713579 \(R2017b\). Operating System: Mac OS X)
%%Title: ./strategy2_scatter.eps
%%CreationDate: 2018-06-28T11:43:51
%%Pages: (atend)
%%BoundingBox:     3     0   261   268
%%LanguageLevel: 3
%%EndComments
%%BeginProlog
%%BeginResource: procset (Apache XML Graphics Std ProcSet) 1.2 0
%%Version: 1.2 0
%%Copyright: (Copyright 2001-2003,2010 The Apache Software Foundation. License terms: http://www.apache.org/licenses/LICENSE-2.0)
/bd{bind def}bind def
/ld{load def}bd
/GR/grestore ld
/GS/gsave ld
/RM/rmoveto ld
/C/curveto ld
/t/show ld
/L/lineto ld
/ML/setmiterlimit ld
/CT/concat ld
/f/fill ld
/N/newpath ld
/S/stroke ld
/CC/setcmykcolor ld
/A/ashow ld
/cp/closepath ld
/RC/setrgbcolor ld
/LJ/setlinejoin ld
/GC/setgray ld
/LW/setlinewidth ld
/M/moveto ld
/re {4 2 roll M
1 index 0 rlineto
0 exch rlineto
neg 0 rlineto
cp } bd
/_ctm matrix def
/_tm matrix def
/BT { _ctm currentmatrix pop matrix _tm copy pop 0 0 moveto } bd
/ET { _ctm setmatrix } bd
/iTm { _ctm setmatrix _tm concat } bd
/Tm { _tm astore pop iTm 0 0 moveto } bd
/ux 0.0 def
/uy 0.0 def
/F {
  /Tp exch def
  /Tf exch def
  Tf findfont Tp scalefont setfont
  /cf Tf def  /cs Tp def
} bd
/ULS {currentpoint /uy exch def /ux exch def} bd
/ULE {
  /Tcx currentpoint pop def
  gsave
  newpath
  cf findfont cs scalefont dup
  /FontMatrix get 0 get /Ts exch def /FontInfo get dup
  /UnderlinePosition get Ts mul /To exch def
  /UnderlineThickness get Ts mul /Tt exch def
  ux uy To add moveto  Tcx uy To add lineto
  Tt setlinewidth stroke
  grestore
} bd
/OLE {
  /Tcx currentpoint pop def
  gsave
  newpath
  cf findfont cs scalefont dup
  /FontMatrix get 0 get /Ts exch def /FontInfo get dup
  /UnderlinePosition get Ts mul /To exch def
  /UnderlineThickness get Ts mul /Tt exch def
  ux uy To add cs add moveto Tcx uy To add cs add lineto
  Tt setlinewidth stroke
  grestore
} bd
/SOE {
  /Tcx currentpoint pop def
  gsave
  newpath
  cf findfont cs scalefont dup
  /FontMatrix get 0 get /Ts exch def /FontInfo get dup
  /UnderlinePosition get Ts mul /To exch def
  /UnderlineThickness get Ts mul /Tt exch def
  ux uy To add cs 10 mul 26 idiv add moveto Tcx uy To add cs 10 mul 26 idiv add lineto
  Tt setlinewidth stroke
  grestore
} bd
/QT {
/Y22 exch store
/X22 exch store
/Y21 exch store
/X21 exch store
currentpoint
/Y21 load 2 mul add 3 div exch
/X21 load 2 mul add 3 div exch
/X21 load 2 mul /X22 load add 3 div
/Y21 load 2 mul /Y22 load add 3 div
/X22 load /Y22 load curveto
} bd
/SSPD {
dup length /d exch dict def
{
/v exch def
/k exch def
currentpagedevice k known {
/cpdv currentpagedevice k get def
v cpdv ne {
/upd false def
/nullv v type /nulltype eq def
/nullcpdv cpdv type /nulltype eq def
nullv nullcpdv or
{
/upd true def
} {
/sametype v type cpdv type eq def
sametype {
v type /arraytype eq {
/vlen v length def
/cpdvlen cpdv length def
vlen cpdvlen eq {
0 1 vlen 1 sub {
/i exch def
/obj v i get def
/cpdobj cpdv i get def
obj cpdobj ne {
/upd true def
exit
} if
} for
} {
/upd true def
} ifelse
} {
v type /dicttype eq {
v {
/dv exch def
/dk exch def
/cpddv cpdv dk get def
dv cpddv ne {
/upd true def
exit
} if
} forall
} {
/upd true def
} ifelse
} ifelse
} if
} ifelse
upd true eq {
d k v put
} if
} if
} if
} forall
d length 0 gt {
d setpagedevice
} if
} bd
/RE { % /NewFontName [NewEncodingArray] /FontName RE -
  findfont dup length dict begin
  {
    1 index /FID ne
    {def} {pop pop} ifelse
  } forall
  /Encoding exch def
  /FontName 1 index def
  currentdict definefont pop
  end
} bind def
%%EndResource
%%BeginResource: procset (Apache XML Graphics EPS ProcSet) 1.0 0
%%Version: 1.0 0
%%Copyright: (Copyright 2002-2003 The Apache Software Foundation. License terms: http://www.apache.org/licenses/LICENSE-2.0)
/BeginEPSF { %def
/b4_Inc_state save def         % Save state for cleanup
/dict_count countdictstack def % Count objects on dict stack
/op_count count 1 sub def      % Count objects on operand stack
userdict begin                 % Push userdict on dict stack
/showpage { } def              % Redefine showpage, { } = null proc
0 setgray 0 setlinecap         % Prepare graphics state
1 setlinewidth 0 setlinejoin
10 setmiterlimit [ ] 0 setdash newpath
/languagelevel where           % If level not equal to 1 then
{pop languagelevel             % set strokeadjust and
1 ne                           % overprint to their defaults.
{false setstrokeadjust false setoverprint
} if
} if
} bd
/EndEPSF { %def
count op_count sub {pop} repeat            % Clean up stacks
countdictstack dict_count sub {end} repeat
b4_Inc_state restore
} bd
%%EndResource
%FOPBeginFontDict
%%IncludeResource: font Courier-Oblique
%%IncludeResource: font Courier-BoldOblique
%%IncludeResource: font Courier-Bold
%%IncludeResource: font ZapfDingbats
%%IncludeResource: font Symbol
%%IncludeResource: font Helvetica
%%IncludeResource: font Helvetica-Oblique
%%IncludeResource: font Helvetica-Bold
%%IncludeResource: font Helvetica-BoldOblique
%%IncludeResource: font Times-Roman
%%IncludeResource: font Times-Italic
%%IncludeResource: font Times-Bold
%%IncludeResource: font Times-BoldItalic
%%IncludeResource: font Courier
%FOPEndFontDict
%%BeginResource: encoding WinAnsiEncoding
/WinAnsiEncoding [
/.notdef /.notdef /.notdef /.notdef /.notdef
/.notdef /.notdef /.notdef /.notdef /.notdef
/.notdef /.notdef /.notdef /.notdef /.notdef
/.notdef /.notdef /.notdef /.notdef /.notdef
/.notdef /.notdef /.notdef /.notdef /.notdef
/.notdef /.notdef /.notdef /.notdef /.notdef
/.notdef /.notdef /space /exclam /quotedbl
/numbersign /dollar /percent /ampersand /quotesingle
/parenleft /parenright /asterisk /plus /comma
/hyphen /period /slash /zero /one
/two /three /four /five /six
/seven /eight /nine /colon /semicolon
/less /equal /greater /question /at
/A /B /C /D /E
/F /G /H /I /J
/K /L /M /N /O
/P /Q /R /S /T
/U /V /W /X /Y
/Z /bracketleft /backslash /bracketright /asciicircum
/underscore /quoteleft /a /b /c
/d /e /f /g /h
/i /j /k /l /m
/n /o /p /q /r
/s /t /u /v /w
/x /y /z /braceleft /bar
/braceright /asciitilde /bullet /Euro /bullet
/quotesinglbase /florin /quotedblbase /ellipsis /dagger
/daggerdbl /circumflex /perthousand /Scaron /guilsinglleft
/OE /bullet /Zcaron /bullet /bullet
/quoteleft /quoteright /quotedblleft /quotedblright /bullet
/endash /emdash /asciitilde /trademark /scaron
/guilsinglright /oe /bullet /zcaron /Ydieresis
/space /exclamdown /cent /sterling /currency
/yen /brokenbar /section /dieresis /copyright
/ordfeminine /guillemotleft /logicalnot /sfthyphen /registered
/macron /degree /plusminus /twosuperior /threesuperior
/acute /mu /paragraph /middot /cedilla
/onesuperior /ordmasculine /guillemotright /onequarter /onehalf
/threequarters /questiondown /Agrave /Aacute /Acircumflex
/Atilde /Adieresis /Aring /AE /Ccedilla
/Egrave /Eacute /Ecircumflex /Edieresis /Igrave
/Iacute /Icircumflex /Idieresis /Eth /Ntilde
/Ograve /Oacute /Ocircumflex /Otilde /Odieresis
/multiply /Oslash /Ugrave /Uacute /Ucircumflex
/Udieresis /Yacute /Thorn /germandbls /agrave
/aacute /acircumflex /atilde /adieresis /aring
/ae /ccedilla /egrave /eacute /ecircumflex
/edieresis /igrave /iacute /icircumflex /idieresis
/eth /ntilde /ograve /oacute /ocircumflex
/otilde /odieresis /divide /oslash /ugrave
/uacute /ucircumflex /udieresis /yacute /thorn
/ydieresis
] def
%%EndResource
%FOPBeginFontReencode
/Courier-Oblique findfont
dup length dict begin
  {1 index /FID ne {def} {pop pop} ifelse} forall
  /Encoding WinAnsiEncoding def
  currentdict
end
/Courier-Oblique exch definefont pop
/Courier-BoldOblique findfont
dup length dict begin
  {1 index /FID ne {def} {pop pop} ifelse} forall
  /Encoding WinAnsiEncoding def
  currentdict
end
/Courier-BoldOblique exch definefont pop
/Courier-Bold findfont
dup length dict begin
  {1 index /FID ne {def} {pop pop} ifelse} forall
  /Encoding WinAnsiEncoding def
  currentdict
end
/Courier-Bold exch definefont pop
/Helvetica findfont
dup length dict begin
  {1 index /FID ne {def} {pop pop} ifelse} forall
  /Encoding WinAnsiEncoding def
  currentdict
end
/Helvetica exch definefont pop
/Helvetica-Oblique findfont
dup length dict begin
  {1 index /FID ne {def} {pop pop} ifelse} forall
  /Encoding WinAnsiEncoding def
  currentdict
end
/Helvetica-Oblique exch definefont pop
/Helvetica-Bold findfont
dup length dict begin
  {1 index /FID ne {def} {pop pop} ifelse} forall
  /Encoding WinAnsiEncoding def
  currentdict
end
/Helvetica-Bold exch definefont pop
/Helvetica-BoldOblique findfont
dup length dict begin
  {1 index /FID ne {def} {pop pop} ifelse} forall
  /Encoding WinAnsiEncoding def
  currentdict
end
/Helvetica-BoldOblique exch definefont pop
/Times-Roman findfont
dup length dict begin
  {1 index /FID ne {def} {pop pop} ifelse} forall
  /Encoding WinAnsiEncoding def
  currentdict
end
/Times-Roman exch definefont pop
/Times-Italic findfont
dup length dict begin
  {1 index /FID ne {def} {pop pop} ifelse} forall
  /Encoding WinAnsiEncoding def
  currentdict
end
/Times-Italic exch definefont pop
/Times-Bold findfont
dup length dict begin
  {1 index /FID ne {def} {pop pop} ifelse} forall
  /Encoding WinAnsiEncoding def
  currentdict
end
/Times-Bold exch definefont pop
/Times-BoldItalic findfont
dup length dict begin
  {1 index /FID ne {def} {pop pop} ifelse} forall
  /Encoding WinAnsiEncoding def
  currentdict
end
/Times-BoldItalic exch definefont pop
/Courier findfont
dup length dict begin
  {1 index /FID ne {def} {pop pop} ifelse} forall
  /Encoding WinAnsiEncoding def
  currentdict
end
/Courier exch definefont pop
%FOPEndFontReencode
%%EndProlog
%%Page: 1 1
%%PageBoundingBox: 0 0 288 288
%%BeginPageSetup
[1 0 0 -1 0 288] CT
%%EndPageSetup
GS
1 GC
N
0 0 288 288 re
f
GR
GS
1 GC
N
0 0 288 288 re
f
GR
GS
1 GC
N
82.5 193 M
82.5 21.5 L
37.5 21.5 L
37.5 193 L
cp
f
GR
GS
0.498 GC
N
37.5 185.205 M
37.95 185.205 L
37.95 180.008 L
37.5 180.008 L
cp
37.5 180.008 M
41.1 180.008 L
41.1 174.811 L
37.5 174.811 L
cp
37.5 174.811 M
38.4 174.811 L
38.4 169.614 L
37.5 169.614 L
cp
37.5 169.614 M
40.2 169.614 L
40.2 164.417 L
37.5 164.417 L
cp
37.5 164.417 M
41.55 164.417 L
41.55 159.22 L
37.5 159.22 L
cp
37.5 159.22 M
42 159.22 L
42 154.023 L
37.5 154.023 L
cp
37.5 154.023 M
44.25 154.023 L
44.25 148.826 L
37.5 148.826 L
cp
37.5 148.826 M
46.05 148.826 L
46.05 143.629 L
37.5 143.629 L
cp
37.5 143.629 M
51 143.629 L
51 138.432 L
37.5 138.432 L
cp
37.5 138.432 M
51.45 138.432 L
51.45 133.235 L
37.5 133.235 L
cp
37.5 133.235 M
52.35 133.235 L
52.35 128.038 L
37.5 128.038 L
cp
37.5 128.038 M
57.3 128.038 L
57.3 122.841 L
37.5 122.841 L
cp
37.5 122.841 M
62.7 122.841 L
62.7 117.644 L
37.5 117.644 L
cp
37.5 117.644 M
61.8 117.644 L
61.8 112.447 L
37.5 112.447 L
cp
37.5 112.447 M
60.45 112.447 L
60.45 107.25 L
37.5 107.25 L
cp
37.5 107.25 M
60.9 107.25 L
60.9 102.053 L
37.5 102.053 L
cp
37.5 102.053 M
56.85 102.053 L
56.85 96.856 L
37.5 96.856 L
cp
37.5 96.856 M
53.7 96.856 L
53.7 91.659 L
37.5 91.659 L
cp
37.5 91.659 M
53.25 91.659 L
53.25 86.462 L
37.5 86.462 L
cp
37.5 86.462 M
51.9 86.462 L
51.9 81.265 L
37.5 81.265 L
cp
37.5 81.265 M
49.65 81.265 L
49.65 76.068 L
37.5 76.068 L
cp
37.5 76.068 M
46.5 76.068 L
46.5 70.871 L
37.5 70.871 L
cp
37.5 70.871 M
48.75 70.871 L
48.75 65.674 L
37.5 65.674 L
cp
37.5 65.674 M
47.85 65.674 L
47.85 60.477 L
37.5 60.477 L
cp
37.5 60.477 M
42.9 60.477 L
42.9 55.28 L
37.5 55.28 L
cp
37.5 55.28 M
43.8 55.28 L
43.8 50.083 L
37.5 50.083 L
cp
37.5 50.083 M
40.2 50.083 L
40.2 44.886 L
40.2 39.689 L
37.5 39.689 L
37.5 44.886 L
cp
37.5 39.689 M
38.4 39.689 L
38.4 34.492 L
38.4 29.295 L
37.5 29.295 L
37.5 34.492 L
cp
f
GR
GS
2 setlinecap
10.0 ML
0.5 LW
N
37.5 185.205 M
37.95 185.205 L
37.95 180.008 L
S
GR
GS
2 setlinecap
10.0 ML
0.5 LW
N
37.5 180.008 M
37.5 180.008 L
41.1 180.008 L
41.1 174.811 L
37.5 174.811 L
37.5 174.811 L
S
GR
GS
2 setlinecap
10.0 ML
0.5 LW
N
38.4 174.811 M
38.4 169.614 L
S
GR
GS
2 setlinecap
10.0 ML
0.5 LW
N
37.5 169.614 M
37.5 169.614 L
40.2 169.614 L
40.2 164.417 L
S
GR
GS
2 setlinecap
10.0 ML
0.5 LW
N
37.5 164.417 M
37.5 164.417 L
41.55 164.417 L
41.55 159.22 L
S
GR
GS
2 setlinecap
10.0 ML
0.5 LW
N
37.5 159.22 M
37.5 159.22 L
42 159.22 L
42 154.023 L
S
GR
GS
2 setlinecap
10.0 ML
0.5 LW
N
37.5 154.023 M
37.5 154.023 L
44.25 154.023 L
44.25 148.826 L
S
GR
GS
2 setlinecap
10.0 ML
0.5 LW
N
37.5 148.826 M
37.5 148.826 L
46.05 148.826 L
46.05 143.629 L
S
GR
GS
2 setlinecap
10.0 ML
0.5 LW
N
37.5 143.629 M
37.5 143.629 L
51 143.629 L
51 138.432 L
S
GR
GS
2 setlinecap
10.0 ML
0.5 LW
N
37.5 138.432 M
37.5 138.432 L
51.45 138.432 L
51.45 133.235 L
S
GR
GS
2 setlinecap
10.0 ML
0.5 LW
N
37.5 133.235 M
37.5 133.235 L
52.35 133.235 L
52.35 128.038 L
S
GR
GS
2 setlinecap
10.0 ML
0.5 LW
N
37.5 128.038 M
37.5 128.038 L
57.3 128.038 L
57.3 122.841 L
S
GR
GS
2 setlinecap
10.0 ML
0.5 LW
N
37.5 122.841 M
37.5 122.841 L
62.7 122.841 L
62.7 117.644 L
37.5 117.644 L
37.5 117.644 L
S
GR
GS
2 setlinecap
10.0 ML
0.5 LW
N
61.8 117.644 M
61.8 112.447 L
37.5 112.447 L
37.5 112.447 L
S
GR
GS
2 setlinecap
10.0 ML
0.5 LW
N
60.45 112.447 M
60.45 107.25 L
S
GR
GS
2 setlinecap
10.0 ML
0.5 LW
N
37.5 107.25 M
37.5 107.25 L
60.9 107.25 L
60.9 102.053 L
37.5 102.053 L
37.5 102.053 L
S
GR
GS
2 setlinecap
10.0 ML
0.5 LW
N
56.85 102.053 M
56.85 96.856 L
37.5 96.856 L
37.5 96.856 L
S
GR
GS
2 setlinecap
10.0 ML
0.5 LW
N
53.7 96.856 M
53.7 91.659 L
37.5 91.659 L
37.5 91.659 L
S
GR
GS
2 setlinecap
10.0 ML
0.5 LW
N
53.25 91.659 M
53.25 86.462 L
37.5 86.462 L
37.5 86.462 L
S
GR
GS
2 setlinecap
10.0 ML
0.5 LW
N
51.9 86.462 M
51.9 81.265 L
37.5 81.265 L
37.5 81.265 L
S
GR
GS
2 setlinecap
10.0 ML
0.5 LW
N
49.65 81.265 M
49.65 76.068 L
37.5 76.068 L
37.5 76.068 L
S
GR
GS
2 setlinecap
10.0 ML
0.5 LW
N
46.5 76.068 M
46.5 70.871 L
S
GR
GS
2 setlinecap
10.0 ML
0.5 LW
N
37.5 70.871 M
37.5 70.871 L
48.75 70.871 L
48.75 65.674 L
37.5 65.674 L
37.5 65.674 L
S
GR
GS
2 setlinecap
10.0 ML
0.5 LW
N
47.85 65.674 M
47.85 60.477 L
37.5 60.477 L
37.5 60.477 L
S
GR
GS
2 setlinecap
10.0 ML
0.5 LW
N
42.9 60.477 M
42.9 55.28 L
S
GR
GS
2 setlinecap
10.0 ML
0.5 LW
N
37.5 55.28 M
37.5 55.28 L
43.8 55.28 L
43.8 50.083 L
37.5 50.083 L
37.5 50.083 L
S
GR
GS
2 setlinecap
10.0 ML
0.5 LW
N
40.2 50.083 M
40.2 44.886 L
37.5 44.886 L
37.5 44.886 L
S
GR
GS
2 setlinecap
10.0 ML
0.5 LW
N
40.2 44.886 M
40.2 39.689 L
37.5 39.689 L
37.5 39.689 L
S
GR
GS
2 setlinecap
10.0 ML
0.5 LW
N
38.4 39.689 M
38.4 34.492 L
37.5 34.492 L
37.5 34.492 L
S
GR
GS
2 setlinecap
10.0 ML
0.5 LW
N
38.4 34.492 M
38.4 29.295 L
37.5 29.295 L
S
GR
GS
0.149 GC
2 setlinecap
1 LJ
0.5 LW
N
37.5 193 M
37.5 21.5 L
S
GR
GS
0.149 GC
2 setlinecap
1 LJ
0.5 LW
N
82.5 193 M
82.5 21.5 L
S
GR
GS
0.149 GC
2 setlinecap
1 LJ
0.5 LW
N
37.5 185.205 M
39.215 185.205 L
S
GR
GS
0.149 GC
2 setlinecap
1 LJ
0.5 LW
N
37.5 105.251 M
39.215 105.251 L
S
GR
GS
0.149 GC
2 setlinecap
1 LJ
0.5 LW
N
37.5 25.298 M
39.215 25.298 L
S
GR
GS
0.149 GC
2 setlinecap
1 LJ
0.5 LW
N
82.5 185.205 M
80.785 185.205 L
S
GR
GS
0.149 GC
2 setlinecap
1 LJ
0.5 LW
N
82.5 105.251 M
80.785 105.251 L
S
GR
GS
0.149 GC
2 setlinecap
1 LJ
0.5 LW
N
82.5 25.298 M
80.785 25.298 L
S
GR
GS
[1 0 0 1 33.1 185.20454] CT
0.149 GC
N
-3 3.146 M
-4.469 3.146 -5 1.935 QT
-5.531 0.724 -5.531 -0.948 QT
-5.531 -1.995 -5.344 -2.909 QT
-5.156 -3.823 -4.586 -4.472 QT
-4.016 -5.12 -3 -5.12 QT
-2.203 -5.12 -1.703 -4.729 QT
-1.203 -4.339 -0.938 -3.729 QT
-0.672 -3.12 -0.578 -2.417 QT
-0.484 -1.714 -0.484 -0.948 QT
-0.484 0.083 -0.672 0.982 QT
-0.859 1.88 -1.414 2.513 QT
-1.969 3.146 -3 3.146 QT
cp
-3 2.833 M
-2.328 2.833 -2 2.146 QT
-1.672 1.458 -1.594 0.63 QT
-1.516 -0.198 -1.516 -1.136 QT
-1.516 -2.042 -1.594 -2.808 QT
-1.672 -3.573 -2 -4.19 QT
-2.328 -4.808 -3 -4.808 QT
-3.672 -4.808 -4 -4.183 QT
-4.328 -3.558 -4.406 -2.8 QT
-4.484 -2.042 -4.484 -1.136 QT
-4.484 -0.479 -4.453 0.114 QT
-4.422 0.708 -4.281 1.341 QT
-4.141 1.974 -3.828 2.403 QT
-3.516 2.833 -3 2.833 QT
cp
f
GR
GS
[1 0 0 1 33.1 105.25117] CT
0.149 GC
N
-6.052 2.677 M
-6.052 2.614 -6.005 2.474 QT
-5.677 1.786 -5.388 1.114 QT
-5.099 0.442 -4.865 -0.19 QT
-4.63 -0.823 -4.443 -1.558 QT
-5.208 -1.558 L
-5.646 -1.558 -6.029 -1.276 QT
-6.411 -0.995 -6.661 -0.573 QT
-6.677 -0.526 -6.724 -0.526 QT
-6.865 -0.526 L
-6.99 -0.526 -6.99 -0.651 QT
-6.99 -0.667 -6.958 -0.714 QT
-6.568 -1.386 -6.122 -1.839 QT
-5.677 -2.292 -5.115 -2.292 QT
-0.755 -2.292 L
-0.63 -2.292 -0.544 -2.214 QT
-0.458 -2.136 -0.458 -1.995 QT
-0.458 -1.808 -0.583 -1.683 QT
-0.708 -1.558 -0.88 -1.558 QT
-2.411 -1.558 L
-2.599 -0.604 -2.63 0.286 QT
-2.63 1.442 -2.224 2.38 QT
-2.177 2.442 -2.177 2.521 QT
-2.177 2.646 -2.255 2.763 QT
-2.333 2.88 -2.458 2.95 QT
-2.583 3.021 -2.708 3.021 QT
-3.021 3.021 -3.138 2.505 QT
-3.255 1.989 -3.255 1.489 QT
-3.255 0.817 -3.138 0.177 QT
-3.021 -0.464 -2.771 -1.558 QT
-4.083 -1.558 L
-5.021 2.286 -5.224 2.692 QT
-5.396 3.021 -5.693 3.021 QT
-5.833 3.021 -5.943 2.919 QT
-6.052 2.817 -6.052 2.677 QT
cp
f
GR
GS
[1 0 0 1 33.1 25.29778] CT
0.149 GC
N
-12.677 2.88 M
-12.677 2.552 L
-12.677 2.521 -12.646 2.489 QT
-10.787 0.427 L
-10.365 -0.026 -10.099 -0.339 QT
-9.833 -0.651 -9.576 -1.058 QT
-9.318 -1.464 -9.169 -1.878 QT
-9.021 -2.292 -9.021 -2.761 QT
-9.021 -3.261 -9.201 -3.706 QT
-9.38 -4.151 -9.74 -4.425 QT
-10.099 -4.698 -10.615 -4.698 QT
-11.13 -4.698 -11.552 -4.378 QT
-11.974 -4.058 -12.146 -3.573 QT
-12.099 -3.573 -12.005 -3.573 QT
-11.74 -3.573 -11.552 -3.393 QT
-11.365 -3.214 -11.365 -2.933 QT
-11.365 -2.651 -11.552 -2.464 QT
-11.74 -2.276 -12.005 -2.276 QT
-12.287 -2.276 -12.482 -2.472 QT
-12.677 -2.667 -12.677 -2.933 QT
-12.677 -3.386 -12.505 -3.776 QT
-12.333 -4.167 -12.013 -4.479 QT
-11.693 -4.792 -11.294 -4.956 QT
-10.896 -5.12 -10.443 -5.12 QT
-9.755 -5.12 -9.162 -4.823 QT
-8.568 -4.526 -8.224 -4.003 QT
-7.88 -3.479 -7.88 -2.761 QT
-7.88 -2.245 -8.107 -1.776 QT
-8.333 -1.308 -8.693 -0.925 QT
-9.052 -0.542 -9.607 -0.05 QT
-10.162 0.442 -10.333 0.599 QT
-11.693 1.911 L
-10.552 1.911 L
-9.693 1.911 -9.122 1.896 QT
-8.552 1.88 -8.521 1.849 QT
-8.38 1.692 -8.224 0.739 QT
-7.88 0.739 L
-8.224 2.88 L
-12.677 2.88 L
cp
f
GR
GS
[1 0 0 1 33.1 25.29778] CT
0.149 GC
N
/f-1557365757{-6.052 2.677 M
-6.052 2.614 -6.005 2.474 QT
-5.677 1.786 -5.388 1.114 QT
-5.099 0.442 -4.865 -0.19 QT
-4.63 -0.823 -4.443 -1.558 QT
-5.208 -1.558 L
-5.646 -1.558 -6.029 -1.276 QT
-6.411 -0.995 -6.661 -0.573 QT
-6.677 -0.526 -6.724 -0.526 QT
-6.865 -0.526 L
-6.99 -0.526 -6.99 -0.651 QT
-6.99 -0.667 -6.958 -0.714 QT
-6.568 -1.386 -6.122 -1.839 QT
-5.677 -2.292 -5.115 -2.292 QT
-0.755 -2.292 L
-0.63 -2.292 -0.544 -2.214 QT
-0.458 -2.136 -0.458 -1.995 QT
-0.458 -1.808 -0.583 -1.683 QT
-0.708 -1.558 -0.88 -1.558 QT
-2.411 -1.558 L
-2.599 -0.604 -2.63 0.286 QT
-2.63 1.442 -2.224 2.38 QT
-2.177 2.442 -2.177 2.521 QT
-2.177 2.646 -2.255 2.763 QT
-2.333 2.88 -2.458 2.95 QT
-2.583 3.021 -2.708 3.021 QT
-3.021 3.021 -3.138 2.505 QT
-3.255 1.989 -3.255 1.489 QT
-3.255 0.817 -3.138 0.177 QT
-3.021 -0.464 -2.771 -1.558 QT
-4.083 -1.558 L
-5.021 2.286 -5.224 2.692 QT
-5.396 3.021 -5.693 3.021 QT
-5.833 3.021 -5.943 2.919 QT
-6.052 2.817 -6.052 2.677 QT
cp}def
f-1557365757
f
GR
GS
[0 -1 1 0 16.82912 107.24992] CT
0.149 GC
N
/f-575427151{-18.235 -4.32 M
-18.345 -4.32 -18.345 -4.414 QT
-18.329 -4.429 -18.329 -4.437 QT
-18.329 -4.445 -18.329 -4.461 QT
-14.204 -12.789 L
-14.142 -12.914 -13.985 -12.914 QT
-13.814 -12.914 L
-13.657 -12.914 -13.595 -12.789 QT
-9.47 -4.461 L
-9.47 -4.445 -9.462 -4.437 QT
-9.454 -4.429 -9.454 -4.414 QT
-9.454 -4.32 -9.564 -4.32 QT
-18.235 -4.32 L
cp
-17.454 -5.289 M
-11.126 -5.289 L
-14.282 -11.648 L
-17.454 -5.289 L
cp}def
f-575427151
f
GR
GS
[0 -1 1 0 16.82912 107.24992] CT
0.149 GC
N
/f2004615918{-6.954 -4.179 M
-7.501 -4.179 -7.829 -4.578 QT
-8.157 -4.976 -8.282 -5.539 QT
-8.407 -6.101 -8.407 -6.664 QT
-8.407 -6.664 L
-8.407 -7.273 -8.298 -7.914 QT
-8.188 -8.554 -7.97 -9.195 QT
-7.751 -9.836 -7.501 -10.351 QT
-7.313 -10.695 -7.04 -11.133 QT
-6.767 -11.57 -6.423 -11.945 QT
-6.079 -12.32 -5.681 -12.554 QT
-5.282 -12.789 -4.876 -12.789 QT
-4.876 -12.789 L
-4.438 -12.789 -4.149 -12.547 QT
-3.86 -12.304 -3.696 -11.929 QT
-3.532 -11.554 -3.47 -11.125 QT
-3.407 -10.695 -3.407 -10.304 QT
-3.407 -9.398 -3.649 -8.453 QT
-3.892 -7.508 -4.329 -6.617 QT
-4.501 -6.289 -4.79 -5.836 QT
-5.079 -5.383 -5.399 -5.031 QT
-5.72 -4.679 -6.126 -4.429 QT
-6.532 -4.179 -6.938 -4.179 QT
-6.954 -4.179 L
cp
-6.938 -4.508 M
-6.532 -4.508 -6.165 -4.929 QT
-5.798 -5.351 -5.524 -5.961 QT
-5.251 -6.57 -5.04 -7.203 QT
-4.829 -7.836 -4.735 -8.289 QT
-7.188 -8.289 L
-7.376 -7.523 -7.478 -6.976 QT
-7.579 -6.429 -7.579 -5.898 QT
-7.579 -4.508 -6.938 -4.508 QT
cp
-7.095 -8.711 M
-4.626 -8.711 L
-4.501 -9.226 -4.423 -9.586 QT
-4.345 -9.945 -4.298 -10.336 QT
-4.251 -10.726 -4.251 -11.07 QT
-4.251 -12.476 -4.876 -12.476 QT
-5.642 -12.476 -6.196 -11.25 QT
-6.751 -10.023 -7.095 -8.711 QT
cp}def
f2004615918
f
GR
GS
[0 -1 1 0 16.82912 107.24992] CT
0.149 GC
N
/f-1066472725{0.96 -7.086 M
0.867 -7.086 0.804 -7.156 QT
0.742 -7.226 0.742 -7.32 QT
0.742 -7.414 0.804 -7.484 QT
0.867 -7.554 0.96 -7.554 QT
7.851 -7.554 L
7.945 -7.554 8.007 -7.484 QT
8.07 -7.414 8.07 -7.32 QT
8.07 -7.226 8.007 -7.156 QT
7.945 -7.086 7.851 -7.086 QT
0.96 -7.086 L
cp}def
f-1066472725
f
GR
GS
[0 -1 1 0 16.82912 107.24992] CT
0.149 GC
N
/f-2048857215{14.07 -1.976 M
14.601 -4.148 L
13.992 -4.148 13.468 -4.437 QT
12.945 -4.726 12.624 -5.234 QT
12.304 -5.742 12.304 -6.336 QT
12.304 -6.992 12.624 -7.578 QT
12.945 -8.164 13.507 -8.648 QT
14.07 -9.133 14.71 -9.398 QT
15.351 -9.664 15.992 -9.664 QT
16.71 -12.57 L
16.742 -12.648 16.804 -12.648 QT
16.945 -12.648 L
16.992 -12.648 17.023 -12.609 QT
17.054 -12.57 17.054 -12.523 QT
16.335 -9.664 L
16.789 -9.664 17.21 -9.5 QT
17.632 -9.336 17.96 -9.039 QT
18.289 -8.742 18.468 -8.336 QT
18.648 -7.929 18.648 -7.476 QT
18.648 -6.836 18.328 -6.242 QT
18.007 -5.648 17.46 -5.172 QT
16.914 -4.695 16.242 -4.422 QT
15.57 -4.148 14.96 -4.148 QT
14.414 -1.929 L
14.382 -1.851 14.304 -1.851 QT
14.164 -1.851 L
14.117 -1.851 14.093 -1.898 QT
14.07 -1.945 14.07 -1.976 QT
cp
14.679 -4.461 M
15.914 -9.351 L
15.601 -9.351 15.265 -9.226 QT
14.929 -9.101 14.64 -8.914 QT
14.351 -8.726 14.101 -8.492 QT
13.804 -8.195 13.585 -7.797 QT
13.367 -7.398 13.249 -6.953 QT
13.132 -6.508 13.132 -6.086 QT
13.132 -5.633 13.328 -5.265 QT
13.523 -4.898 13.874 -4.679 QT
14.226 -4.461 14.679 -4.461 QT
cp
15.039 -4.461 M
15.492 -4.461 15.999 -4.718 QT
16.507 -4.976 16.835 -5.336 QT
17.289 -5.773 17.554 -6.422 QT
17.82 -7.07 17.82 -7.726 QT
17.82 -8.179 17.624 -8.547 QT
17.429 -8.914 17.078 -9.133 QT
16.726 -9.351 16.273 -9.351 QT
15.039 -4.461 L
cp}def
f-2048857215
f
GR
GS
0.149 GC
2 setlinecap
1 LJ
0.5 LW
N
37.5 193 M
82.5 193 L
S
GR
GS
0.149 GC
2 setlinecap
1 LJ
0.5 LW
N
37.5 21.5 M
82.5 21.5 L
S
GR
GS
1 GC
N
97 256.5 M
260.5 256.5 L
260.5 211 L
97 211 L
cp
f
GR
GS
0.498 GC
N
109.386 256.5 M
109.386 251.95 L
104.432 251.95 L
104.432 256.5 L
cp
114.341 243.76 M
109.386 243.76 L
109.386 256.5 L
114.341 256.5 L
119.295 256.5 L
119.295 243.76 L
cp
124.25 256.5 M
124.25 246.49 L
119.295 246.49 L
119.295 256.5 L
cp
129.205 256.5 M
129.205 237.39 L
124.25 237.39 L
124.25 256.5 L
cp
134.159 256.5 M
134.159 239.21 L
129.205 239.21 L
129.205 256.5 L
cp
139.114 256.5 M
139.114 243.76 L
134.159 243.76 L
134.159 256.5 L
cp
144.068 256.5 M
144.068 235.57 L
139.114 235.57 L
139.114 256.5 L
cp
149.023 256.5 M
149.023 221.92 L
144.068 221.92 L
144.068 256.5 L
cp
153.977 256.5 M
153.977 231.93 L
149.023 231.93 L
149.023 256.5 L
cp
158.932 256.5 M
158.932 227.38 L
153.977 227.38 L
153.977 256.5 L
cp
163.886 256.5 M
163.886 230.11 L
158.932 230.11 L
158.932 256.5 L
cp
168.841 256.5 M
168.841 226.47 L
163.886 226.47 L
163.886 256.5 L
cp
173.795 256.5 M
173.795 227.38 L
168.841 227.38 L
168.841 256.5 L
cp
178.75 256.5 M
178.75 225.56 L
173.795 225.56 L
173.795 256.5 L
cp
183.705 256.5 M
183.705 226.47 L
178.75 226.47 L
178.75 256.5 L
cp
188.659 256.5 M
188.659 225.56 L
183.705 225.56 L
183.705 256.5 L
cp
193.614 256.5 M
193.614 215.55 L
188.659 215.55 L
188.659 256.5 L
cp
198.568 256.5 M
198.568 220.1 L
193.614 220.1 L
193.614 256.5 L
cp
203.523 222.83 M
198.568 222.83 L
198.568 256.5 L
203.523 256.5 L
208.477 256.5 L
208.477 222.83 L
cp
213.432 256.5 M
213.432 235.57 L
208.477 235.57 L
208.477 256.5 L
cp
218.386 256.5 M
218.386 233.75 L
213.432 233.75 L
213.432 256.5 L
cp
223.341 256.5 M
223.341 235.57 L
218.386 235.57 L
218.386 256.5 L
cp
228.295 256.5 M
228.295 242.85 L
223.341 242.85 L
223.341 256.5 L
cp
233.25 256.5 M
233.25 241.94 L
228.295 241.94 L
228.295 256.5 L
cp
238.205 256.5 M
238.205 248.31 L
233.25 248.31 L
233.25 256.5 L
cp
243.159 256.5 M
243.159 250.13 L
238.205 250.13 L
238.205 256.5 L
cp
248.114 256.5 M
248.114 248.31 L
243.159 248.31 L
243.159 256.5 L
cp
253.068 256.5 M
253.068 251.04 L
248.114 251.04 L
248.114 256.5 L
cp
f
GR
GS
2 setlinecap
10.0 ML
0.5 LW
N
104.432 256.5 M
104.432 251.95 L
109.386 251.95 L
S
GR
GS
2 setlinecap
10.0 ML
0.5 LW
N
109.386 256.5 M
109.386 256.5 L
109.386 243.76 L
114.341 243.76 L
114.341 256.5 L
114.341 256.5 L
S
GR
GS
2 setlinecap
10.0 ML
0.5 LW
N
114.341 243.76 M
119.295 243.76 L
119.295 256.5 L
119.295 256.5 L
S
GR
GS
2 setlinecap
10.0 ML
0.5 LW
N
119.295 246.49 M
124.25 246.49 L
S
GR
GS
2 setlinecap
10.0 ML
0.5 LW
N
124.25 256.5 M
124.25 256.5 L
124.25 237.39 L
129.205 237.39 L
129.205 256.5 L
129.205 256.5 L
S
GR
GS
2 setlinecap
10.0 ML
0.5 LW
N
129.205 239.21 M
134.159 239.21 L
134.159 256.5 L
134.159 256.5 L
S
GR
GS
2 setlinecap
10.0 ML
0.5 LW
N
134.159 243.76 M
139.114 243.76 L
S
GR
GS
2 setlinecap
10.0 ML
0.5 LW
N
139.114 256.5 M
139.114 256.5 L
139.114 235.57 L
144.068 235.57 L
S
GR
GS
2 setlinecap
10.0 ML
0.5 LW
N
144.068 256.5 M
144.068 256.5 L
144.068 221.92 L
149.023 221.92 L
149.023 256.5 L
149.023 256.5 L
S
GR
GS
2 setlinecap
10.0 ML
0.5 LW
N
149.023 231.93 M
153.977 231.93 L
S
GR
GS
2 setlinecap
10.0 ML
0.5 LW
N
153.977 256.5 M
153.977 256.5 L
153.977 227.38 L
158.932 227.38 L
158.932 256.5 L
158.932 256.5 L
S
GR
GS
2 setlinecap
10.0 ML
0.5 LW
N
158.932 230.11 M
163.886 230.11 L
S
GR
GS
2 setlinecap
10.0 ML
0.5 LW
N
163.886 256.5 M
163.886 256.5 L
163.886 226.47 L
168.841 226.47 L
168.841 256.5 L
168.841 256.5 L
S
GR
GS
2 setlinecap
10.0 ML
0.5 LW
N
168.841 227.38 M
173.795 227.38 L
S
GR
GS
2 setlinecap
10.0 ML
0.5 LW
N
173.795 256.5 M
173.795 256.5 L
173.795 225.56 L
178.75 225.56 L
178.75 256.5 L
178.75 256.5 L
S
GR
GS
2 setlinecap
10.0 ML
0.5 LW
N
178.75 226.47 M
183.705 226.47 L
S
GR
GS
2 setlinecap
10.0 ML
0.5 LW
N
183.705 256.5 M
183.705 256.5 L
183.705 225.56 L
188.659 225.56 L
S
GR
GS
2 setlinecap
10.0 ML
0.5 LW
N
188.659 256.5 M
188.659 256.5 L
188.659 215.55 L
193.614 215.55 L
193.614 256.5 L
193.614 256.5 L
S
GR
GS
2 setlinecap
10.0 ML
0.5 LW
N
193.614 220.1 M
198.568 220.1 L
198.568 256.5 L
198.568 256.5 L
S
GR
GS
2 setlinecap
10.0 ML
0.5 LW
N
198.568 222.83 M
203.523 222.83 L
203.523 256.5 L
203.523 256.5 L
S
GR
GS
2 setlinecap
10.0 ML
0.5 LW
N
203.523 222.83 M
208.477 222.83 L
208.477 256.5 L
208.477 256.5 L
S
GR
GS
2 setlinecap
10.0 ML
0.5 LW
N
208.477 235.57 M
213.432 235.57 L
S
GR
GS
2 setlinecap
10.0 ML
0.5 LW
N
213.432 256.5 M
213.432 256.5 L
213.432 233.75 L
218.386 233.75 L
218.386 256.5 L
218.386 256.5 L
S
GR
GS
2 setlinecap
10.0 ML
0.5 LW
N
218.386 235.57 M
223.341 235.57 L
223.341 256.5 L
223.341 256.5 L
S
GR
GS
2 setlinecap
10.0 ML
0.5 LW
N
223.341 242.85 M
228.295 242.85 L
S
GR
GS
2 setlinecap
10.0 ML
0.5 LW
N
228.295 256.5 M
228.295 256.5 L
228.295 241.94 L
233.25 241.94 L
233.25 256.5 L
233.25 256.5 L
S
GR
GS
2 setlinecap
10.0 ML
0.5 LW
N
233.25 248.31 M
238.205 248.31 L
238.205 256.5 L
238.205 256.5 L
S
GR
GS
2 setlinecap
10.0 ML
0.5 LW
N
238.205 250.13 M
243.159 250.13 L
S
GR
GS
2 setlinecap
10.0 ML
0.5 LW
N
243.159 256.5 M
243.159 256.5 L
243.159 248.31 L
248.114 248.31 L
248.114 256.5 L
248.114 256.5 L
S
GR
GS
2 setlinecap
10.0 ML
0.5 LW
N
248.114 251.04 M
253.068 251.04 L
253.068 256.5 L
S
GR
GS
0.149 GC
2 setlinecap
1 LJ
0.5 LW
N
97 256.5 M
260.5 256.5 L
S
GR
GS
0.149 GC
2 setlinecap
1 LJ
0.5 LW
N
97 211 M
260.5 211 L
S
GR
GS
0.149 GC
2 setlinecap
1 LJ
0.5 LW
N
104.432 256.5 M
104.432 254.865 L
S
GR
GS
0.149 GC
2 setlinecap
1 LJ
0.5 LW
N
178.38 256.5 M
178.38 254.865 L
S
GR
GS
0.149 GC
2 setlinecap
1 LJ
0.5 LW
N
252.329 256.5 M
252.329 254.865 L
S
GR
GS
0.149 GC
2 setlinecap
1 LJ
0.5 LW
N
104.432 211 M
104.432 212.635 L
S
GR
GS
0.149 GC
2 setlinecap
1 LJ
0.5 LW
N
178.38 211 M
178.38 212.635 L
S
GR
GS
0.149 GC
2 setlinecap
1 LJ
0.5 LW
N
252.329 211 M
252.329 212.635 L
S
GR
GS
[1 0 0 1 104.43182 260.89999] CT
0.149 GC
N
/f-1336939487{0 10.346 M
-1.469 10.346 -2 9.135 QT
-2.531 7.924 -2.531 6.252 QT
-2.531 5.205 -2.344 4.291 QT
-2.156 3.377 -1.586 2.728 QT
-1.016 2.08 0 2.08 QT
0.797 2.08 1.297 2.471 QT
1.797 2.861 2.063 3.471 QT
2.328 4.08 2.422 4.783 QT
2.516 5.486 2.516 6.252 QT
2.516 7.283 2.328 8.182 QT
2.141 9.08 1.586 9.713 QT
1.031 10.346 0 10.346 QT
cp
0 10.033 M
0.672 10.033 1 9.346 QT
1.328 8.658 1.406 7.83 QT
1.484 7.002 1.484 6.064 QT
1.484 5.158 1.406 4.392 QT
1.328 3.627 1 3.01 QT
0.672 2.392 0 2.392 QT
-0.672 2.392 -1 3.017 QT
-1.328 3.642 -1.406 4.4 QT
-1.484 5.158 -1.484 6.064 QT
-1.484 6.721 -1.453 7.314 QT
-1.422 7.908 -1.281 8.541 QT
-1.141 9.174 -0.828 9.603 QT
-0.516 10.033 0 10.033 QT
cp}def
f-1336939487
f
GR
GS
[1 0 0 1 178.38026 260.89999] CT
0.149 GC
N
/f-931818546{-2.417 9.877 M
-2.417 9.814 -2.37 9.674 QT
-2.042 8.986 -1.753 8.314 QT
-1.464 7.642 -1.229 7.01 QT
-0.995 6.377 -0.807 5.642 QT
-1.573 5.642 L
-2.01 5.642 -2.393 5.924 QT
-2.776 6.205 -3.026 6.627 QT
-3.042 6.674 -3.089 6.674 QT
-3.229 6.674 L
-3.354 6.674 -3.354 6.549 QT
-3.354 6.533 -3.323 6.486 QT
-2.932 5.814 -2.487 5.361 QT
-2.042 4.908 -1.479 4.908 QT
2.88 4.908 L
3.005 4.908 3.091 4.986 QT
3.177 5.064 3.177 5.205 QT
3.177 5.392 3.052 5.517 QT
2.927 5.642 2.755 5.642 QT
1.224 5.642 L
1.036 6.596 1.005 7.486 QT
1.005 8.642 1.411 9.58 QT
1.458 9.642 1.458 9.721 QT
1.458 9.846 1.38 9.963 QT
1.302 10.08 1.177 10.15 QT
1.052 10.221 0.927 10.221 QT
0.615 10.221 0.497 9.705 QT
0.38 9.189 0.38 8.689 QT
0.38 8.017 0.497 7.377 QT
0.615 6.736 0.865 5.642 QT
-0.448 5.642 L
-1.385 9.486 -1.589 9.892 QT
-1.76 10.221 -2.057 10.221 QT
-2.198 10.221 -2.307 10.119 QT
-2.417 10.017 -2.417 9.877 QT
cp}def
f-931818546
f
GR
GS
[1 0 0 1 252.3287 260.89999] CT
0.149 GC
N
/f197481413{-6.042 10.08 M
-6.042 9.752 L
-6.042 9.721 -6.01 9.689 QT
-4.151 7.627 L
-3.729 7.174 -3.464 6.861 QT
-3.198 6.549 -2.94 6.142 QT
-2.682 5.736 -2.534 5.322 QT
-2.385 4.908 -2.385 4.439 QT
-2.385 3.939 -2.565 3.494 QT
-2.745 3.049 -3.104 2.775 QT
-3.464 2.502 -3.979 2.502 QT
-4.495 2.502 -4.917 2.822 QT
-5.339 3.142 -5.51 3.627 QT
-5.464 3.627 -5.37 3.627 QT
-5.104 3.627 -4.917 3.807 QT
-4.729 3.986 -4.729 4.267 QT
-4.729 4.549 -4.917 4.736 QT
-5.104 4.924 -5.37 4.924 QT
-5.651 4.924 -5.846 4.728 QT
-6.042 4.533 -6.042 4.267 QT
-6.042 3.814 -5.87 3.424 QT
-5.698 3.033 -5.378 2.721 QT
-5.057 2.408 -4.659 2.244 QT
-4.26 2.08 -3.807 2.08 QT
-3.12 2.08 -2.526 2.377 QT
-1.932 2.674 -1.589 3.197 QT
-1.245 3.721 -1.245 4.439 QT
-1.245 4.955 -1.471 5.424 QT
-1.698 5.892 -2.057 6.275 QT
-2.417 6.658 -2.971 7.15 QT
-3.526 7.642 -3.698 7.799 QT
-5.057 9.111 L
-3.917 9.111 L
-3.057 9.111 -2.487 9.096 QT
-1.917 9.08 -1.885 9.049 QT
-1.745 8.892 -1.589 7.939 QT
-1.245 7.939 L
-1.589 10.08 L
-6.042 10.08 L
cp}def
f197481413
f
GR
GS
[1 0 0 1 252.3287 260.89999] CT
0.149 GC
N
/f1597161993{0.583 9.877 M
0.583 9.814 0.63 9.674 QT
0.958 8.986 1.247 8.314 QT
1.536 7.642 1.771 7.01 QT
2.005 6.377 2.193 5.642 QT
1.427 5.642 L
0.99 5.642 0.607 5.924 QT
0.224 6.205 -0.026 6.627 QT
-0.042 6.674 -0.089 6.674 QT
-0.229 6.674 L
-0.354 6.674 -0.354 6.549 QT
-0.354 6.533 -0.323 6.486 QT
0.068 5.814 0.513 5.361 QT
0.958 4.908 1.521 4.908 QT
5.88 4.908 L
6.005 4.908 6.091 4.986 QT
6.177 5.064 6.177 5.205 QT
6.177 5.392 6.052 5.517 QT
5.927 5.642 5.755 5.642 QT
4.224 5.642 L
4.036 6.596 4.005 7.486 QT
4.005 8.642 4.411 9.58 QT
4.458 9.642 4.458 9.721 QT
4.458 9.846 4.38 9.963 QT
4.302 10.08 4.177 10.15 QT
4.052 10.221 3.927 10.221 QT
3.615 10.221 3.497 9.705 QT
3.38 9.189 3.38 8.689 QT
3.38 8.017 3.497 7.377 QT
3.615 6.736 3.865 5.642 QT
2.552 5.642 L
1.615 9.486 1.411 9.892 QT
1.24 10.221 0.943 10.221 QT
0.802 10.221 0.693 10.119 QT
0.583 10.017 0.583 9.877 QT
cp}def
f1597161993
f
GR
GS
[1 0 0 1 178.75008 276.29999] CT
0.149 GC
N
/f495242136{-1.247 12.424 M
-0.716 10.252 L
-1.325 10.252 -1.848 9.963 QT
-2.372 9.674 -2.692 9.166 QT
-3.013 8.658 -3.013 8.064 QT
-3.013 7.408 -2.692 6.822 QT
-2.372 6.236 -1.809 5.752 QT
-1.247 5.267 -0.606 5.002 QT
0.034 4.736 0.675 4.736 QT
1.394 1.83 L
1.425 1.752 1.487 1.752 QT
1.628 1.752 L
1.675 1.752 1.706 1.791 QT
1.737 1.83 1.737 1.877 QT
1.019 4.736 L
1.472 4.736 1.894 4.9 QT
2.316 5.064 2.644 5.361 QT
2.972 5.658 3.152 6.064 QT
3.331 6.471 3.331 6.924 QT
3.331 7.564 3.011 8.158 QT
2.691 8.752 2.144 9.228 QT
1.597 9.705 0.925 9.978 QT
0.253 10.252 -0.356 10.252 QT
-0.903 12.471 L
-0.934 12.549 -1.013 12.549 QT
-1.153 12.549 L
-1.2 12.549 -1.223 12.502 QT
-1.247 12.455 -1.247 12.424 QT
cp
-0.638 9.939 M
0.597 5.049 L
0.284 5.049 -0.052 5.174 QT
-0.388 5.299 -0.677 5.486 QT
-0.966 5.674 -1.216 5.908 QT
-1.513 6.205 -1.731 6.603 QT
-1.95 7.002 -2.067 7.447 QT
-2.184 7.892 -2.184 8.314 QT
-2.184 8.767 -1.989 9.135 QT
-1.794 9.502 -1.442 9.721 QT
-1.091 9.939 -0.638 9.939 QT
cp
-0.278 9.939 M
0.175 9.939 0.683 9.682 QT
1.191 9.424 1.519 9.064 QT
1.972 8.627 2.237 7.978 QT
2.503 7.33 2.503 6.674 QT
2.503 6.221 2.308 5.853 QT
2.112 5.486 1.761 5.267 QT
1.409 5.049 0.956 5.049 QT
-0.278 9.939 L
cp}def
f495242136
f
GR
GS
0.149 GC
2 setlinecap
1 LJ
0.5 LW
N
97 256.5 M
97 211 L
S
GR
GS
0.149 GC
2 setlinecap
1 LJ
0.5 LW
N
260.5 256.5 M
260.5 211 L
S
GR
GS
1 GC
N
97 193 M
260.5 193 L
260.5 21.5 L
97 21.5 L
cp
f
GR
GS
0.149 GC
2 setlinecap
1 LJ
0.5 LW
N
97 193 M
260.5 193 L
S
GR
GS
0.149 GC
2 setlinecap
1 LJ
0.5 LW
N
97 21.5 M
260.5 21.5 L
S
GR
GS
0.149 GC
2 setlinecap
1 LJ
0.5 LW
N
97 193 M
97 191.285 L
S
GR
GS
0.149 GC
2 setlinecap
1 LJ
0.5 LW
N
178.75 193 M
178.75 191.285 L
S
GR
GS
0.149 GC
2 setlinecap
1 LJ
0.5 LW
N
260.5 193 M
260.5 191.285 L
S
GR
GS
0.149 GC
2 setlinecap
1 LJ
0.5 LW
N
97 21.5 M
97 23.215 L
S
GR
GS
0.149 GC
2 setlinecap
1 LJ
0.5 LW
N
178.75 21.5 M
178.75 23.215 L
S
GR
GS
0.149 GC
2 setlinecap
1 LJ
0.5 LW
N
260.5 21.5 M
260.5 23.215 L
S
GR
GS
0.149 GC
2 setlinecap
1 LJ
0.5 LW
N
97 193 M
97 21.5 L
S
GR
GS
0.149 GC
2 setlinecap
1 LJ
0.5 LW
N
260.5 193 M
260.5 21.5 L
S
GR
GS
0.149 GC
2 setlinecap
1 LJ
0.5 LW
N
97 193 M
98.715 193 L
S
GR
GS
0.149 GC
2 setlinecap
1 LJ
0.5 LW
N
97 107.25 M
98.715 107.25 L
S
GR
GS
0.149 GC
2 setlinecap
1 LJ
0.5 LW
N
97 21.5 M
98.715 21.5 L
S
GR
GS
0.149 GC
2 setlinecap
1 LJ
0.5 LW
N
260.5 193 M
258.785 193 L
S
GR
GS
0.149 GC
2 setlinecap
1 LJ
0.5 LW
N
260.5 107.25 M
258.785 107.25 L
S
GR
GS
0.149 GC
2 setlinecap
1 LJ
0.5 LW
N
260.5 21.5 M
258.785 21.5 L
S
GR
GS
[1 0 0 1 197.90671 169.27231] CT
N
1 0 M
1 0.552 0.552 1 0 1 C
-0.552 1 -1 0.552 -1 0 C
-1 -0.552 -0.552 -1 0 -1 C
0.552 -1 1 -0.552 1 0 C
cp
f
GR
GS
[1 0 0 1 122.4004 90.75191] CT
N
/f-891180347{1 0 M
1 0.552 0.552 1 0 1 C
-0.552 1 -1 0.552 -1 0 C
-1 -0.552 -0.552 -1 0 -1 C
0.552 -1 1 -0.552 1 0 C
cp}def
f-891180347
f
GR
GS
[1 0 0 1 116.4601 59.4667] CT
N
f-891180347
f
GR
GS
[1 0 0 1 128.39915 66.60576] CT
N
f-891180347
f
GR
GS
[1 0 0 1 208.36729 127.53089] CT
N
f-891180347
f
GR
GS
[1 0 0 1 252.03795 40.45264] CT
N
f-891180347
f
GR
GS
[1 0 0 1 186.00571 125.39944] CT
N
f-891180347
f
GR
GS
[1 0 0 1 194.55048 120.96169] CT
N
f-891180347
f
GR
GS
[1 0 0 1 195.86794 117.42567] CT
N
f-891180347
f
GR
GS
[1 0 0 1 145.5311 81.70808] CT
N
f-891180347
f
GR
GS
[1 0 0 1 162.94962 85.05038] CT
N
f-891180347
f
GR
GS
[1 0 0 1 225.21912 134.0806] CT
N
f-891180347
f
GR
GS
[1 0 0 1 104.87692 136.44804] CT
N
f-891180347
f
GR
GS
[1 0 0 1 161.49509 120.27586] CT
N
f-891180347
f
GR
GS
[1 0 0 1 157.80476 66.86546] CT
N
f-891180347
f
GR
GS
[1 0 0 1 179.08913 64.32244] CT
N
f-891180347
f
GR
GS
[1 0 0 1 213.51729 133.22888] CT
N
f-891180347
f
GR
GS
[1 0 0 1 243.2775 60.9104] CT
N
f-891180347
f
GR
GS
[1 0 0 1 166.27705 136.03323] CT
N
f-891180347
f
GR
GS
[1 0 0 1 133.50179 107.27898] CT
N
f-891180347
f
GR
GS
[1 0 0 1 180.29189 128.30678] CT
N
f-891180347
f
GR
GS
[1 0 0 1 212.17897 135.64687] CT
N
f-891180347
f
GR
GS
[1 0 0 1 194.08102 123.66483] CT
N
f-891180347
f
GR
GS
[1 0 0 1 173.4359 111.67797] CT
N
f-891180347
f
GR
GS
[1 0 0 1 148.87372 106.67091] CT
N
f-891180347
f
GR
GS
[1 0 0 1 111.18929 54.81631] CT
N
f-891180347
f
GR
GS
[1 0 0 1 209.39633 157.80061] CT
N
f-891180347
f
GR
GS
[1 0 0 1 182.08136 121.91112] CT
N
f-891180347
f
GR
GS
[1 0 0 1 169.98979 154.69278] CT
N
f-891180347
f
GR
GS
[1 0 0 1 120.99838 90.2345] CT
N
f-891180347
f
GR
GS
[1 0 0 1 147.70178 116.57876] CT
N
f-891180347
f
GR
GS
[1 0 0 1 230.73389 60.25849] CT
N
f-891180347
f
GR
GS
[1 0 0 1 163.2749 134.7247] CT
N
f-891180347
f
GR
GS
[1 0 0 1 213.28883 141.85336] CT
N
f-891180347
f
GR
GS
[1 0 0 1 194.95367 122.18124] CT
N
f-891180347
f
GR
GS
[1 0 0 1 197.28517 119.74976] CT
N
f-891180347
f
GR
GS
[1 0 0 1 161.18259 59.14125] CT
N
f-891180347
f
GR
GS
[1 0 0 1 219.85358 144.01794] CT
N
f-891180347
f
GR
GS
[1 0 0 1 190.09958 103.13081] CT
N
f-891180347
f
GR
GS
[1 0 0 1 138.6834 63.0448] CT
N
f-891180347
f
GR
GS
[1 0 0 1 208.96118 124.80894] CT
N
f-891180347
f
GR
GS
[1 0 0 1 126.72559 124.48285] CT
N
f-891180347
f
GR
GS
[1 0 0 1 105.9825 154.18819] CT
N
f-891180347
f
GR
GS
[1 0 0 1 203.86267 118.10801] CT
N
f-891180347
f
GR
GS
[1 0 0 1 160.12387 109.91885] CT
N
f-891180347
f
GR
GS
[1 0 0 1 171.99097 124.37537] CT
N
f-891180347
f
GR
GS
[1 0 0 1 152.92502 75.04853] CT
N
f-891180347
f
GR
GS
[1 0 0 1 181.19037 81.8633] CT
N
f-891180347
f
GR
GS
[1 0 0 1 166.63081 122.84549] CT
N
f-891180347
f
GR
GS
[1 0 0 1 165.12473 110.97714] CT
N
f-891180347
f
GR
GS
[1 0 0 1 190.84282 102.04562] CT
N
f-891180347
f
GR
GS
[1 0 0 1 182.67984 64.95072] CT
N
f-891180347
f
GR
GS
[1 0 0 1 212.02232 89.92801] CT
N
f-891180347
f
GR
GS
[1 0 0 1 191.02095 125.06612] CT
N
f-891180347
f
GR
GS
[1 0 0 1 174.61624 44.99743] CT
N
f-891180347
f
GR
GS
[1 0 0 1 204.02664 54.18107] CT
N
f-891180347
f
GR
GS
[1 0 0 1 111.56282 169.20059] CT
N
f-891180347
f
GR
GS
[1 0 0 1 121.53857 123.49944] CT
N
f-891180347
f
GR
GS
[1 0 0 1 195.6362 113.24225] CT
N
f-891180347
f
GR
GS
[1 0 0 1 228.27144 162.27953] CT
N
f-891180347
f
GR
GS
[1 0 0 1 106.16757 59.93748] CT
N
f-891180347
f
GR
GS
[1 0 0 1 139.6306 42.96761] CT
N
f-891180347
f
GR
GS
[1 0 0 1 160.9328 77.01548] CT
N
f-891180347
f
GR
GS
[1 0 0 1 147.42966 79.14501] CT
N
f-891180347
f
GR
GS
[1 0 0 1 214.34666 97.06176] CT
N
f-891180347
f
GR
GS
[1 0 0 1 109.82942 161.80855] CT
N
f-891180347
f
GR
GS
[1 0 0 1 183.59619 90.17228] CT
N
f-891180347
f
GR
GS
[1 0 0 1 179.84064 116.89621] CT
N
f-891180347
f
GR
GS
[1 0 0 1 140.49687 88.31612] CT
N
f-891180347
f
GR
GS
[1 0 0 1 213.18706 121.72169] CT
N
f-891180347
f
GR
GS
[1 0 0 1 259.85983 64.367] CT
N
f-891180347
f
GR
GS
[1 0 0 1 201.19978 95.2213] CT
N
f-891180347
f
GR
GS
[1 0 0 1 210.17522 133.99454] CT
N
f-891180347
f
GR
GS
[1 0 0 1 163.41692 91.33102] CT
N
f-891180347
f
GR
GS
[1 0 0 1 163.52596 130.0674] CT
N
f-891180347
f
GR
GS
[1 0 0 1 204.07204 127.99595] CT
N
f-891180347
f
GR
GS
[1 0 0 1 153.53432 91.21987] CT
N
f-891180347
f
GR
GS
[1 0 0 1 141.22108 69.59556] CT
N
f-891180347
f
GR
GS
[1 0 0 1 174.26309 120.14928] CT
N
f-891180347
f
GR
GS
[1 0 0 1 214.32666 139.12761] CT
N
f-891180347
f
GR
GS
[1 0 0 1 198.30649 139.66217] CT
N
f-891180347
f
GR
GS
[1 0 0 1 191.08992 146.65027] CT
N
f-891180347
f
GR
GS
[1 0 0 1 168.73468 165.44382] CT
N
f-891180347
f
GR
GS
[1 0 0 1 168.89218 77.48486] CT
N
f-891180347
f
GR
GS
[1 0 0 1 164.237 88.13377] CT
N
f-891180347
f
GR
GS
[1 0 0 1 152.80132 42.57498] CT
N
f-891180347
f
GR
GS
[1 0 0 1 157.22533 106.57626] CT
N
f-891180347
f
GR
GS
[1 0 0 1 197.16309 116.30553] CT
N
f-891180347
f
GR
GS
[1 0 0 1 223.05505 97.2347] CT
N
f-891180347
f
GR
GS
[1 0 0 1 150.90091 109.74611] CT
N
f-891180347
f
GR
GS
[1 0 0 1 204.02594 126.79335] CT
N
f-891180347
f
GR
GS
[1 0 0 1 172.23203 108.32815] CT
N
f-891180347
f
GR
GS
[1 0 0 1 187.3313 130.82014] CT
N
f-891180347
f
GR
GS
[1 0 0 1 162.69899 111.49269] CT
N
f-891180347
f
GR
GS
[1 0 0 1 222.88666 123.18041] CT
N
f-891180347
f
GR
GS
[1 0 0 1 231.32036 168.42856] CT
N
f-891180347
f
GR
GS
[1 0 0 1 190.62218 136.57649] CT
N
f-891180347
f
GR
GS
[1 0 0 1 170.91089 106.3993] CT
N
f-891180347
f
GR
GS
[1 0 0 1 194.83925 129.97456] CT
N
f-891180347
f
GR
GS
[1 0 0 1 153.703 89.44296] CT
N
f-891180347
f
GR
GS
[1 0 0 1 210.29787 105.2765] CT
N
f-891180347
f
GR
GS
[1 0 0 1 204.94707 123.29832] CT
N
f-891180347
f
GR
GS
[1 0 0 1 203.04253 126.28428] CT
N
f-891180347
f
GR
GS
[1 0 0 1 171.35518 105.77413] CT
N
f-891180347
f
GR
GS
[1 0 0 1 170.34152 101.78893] CT
N
f-891180347
f
GR
GS
[1 0 0 1 143.28391 71.95258] CT
N
f-891180347
f
GR
GS
[1 0 0 1 188.75166 121.38904] CT
N
f-891180347
f
GR
GS
[1 0 0 1 141.612 106.2107] CT
N
f-891180347
f
GR
GS
[1 0 0 1 183.03394 123.30186] CT
N
f-891180347
f
GR
GS
[1 0 0 1 146.32297 59.41389] CT
N
f-891180347
f
GR
GS
[1 0 0 1 154.71503 90.75523] CT
N
f-891180347
f
GR
GS
[1 0 0 1 141.06805 81.88335] CT
N
f-891180347
f
GR
GS
[1 0 0 1 145.03691 185.76076] CT
N
f-891180347
f
GR
GS
[1 0 0 1 250.97163 66.85155] CT
N
f-891180347
f
GR
GS
[1 0 0 1 121.72479 94.55452] CT
N
f-891180347
f
GR
GS
[1 0 0 1 112.93861 155.75345] CT
N
f-891180347
f
GR
GS
[1 0 0 1 166.65471 122.46648] CT
N
f-891180347
f
GR
GS
[1 0 0 1 202.53453 130.56592] CT
N
f-891180347
f
GR
GS
[1 0 0 1 241.46422 38.37744] CT
N
f-891180347
f
GR
GS
[1 0 0 1 189.87901 127.3928] CT
N
f-891180347
f
GR
GS
[1 0 0 1 161.43814 127.40248] CT
N
f-891180347
f
GR
GS
[1 0 0 1 136.89354 80.20918] CT
N
f-891180347
f
GR
GS
[1 0 0 1 220.44591 161.03999] CT
N
f-891180347
f
GR
GS
[1 0 0 1 223.63657 157.19894] CT
N
f-891180347
f
GR
GS
[1 0 0 1 214.24005 140.79588] CT
N
f-891180347
f
GR
GS
[1 0 0 1 225.19621 116.29301] CT
N
f-891180347
f
GR
GS
[1 0 0 1 178.72308 113.45098] CT
N
f-891180347
f
GR
GS
[1 0 0 1 121.11243 64.84743] CT
N
f-891180347
f
GR
GS
[1 0 0 1 229.85669 111.31965] CT
N
f-891180347
f
GR
GS
[1 0 0 1 161.71596 53.77328] CT
N
f-891180347
f
GR
GS
[1 0 0 1 162.75369 72.95863] CT
N
f-891180347
f
GR
GS
[1 0 0 1 211.77251 114.94403] CT
N
f-891180347
f
GR
GS
[1 0 0 1 162.75345 118.06264] CT
N
f-891180347
f
GR
GS
[1 0 0 1 157.85719 120.27635] CT
N
f-891180347
f
GR
GS
[1 0 0 1 187.02287 116.80769] CT
N
f-891180347
f
GR
GS
[1 0 0 1 217.6819 91.87428] CT
N
f-891180347
f
GR
GS
[1 0 0 1 152.80128 104.89285] CT
N
f-891180347
f
GR
GS
[1 0 0 1 176.40979 114.61018] CT
N
f-891180347
f
GR
GS
[1 0 0 1 217.96078 128.43616] CT
N
f-891180347
f
GR
GS
[1 0 0 1 182.86432 82.98005] CT
N
f-891180347
f
GR
GS
[1 0 0 1 157.18001 126.48582] CT
N
f-891180347
f
GR
GS
[1 0 0 1 141.95885 98.73497] CT
N
f-891180347
f
GR
GS
[1 0 0 1 215.00179 136.13185] CT
N
f-891180347
f
GR
GS
[1 0 0 1 188.68272 122.83971] CT
N
f-891180347
f
GR
GS
[1 0 0 1 207.2173 121.20254] CT
N
f-891180347
f
GR
GS
[1 0 0 1 157.62553 157.06851] CT
N
f-891180347
f
GR
GS
[1 0 0 1 195.0307 141.01759] CT
N
f-891180347
f
GR
GS
[1 0 0 1 143.44836 124.87018] CT
N
f-891180347
f
GR
GS
[1 0 0 1 184.03818 107.36477] CT
N
f-891180347
f
GR
GS
[1 0 0 1 121.82173 37.45524] CT
N
f-891180347
f
GR
GS
[1 0 0 1 170.90022 111.60654] CT
N
f-891180347
f
GR
GS
[1 0 0 1 202.64557 95.08833] CT
N
f-891180347
f
GR
GS
[1 0 0 1 159.65221 103.78464] CT
N
f-891180347
f
GR
GS
[1 0 0 1 177.54565 138.41275] CT
N
f-891180347
f
GR
GS
[1 0 0 1 142.5025 116.84177] CT
N
f-891180347
f
GR
GS
[1 0 0 1 186.05429 125.49725] CT
N
f-891180347
f
GR
GS
[1 0 0 1 186.64607 88.88683] CT
N
f-891180347
f
GR
GS
[1 0 0 1 179.91043 118.14867] CT
N
f-891180347
f
GR
GS
[1 0 0 1 156.75565 115.9671] CT
N
f-891180347
f
GR
GS
[1 0 0 1 180.76299 97.64854] CT
N
f-891180347
f
GR
GS
[1 0 0 1 155.15611 97.96304] CT
N
f-891180347
f
GR
GS
[1 0 0 1 209.52364 74.75443] CT
N
f-891180347
f
GR
GS
[1 0 0 1 178.87682 93.86236] CT
N
f-891180347
f
GR
GS
[1 0 0 1 245.15616 49.33047] CT
N
f-891180347
f
GR
GS
[1 0 0 1 172.42624 91.74492] CT
N
f-891180347
f
GR
GS
[1 0 0 1 124.69421 52.23957] CT
N
f-891180347
f
GR
GS
[1 0 0 1 253.70702 37.3598] CT
N
f-891180347
f
GR
GS
[1 0 0 1 205.18094 108.64089] CT
N
f-891180347
f
GR
GS
[1 0 0 1 197.45529 109.09024] CT
N
f-891180347
f
GR
GS
[1 0 0 1 185.71661 122.84122] CT
N
f-891180347
f
GR
GS
[1 0 0 1 217.62701 116.06947] CT
N
f-891180347
f
GR
GS
[1 0 0 1 234.45326 42.47923] CT
N
f-891180347
f
GR
GS
[1 0 0 1 162.5746 65.04276] CT
N
f-891180347
f
GR
GS
[1 0 0 1 218.03648 105.26952] CT
N
f-891180347
f
GR
GS
[1 0 0 1 118.96982 98.6955] CT
N
f-891180347
f
GR
GS
[1 0 0 1 234.43526 161.83456] CT
N
f-891180347
f
GR
GS
[1 0 0 1 220.01997 168.64024] CT
N
f-891180347
f
GR
GS
[1 0 0 1 187.37498 140.5177] CT
N
f-891180347
f
GR
GS
[1 0 0 1 197.59332 126.01885] CT
N
f-891180347
f
GR
GS
[1 0 0 1 174.46501 103.20968] CT
N
f-891180347
f
GR
GS
[1 0 0 1 210.96025 137.45804] CT
N
f-891180347
f
GR
GS
[1 0 0 1 194.11363 150.84915] CT
N
f-891180347
f
GR
GS
[1 0 0 1 208.60555 142.09871] CT
N
f-891180347
f
GR
GS
[1 0 0 1 195.85185 142.26454] CT
N
f-891180347
f
GR
GS
[1 0 0 1 205.46086 149.63139] CT
N
f-891180347
f
GR
GS
[1 0 0 1 168.53 107.56661] CT
N
f-891180347
f
GR
GS
[1 0 0 1 186.49409 139.43285] CT
N
f-891180347
f
GR
GS
[1 0 0 1 192.67958 120.99464] CT
N
f-891180347
f
GR
GS
[1 0 0 1 195.11548 118.08887] CT
N
f-891180347
f
GR
GS
[1 0 0 1 242.3362 62.2758] CT
N
f-891180347
f
GR
GS
[1 0 0 1 193.8157 125.66441] CT
N
f-891180347
f
GR
GS
[1 0 0 1 241.78871 118.54574] CT
N
f-891180347
f
GR
GS
[1 0 0 1 188.50848 108.44092] CT
N
f-891180347
f
GR
GS
[1 0 0 1 200.29716 125.0368] CT
N
f-891180347
f
GR
GS
[1 0 0 1 106.23131 76.13644] CT
N
f-891180347
f
GR
GS
[1 0 0 1 98.58272 56.59188] CT
N
f-891180347
f
GR
GS
[1 0 0 1 108.93739 148.67038] CT
N
f-891180347
f
GR
GS
[1 0 0 1 205.85094 84.20313] CT
N
f-891180347
f
GR
GS
[1 0 0 1 158.37502 101.54504] CT
N
f-891180347
f
GR
GS
[1 0 0 1 176.82152 95.44567] CT
N
f-891180347
f
GR
GS
[1 0 0 1 151.39275 91.22668] CT
N
f-891180347
f
GR
GS
[1 0 0 1 205.27151 102.23794] CT
N
f-891180347
f
GR
GS
[1 0 0 1 150.73135 108.45456] CT
N
f-891180347
f
GR
GS
[1 0 0 1 207.31445 149.5674] CT
N
f-891180347
f
GR
GS
[1 0 0 1 182.45956 118.05716] CT
N
f-891180347
f
GR
GS
[1 0 0 1 183.49394 119.35651] CT
N
f-891180347
f
GR
GS
[1 0 0 1 173.47902 119.97357] CT
N
f-891180347
f
GR
GS
[1 0 0 1 140.08411 77.99746] CT
N
f-891180347
f
GR
GS
[1 0 0 1 137.74385 65.64651] CT
N
f-891180347
f
GR
GS
[1 0 0 1 186.80127 103.8378] CT
N
f-891180347
f
GR
GS
[1 0 0 1 143.52409 83.49796] CT
N
f-891180347
f
GR
GS
[1 0 0 1 192.24249 100.77126] CT
N
f-891180347
f
GR
GS
[1 0 0 1 191.05833 64.94701] CT
N
f-891180347
f
GR
GS
[1 0 0 1 165.88593 123.43771] CT
N
f-891180347
f
GR
GS
[1 0 0 1 188.07335 118.90236] CT
N
f-891180347
f
GR
GS
[1 0 0 1 144.79703 94.42881] CT
N
f-891180347
f
GR
GS
[1 0 0 1 177.60216 112.90816] CT
N
f-891180347
f
GR
GS
[1 0 0 1 193.67586 108.69655] CT
N
f-891180347
f
GR
GS
[1 0 0 1 236.5228 121.35055] CT
N
f-891180347
f
GR
GS
[1 0 0 1 175.46431 128.67601] CT
N
f-891180347
f
GR
GS
[1 0 0 1 200.06024 79.58652] CT
N
f-891180347
f
GR
GS
[1 0 0 1 184.75623 126.91916] CT
N
f-891180347
f
GR
GS
[1 0 0 1 150.591 111.1291] CT
N
f-891180347
f
GR
GS
[1 0 0 1 111.05563 53.56871] CT
N
f-891180347
f
GR
GS
[1 0 0 1 220.61269 112.60043] CT
N
f-891180347
f
GR
GS
[1 0 0 1 151.98611 68.94131] CT
N
f-891180347
f
GR
GS
[1 0 0 1 174.00145 86.10097] CT
N
f-891180347
f
GR
GS
[1 0 0 1 154.94598 122.43378] CT
N
f-891180347
f
GR
GS
[1 0 0 1 155.2332 105.17175] CT
N
f-891180347
f
GR
GS
[1 0 0 1 174.87242 100.83404] CT
N
f-891180347
f
GR
GS
[1 0 0 1 180.84004 136.01593] CT
N
f-891180347
f
GR
GS
[1 0 0 1 171.25589 76.11686] CT
N
f-891180347
f
GR
GS
[1 0 0 1 120.70126 56.39244] CT
N
f-891180347
f
GR
GS
[1 0 0 1 149.55948 55.96426] CT
N
f-891180347
f
GR
GS
[1 0 0 1 191.96831 48.81721] CT
N
f-891180347
f
GR
GS
[1 0 0 1 104.46358 77.70582] CT
N
f-891180347
f
GR
GS
[1 0 0 1 152.52623 71.98562] CT
N
f-891180347
f
GR
GS
[1 0 0 1 205.32802 133.02922] CT
N
f-891180347
f
GR
GS
[1 0 0 1 194.84346 113.19268] CT
N
f-891180347
f
GR
GS
[1 0 0 1 190.72136 96.41451] CT
N
f-891180347
f
GR
GS
[1 0 0 1 253.38467 47.637] CT
N
f-891180347
f
GR
GS
[1 0 0 1 196.36462 125.09896] CT
N
f-891180347
f
GR
GS
[1 0 0 1 110.72671 86.79967] CT
N
f-891180347
f
GR
GS
[1 0 0 1 138.38136 63.2412] CT
N
f-891180347
f
GR
GS
[1 0 0 1 146.59508 70.60059] CT
N
f-891180347
f
GR
GS
[1 0 0 1 165.99489 72.24716] CT
N
f-891180347
f
GR
GS
[1 0 0 1 171.58623 92.54986] CT
N
f-891180347
f
GR
GS
[1 0 0 1 164.73177 128.17715] CT
N
f-891180347
f
GR
GS
[1 0 0 1 206.6895 106.1081] CT
N
f-891180347
f
GR
GS
[1 0 0 1 205.76505 99.1552] CT
N
f-891180347
f
GR
GS
[1 0 0 1 144.51587 91.47736] CT
N
f-891180347
f
GR
GS
[1 0 0 1 144.45915 90.82262] CT
N
f-891180347
f
GR
GS
[1 0 0 1 210.84613 155.67073] CT
N
f-891180347
f
GR
GS
[1 0 0 1 114.24068 107.41049] CT
N
f-891180347
f
GR
GS
[1 0 0 1 127.47588 88.88018] CT
N
f-891180347
f
GR
GS
[1 0 0 1 213.86562 121.85546] CT
N
f-891180347
f
GR
GS
[1 0 0 1 235.91127 146.5428] CT
N
f-891180347
f
GR
GS
[1 0 0 1 196.584 171.33052] CT
N
f-891180347
f
GR
GS
[1 0 0 1 107.28809 53.64778] CT
N
f-891180347
f
GR
GS
[1 0 0 1 203.43854 90.90832] CT
N
f-891180347
f
GR
GS
[1 0 0 1 134.47121 131.62189] CT
N
f-891180347
f
GR
GS
[1 0 0 1 197.92078 115.46023] CT
N
f-891180347
f
GR
GS
[1 0 0 1 207.74464 90.92369] CT
N
f-891180347
f
GR
GS
[1 0 0 1 239.00998 131.74146] CT
N
f-891180347
f
GR
GS
[1 0 0 1 169.18727 127.59257] CT
N
f-891180347
f
GR
GS
[1 0 0 1 150.03603 77.50107] CT
N
f-891180347
f
GR
GS
[1 0 0 1 146.08658 105.16327] CT
N
f-891180347
f
GR
GS
[1 0 0 1 195.92097 111.11459] CT
N
f-891180347
f
GR
GS
[1 0 0 1 189.65993 140.0499] CT
N
f-891180347
f
GR
GS
[1 0 0 1 159.39403 114.06532] CT
N
f-891180347
f
GR
GS
[1 0 0 1 205.11241 160.56068] CT
N
f-891180347
f
GR
GS
[1 0 0 1 189.03409 126.93063] CT
N
f-891180347
f
GR
GS
[1 0 0 1 198.09015 144.43228] CT
N
f-891180347
f
GR
GS
[1 0 0 1 222.621 111.79527] CT
N
f-891180347
f
GR
GS
[1 0 0 1 124.92457 67.70758] CT
N
f-891180347
f
GR
GS
[1 0 0 1 176.76175 129.6468] CT
N
f-891180347
f
GR
GS
[1 0 0 1 196.95403 144.3073] CT
N
f-891180347
f
GR
GS
[1 0 0 1 212.65219 149.9324] CT
N
f-891180347
f
GR
GS
[1 0 0 1 154.44972 73.65628] CT
N
f-891180347
f
GR
GS
[1 0 0 1 171.44232 65.65183] CT
N
f-891180347
f
GR
GS
[1 0 0 1 139.89401 74.04525] CT
N
f-891180347
f
GR
GS
[1 0 0 1 218.4182 142.36366] CT
N
f-891180347
f
GR
GS
[1 0 0 1 189.62425 118.27004] CT
N
f-891180347
f
GR
GS
[1 0 0 1 187.96156 101.67929] CT
N
f-891180347
f
GR
GS
[1 0 0 1 176.43294 86.42693] CT
N
f-891180347
f
GR
GS
[1 0 0 1 169.14359 106.99856] CT
N
f-891180347
f
GR
GS
[1 0 0 1 215.91013 116.56564] CT
N
f-891180347
f
GR
GS
[1 0 0 1 99.20929 149.65712] CT
N
f-891180347
f
GR
GS
[1 0 0 1 215.30844 147.07669] CT
N
f-891180347
f
GR
GS
[1 0 0 1 231.96622 136.75685] CT
N
f-891180347
f
GR
GS
[1 0 0 1 192.118 118.52819] CT
N
f-891180347
f
GR
GS
[1 0 0 1 181.14711 148.37071] CT
N
f-891180347
f
GR
GS
[1 0 0 1 211.64064 101.2953] CT
N
f-891180347
f
GR
GS
[1 0 0 1 143.78209 87.00035] CT
N
f-891180347
f
GR
GS
[1 0 0 1 194.58188 130.75925] CT
N
f-891180347
f
GR
GS
[1 0 0 1 141.46442 82.3896] CT
N
f-891180347
f
GR
GS
[1 0 0 1 184.10741 137.59637] CT
N
f-891180347
f
GR
GS
[1 0 0 1 141.96045 61.88339] CT
N
f-891180347
f
GR
GS
[1 0 0 1 117.97844 46.67757] CT
N
f-891180347
f
GR
GS
[1 0 0 1 179.13342 175.81422] CT
N
f-891180347
f
GR
GS
[1 0 0 1 132.90384 49.1468] CT
N
f-891180347
f
GR
GS
[1 0 0 1 199.16249 141.46942] CT
N
f-891180347
f
GR
GS
[1 0 0 1 107.52838 143.67062] CT
N
f-891180347
f
GR
GS
[1 0 0 1 136.38899 99.33847] CT
N
f-891180347
f
GR
GS
[1 0 0 1 214.67731 124.62531] CT
N
f-891180347
f
GR
GS
[1 0 0 1 173.3425 62.203] CT
N
f-891180347
f
GR
GS
[1 0 0 1 168.08389 91.44009] CT
N
f-891180347
f
GR
GS
[1 0 0 1 179.66386 159.52655] CT
N
f-891180347
f
GR
GS
[1 0 0 1 198.11804 148.91167] CT
N
f-891180347
f
GR
GS
[1 0 0 1 165.68188 113.02445] CT
N
f-891180347
f
GR
GS
[1 0 0 1 206.49991 124.634] CT
N
f-891180347
f
GR
GS
[1 0 0 1 177.45027 114.07538] CT
N
f-891180347
f
GR
GS
[1 0 0 1 133.40514 51.82612] CT
N
f-891180347
f
GR
GS
[1 0 0 1 227.50835 154.05804] CT
N
f-891180347
f
GR
GS
[1 0 0 1 188.60822 124.08032] CT
N
f-891180347
f
GR
GS
[1 0 0 1 148.25815 76.05691] CT
N
f-891180347
f
GR
GS
[1 0 0 1 249.72829 83.00897] CT
N
f-891180347
f
GR
GS
[1 0 0 1 189.7813 107.45753] CT
N
f-891180347
f
GR
GS
[1 0 0 1 190.41057 119.54815] CT
N
f-891180347
f
GR
GS
[1 0 0 1 159.35262 82.4889] CT
N
f-891180347
f
GR
GS
[1 0 0 1 236.17076 145.78827] CT
N
f-891180347
f
GR
GS
[1 0 0 1 111.56516 62.03742] CT
N
f-891180347
f
GR
GS
[1 0 0 1 137.93747 48.47342] CT
N
f-891180347
f
GR
GS
[1 0 0 1 214.58585 98.74769] CT
N
f-891180347
f
GR
GS
[1 0 0 1 219.23723 128.45042] CT
N
f-891180347
f
GR
GS
[1 0 0 1 226.84128 192.55559] CT
N
f-891180347
f
GR
GS
[1 0 0 1 169.51059 119.50595] CT
N
f-891180347
f
GR
GS
[1 0 0 1 194.53056 77.5202] CT
N
f-891180347
f
GR
GS
[1 0 0 1 209.85242 161.85655] CT
N
f-891180347
f
GR
GS
[1 0 0 1 107.61036 30.0142] CT
N
f-891180347
f
GR
GS
[1 0 0 1 211.12665 150.91203] CT
N
f-891180347
f
GR
GS
[1 0 0 1 180.92853 109.04981] CT
N
f-891180347
f
GR
GS
[1 0 0 1 225.11185 110.147] CT
N
f-891180347
f
GR
GS
[1 0 0 1 224.42995 113.52398] CT
N
f-891180347
f
GR
GS
[1 0 0 1 98.59106 86.60178] CT
N
f-891180347
f
GR
GS
[1 0 0 1 202.08624 107.42294] CT
N
f-891180347
f
GR
GS
[1 0 0 1 152.21297 103.98847] CT
N
f-891180347
f
GR
GS
[1 0 0 1 142.21034 80.16532] CT
N
f-891180347
f
GR
GS
[1 0 0 1 171.31087 113.08541] CT
N
f-891180347
f
GR
GS
[1 0 0 1 138.92583 116.47751] CT
N
f-891180347
f
GR
GS
[1 0 0 1 189.55898 134.02669] CT
N
f-891180347
f
GR
GS
[1 0 0 1 146.57275 110.12774] CT
N
f-891180347
f
GR
GS
[1 0 0 1 177.1945 105.39156] CT
N
f-891180347
f
GR
GS
[1 0 0 1 204.06305 144.21332] CT
N
f-891180347
f
GR
GS
[1 0 0 1 219.94235 53.28301] CT
N
f-891180347
f
GR
GS
[1 0 0 1 214.73184 130.59419] CT
N
f-891180347
f
GR
GS
[1 0 0 1 207.56491 98.83661] CT
N
f-891180347
f
GR
GS
[1 0 0 1 146.74615 68.84624] CT
N
f-891180347
f
GR
GS
[1 0 0 1 132.23357 103.7037] CT
N
f-891180347
f
GR
GS
[1 0 0 1 235.44557 144.49881] CT
N
f-891180347
f
GR
GS
[1 0 0 1 205.19586 125.94849] CT
N
f-891180347
f
GR
GS
[1 0 0 1 162.80539 109.72255] CT
N
f-891180347
f
GR
GS
[1 0 0 1 192.12962 114.67374] CT
N
f-891180347
f
GR
GS
[1 0 0 1 144.04559 110.29256] CT
N
f-891180347
f
GR
GS
[1 0 0 1 198.04778 139.79774] CT
N
f-891180347
f
GR
GS
[1 0 0 1 129.6945 95.62211] CT
N
f-891180347
f
GR
GS
[1 0 0 1 192.05133 106.39647] CT
N
f-891180347
f
GR
GS
[1 0 0 1 153.77107 106.83753] CT
N
f-891180347
f
GR
GS
[1 0 0 1 143.97325 84.40884] CT
N
f-891180347
f
GR
GS
[1 0 0 1 151.08812 99.26006] CT
N
f-891180347
f
GR
GS
[1 0 0 1 147.45982 126.19318] CT
N
f-891180347
f
GR
GS
[1 0 0 1 176.84492 100.80067] CT
N
f-891180347
f
GR
GS
[1 0 0 1 128.59198 83.1387] CT
N
f-891180347
f
GR
GS
[1 0 0 1 229.02365 148.37694] CT
N
f-891180347
f
GR
GS
[1 0 0 1 190.47733 104.40878] CT
N
f-891180347
f
GR
GS
[1 0 0 1 131.02722 50.77351] CT
N
f-891180347
f
GR
GS
[1 0 0 1 203.37134 148.71861] CT
N
f-891180347
f
GR
GS
[1 0 0 1 193.98665 117.88887] CT
N
f-891180347
f
GR
GS
[1 0 0 1 191.82909 105.93969] CT
N
f-891180347
f
GR
GS
[1 0 0 1 174.2179 103.184] CT
N
f-891180347
f
GR
GS
[1 0 0 1 188.91673 122.09216] CT
N
f-891180347
f
GR
GS
[1 0 0 1 141.92097 126.85097] CT
N
f-891180347
f
GR
GS
[1 0 0 1 168.41205 153.58704] CT
N
f-891180347
f
GR
GS
[1 0 0 1 188.49355 122.04625] CT
N
f-891180347
f
GR
GS
[1 0 0 1 200.48264 84.81141] CT
N
f-891180347
f
GR
GS
[1 0 0 1 195.4169 90.255] CT
N
f-891180347
f
GR
GS
[1 0 0 1 215.03236 144.65712] CT
N
f-891180347
f
GR
GS
[1 0 0 1 109.90353 32.43297] CT
N
f-891180347
f
GR
GS
[1 0 0 1 174.53539 114.33349] CT
N
f-891180347
f
GR
GS
[1 0 0 1 109.43371 182.17252] CT
N
f-891180347
f
GR
GS
[1 0 0 1 122.39572 90.45509] CT
N
f-891180347
f
GR
GS
[1 0 0 1 124.13335 111.09061] CT
N
f-891180347
f
GR
GS
[1 0 0 1 107.51986 172.97833] CT
N
f-891180347
f
GR
GS
[1 0 0 1 142.06732 110.73379] CT
N
f-891180347
f
GR
GS
[1 0 0 1 252.57898 145.92818] CT
N
f-891180347
f
GR
GS
[1 0 0 1 192.34239 141.6382] CT
N
f-891180347
f
GR
GS
[1 0 0 1 156.47443 109.58628] CT
N
f-891180347
f
GR
GS
[1 0 0 1 198.69684 104.82041] CT
N
f-891180347
f
GR
GS
[1 0 0 1 116.8972 67.3842] CT
N
f-891180347
f
GR
GS
[1 0 0 1 201.41753 91.84483] CT
N
f-891180347
f
GR
GS
[1 0 0 1 130.67305 59.61105] CT
N
f-891180347
f
GR
GS
[1 0 0 1 223.43779 117.91] CT
N
f-891180347
f
GR
GS
[1 0 0 1 231.21611 165.83188] CT
N
f-891180347
f
GR
GS
[1 0 0 1 177.73163 131.18988] CT
N
f-891180347
f
GR
GS
[1 0 0 1 145.25763 115.3653] CT
N
f-891180347
f
GR
GS
[1 0 0 1 184.27794 182.39874] CT
N
f-891180347
f
GR
GS
[1 0 0 1 233.77585 91.28108] CT
N
f-891180347
f
GR
GS
[1 0 0 1 178.40898 105.35651] CT
N
f-891180347
f
GR
GS
[1 0 0 1 239.72095 133.59381] CT
N
f-891180347
f
GR
GS
[1 0 0 1 164.3246 79.03303] CT
N
f-891180347
f
GR
GS
[1 0 0 1 236.23373 163.48459] CT
N
f-891180347
f
GR
GS
[1 0 0 1 210.13451 152.55626] CT
N
f-891180347
f
GR
GS
[1 0 0 1 207.87077 108.58898] CT
N
f-891180347
f
GR
GS
[1 0 0 1 169.81229 85.01301] CT
N
f-891180347
f
GR
GS
[1 0 0 1 209.87727 100.07719] CT
N
f-891180347
f
GR
GS
[1 0 0 1 180.3358 74.99224] CT
N
f-891180347
f
GR
GS
[1 0 0 1 231.66884 145.26172] CT
N
f-891180347
f
GR
GS
[1 0 0 1 140.63373 147.5771] CT
N
f-891180347
f
GR
GS
[1 0 0 1 178.33566 87.25712] CT
N
f-891180347
f
GR
GS
[1 0 0 1 157.78926 82.95538] CT
N
f-891180347
f
GR
GS
[1 0 0 1 167.63527 72.64928] CT
N
f-891180347
f
GR
GS
[1 0 0 1 144.19389 81.87987] CT
N
f-891180347
f
GR
GS
[1 0 0 1 136.84859 68.46291] CT
N
f-891180347
f
GR
GS
[1 0 0 1 161.67339 116.76154] CT
N
f-891180347
f
GR
GS
[1 0 0 1 194.16736 128.24779] CT
N
f-891180347
f
GR
GS
[1 0 0 1 151.25966 90.87486] CT
N
f-891180347
f
GR
GS
[1 0 0 1 181.06573 130.80339] CT
N
f-891180347
f
GR
GS
[1 0 0 1 225.65321 142.94905] CT
N
f-891180347
f
GR
GS
[1 0 0 1 200.36307 82.58207] CT
N
f-891180347
f
GR
GS
[1 0 0 1 165.3418 107.9119] CT
N
f-891180347
f
GR
GS
[1 0 0 1 197.50868 97.85229] CT
N
f-891180347
f
GR
GS
[1 0 0 1 208.6884 136.65872] CT
N
f-891180347
f
GR
GS
[1 0 0 1 197.89305 149.39172] CT
N
f-891180347
f
GR
GS
[1 0 0 1 154.48064 129.30717] CT
N
f-891180347
f
GR
GS
[1 0 0 1 179.34663 76.24186] CT
N
f-891180347
f
GR
GS
[1 0 0 1 224.53288 105.134] CT
N
f-891180347
f
GR
GS
[1 0 0 1 143.44643 134.49516] CT
N
f-891180347
f
GR
GS
[1 0 0 1 205.64276 54.47305] CT
N
f-891180347
f
GR
GS
[1 0 0 1 189.56607 119.02383] CT
N
f-891180347
f
GR
GS
[1 0 0 1 234.94821 142.09712] CT
N
f-891180347
f
GR
GS
[1 0 0 1 167.29143 109.46426] CT
N
f-891180347
f
GR
GS
[1 0 0 1 173.04543 132.7115] CT
N
f-891180347
f
GR
GS
[1 0 0 1 200.7608 81.90051] CT
N
f-891180347
f
GR
GS
[1 0 0 1 195.93767 121.51325] CT
N
f-891180347
f
GR
GS
[1 0 0 1 201.17799 140.51677] CT
N
f-891180347
f
GR
GS
[1 0 0 1 208.72247 112.6895] CT
N
f-891180347
f
GR
GS
[1 0 0 1 224.40527 94.42995] CT
N
f-891180347
f
GR
GS
[1 0 0 1 192.30875 143.00873] CT
N
f-891180347
f
GR
GS
[1 0 0 1 186.40125 99.59231] CT
N
f-891180347
f
GR
GS
[1 0 0 1 160.10818 127.76221] CT
N
f-891180347
f
GR
GS
[1 0 0 1 163.64297 133.81293] CT
N
f-891180347
f
GR
GS
[1 0 0 1 198.42036 93.30629] CT
N
f-891180347
f
GR
GS
[1 0 0 1 197.97076 101.27434] CT
N
f-891180347
f
GR
GS
[1 0 0 1 165.84605 106.65516] CT
N
f-891180347
f
GR
GS
[1 0 0 1 195.59987 95.09753] CT
N
f-891180347
f
GR
GS
[1 0 0 1 197.42177 123.66318] CT
N
f-891180347
f
GR
GS
[1 0 0 1 177.65599 109.36098] CT
N
f-891180347
f
GR
GS
[1 0 0 1 257.59302 32.61291] CT
N
f-891180347
f
GR
GS
[1 0 0 1 208.82693 78.63018] CT
N
f-891180347
f
GR
GS
[1 0 0 1 186.90422 122.52007] CT
N
f-891180347
f
GR
GS
[1 0 0 1 167.80833 103.84941] CT
N
f-891180347
f
GR
GS
[1 0 0 1 194.15292 146.59937] CT
N
f-891180347
f
GR
GS
[1 0 0 1 208.16223 94.90533] CT
N
f-891180347
f
GR
GS
[1 0 0 1 133.57024 98.49662] CT
N
f-891180347
f
GR
GS
[1 0 0 1 123.15442 97.06879] CT
N
f-891180347
f
GR
GS
[1 0 0 1 117.01415 140.61261] CT
N
f-891180347
f
GR
GS
[1 0 0 1 215.28789 124.5352] CT
N
f-891180347
f
GR
GS
[1 0 0 1 153.60944 95.44424] CT
N
f-891180347
f
GR
GS
[1 0 0 1 150.21414 76.16718] CT
N
f-891180347
f
GR
GS
[1 0 0 1 211.03345 153.18402] CT
N
f-891180347
f
GR
GS
[1 0 0 1 208.66966 181.96667] CT
N
f-891180347
f
GR
GS
[1 0 0 1 126.19706 116.22723] CT
N
f-891180347
f
GR
GS
[1 0 0 1 125.11536 185.73892] CT
N
f-891180347
f
GR
GS
[1 0 0 1 237.2247 142.17668] CT
N
f-891180347
f
GR
GS
[1 0 0 1 214.9994 114.85384] CT
N
f-891180347
f
GR
GS
[1 0 0 1 193.62082 122.50762] CT
N
f-891180347
f
GR
GS
[1 0 0 1 143.39662 125.01396] CT
N
f-891180347
f
GR
GS
[1 0 0 1 186.82886 130.96201] CT
N
f-891180347
f
GR
GS
[1 0 0 1 183.30798 115.46759] CT
N
f-891180347
f
GR
GS
[1 0 0 1 222.46204 149.65402] CT
N
f-891180347
f
GR
GS
[1 0 0 1 211.55371 132.88481] CT
N
f-891180347
f
GR
GS
[1 0 0 1 169.32645 134.89905] CT
N
f-891180347
f
GR
GS
[1 0 0 1 201.09061 119.46912] CT
N
f-891180347
f
GR
GS
[1 0 0 1 196.32373 128.69917] CT
N
f-891180347
f
GR
GS
[1 0 0 1 200.55402 121.71847] CT
N
f-891180347
f
GR
GS
[1 0 0 1 149.63348 85.12923] CT
N
f-891180347
f
GR
GS
[1 0 0 1 186.0943 114.74435] CT
N
f-891180347
f
GR
GS
[1 0 0 1 225.53011 149.09363] CT
N
f-891180347
f
GR
GS
[1 0 0 1 192.41292 95.12337] CT
N
f-891180347
f
GR
GS
[1 0 0 1 212.9472 100.25105] CT
N
f-891180347
f
GR
GS
[1 0 0 1 152.15742 131.32001] CT
N
f-891180347
f
GR
GS
[1 0 0 1 183.54353 75.2492] CT
N
f-891180347
f
GR
GS
[1 0 0 1 167.25879 95.60801] CT
N
f-891180347
f
GR
GS
[1 0 0 1 231.24336 147.46965] CT
N
f-891180347
f
GR
GS
[1 0 0 1 137.28906 112.79818] CT
N
f-891180347
f
GR
GS
[1 0 0 1 125.36247 108.47536] CT
N
f-891180347
f
GR
GS
[1 0 0 1 215.27544 105.30117] CT
N
f-891180347
f
GR
GS
[1 0 0 1 243.51218 139.57138] CT
N
f-891180347
f
GR
GS
[1 0 0 1 195.58041 117.30855] CT
N
f-891180347
f
GR
GS
[1 0 0 1 218.29378 125.36681] CT
N
f-891180347
f
GR
GS
[1 0 0 1 132.1983 124.83216] CT
N
f-891180347
f
GR
GS
[1 0 0 1 101.43329 60.25973] CT
N
f-891180347
f
GR
GS
[1 0 0 1 151.16429 84.78985] CT
N
f-891180347
f
GR
GS
[1 0 0 1 222.33876 131.63699] CT
N
f-891180347
f
GR
GS
[1 0 0 1 162.30356 87.1949] CT
N
f-891180347
f
GR
GS
[1 0 0 1 129.25006 83.86768] CT
N
f-891180347
f
GR
GS
[1 0 0 1 199.76584 176.5273] CT
N
f-891180347
f
GR
GS
[1 0 0 1 247.14954 165.77226] CT
N
f-891180347
f
GR
GS
[1 0 0 1 145.64204 94.1787] CT
N
f-891180347
f
GR
GS
[1 0 0 1 140.65228 102.52367] CT
N
f-891180347
f
GR
GS
[1 0 0 1 197.68968 137.56638] CT
N
f-891180347
f
GR
GS
[1 0 0 1 168.26659 103.25155] CT
N
f-891180347
f
GR
GS
[1 0 0 1 121.70824 62.06903] CT
N
f-891180347
f
GR
GS
[1 0 0 1 184.91496 107.59154] CT
N
f-891180347
f
GR
GS
[1 0 0 1 211.80888 79.79749] CT
N
f-891180347
f
GR
GS
[1 0 0 1 218.1151 115.59164] CT
N
f-891180347
f
GR
GS
[1 0 0 1 122.91805 76.1744] CT
N
f-891180347
f
GR
GS
[1 0 0 1 224.5656 140.68115] CT
N
f-891180347
f
GR
GS
[1 0 0 1 188.77632 96.32816] CT
N
f-891180347
f
GR
GS
[1 0 0 1 203.55977 79.84032] CT
N
f-891180347
f
GR
GS
[1 0 0 1 144.64171 115.78802] CT
N
f-891180347
f
GR
GS
[1 0 0 1 148.49686 63.70356] CT
N
f-891180347
f
GR
GS
[1 0 0 1 165.42194 118.75178] CT
N
f-891180347
f
GR
GS
[1 0 0 1 180.83957 61.33765] CT
N
f-891180347
f
GR
GS
[1 0 0 1 201.96515 100.99915] CT
N
f-891180347
f
GR
GS
[1 0 0 1 186.97234 98.37491] CT
N
f-891180347
f
GR
GS
[1 0 0 1 109.41905 95.40227] CT
N
f-891180347
f
GR
GS
[1 0 0 1 177.76668 98.48106] CT
N
f-891180347
f
GR
GS
[1 0 0 1 167.54587 79.98473] CT
N
f-891180347
f
GR
GS
[1 0 0 1 234.7663 95.04095] CT
N
f-891180347
f
GR
GS
[1 0 0 1 191.93665 112.59141] CT
N
f-891180347
f
GR
GS
[1 0 0 1 118.15095 68.07707] CT
N
f-891180347
f
GR
GS
[1 0 0 1 126.73062 59.57822] CT
N
f-891180347
f
GR
GS
[1 0 0 1 251.70242 137.35927] CT
N
f-891180347
f
GR
GS
[1 0 0 1 211.18927 130.23914] CT
N
f-891180347
f
GR
GS
[1 0 0 1 194.92787 138.78592] CT
N
f-891180347
f
GR
GS
[1 0 0 1 211.32889 27.21542] CT
N
f-891180347
f
GR
GS
[1 0 0 1 182.82782 129.70325] CT
N
f-891180347
f
GR
GS
[1 0 0 1 231.5997 129.68576] CT
N
f-891180347
f
GR
GS
[1 0 0 1 172.38605 75.91734] CT
N
f-891180347
f
GR
GS
[1 0 0 1 199.09128 127.42931] CT
N
f-891180347
f
GR
GS
[1 0 0 1 234.25131 120.77657] CT
N
f-891180347
f
GR
GS
[1 0 0 1 234.72319 181.50378] CT
N
f-891180347
f
GR
GS
[1 0 0 1 173.08672 119.04994] CT
N
f-891180347
f
GR
GS
[1 0 0 1 190.80013 108.1745] CT
N
f-891180347
f
GR
GS
[1 0 0 1 177.89651 169.97218] CT
N
f-891180347
f
GR
GS
[1 0 0 1 147.27124 66.93155] CT
N
f-891180347
f
GR
GS
[1 0 0 1 168.13689 95.93851] CT
N
f-891180347
f
GR
GS
[1 0 0 1 133.79121 62.51721] CT
N
f-891180347
f
GR
GS
[1 0 0 1 152.20317 132.32863] CT
N
f-891180347
f
GR
GS
[1 0 0 1 234.96904 146.74194] CT
N
f-891180347
f
GR
GS
[1 0 0 1 139.47787 77.30116] CT
N
f-891180347
f
GR
GS
[1 0 0 1 181.38304 110.61809] CT
N
f-891180347
f
GR
GS
[1 0 0 1 217.63615 74.70386] CT
N
f-891180347
f
GR
GS
[1 0 0 1 159.07274 78.54505] CT
N
f-891180347
f
GR
GS
[1 0 0 1 225.47314 103.14156] CT
N
f-891180347
f
GR
GS
[1 0 0 1 106.70314 149.32874] CT
N
f-891180347
f
GR
GS
[1 0 0 1 115.12891 95.58631] CT
N
f-891180347
f
GR
GS
[1 0 0 1 170.23094 96.29565] CT
N
f-891180347
f
GR
GS
[1 0 0 1 259.53091 65.54012] CT
N
f-891180347
f
GR
GS
[1 0 0 1 156.55911 115.3448] CT
N
f-891180347
f
GR
GS
[1 0 0 1 120.32008 73.38063] CT
N
f-891180347
f
GR
GS
[1 0 0 1 206.28596 120.89021] CT
N
f-891180347
f
GR
GS
[1 0 0 1 142.82748 170.89105] CT
N
f-891180347
f
GR
GS
[1 0 0 1 255.64287 62.23473] CT
N
f-891180347
f
GR
GS
[1 0 0 1 164.0273 118.28189] CT
N
f-891180347
f
GR
GS
[1 0 0 1 218.21045 145.99345] CT
N
f-891180347
f
GR
GS
[1 0 0 1 246.69847 149.59663] CT
N
f-891180347
f
GR
GS
[1 0 0 1 130.74187 93.87562] CT
N
f-891180347
f
GR
GS
[1 0 0 1 116.58076 61.53115] CT
N
f-891180347
f
GR
GS
[1 0 0 1 161.82915 123.25056] CT
N
f-891180347
f
GR
GS
[1 0 0 1 229.92343 133.75201] CT
N
f-891180347
f
GR
GS
[1 0 0 1 195.92574 110.25208] CT
N
f-891180347
f
GR
GS
[1 0 0 1 162.84018 128.86136] CT
N
f-891180347
f
GR
GS
[1 0 0 1 148.86427 90.23485] CT
N
f-891180347
f
GR
GS
[1 0 0 1 154.65053 99.15782] CT
N
f-891180347
f
GR
GS
[1 0 0 1 246.94086 154.64984] CT
N
f-891180347
f
GR
GS
[1 0 0 1 121.51463 47.24178] CT
N
f-891180347
f
GR
GS
[1 0 0 1 133.68321 93.53234] CT
N
f-891180347
f
GR
GS
[1 0 0 1 218.22099 144.60683] CT
N
f-891180347
f
GR
GS
[1 0 0 1 239.08894 165.41719] CT
N
f-891180347
f
GR
GS
[1 0 0 1 144.52235 130.07529] CT
N
f-891180347
f
GR
GS
[1 0 0 1 180.38855 147.30351] CT
N
f-891180347
f
GR
GS
[1 0 0 1 240.44844 172.63708] CT
N
f-891180347
f
GR
GS
[1 0 0 1 147.88344 57.31303] CT
N
f-891180347
f
GR
GS
[1 0 0 1 108.27068 157.49127] CT
N
f-891180347
f
GR
GS
[1 0 0 1 120.59065 72.96871] CT
N
f-891180347
f
GR
GS
[1 0 0 1 153.92799 55.48682] CT
N
f-891180347
f
GR
GS
[1 0 0 1 191.3524 89.44233] CT
N
f-891180347
f
GR
GS
[1 0 0 1 104.53631 52.33324] CT
N
f-891180347
f
GR
GS
[1 0 0 1 137.52357 101.4941] CT
N
f-891180347
f
GR
GS
[1 0 0 1 127.49799 86.17625] CT
N
f-891180347
f
GR
GS
[1 0 0 1 239.47777 145.18066] CT
N
f-891180347
f
GR
GS
[1 0 0 1 194.02368 123.85164] CT
N
f-891180347
f
GR
GS
[1 0 0 1 153.27692 101.62171] CT
N
f-891180347
f
GR
GS
[1 0 0 1 163.16658 81.37321] CT
N
f-891180347
f
GR
GS
[1 0 0 1 216.40221 155.19408] CT
N
f-891180347
f
GR
GS
[1 0 0 1 138.14677 113.8488] CT
N
f-891180347
f
GR
GS
[1 0 0 1 181.08041 104.99326] CT
N
f-891180347
f
GR
GS
[1 0 0 1 245.92134 52.25415] CT
N
f-891180347
f
GR
GS
[1 0 0 1 161.57053 103.0931] CT
N
f-891180347
f
GR
GS
[1 0 0 1 217.99557 106.63101] CT
N
f-891180347
f
GR
GS
[1 0 0 1 111.43982 76.12981] CT
N
f-891180347
f
GR
GS
[1 0 0 1 175.54059 146.22461] CT
N
f-891180347
f
GR
GS
[1 0 0 1 212.19296 109.90607] CT
N
f-891180347
f
GR
GS
[1 0 0 1 226.35022 115.94717] CT
N
f-891180347
f
GR
GS
[1 0 0 1 184.02754 113.82811] CT
N
f-891180347
f
GR
GS
[1 0 0 1 178.56377 124.98541] CT
N
f-891180347
f
GR
GS
[1 0 0 1 193.88475 111.04819] CT
N
f-891180347
f
GR
GS
[1 0 0 1 191.5327 94.88306] CT
N
f-891180347
f
GR
GS
[1 0 0 1 217.83818 89.11446] CT
N
f-891180347
f
GR
GS
[1 0 0 1 154.2813 58.91522] CT
N
f-891180347
f
GR
GS
[1 0 0 1 207.49883 76.27561] CT
N
f-891180347
f
GR
GS
[1 0 0 1 207.53304 74.63591] CT
N
f-891180347
f
GR
GS
[1 0 0 1 199.43733 131.73734] CT
N
f-891180347
f
GR
GS
[1 0 0 1 236.73697 114.5306] CT
N
f-891180347
f
GR
GS
[1 0 0 1 217.85147 104.71945] CT
N
f-891180347
f
GR
GS
[1 0 0 1 226.00667 83.90771] CT
N
f-891180347
f
GR
GS
[1 0 0 1 256.10681 132.89256] CT
N
f-891180347
f
GR
GS
[1 0 0 1 152.27356 115.92963] CT
N
f-891180347
f
GR
GS
[1 0 0 1 205.51254 75.63999] CT
N
f-891180347
f
GR
GS
[1 0 0 1 259.39487 159.6899] CT
N
f-891180347
f
GR
GS
[1 0 0 1 250.13136 51.29461] CT
N
f-891180347
f
GR
GS
[1 0 0 1 122.5838 69.25182] CT
N
f-891180347
f
GR
GS
[1 0 0 1 153.53171 112.11172] CT
N
f-891180347
f
GR
GS
[1 0 0 1 204.85742 136.1286] CT
N
f-891180347
f
GR
GS
[1 0 0 1 149.43849 111.98914] CT
N
f-891180347
f
GR
GS
[1 0 0 1 206.68414 93.62798] CT
N
f-891180347
f
GR
GS
[1 0 0 1 199.13078 104.48723] CT
N
f-891180347
f
GR
GS
[1 0 0 1 121.14512 75.01179] CT
N
f-891180347
f
GR
GS
[1 0 0 1 226.86693 155.33557] CT
N
f-891180347
f
GR
GS
[1 0 0 1 174.87906 117.24968] CT
N
f-891180347
f
GR
GS
[1 0 0 1 126.34877 90.39799] CT
N
f-891180347
f
GR
GS
[1 0 0 1 177.1149 114.97854] CT
N
f-891180347
f
GR
GS
[1 0 0 1 125.54974 120.50494] CT
N
f-891180347
f
GR
GS
[1 0 0 1 134.99658 132.04289] CT
N
f-891180347
f
GR
GS
[1 0 0 1 175.57864 162.20749] CT
N
f-891180347
f
GR
GS
[1 0 0 1 252.73033 141.65627] CT
N
f-891180347
f
GR
GS
[1 0 0 1 199.10144 105.96781] CT
N
f-891180347
f
GR
GS
[1 0 0 1 228.61273 146.60181] CT
N
f-891180347
f
GR
GS
[1 0 0 1 204.07738 136.35123] CT
N
f-891180347
f
GR
GS
[1 0 0 1 121.20496 103.382] CT
N
f-891180347
f
GR
GS
[1 0 0 1 201.68134 65.60672] CT
N
f-891180347
f
GR
GS
[1 0 0 1 141.61887 106.0724] CT
N
f-891180347
f
GR
GS
[1 0 0 1 162.55768 85.28916] CT
N
f-891180347
f
GR
GS
[1 0 0 1 242.07253 118.26224] CT
N
f-891180347
f
GR
GS
[1 0 0 1 189.1944 98.58412] CT
N
f-891180347
f
GR
GS
[1 0 0 1 158.86674 66.18774] CT
N
f-891180347
f
GR
GS
[1 0 0 1 109.41978 148.31831] CT
N
f-891180347
f
GR
GS
[1 0 0 1 121.29829 69.85637] CT
N
f-891180347
f
GR
GS
[1 0 0 1 182.3893 89.66985] CT
N
f-891180347
f
GR
GS
[1 0 0 1 208.7538 160.27621] CT
N
f-891180347
f
GR
GS
[1 0 0 1 152.20749 81.42174] CT
N
f-891180347
f
GR
GS
[1 0 0 1 158.97838 126.71818] CT
N
f-891180347
f
GR
GS
[1 0 0 1 159.8045 83.83585] CT
N
f-891180347
f
GR
GS
[1 0 0 1 161.17522 119.25024] CT
N
f-891180347
f
GR
GS
[1 0 0 1 128.48412 128.29585] CT
N
f-891180347
f
GR
GS
[1 0 0 1 144.21396 114.66351] CT
N
f-891180347
f
GR
GS
[1 0 0 1 105.09911 158.11281] CT
N
f-891180347
f
GR
GS
[1 0 0 1 229.28577 102.67043] CT
N
f-891180347
f
GR
GS
[1 0 0 1 138.3614 104.48856] CT
N
f-891180347
f
GR
GS
[1 0 0 1 127.07293 83.90766] CT
N
f-891180347
f
GR
GS
[1 0 0 1 219.41458 96.44547] CT
N
f-891180347
f
GR
GS
[1 0 0 1 167.90085 95.67498] CT
N
f-891180347
f
GR
GS
[1 0 0 1 170.23581 68.56178] CT
N
f-891180347
f
GR
GS
[1 0 0 1 105.61874 121.33964] CT
N
f-891180347
f
GR
GS
[1 0 0 1 135.96518 53.8931] CT
N
f-891180347
f
GR
GS
[1 0 0 1 140.11655 118.39577] CT
N
f-891180347
f
GR
GS
[1 0 0 1 169.13445 81.90968] CT
N
f-891180347
f
GR
GS
[1 0 0 1 175.08549 97.35093] CT
N
f-891180347
f
GR
GS
[1 0 0 1 131.565 133.02405] CT
N
f-891180347
f
GR
GS
[1 0 0 1 226.57047 40.15257] CT
N
f-891180347
f
GR
GS
[1 0 0 1 225.11298 127.44131] CT
N
f-891180347
f
GR
GS
[1 0 0 1 233.41785 101.29789] CT
N
f-891180347
f
GR
GS
[1 0 0 1 209.56194 131.8493] CT
N
f-891180347
f
GR
GS
[1 0 0 1 141.14586 91.07494] CT
N
f-891180347
f
GR
GS
[1 0 0 1 106.51564 151.19797] CT
N
f-891180347
f
GR
GS
[1 0 0 1 117.21573 187.25392] CT
N
f-891180347
f
GR
GS
[1 0 0 1 228.66969 145.5621] CT
N
f-891180347
f
GR
GS
[1 0 0 1 155.77959 110.83839] CT
N
f-891180347
f
GR
GS
[1 0 0 1 257.51288 136.43864] CT
N
f-891180347
f
GR
GS
[1 0 0 1 142.75189 122.34787] CT
N
f-891180347
f
GR
GS
[1 0 0 1 147.92883 120.55402] CT
N
f-891180347
f
GR
GS
[1 0 0 1 226.46617 137.89767] CT
N
f-891180347
f
GR
GS
[1 0 0 1 201.34297 103.87653] CT
N
f-891180347
f
GR
GS
[1 0 0 1 166.77039 100.30122] CT
N
f-891180347
f
GR
GS
[1 0 0 1 116.69655 157.10313] CT
N
f-891180347
f
GR
GS
[1 0 0 1 178.11197 118.01126] CT
N
f-891180347
f
GR
GS
[1 0 0 1 146.53383 119.10393] CT
N
f-891180347
f
GR
GS
[1 0 0 1 127.51369 53.13962] CT
N
f-891180347
f
GR
GS
[1 0 0 1 192.67061 69.63454] CT
N
f-891180347
f
GR
GS
[1 0 0 1 209.14981 173.41258] CT
N
f-891180347
f
GR
GS
[1 0 0 1 251.26958 183.95453] CT
N
f-891180347
f
GR
GS
[1 0 0 1 154.07591 103.52044] CT
N
f-891180347
f
GR
GS
[1 0 0 1 145.10004 112.21259] CT
N
f-891180347
f
GR
GS
[1 0 0 1 144.73424 60.65656] CT
N
f-891180347
f
GR
GS
[1 0 0 1 180.31664 122.381] CT
N
f-891180347
f
GR
GS
[1 0 0 1 100.82561 142.96057] CT
N
f-891180347
f
GR
GS
[1 0 0 1 139.16467 110.00936] CT
N
f-891180347
f
GR
GS
[1 0 0 1 159.24063 123.68867] CT
N
f-891180347
f
GR
GS
[1 0 0 1 161.5661 70.79073] CT
N
f-891180347
f
GR
GS
[1 0 0 1 139.23727 98.86984] CT
N
f-891180347
f
GR
GS
[1 0 0 1 183.43828 68.50404] CT
N
f-891180347
f
GR
GS
[1 0 0 1 222.6535 183.56161] CT
N
f-891180347
f
GR
GS
[1 0 0 1 223.83394 138.69875] CT
N
f-891180347
f
GR
GS
[1 0 0 1 206.2236 135.74745] CT
N
f-891180347
f
GR
GS
[1 0 0 1 205.83296 139.79889] CT
N
f-891180347
f
GR
GS
[1 0 0 1 193.96364 151.57335] CT
N
f-891180347
f
GR
GS
[1 0 0 1 142.02632 128.14539] CT
N
f-891180347
f
GR
GS
[1 0 0 1 145.18192 112.61913] CT
N
f-891180347
f
GR
GS
[1 0 0 1 121.74509 88.39346] CT
N
f-891180347
f
GR
GS
[1 0 0 1 201.15521 140.52818] CT
N
f-891180347
f
GR
GS
[1 0 0 1 172.25673 135.65503] CT
N
f-891180347
f
GR
GS
[1 0 0 1 124.6124 97.53089] CT
N
f-891180347
f
GR
%%Trailer
%%Pages: 1
%%EOF
