%!PS-Adobe-3.0 EPSF-3.0
%%Creator: (MATLAB, The Mathworks, Inc. Version 9.3.0.713579 \(R2017b\). Operating System: Mac OS X)
%%Title: ./testDist_S2.eps
%%CreationDate: 2018-08-10T12:06:34
%%Pages: (atend)
%%BoundingBox:     0     1   135   134
%%LanguageLevel: 3
%%EndComments
%%BeginProlog
%%BeginResource: procset (Apache XML Graphics Std ProcSet) 1.2 0
%%Version: 1.2 0
%%Copyright: (Copyright 2001-2003,2010 The Apache Software Foundation. License terms: http://www.apache.org/licenses/LICENSE-2.0)
/bd{bind def}bind def
/ld{load def}bd
/GR/grestore ld
/GS/gsave ld
/RM/rmoveto ld
/C/curveto ld
/t/show ld
/L/lineto ld
/ML/setmiterlimit ld
/CT/concat ld
/f/fill ld
/N/newpath ld
/S/stroke ld
/CC/setcmykcolor ld
/A/ashow ld
/cp/closepath ld
/RC/setrgbcolor ld
/LJ/setlinejoin ld
/GC/setgray ld
/LW/setlinewidth ld
/M/moveto ld
/re {4 2 roll M
1 index 0 rlineto
0 exch rlineto
neg 0 rlineto
cp } bd
/_ctm matrix def
/_tm matrix def
/BT { _ctm currentmatrix pop matrix _tm copy pop 0 0 moveto } bd
/ET { _ctm setmatrix } bd
/iTm { _ctm setmatrix _tm concat } bd
/Tm { _tm astore pop iTm 0 0 moveto } bd
/ux 0.0 def
/uy 0.0 def
/F {
  /Tp exch def
  /Tf exch def
  Tf findfont Tp scalefont setfont
  /cf Tf def  /cs Tp def
} bd
/ULS {currentpoint /uy exch def /ux exch def} bd
/ULE {
  /Tcx currentpoint pop def
  gsave
  newpath
  cf findfont cs scalefont dup
  /FontMatrix get 0 get /Ts exch def /FontInfo get dup
  /UnderlinePosition get Ts mul /To exch def
  /UnderlineThickness get Ts mul /Tt exch def
  ux uy To add moveto  Tcx uy To add lineto
  Tt setlinewidth stroke
  grestore
} bd
/OLE {
  /Tcx currentpoint pop def
  gsave
  newpath
  cf findfont cs scalefont dup
  /FontMatrix get 0 get /Ts exch def /FontInfo get dup
  /UnderlinePosition get Ts mul /To exch def
  /UnderlineThickness get Ts mul /Tt exch def
  ux uy To add cs add moveto Tcx uy To add cs add lineto
  Tt setlinewidth stroke
  grestore
} bd
/SOE {
  /Tcx currentpoint pop def
  gsave
  newpath
  cf findfont cs scalefont dup
  /FontMatrix get 0 get /Ts exch def /FontInfo get dup
  /UnderlinePosition get Ts mul /To exch def
  /UnderlineThickness get Ts mul /Tt exch def
  ux uy To add cs 10 mul 26 idiv add moveto Tcx uy To add cs 10 mul 26 idiv add lineto
  Tt setlinewidth stroke
  grestore
} bd
/QT {
/Y22 exch store
/X22 exch store
/Y21 exch store
/X21 exch store
currentpoint
/Y21 load 2 mul add 3 div exch
/X21 load 2 mul add 3 div exch
/X21 load 2 mul /X22 load add 3 div
/Y21 load 2 mul /Y22 load add 3 div
/X22 load /Y22 load curveto
} bd
/SSPD {
dup length /d exch dict def
{
/v exch def
/k exch def
currentpagedevice k known {
/cpdv currentpagedevice k get def
v cpdv ne {
/upd false def
/nullv v type /nulltype eq def
/nullcpdv cpdv type /nulltype eq def
nullv nullcpdv or
{
/upd true def
} {
/sametype v type cpdv type eq def
sametype {
v type /arraytype eq {
/vlen v length def
/cpdvlen cpdv length def
vlen cpdvlen eq {
0 1 vlen 1 sub {
/i exch def
/obj v i get def
/cpdobj cpdv i get def
obj cpdobj ne {
/upd true def
exit
} if
} for
} {
/upd true def
} ifelse
} {
v type /dicttype eq {
v {
/dv exch def
/dk exch def
/cpddv cpdv dk get def
dv cpddv ne {
/upd true def
exit
} if
} forall
} {
/upd true def
} ifelse
} ifelse
} if
} ifelse
upd true eq {
d k v put
} if
} if
} if
} forall
d length 0 gt {
d setpagedevice
} if
} bd
/RE { % /NewFontName [NewEncodingArray] /FontName RE -
  findfont dup length dict begin
  {
    1 index /FID ne
    {def} {pop pop} ifelse
  } forall
  /Encoding exch def
  /FontName 1 index def
  currentdict definefont pop
  end
} bind def
%%EndResource
%%BeginResource: procset (Apache XML Graphics EPS ProcSet) 1.0 0
%%Version: 1.0 0
%%Copyright: (Copyright 2002-2003 The Apache Software Foundation. License terms: http://www.apache.org/licenses/LICENSE-2.0)
/BeginEPSF { %def
/b4_Inc_state save def         % Save state for cleanup
/dict_count countdictstack def % Count objects on dict stack
/op_count count 1 sub def      % Count objects on operand stack
userdict begin                 % Push userdict on dict stack
/showpage { } def              % Redefine showpage, { } = null proc
0 setgray 0 setlinecap         % Prepare graphics state
1 setlinewidth 0 setlinejoin
10 setmiterlimit [ ] 0 setdash newpath
/languagelevel where           % If level not equal to 1 then
{pop languagelevel             % set strokeadjust and
1 ne                           % overprint to their defaults.
{false setstrokeadjust false setoverprint
} if
} if
} bd
/EndEPSF { %def
count op_count sub {pop} repeat            % Clean up stacks
countdictstack dict_count sub {end} repeat
b4_Inc_state restore
} bd
%%EndResource
%FOPBeginFontDict
%%IncludeResource: font Courier-Oblique
%%IncludeResource: font Courier-BoldOblique
%%IncludeResource: font Courier-Bold
%%IncludeResource: font ZapfDingbats
%%IncludeResource: font Symbol
%%IncludeResource: font Helvetica
%%IncludeResource: font Helvetica-Oblique
%%IncludeResource: font Helvetica-Bold
%%IncludeResource: font Helvetica-BoldOblique
%%IncludeResource: font Times-Roman
%%IncludeResource: font Times-Italic
%%IncludeResource: font Times-Bold
%%IncludeResource: font Times-BoldItalic
%%IncludeResource: font Courier
%FOPEndFontDict
%%BeginResource: encoding WinAnsiEncoding
/WinAnsiEncoding [
/.notdef /.notdef /.notdef /.notdef /.notdef
/.notdef /.notdef /.notdef /.notdef /.notdef
/.notdef /.notdef /.notdef /.notdef /.notdef
/.notdef /.notdef /.notdef /.notdef /.notdef
/.notdef /.notdef /.notdef /.notdef /.notdef
/.notdef /.notdef /.notdef /.notdef /.notdef
/.notdef /.notdef /space /exclam /quotedbl
/numbersign /dollar /percent /ampersand /quotesingle
/parenleft /parenright /asterisk /plus /comma
/hyphen /period /slash /zero /one
/two /three /four /five /six
/seven /eight /nine /colon /semicolon
/less /equal /greater /question /at
/A /B /C /D /E
/F /G /H /I /J
/K /L /M /N /O
/P /Q /R /S /T
/U /V /W /X /Y
/Z /bracketleft /backslash /bracketright /asciicircum
/underscore /quoteleft /a /b /c
/d /e /f /g /h
/i /j /k /l /m
/n /o /p /q /r
/s /t /u /v /w
/x /y /z /braceleft /bar
/braceright /asciitilde /bullet /Euro /bullet
/quotesinglbase /florin /quotedblbase /ellipsis /dagger
/daggerdbl /circumflex /perthousand /Scaron /guilsinglleft
/OE /bullet /Zcaron /bullet /bullet
/quoteleft /quoteright /quotedblleft /quotedblright /bullet
/endash /emdash /asciitilde /trademark /scaron
/guilsinglright /oe /bullet /zcaron /Ydieresis
/space /exclamdown /cent /sterling /currency
/yen /brokenbar /section /dieresis /copyright
/ordfeminine /guillemotleft /logicalnot /sfthyphen /registered
/macron /degree /plusminus /twosuperior /threesuperior
/acute /mu /paragraph /middot /cedilla
/onesuperior /ordmasculine /guillemotright /onequarter /onehalf
/threequarters /questiondown /Agrave /Aacute /Acircumflex
/Atilde /Adieresis /Aring /AE /Ccedilla
/Egrave /Eacute /Ecircumflex /Edieresis /Igrave
/Iacute /Icircumflex /Idieresis /Eth /Ntilde
/Ograve /Oacute /Ocircumflex /Otilde /Odieresis
/multiply /Oslash /Ugrave /Uacute /Ucircumflex
/Udieresis /Yacute /Thorn /germandbls /agrave
/aacute /acircumflex /atilde /adieresis /aring
/ae /ccedilla /egrave /eacute /ecircumflex
/edieresis /igrave /iacute /icircumflex /idieresis
/eth /ntilde /ograve /oacute /ocircumflex
/otilde /odieresis /divide /oslash /ugrave
/uacute /ucircumflex /udieresis /yacute /thorn
/ydieresis
] def
%%EndResource
%FOPBeginFontReencode
/Courier-Oblique findfont
dup length dict begin
  {1 index /FID ne {def} {pop pop} ifelse} forall
  /Encoding WinAnsiEncoding def
  currentdict
end
/Courier-Oblique exch definefont pop
/Courier-BoldOblique findfont
dup length dict begin
  {1 index /FID ne {def} {pop pop} ifelse} forall
  /Encoding WinAnsiEncoding def
  currentdict
end
/Courier-BoldOblique exch definefont pop
/Courier-Bold findfont
dup length dict begin
  {1 index /FID ne {def} {pop pop} ifelse} forall
  /Encoding WinAnsiEncoding def
  currentdict
end
/Courier-Bold exch definefont pop
/Helvetica findfont
dup length dict begin
  {1 index /FID ne {def} {pop pop} ifelse} forall
  /Encoding WinAnsiEncoding def
  currentdict
end
/Helvetica exch definefont pop
/Helvetica-Oblique findfont
dup length dict begin
  {1 index /FID ne {def} {pop pop} ifelse} forall
  /Encoding WinAnsiEncoding def
  currentdict
end
/Helvetica-Oblique exch definefont pop
/Helvetica-Bold findfont
dup length dict begin
  {1 index /FID ne {def} {pop pop} ifelse} forall
  /Encoding WinAnsiEncoding def
  currentdict
end
/Helvetica-Bold exch definefont pop
/Helvetica-BoldOblique findfont
dup length dict begin
  {1 index /FID ne {def} {pop pop} ifelse} forall
  /Encoding WinAnsiEncoding def
  currentdict
end
/Helvetica-BoldOblique exch definefont pop
/Times-Roman findfont
dup length dict begin
  {1 index /FID ne {def} {pop pop} ifelse} forall
  /Encoding WinAnsiEncoding def
  currentdict
end
/Times-Roman exch definefont pop
/Times-Italic findfont
dup length dict begin
  {1 index /FID ne {def} {pop pop} ifelse} forall
  /Encoding WinAnsiEncoding def
  currentdict
end
/Times-Italic exch definefont pop
/Times-Bold findfont
dup length dict begin
  {1 index /FID ne {def} {pop pop} ifelse} forall
  /Encoding WinAnsiEncoding def
  currentdict
end
/Times-Bold exch definefont pop
/Times-BoldItalic findfont
dup length dict begin
  {1 index /FID ne {def} {pop pop} ifelse} forall
  /Encoding WinAnsiEncoding def
  currentdict
end
/Times-BoldItalic exch definefont pop
/Courier findfont
dup length dict begin
  {1 index /FID ne {def} {pop pop} ifelse} forall
  /Encoding WinAnsiEncoding def
  currentdict
end
/Courier exch definefont pop
%FOPEndFontReencode
%%EndProlog
%%Page: 1 1
%%PageBoundingBox: 0 0 144 144
%%BeginPageSetup
[1 0 0 -1 0 144] CT
%%EndPageSetup
GS
1 GC
N
0 0 144 144 re
f
GR
GS
1 GC
N
0 0 144 144 re
f
GR
GS
1 GC
N
21.5 119.5 M
130.5 119.5 L
130.5 11 L
21.5 11 L
cp
f
GR
GS
0.149 GC
2 setlinecap
1 LJ
0.5 LW
N
21.5 119.5 M
130.5 119.5 L
S
GR
GS
0.149 GC
2 setlinecap
1 LJ
0.5 LW
N
21.5 11 M
130.5 11 L
S
GR
GS
0.149 GC
2 setlinecap
1 LJ
0.5 LW
N
21.5 119.5 M
21.5 118.41 L
S
GR
GS
0.149 GC
2 setlinecap
1 LJ
0.5 LW
N
76 119.5 M
76 118.41 L
S
GR
GS
0.149 GC
2 setlinecap
1 LJ
0.5 LW
N
130.5 119.5 M
130.5 118.41 L
S
GR
GS
0.149 GC
2 setlinecap
1 LJ
0.5 LW
N
21.5 11 M
21.5 12.09 L
S
GR
GS
0.149 GC
2 setlinecap
1 LJ
0.5 LW
N
76 11 M
76 12.09 L
S
GR
GS
0.149 GC
2 setlinecap
1 LJ
0.5 LW
N
130.5 11 M
130.5 12.09 L
S
GR
GS
[1 0 0 1 21.5 123.1] CT
0.149 GC
N
0 6.892 M
-0.984 6.892 -1.336 6.087 QT
-1.688 5.282 -1.688 4.173 QT
-1.688 3.47 -1.563 2.861 QT
-1.438 2.251 -1.055 1.822 QT
-0.672 1.392 0 1.392 QT
0.531 1.392 0.867 1.65 QT
1.203 1.907 1.375 2.314 QT
1.547 2.72 1.617 3.189 QT
1.688 3.657 1.688 4.173 QT
1.688 4.861 1.555 5.454 QT
1.422 6.048 1.055 6.47 QT
0.688 6.892 0 6.892 QT
cp
0 6.689 M
0.453 6.689 0.672 6.228 QT
0.891 5.767 0.938 5.212 QT
0.984 4.657 0.984 4.032 QT
0.984 3.439 0.938 2.931 QT
0.891 2.423 0.672 2.009 QT
0.453 1.595 0 1.595 QT
-0.453 1.595 -0.672 2.009 QT
-0.891 2.423 -0.938 2.931 QT
-0.984 3.439 -0.984 4.032 QT
-0.984 4.486 -0.969 4.876 QT
-0.953 5.267 -0.859 5.689 QT
-0.766 6.111 -0.555 6.4 QT
-0.344 6.689 0 6.689 QT
cp
f
GR
GS
[1 0 0 1 76 123.1] CT
0.149 GC
N
-1.611 6.579 M
-1.611 6.532 -1.58 6.454 QT
-1.361 5.986 -1.166 5.54 QT
-0.97 5.095 -0.814 4.673 QT
-0.658 4.251 -0.533 3.767 QT
-1.049 3.767 L
-1.345 3.767 -1.595 3.947 QT
-1.845 4.126 -2.017 4.407 QT
-2.033 4.439 -2.064 4.439 QT
-2.158 4.439 L
-2.236 4.439 -2.236 4.361 QT
-2.236 4.345 -2.22 4.314 QT
-1.955 3.876 -1.658 3.572 QT
-1.361 3.267 -0.986 3.267 QT
1.92 3.267 L
1.998 3.267 2.061 3.322 QT
2.123 3.376 2.123 3.47 QT
2.123 3.595 2.037 3.681 QT
1.951 3.767 1.842 3.767 QT
0.811 3.767 L
0.686 4.392 0.67 4.986 QT
0.67 5.767 0.951 6.376 QT
0.967 6.423 0.967 6.486 QT
0.967 6.564 0.92 6.642 QT
0.873 6.72 0.787 6.767 QT
0.701 6.814 0.623 6.814 QT
0.405 6.814 0.326 6.47 QT
0.248 6.126 0.248 5.798 QT
0.248 5.345 0.326 4.915 QT
0.405 4.486 0.576 3.767 QT
-0.299 3.767 L
-0.924 6.329 -1.049 6.595 QT
-1.174 6.814 -1.361 6.814 QT
-1.47 6.814 -1.541 6.743 QT
-1.611 6.673 -1.611 6.579 QT
cp
f
GR
GS
[1 0 0 1 130.5 123.1] CT
0.149 GC
N
-4.017 6.72 M
-4.017 6.501 L
-4.017 6.486 -4.002 6.454 QT
-2.767 5.079 L
-2.486 4.782 -2.306 4.572 QT
-2.127 4.361 -1.955 4.095 QT
-1.783 3.829 -1.689 3.548 QT
-1.595 3.267 -1.595 2.954 QT
-1.595 2.626 -1.713 2.329 QT
-1.83 2.032 -2.072 1.853 QT
-2.314 1.673 -2.658 1.673 QT
-3.002 1.673 -3.275 1.884 QT
-3.549 2.095 -3.674 2.423 QT
-3.642 2.407 -3.58 2.407 QT
-3.408 2.407 -3.275 2.532 QT
-3.142 2.657 -3.142 2.845 QT
-3.142 3.032 -3.275 3.157 QT
-3.408 3.282 -3.58 3.282 QT
-3.767 3.282 -3.892 3.15 QT
-4.017 3.017 -4.017 2.845 QT
-4.017 2.548 -3.908 2.282 QT
-3.799 2.017 -3.588 1.814 QT
-3.377 1.611 -3.103 1.501 QT
-2.83 1.392 -2.533 1.392 QT
-2.08 1.392 -1.681 1.587 QT
-1.283 1.782 -1.056 2.134 QT
-0.83 2.486 -0.83 2.954 QT
-0.83 3.298 -0.978 3.611 QT
-1.127 3.923 -1.369 4.181 QT
-1.611 4.439 -1.978 4.767 QT
-2.345 5.095 -2.47 5.204 QT
-3.377 6.064 L
-2.611 6.064 L
-2.033 6.064 -1.658 6.056 QT
-1.283 6.048 -1.252 6.032 QT
-1.158 5.923 -1.064 5.298 QT
-0.83 5.298 L
-1.049 6.72 L
-4.017 6.72 L
cp
f
GR
GS
[1 0 0 1 130.5 123.1] CT
0.149 GC
N
0.389 6.579 M
0.389 6.532 0.42 6.454 QT
0.639 5.986 0.834 5.54 QT
1.03 5.095 1.186 4.673 QT
1.342 4.251 1.467 3.767 QT
0.951 3.767 L
0.655 3.767 0.405 3.947 QT
0.155 4.126 -0.017 4.407 QT
-0.033 4.439 -0.064 4.439 QT
-0.158 4.439 L
-0.236 4.439 -0.236 4.361 QT
-0.236 4.345 -0.22 4.314 QT
0.045 3.876 0.342 3.572 QT
0.639 3.267 1.014 3.267 QT
3.92 3.267 L
3.998 3.267 4.061 3.322 QT
4.123 3.376 4.123 3.47 QT
4.123 3.595 4.037 3.681 QT
3.951 3.767 3.842 3.767 QT
2.811 3.767 L
2.686 4.392 2.67 4.986 QT
2.67 5.767 2.951 6.376 QT
2.967 6.423 2.967 6.486 QT
2.967 6.564 2.92 6.642 QT
2.873 6.72 2.787 6.767 QT
2.701 6.814 2.623 6.814 QT
2.405 6.814 2.326 6.47 QT
2.248 6.126 2.248 5.798 QT
2.248 5.345 2.326 4.915 QT
2.405 4.486 2.576 3.767 QT
1.701 3.767 L
1.076 6.329 0.951 6.595 QT
0.826 6.814 0.639 6.814 QT
0.53 6.814 0.459 6.743 QT
0.389 6.673 0.389 6.579 QT
cp
f
GR
GS
[1 0 0 1 76.00005 133.44] CT
0.149 GC
N
-0.872 9.142 M
-0.465 7.517 L
-0.934 7.517 -1.325 7.306 QT
-1.715 7.095 -1.958 6.712 QT
-2.2 6.329 -2.2 5.876 QT
-2.2 5.392 -1.958 4.947 QT
-1.715 4.501 -1.294 4.142 QT
-0.872 3.783 -0.387 3.587 QT
0.097 3.392 0.566 3.392 QT
1.113 1.204 L
1.128 1.142 1.175 1.142 QT
1.285 1.142 L
1.316 1.142 1.339 1.173 QT
1.363 1.204 1.363 1.236 QT
0.831 3.392 L
1.16 3.392 1.48 3.517 QT
1.8 3.642 2.042 3.861 QT
2.285 4.079 2.417 4.376 QT
2.55 4.673 2.55 5.017 QT
2.55 5.517 2.308 5.954 QT
2.066 6.392 1.66 6.751 QT
1.253 7.111 0.753 7.314 QT
0.253 7.517 -0.215 7.517 QT
-0.622 9.189 L
-0.637 9.236 -0.7 9.236 QT
-0.809 9.236 L
-0.84 9.236 -0.856 9.204 QT
-0.872 9.173 -0.872 9.142 QT
cp
-0.419 7.283 M
0.503 3.626 L
0.269 3.626 0.019 3.712 QT
-0.231 3.798 -0.45 3.939 QT
-0.669 4.079 -0.856 4.267 QT
-1.075 4.486 -1.239 4.783 QT
-1.403 5.079 -1.489 5.415 QT
-1.575 5.751 -1.575 6.064 QT
-1.575 6.408 -1.426 6.681 QT
-1.278 6.954 -1.02 7.119 QT
-0.762 7.283 -0.419 7.283 QT
cp
-0.153 7.283 M
0.191 7.283 0.574 7.087 QT
0.956 6.892 1.206 6.642 QT
1.535 6.298 1.73 5.814 QT
1.925 5.329 1.925 4.829 QT
1.925 4.501 1.785 4.22 QT
1.644 3.939 1.378 3.783 QT
1.113 3.626 0.769 3.626 QT
-0.153 7.283 L
cp
f
GR
GS
0.149 GC
2 setlinecap
1 LJ
0.5 LW
N
21.5 119.5 M
21.5 11 L
S
GR
GS
0.149 GC
2 setlinecap
1 LJ
0.5 LW
N
130.5 119.5 M
130.5 11 L
S
GR
GS
0.149 GC
2 setlinecap
1 LJ
0.5 LW
N
21.5 65.25 M
22.59 65.25 L
S
GR
GS
0.149 GC
2 setlinecap
1 LJ
0.5 LW
N
130.5 65.25 M
129.41 65.25 L
S
GR
GS
[1 0 0 1 17.9 65.25] CT
0.149 GC
N
-2 2.092 M
-2.984 2.092 -3.336 1.287 QT
-3.688 0.482 -3.688 -0.627 QT
-3.688 -1.33 -3.563 -1.939 QT
-3.438 -2.549 -3.055 -2.978 QT
-2.672 -3.408 -2 -3.408 QT
-1.469 -3.408 -1.133 -3.15 QT
-0.797 -2.893 -0.625 -2.486 QT
-0.453 -2.08 -0.383 -1.611 QT
-0.313 -1.143 -0.313 -0.627 QT
-0.313 0.061 -0.445 0.654 QT
-0.578 1.248 -0.945 1.67 QT
-1.313 2.092 -2 2.092 QT
cp
-2 1.889 M
-1.547 1.889 -1.328 1.428 QT
-1.109 0.967 -1.063 0.412 QT
-1.016 -0.143 -1.016 -0.768 QT
-1.016 -1.361 -1.063 -1.869 QT
-1.109 -2.377 -1.328 -2.791 QT
-1.547 -3.205 -2 -3.205 QT
-2.453 -3.205 -2.672 -2.791 QT
-2.891 -2.377 -2.938 -1.869 QT
-2.984 -1.361 -2.984 -0.768 QT
-2.984 -0.314 -2.969 0.076 QT
-2.953 0.467 -2.859 0.889 QT
-2.766 1.311 -2.555 1.6 QT
-2.344 1.889 -2 1.889 QT
cp
f
GR
GS
[0 -1 1 0 10.56 65.24995] CT
0.149 GC
N
-0.325 -3.027 M
-0.638 -3.027 -0.903 -3.145 QT
-1.169 -3.262 -1.372 -3.481 QT
-1.575 -3.699 -1.669 -3.973 QT
-1.763 -4.246 -1.763 -4.559 QT
-1.763 -5.121 -1.497 -5.652 QT
-1.231 -6.184 -0.771 -6.566 QT
-0.31 -6.949 0.222 -7.09 QT
-0.028 -7.574 -0.169 -7.934 QT
-0.31 -8.293 -0.31 -8.652 QT
-0.31 -8.934 -0.185 -9.137 QT
-0.06 -9.34 0.167 -9.465 QT
0.394 -9.59 0.675 -9.59 QT
0.94 -9.59 1.737 -9.402 QT
1.94 -9.356 1.94 -9.168 QT
1.94 -9.012 1.831 -8.887 QT
1.722 -8.762 1.565 -8.762 QT
1.456 -8.762 1.37 -8.816 QT
1.284 -8.871 1.097 -8.996 QT
0.909 -9.121 0.761 -9.191 QT
0.612 -9.262 0.44 -9.262 QT
0.253 -9.262 0.112 -9.145 QT
-0.028 -9.027 -0.028 -8.856 QT
-0.028 -8.574 0.222 -8.199 QT
0.472 -7.824 0.94 -7.246 QT
1.472 -6.574 1.472 -5.746 QT
1.472 -5.356 1.354 -4.879 QT
1.237 -4.402 1.011 -3.988 QT
0.784 -3.574 0.44 -3.301 QT
0.097 -3.027 -0.325 -3.027 QT
cp
-0.31 -3.277 M
0.05 -3.277 0.3 -3.645 QT
0.55 -4.012 0.683 -4.512 QT
0.815 -5.012 0.815 -5.356 QT
0.815 -6.027 0.347 -6.871 QT
-0.138 -6.731 -0.474 -6.309 QT
-0.81 -5.887 -0.989 -5.34 QT
-1.169 -4.793 -1.169 -4.309 QT
-1.169 -3.871 -0.942 -3.574 QT
-0.716 -3.277 -0.31 -3.277 QT
cp
f
GR
%%Trailer
%%Pages: 1
%%EOF
