%!PS-Adobe-3.0 EPSF-3.0
%%Creator: (MATLAB, The Mathworks, Inc. Version 9.3.0.713579 \(R2017b\). Operating System: Mac OS X)
%%Title: ./testDist_S1_data.eps
%%CreationDate: 2018-09-26T22:38:08
%%Pages: (atend)
%%BoundingBox:     0     1   135   135
%%LanguageLevel: 3
%%EndComments
%%BeginProlog
%%BeginResource: procset (Apache XML Graphics Std ProcSet) 1.2 0
%%Version: 1.2 0
%%Copyright: (Copyright 2001-2003,2010 The Apache Software Foundation. License terms: http://www.apache.org/licenses/LICENSE-2.0)
/bd{bind def}bind def
/ld{load def}bd
/GR/grestore ld
/GS/gsave ld
/RM/rmoveto ld
/C/curveto ld
/t/show ld
/L/lineto ld
/ML/setmiterlimit ld
/CT/concat ld
/f/fill ld
/N/newpath ld
/S/stroke ld
/CC/setcmykcolor ld
/A/ashow ld
/cp/closepath ld
/RC/setrgbcolor ld
/LJ/setlinejoin ld
/GC/setgray ld
/LW/setlinewidth ld
/M/moveto ld
/re {4 2 roll M
1 index 0 rlineto
0 exch rlineto
neg 0 rlineto
cp } bd
/_ctm matrix def
/_tm matrix def
/BT { _ctm currentmatrix pop matrix _tm copy pop 0 0 moveto } bd
/ET { _ctm setmatrix } bd
/iTm { _ctm setmatrix _tm concat } bd
/Tm { _tm astore pop iTm 0 0 moveto } bd
/ux 0.0 def
/uy 0.0 def
/F {
  /Tp exch def
  /Tf exch def
  Tf findfont Tp scalefont setfont
  /cf Tf def  /cs Tp def
} bd
/ULS {currentpoint /uy exch def /ux exch def} bd
/ULE {
  /Tcx currentpoint pop def
  gsave
  newpath
  cf findfont cs scalefont dup
  /FontMatrix get 0 get /Ts exch def /FontInfo get dup
  /UnderlinePosition get Ts mul /To exch def
  /UnderlineThickness get Ts mul /Tt exch def
  ux uy To add moveto  Tcx uy To add lineto
  Tt setlinewidth stroke
  grestore
} bd
/OLE {
  /Tcx currentpoint pop def
  gsave
  newpath
  cf findfont cs scalefont dup
  /FontMatrix get 0 get /Ts exch def /FontInfo get dup
  /UnderlinePosition get Ts mul /To exch def
  /UnderlineThickness get Ts mul /Tt exch def
  ux uy To add cs add moveto Tcx uy To add cs add lineto
  Tt setlinewidth stroke
  grestore
} bd
/SOE {
  /Tcx currentpoint pop def
  gsave
  newpath
  cf findfont cs scalefont dup
  /FontMatrix get 0 get /Ts exch def /FontInfo get dup
  /UnderlinePosition get Ts mul /To exch def
  /UnderlineThickness get Ts mul /Tt exch def
  ux uy To add cs 10 mul 26 idiv add moveto Tcx uy To add cs 10 mul 26 idiv add lineto
  Tt setlinewidth stroke
  grestore
} bd
/QT {
/Y22 exch store
/X22 exch store
/Y21 exch store
/X21 exch store
currentpoint
/Y21 load 2 mul add 3 div exch
/X21 load 2 mul add 3 div exch
/X21 load 2 mul /X22 load add 3 div
/Y21 load 2 mul /Y22 load add 3 div
/X22 load /Y22 load curveto
} bd
/SSPD {
dup length /d exch dict def
{
/v exch def
/k exch def
currentpagedevice k known {
/cpdv currentpagedevice k get def
v cpdv ne {
/upd false def
/nullv v type /nulltype eq def
/nullcpdv cpdv type /nulltype eq def
nullv nullcpdv or
{
/upd true def
} {
/sametype v type cpdv type eq def
sametype {
v type /arraytype eq {
/vlen v length def
/cpdvlen cpdv length def
vlen cpdvlen eq {
0 1 vlen 1 sub {
/i exch def
/obj v i get def
/cpdobj cpdv i get def
obj cpdobj ne {
/upd true def
exit
} if
} for
} {
/upd true def
} ifelse
} {
v type /dicttype eq {
v {
/dv exch def
/dk exch def
/cpddv cpdv dk get def
dv cpddv ne {
/upd true def
exit
} if
} forall
} {
/upd true def
} ifelse
} ifelse
} if
} ifelse
upd true eq {
d k v put
} if
} if
} if
} forall
d length 0 gt {
d setpagedevice
} if
} bd
/RE { % /NewFontName [NewEncodingArray] /FontName RE -
  findfont dup length dict begin
  {
    1 index /FID ne
    {def} {pop pop} ifelse
  } forall
  /Encoding exch def
  /FontName 1 index def
  currentdict definefont pop
  end
} bind def
%%EndResource
%%BeginResource: procset (Apache XML Graphics EPS ProcSet) 1.0 0
%%Version: 1.0 0
%%Copyright: (Copyright 2002-2003 The Apache Software Foundation. License terms: http://www.apache.org/licenses/LICENSE-2.0)
/BeginEPSF { %def
/b4_Inc_state save def         % Save state for cleanup
/dict_count countdictstack def % Count objects on dict stack
/op_count count 1 sub def      % Count objects on operand stack
userdict begin                 % Push userdict on dict stack
/showpage { } def              % Redefine showpage, { } = null proc
0 setgray 0 setlinecap         % Prepare graphics state
1 setlinewidth 0 setlinejoin
10 setmiterlimit [ ] 0 setdash newpath
/languagelevel where           % If level not equal to 1 then
{pop languagelevel             % set strokeadjust and
1 ne                           % overprint to their defaults.
{false setstrokeadjust false setoverprint
} if
} if
} bd
/EndEPSF { %def
count op_count sub {pop} repeat            % Clean up stacks
countdictstack dict_count sub {end} repeat
b4_Inc_state restore
} bd
%%EndResource
%FOPBeginFontDict
%%IncludeResource: font Courier-Oblique
%%IncludeResource: font Courier-BoldOblique
%%IncludeResource: font Courier-Bold
%%IncludeResource: font ZapfDingbats
%%IncludeResource: font Symbol
%%IncludeResource: font Helvetica
%%IncludeResource: font Helvetica-Oblique
%%IncludeResource: font Helvetica-Bold
%%IncludeResource: font Helvetica-BoldOblique
%%IncludeResource: font Times-Roman
%%IncludeResource: font Times-Italic
%%IncludeResource: font Times-Bold
%%IncludeResource: font Times-BoldItalic
%%IncludeResource: font Courier
%FOPEndFontDict
%%BeginResource: encoding WinAnsiEncoding
/WinAnsiEncoding [
/.notdef /.notdef /.notdef /.notdef /.notdef
/.notdef /.notdef /.notdef /.notdef /.notdef
/.notdef /.notdef /.notdef /.notdef /.notdef
/.notdef /.notdef /.notdef /.notdef /.notdef
/.notdef /.notdef /.notdef /.notdef /.notdef
/.notdef /.notdef /.notdef /.notdef /.notdef
/.notdef /.notdef /space /exclam /quotedbl
/numbersign /dollar /percent /ampersand /quotesingle
/parenleft /parenright /asterisk /plus /comma
/hyphen /period /slash /zero /one
/two /three /four /five /six
/seven /eight /nine /colon /semicolon
/less /equal /greater /question /at
/A /B /C /D /E
/F /G /H /I /J
/K /L /M /N /O
/P /Q /R /S /T
/U /V /W /X /Y
/Z /bracketleft /backslash /bracketright /asciicircum
/underscore /quoteleft /a /b /c
/d /e /f /g /h
/i /j /k /l /m
/n /o /p /q /r
/s /t /u /v /w
/x /y /z /braceleft /bar
/braceright /asciitilde /bullet /Euro /bullet
/quotesinglbase /florin /quotedblbase /ellipsis /dagger
/daggerdbl /circumflex /perthousand /Scaron /guilsinglleft
/OE /bullet /Zcaron /bullet /bullet
/quoteleft /quoteright /quotedblleft /quotedblright /bullet
/endash /emdash /asciitilde /trademark /scaron
/guilsinglright /oe /bullet /zcaron /Ydieresis
/space /exclamdown /cent /sterling /currency
/yen /brokenbar /section /dieresis /copyright
/ordfeminine /guillemotleft /logicalnot /sfthyphen /registered
/macron /degree /plusminus /twosuperior /threesuperior
/acute /mu /paragraph /middot /cedilla
/onesuperior /ordmasculine /guillemotright /onequarter /onehalf
/threequarters /questiondown /Agrave /Aacute /Acircumflex
/Atilde /Adieresis /Aring /AE /Ccedilla
/Egrave /Eacute /Ecircumflex /Edieresis /Igrave
/Iacute /Icircumflex /Idieresis /Eth /Ntilde
/Ograve /Oacute /Ocircumflex /Otilde /Odieresis
/multiply /Oslash /Ugrave /Uacute /Ucircumflex
/Udieresis /Yacute /Thorn /germandbls /agrave
/aacute /acircumflex /atilde /adieresis /aring
/ae /ccedilla /egrave /eacute /ecircumflex
/edieresis /igrave /iacute /icircumflex /idieresis
/eth /ntilde /ograve /oacute /ocircumflex
/otilde /odieresis /divide /oslash /ugrave
/uacute /ucircumflex /udieresis /yacute /thorn
/ydieresis
] def
%%EndResource
%FOPBeginFontReencode
/Courier-Oblique findfont
dup length dict begin
  {1 index /FID ne {def} {pop pop} ifelse} forall
  /Encoding WinAnsiEncoding def
  currentdict
end
/Courier-Oblique exch definefont pop
/Courier-BoldOblique findfont
dup length dict begin
  {1 index /FID ne {def} {pop pop} ifelse} forall
  /Encoding WinAnsiEncoding def
  currentdict
end
/Courier-BoldOblique exch definefont pop
/Courier-Bold findfont
dup length dict begin
  {1 index /FID ne {def} {pop pop} ifelse} forall
  /Encoding WinAnsiEncoding def
  currentdict
end
/Courier-Bold exch definefont pop
/Helvetica findfont
dup length dict begin
  {1 index /FID ne {def} {pop pop} ifelse} forall
  /Encoding WinAnsiEncoding def
  currentdict
end
/Helvetica exch definefont pop
/Helvetica-Oblique findfont
dup length dict begin
  {1 index /FID ne {def} {pop pop} ifelse} forall
  /Encoding WinAnsiEncoding def
  currentdict
end
/Helvetica-Oblique exch definefont pop
/Helvetica-Bold findfont
dup length dict begin
  {1 index /FID ne {def} {pop pop} ifelse} forall
  /Encoding WinAnsiEncoding def
  currentdict
end
/Helvetica-Bold exch definefont pop
/Helvetica-BoldOblique findfont
dup length dict begin
  {1 index /FID ne {def} {pop pop} ifelse} forall
  /Encoding WinAnsiEncoding def
  currentdict
end
/Helvetica-BoldOblique exch definefont pop
/Times-Roman findfont
dup length dict begin
  {1 index /FID ne {def} {pop pop} ifelse} forall
  /Encoding WinAnsiEncoding def
  currentdict
end
/Times-Roman exch definefont pop
/Times-Italic findfont
dup length dict begin
  {1 index /FID ne {def} {pop pop} ifelse} forall
  /Encoding WinAnsiEncoding def
  currentdict
end
/Times-Italic exch definefont pop
/Times-Bold findfont
dup length dict begin
  {1 index /FID ne {def} {pop pop} ifelse} forall
  /Encoding WinAnsiEncoding def
  currentdict
end
/Times-Bold exch definefont pop
/Times-BoldItalic findfont
dup length dict begin
  {1 index /FID ne {def} {pop pop} ifelse} forall
  /Encoding WinAnsiEncoding def
  currentdict
end
/Times-BoldItalic exch definefont pop
/Courier findfont
dup length dict begin
  {1 index /FID ne {def} {pop pop} ifelse} forall
  /Encoding WinAnsiEncoding def
  currentdict
end
/Courier exch definefont pop
%FOPEndFontReencode
%%EndProlog
%%Page: 1 1
%%PageBoundingBox: 0 0 144 144
%%BeginPageSetup
[1 0 0 -1 0 144] CT
%%EndPageSetup
GS
1 GC
N
0 0 144 144 re
f
GR
GS
1 GC
N
0 0 144 144 re
f
GR
GS
1 GC
N
28.5 119.5 M
130.5 119.5 L
130.5 11 L
28.5 11 L
cp
f
GR
GS
0.149 GC
2 setlinecap
1 LJ
0.5 LW
N
28.5 119.5 M
130.5 119.5 L
S
GR
GS
0.149 GC
2 setlinecap
1 LJ
0.5 LW
N
28.5 11 M
130.5 11 L
S
GR
GS
0.149 GC
2 setlinecap
1 LJ
0.5 LW
N
28.5 119.5 M
28.5 118.418 L
S
GR
GS
0.149 GC
2 setlinecap
1 LJ
0.5 LW
N
79.5 119.5 M
79.5 118.418 L
S
GR
GS
0.149 GC
2 setlinecap
1 LJ
0.5 LW
N
130.5 119.5 M
130.5 118.418 L
S
GR
GS
0.149 GC
2 setlinecap
1 LJ
0.5 LW
N
28.5 11 M
28.5 12.082 L
S
GR
GS
0.149 GC
2 setlinecap
1 LJ
0.5 LW
N
79.5 11 M
79.5 12.082 L
S
GR
GS
0.149 GC
2 setlinecap
1 LJ
0.5 LW
N
130.5 11 M
130.5 12.082 L
S
GR
GS
[1 0 0 1 28.5 123.10001] CT
0.149 GC
N
0 6.892 M
-0.984 6.892 -1.336 6.087 QT
-1.688 5.282 -1.688 4.173 QT
-1.688 3.47 -1.563 2.861 QT
-1.438 2.251 -1.055 1.822 QT
-0.672 1.392 0 1.392 QT
0.531 1.392 0.867 1.65 QT
1.203 1.907 1.375 2.314 QT
1.547 2.72 1.617 3.189 QT
1.688 3.657 1.688 4.173 QT
1.688 4.861 1.555 5.454 QT
1.422 6.048 1.055 6.47 QT
0.688 6.892 0 6.892 QT
cp
0 6.689 M
0.453 6.689 0.672 6.228 QT
0.891 5.767 0.938 5.212 QT
0.984 4.657 0.984 4.032 QT
0.984 3.439 0.938 2.931 QT
0.891 2.423 0.672 2.009 QT
0.453 1.595 0 1.595 QT
-0.453 1.595 -0.672 2.009 QT
-0.891 2.423 -0.938 2.931 QT
-0.984 3.439 -0.984 4.032 QT
-0.984 4.486 -0.969 4.876 QT
-0.953 5.267 -0.859 5.689 QT
-0.766 6.111 -0.555 6.4 QT
-0.344 6.689 0 6.689 QT
cp
f
GR
GS
[1 0 0 1 79.5 123.10001] CT
0.149 GC
N
-1.611 6.579 M
-1.611 6.532 -1.58 6.454 QT
-1.361 5.986 -1.166 5.54 QT
-0.97 5.095 -0.814 4.673 QT
-0.658 4.251 -0.533 3.767 QT
-1.049 3.767 L
-1.345 3.767 -1.595 3.947 QT
-1.845 4.126 -2.017 4.407 QT
-2.033 4.439 -2.064 4.439 QT
-2.158 4.439 L
-2.236 4.439 -2.236 4.361 QT
-2.236 4.345 -2.22 4.314 QT
-1.955 3.876 -1.658 3.572 QT
-1.361 3.267 -0.986 3.267 QT
1.92 3.267 L
1.998 3.267 2.061 3.322 QT
2.123 3.376 2.123 3.47 QT
2.123 3.595 2.037 3.681 QT
1.951 3.767 1.842 3.767 QT
0.811 3.767 L
0.686 4.392 0.67 4.986 QT
0.67 5.767 0.951 6.376 QT
0.967 6.423 0.967 6.486 QT
0.967 6.564 0.92 6.642 QT
0.873 6.72 0.787 6.767 QT
0.701 6.814 0.623 6.814 QT
0.405 6.814 0.326 6.47 QT
0.248 6.126 0.248 5.798 QT
0.248 5.345 0.326 4.915 QT
0.405 4.486 0.576 3.767 QT
-0.299 3.767 L
-0.924 6.329 -1.049 6.595 QT
-1.174 6.814 -1.361 6.814 QT
-1.47 6.814 -1.541 6.743 QT
-1.611 6.673 -1.611 6.579 QT
cp
f
GR
GS
[1 0 0 1 130.5 123.10001] CT
0.149 GC
N
-4.017 6.72 M
-4.017 6.501 L
-4.017 6.486 -4.002 6.454 QT
-2.767 5.079 L
-2.486 4.782 -2.306 4.572 QT
-2.127 4.361 -1.955 4.095 QT
-1.783 3.829 -1.689 3.548 QT
-1.595 3.267 -1.595 2.954 QT
-1.595 2.626 -1.713 2.329 QT
-1.83 2.032 -2.072 1.853 QT
-2.314 1.673 -2.658 1.673 QT
-3.002 1.673 -3.275 1.884 QT
-3.549 2.095 -3.674 2.423 QT
-3.642 2.407 -3.58 2.407 QT
-3.408 2.407 -3.275 2.532 QT
-3.142 2.657 -3.142 2.845 QT
-3.142 3.032 -3.275 3.157 QT
-3.408 3.282 -3.58 3.282 QT
-3.767 3.282 -3.892 3.15 QT
-4.017 3.017 -4.017 2.845 QT
-4.017 2.548 -3.908 2.282 QT
-3.799 2.017 -3.588 1.814 QT
-3.377 1.611 -3.103 1.501 QT
-2.83 1.392 -2.533 1.392 QT
-2.08 1.392 -1.681 1.587 QT
-1.283 1.782 -1.056 2.134 QT
-0.83 2.486 -0.83 2.954 QT
-0.83 3.298 -0.978 3.611 QT
-1.127 3.923 -1.369 4.181 QT
-1.611 4.439 -1.978 4.767 QT
-2.345 5.095 -2.47 5.204 QT
-3.377 6.064 L
-2.611 6.064 L
-2.033 6.064 -1.658 6.056 QT
-1.283 6.048 -1.252 6.032 QT
-1.158 5.923 -1.064 5.298 QT
-0.83 5.298 L
-1.049 6.72 L
-4.017 6.72 L
cp
f
GR
GS
[1 0 0 1 130.5 123.10001] CT
0.149 GC
N
0.389 6.579 M
0.389 6.532 0.42 6.454 QT
0.639 5.986 0.834 5.54 QT
1.03 5.095 1.186 4.673 QT
1.342 4.251 1.467 3.767 QT
0.951 3.767 L
0.655 3.767 0.405 3.947 QT
0.155 4.126 -0.017 4.407 QT
-0.033 4.439 -0.064 4.439 QT
-0.158 4.439 L
-0.236 4.439 -0.236 4.361 QT
-0.236 4.345 -0.22 4.314 QT
0.045 3.876 0.342 3.572 QT
0.639 3.267 1.014 3.267 QT
3.92 3.267 L
3.998 3.267 4.061 3.322 QT
4.123 3.376 4.123 3.47 QT
4.123 3.595 4.037 3.681 QT
3.951 3.767 3.842 3.767 QT
2.811 3.767 L
2.686 4.392 2.67 4.986 QT
2.67 5.767 2.951 6.376 QT
2.967 6.423 2.967 6.486 QT
2.967 6.564 2.92 6.642 QT
2.873 6.72 2.787 6.767 QT
2.701 6.814 2.623 6.814 QT
2.405 6.814 2.326 6.47 QT
2.248 6.126 2.248 5.798 QT
2.248 5.345 2.326 4.915 QT
2.405 4.486 2.576 3.767 QT
1.701 3.767 L
1.076 6.329 0.951 6.595 QT
0.826 6.814 0.639 6.814 QT
0.53 6.814 0.459 6.743 QT
0.389 6.673 0.389 6.579 QT
cp
f
GR
GS
[1 0 0 1 79.50005 133.44] CT
0.149 GC
N
-0.872 9.142 M
-0.465 7.517 L
-0.934 7.517 -1.325 7.306 QT
-1.715 7.095 -1.958 6.712 QT
-2.2 6.329 -2.2 5.876 QT
-2.2 5.392 -1.958 4.947 QT
-1.715 4.501 -1.294 4.142 QT
-0.872 3.783 -0.387 3.587 QT
0.097 3.392 0.566 3.392 QT
1.113 1.204 L
1.128 1.142 1.175 1.142 QT
1.285 1.142 L
1.316 1.142 1.339 1.173 QT
1.363 1.204 1.363 1.236 QT
0.831 3.392 L
1.16 3.392 1.48 3.517 QT
1.8 3.642 2.042 3.861 QT
2.285 4.079 2.417 4.376 QT
2.55 4.673 2.55 5.017 QT
2.55 5.517 2.308 5.954 QT
2.066 6.392 1.66 6.751 QT
1.253 7.111 0.753 7.314 QT
0.253 7.517 -0.215 7.517 QT
-0.622 9.189 L
-0.637 9.236 -0.7 9.236 QT
-0.809 9.236 L
-0.84 9.236 -0.856 9.204 QT
-0.872 9.173 -0.872 9.142 QT
cp
-0.419 7.283 M
0.503 3.626 L
0.269 3.626 0.019 3.712 QT
-0.231 3.798 -0.45 3.939 QT
-0.669 4.079 -0.856 4.267 QT
-1.075 4.486 -1.239 4.783 QT
-1.403 5.079 -1.489 5.415 QT
-1.575 5.751 -1.575 6.064 QT
-1.575 6.408 -1.426 6.681 QT
-1.278 6.954 -1.02 7.119 QT
-0.762 7.283 -0.419 7.283 QT
cp
-0.153 7.283 M
0.191 7.283 0.574 7.087 QT
0.956 6.892 1.206 6.642 QT
1.535 6.298 1.73 5.814 QT
1.925 5.329 1.925 4.829 QT
1.925 4.501 1.785 4.22 QT
1.644 3.939 1.378 3.783 QT
1.113 3.626 0.769 3.626 QT
-0.153 7.283 L
cp
f
GR
GS
0.149 GC
2 setlinecap
1 LJ
0.5 LW
N
28.5 119.5 M
28.5 11 L
S
GR
GS
0.149 GC
2 setlinecap
1 LJ
0.5 LW
N
130.5 119.5 M
130.5 11 L
S
GR
GS
0.149 GC
2 setlinecap
1 LJ
0.5 LW
N
28.5 119.5 M
29.582 119.5 L
S
GR
GS
0.149 GC
2 setlinecap
1 LJ
0.5 LW
N
28.5 65.25 M
29.582 65.25 L
S
GR
GS
0.149 GC
2 setlinecap
1 LJ
0.5 LW
N
28.5 11 M
29.582 11 L
S
GR
GS
0.149 GC
2 setlinecap
1 LJ
0.5 LW
N
130.5 119.5 M
129.418 119.5 L
S
GR
GS
0.149 GC
2 setlinecap
1 LJ
0.5 LW
N
130.5 65.25 M
129.418 65.25 L
S
GR
GS
0.149 GC
2 setlinecap
1 LJ
0.5 LW
N
130.5 11 M
129.418 11 L
S
GR
GS
[1 0 0 1 24.9 119.5] CT
0.149 GC
N
-10.257 0.076 M
-10.319 0.076 -10.359 0.029 QT
-10.398 -0.018 -10.398 -0.08 QT
-10.398 -0.143 -10.359 -0.189 QT
-10.319 -0.236 -10.257 -0.236 QT
-5.663 -0.236 L
-5.601 -0.236 -5.562 -0.189 QT
-5.523 -0.143 -5.523 -0.08 QT
-5.523 -0.018 -5.562 0.029 QT
-5.601 0.076 -5.663 0.076 QT
-10.257 0.076 L
cp
f
GR
GS
[1 0 0 1 24.9 119.5] CT
0.149 GC
N
-4.035 1.779 M
-4.035 1.732 -4.003 1.654 QT
-3.785 1.186 -3.589 0.74 QT
-3.394 0.295 -3.238 -0.127 QT
-3.082 -0.549 -2.957 -1.033 QT
-3.472 -1.033 L
-3.769 -1.033 -4.019 -0.853 QT
-4.269 -0.674 -4.441 -0.393 QT
-4.457 -0.361 -4.488 -0.361 QT
-4.582 -0.361 L
-4.66 -0.361 -4.66 -0.439 QT
-4.66 -0.455 -4.644 -0.486 QT
-4.378 -0.924 -4.082 -1.228 QT
-3.785 -1.533 -3.41 -1.533 QT
-0.503 -1.533 L
-0.425 -1.533 -0.363 -1.478 QT
-0.3 -1.424 -0.3 -1.33 QT
-0.3 -1.205 -0.386 -1.119 QT
-0.472 -1.033 -0.582 -1.033 QT
-1.613 -1.033 L
-1.738 -0.408 -1.753 0.186 QT
-1.753 0.967 -1.472 1.576 QT
-1.457 1.623 -1.457 1.686 QT
-1.457 1.764 -1.503 1.842 QT
-1.55 1.92 -1.636 1.967 QT
-1.722 2.014 -1.8 2.014 QT
-2.019 2.014 -2.097 1.67 QT
-2.175 1.326 -2.175 0.998 QT
-2.175 0.545 -2.097 0.115 QT
-2.019 -0.314 -1.847 -1.033 QT
-2.722 -1.033 L
-3.347 1.529 -3.472 1.795 QT
-3.597 2.014 -3.785 2.014 QT
-3.894 2.014 -3.964 1.943 QT
-4.035 1.873 -4.035 1.779 QT
cp
f
GR
GS
[1 0 0 1 24.9 65.25] CT
0.149 GC
N
-2 2.092 M
-2.984 2.092 -3.336 1.287 QT
-3.688 0.482 -3.688 -0.627 QT
-3.688 -1.33 -3.563 -1.939 QT
-3.438 -2.549 -3.055 -2.978 QT
-2.672 -3.408 -2 -3.408 QT
-1.469 -3.408 -1.133 -3.15 QT
-0.797 -2.893 -0.625 -2.486 QT
-0.453 -2.08 -0.383 -1.611 QT
-0.313 -1.143 -0.313 -0.627 QT
-0.313 0.061 -0.445 0.654 QT
-0.578 1.248 -0.945 1.67 QT
-1.313 2.092 -2 2.092 QT
cp
-2 1.889 M
-1.547 1.889 -1.328 1.428 QT
-1.109 0.967 -1.063 0.412 QT
-1.016 -0.143 -1.016 -0.768 QT
-1.016 -1.361 -1.063 -1.869 QT
-1.109 -2.377 -1.328 -2.791 QT
-1.547 -3.205 -2 -3.205 QT
-2.453 -3.205 -2.672 -2.791 QT
-2.891 -2.377 -2.938 -1.869 QT
-2.984 -1.361 -2.984 -0.768 QT
-2.984 -0.314 -2.969 0.076 QT
-2.953 0.467 -2.859 0.889 QT
-2.766 1.311 -2.555 1.6 QT
-2.344 1.889 -2 1.889 QT
cp
f
GR
GS
[1 0 0 1 24.9 11] CT
0.149 GC
N
/f529709247{-4.035 1.779 M
-4.035 1.732 -4.003 1.654 QT
-3.785 1.186 -3.589 0.74 QT
-3.394 0.295 -3.238 -0.127 QT
-3.082 -0.549 -2.957 -1.033 QT
-3.472 -1.033 L
-3.769 -1.033 -4.019 -0.853 QT
-4.269 -0.674 -4.441 -0.393 QT
-4.457 -0.361 -4.488 -0.361 QT
-4.582 -0.361 L
-4.66 -0.361 -4.66 -0.439 QT
-4.66 -0.455 -4.644 -0.486 QT
-4.378 -0.924 -4.082 -1.228 QT
-3.785 -1.533 -3.41 -1.533 QT
-0.503 -1.533 L
-0.425 -1.533 -0.363 -1.478 QT
-0.3 -1.424 -0.3 -1.33 QT
-0.3 -1.205 -0.386 -1.119 QT
-0.472 -1.033 -0.582 -1.033 QT
-1.613 -1.033 L
-1.738 -0.408 -1.753 0.186 QT
-1.753 0.967 -1.472 1.576 QT
-1.457 1.623 -1.457 1.686 QT
-1.457 1.764 -1.503 1.842 QT
-1.55 1.92 -1.636 1.967 QT
-1.722 2.014 -1.8 2.014 QT
-2.019 2.014 -2.097 1.67 QT
-2.175 1.326 -2.175 0.998 QT
-2.175 0.545 -2.097 0.115 QT
-2.019 -0.314 -1.847 -1.033 QT
-2.722 -1.033 L
-3.347 1.529 -3.472 1.795 QT
-3.597 2.014 -3.785 2.014 QT
-3.894 2.014 -3.964 1.943 QT
-4.035 1.873 -4.035 1.779 QT
cp}def
f529709247
f
GR
GS
[0 -1 1 0 10.56 65.24995] CT
0.149 GC
N
/f737393408{-0.325 -3.027 M
-0.638 -3.027 -0.903 -3.145 QT
-1.169 -3.262 -1.372 -3.481 QT
-1.575 -3.699 -1.669 -3.973 QT
-1.763 -4.246 -1.763 -4.559 QT
-1.763 -5.121 -1.497 -5.652 QT
-1.231 -6.184 -0.771 -6.566 QT
-0.31 -6.949 0.222 -7.09 QT
-0.028 -7.574 -0.169 -7.934 QT
-0.31 -8.293 -0.31 -8.652 QT
-0.31 -8.934 -0.185 -9.137 QT
-0.06 -9.34 0.167 -9.465 QT
0.394 -9.59 0.675 -9.59 QT
0.94 -9.59 1.737 -9.402 QT
1.94 -9.356 1.94 -9.168 QT
1.94 -9.012 1.831 -8.887 QT
1.722 -8.762 1.565 -8.762 QT
1.456 -8.762 1.37 -8.816 QT
1.284 -8.871 1.097 -8.996 QT
0.909 -9.121 0.761 -9.191 QT
0.612 -9.262 0.44 -9.262 QT
0.253 -9.262 0.112 -9.145 QT
-0.028 -9.027 -0.028 -8.856 QT
-0.028 -8.574 0.222 -8.199 QT
0.472 -7.824 0.94 -7.246 QT
1.472 -6.574 1.472 -5.746 QT
1.472 -5.356 1.354 -4.879 QT
1.237 -4.402 1.011 -3.988 QT
0.784 -3.574 0.44 -3.301 QT
0.097 -3.027 -0.325 -3.027 QT
cp
-0.31 -3.277 M
0.05 -3.277 0.3 -3.645 QT
0.55 -4.012 0.683 -4.512 QT
0.815 -5.012 0.815 -5.356 QT
0.815 -6.027 0.347 -6.871 QT
-0.138 -6.731 -0.474 -6.309 QT
-0.81 -5.887 -0.989 -5.34 QT
-1.169 -4.793 -1.169 -4.309 QT
-1.169 -3.871 -0.942 -3.574 QT
-0.716 -3.277 -0.31 -3.277 QT
cp}def
f737393408
f
GR
GS
[1 0 0 1 102.28652 36.92676] CT
N
0.5 0 M
0.5 0.276 0.276 0.5 0 0.5 C
-0.276 0.5 -0.5 0.276 -0.5 0 C
-0.5 -0.276 -0.276 -0.5 0 -0.5 C
0.276 -0.5 0.5 -0.276 0.5 0 C
cp
f
GR
GS
[1 0 0 1 119.90208 38.171] CT
N
/f1188474679{0.5 0 M
0.5 0.276 0.276 0.5 0 0.5 C
-0.276 0.5 -0.5 0.276 -0.5 0 C
-0.5 -0.276 -0.276 -0.5 0 -0.5 C
0.276 -0.5 0.5 -0.276 0.5 0 C
cp}def
f1188474679
f
GR
GS
[1 0 0 1 89.9997 54.74435] CT
N
f1188474679
f
GR
GS
[1 0 0 1 104.16952 41.55548] CT
N
f1188474679
f
GR
GS
[1 0 0 1 50.45858 101.97289] CT
N
f1188474679
f
GR
GS
[1 0 0 1 31.26572 101.28062] CT
N
f1188474679
f
GR
GS
[1 0 0 1 62.29057 84.90935] CT
N
f1188474679
f
GR
GS
[1 0 0 1 106.69299 46.10308] CT
N
f1188474679
f
GR
GS
[1 0 0 1 69.23984 88.92408] CT
N
f1188474679
f
GR
GS
[1 0 0 1 48.6193 101.62598] CT
N
f1188474679
f
GR
GS
[1 0 0 1 92.6108 89.10606] CT
N
f1188474679
f
GR
GS
[1 0 0 1 122.17126 39.99591] CT
N
f1188474679
f
GR
GS
[1 0 0 1 58.84549 95.17661] CT
N
f1188474679
f
GR
GS
[1 0 0 1 55.73261 98.17929] CT
N
f1188474679
f
GR
GS
[1 0 0 1 91.31558 83.59006] CT
N
f1188474679
f
GR
GS
[1 0 0 1 72.95988 93.91953] CT
N
f1188474679
f
GR
GS
[1 0 0 1 43.91431 94.20253] CT
N
f1188474679
f
GR
GS
[1 0 0 1 83.34603 44.48191] CT
N
f1188474679
f
GR
GS
[1 0 0 1 100.12389 28.84098] CT
N
f1188474679
f
GR
GS
[1 0 0 1 104.05805 33.39053] CT
N
f1188474679
f
GR
GS
[1 0 0 1 44.66906 100.04615] CT
N
f1188474679
f
GR
GS
[1 0 0 1 108.0822 47.92006] CT
N
f1188474679
f
GR
GS
[1 0 0 1 85.75495 39.55987] CT
N
f1188474679
f
GR
GS
[1 0 0 1 94.97765 34.32748] CT
N
f1188474679
f
GR
GS
[1 0 0 1 58.22143 102.90195] CT
N
f1188474679
f
GR
GS
[1 0 0 1 60.62648 79.8484] CT
N
f1188474679
f
GR
GS
[1 0 0 1 71.18525 100.05094] CT
N
f1188474679
f
GR
GS
[1 0 0 1 80.80359 36.29233] CT
N
f1188474679
f
GR
GS
[1 0 0 1 93.98283 42.48463] CT
N
f1188474679
f
GR
GS
[1 0 0 1 84.62953 41.53245] CT
N
f1188474679
f
GR
GS
[1 0 0 1 36.24767 115.65751] CT
N
f1188474679
f
GR
GS
[1 0 0 1 78.88656 41.76432] CT
N
f1188474679
f
GR
GS
[1 0 0 1 72.51027 36.30128] CT
N
f1188474679
f
GR
GS
[1 0 0 1 114.44595 19.60517] CT
N
f1188474679
f
GR
GS
[1 0 0 1 87.72654 30.76401] CT
N
f1188474679
f
GR
GS
[1 0 0 1 41.69509 100.0474] CT
N
f1188474679
f
GR
GS
[1 0 0 1 47.04754 97.25982] CT
N
f1188474679
f
GR
GS
[1 0 0 1 125.0116 20.75578] CT
N
f1188474679
f
GR
GS
[1 0 0 1 99.73735 37.98999] CT
N
f1188474679
f
GR
GS
[1 0 0 1 89.59261 79.32253] CT
N
f1188474679
f
GR
GS
[1 0 0 1 99.82445 107.37106] CT
N
f1188474679
f
GR
GS
[1 0 0 1 82.04396 91.49138] CT
N
f1188474679
f
GR
GS
[1 0 0 1 112.47045 44.29362] CT
N
f1188474679
f
GR
GS
[1 0 0 1 75.52982 37.47998] CT
N
f1188474679
f
GR
GS
[1 0 0 1 114.12467 29.7165] CT
N
f1188474679
f
GR
GS
[1 0 0 1 114.41905 100.15206] CT
N
f1188474679
f
GR
GS
[1 0 0 1 75.96694 82.74756] CT
N
f1188474679
f
GR
GS
[1 0 0 1 87.01751 87.3941] CT
N
f1188474679
f
GR
GS
[1 0 0 1 78.96755 108.84737] CT
N
f1188474679
f
GR
GS
[1 0 0 1 59.86188 72.07327] CT
N
f1188474679
f
GR
GS
[1 0 0 1 72.87897 43.85045] CT
N
f1188474679
f
GR
GS
[1 0 0 1 51.45231 95.37743] CT
N
f1188474679
f
GR
GS
[1 0 0 1 62.93867 108.41939] CT
N
f1188474679
f
GR
GS
[1 0 0 1 114.57243 39.29831] CT
N
f1188474679
f
GR
GS
[1 0 0 1 54.99996 94.28629] CT
N
f1188474679
f
GR
GS
[1 0 0 1 81.14263 84.50727] CT
N
f1188474679
f
GR
GS
[1 0 0 1 103.75925 26.66643] CT
N
f1188474679
f
GR
GS
[1 0 0 1 67.22428 76.5118] CT
N
f1188474679
f
GR
GS
[1 0 0 1 108.64838 17.10254] CT
N
f1188474679
f
GR
GS
[1 0 0 1 34.55334 21.01831] CT
N
f1188474679
f
GR
GS
[1 0 0 1 39.80978 101.03777] CT
N
f1188474679
f
GR
GS
[1 0 0 1 74.18536 90.20602] CT
N
f1188474679
f
GR
GS
[1 0 0 1 129.89545 104.97582] CT
N
f1188474679
f
GR
GS
[1 0 0 1 65.65615 101.7515] CT
N
f1188474679
f
GR
GS
[1 0 0 1 43.04831 99.85924] CT
N
f1188474679
f
GR
GS
[1 0 0 1 96.67841 52.99337] CT
N
f1188474679
f
GR
GS
[1 0 0 1 57.08962 12.99] CT
N
f1188474679
f
GR
GS
[1 0 0 1 127.46986 116.30125] CT
N
f1188474679
f
GR
GS
[1 0 0 1 70.3152 81.94804] CT
N
f1188474679
f
GR
GS
[1 0 0 1 104.11752 40.44462] CT
N
f1188474679
f
GR
GS
[1 0 0 1 121.88988 34.60577] CT
N
f1188474679
f
GR
GS
[1 0 0 1 49.54998 100.78658] CT
N
f1188474679
f
GR
GS
[1 0 0 1 40.71552 96.2638] CT
N
f1188474679
f
GR
GS
[1 0 0 1 68.94387 92.74908] CT
N
f1188474679
f
GR
GS
[1 0 0 1 111.42471 37.47308] CT
N
f1188474679
f
GR
GS
[1 0 0 1 90.21513 39.00813] CT
N
f1188474679
f
GR
GS
[1 0 0 1 69.57461 104.7816] CT
N
f1188474679
f
GR
GS
[1 0 0 1 60.85569 88.64336] CT
N
f1188474679
f
GR
GS
[1 0 0 1 64.46546 83.04736] CT
N
f1188474679
f
GR
GS
[1 0 0 1 122.04108 28.40203] CT
N
f1188474679
f
GR
GS
[1 0 0 1 43.79353 92.75832] CT
N
f1188474679
f
GR
GS
[1 0 0 1 51.38494 97.80661] CT
N
f1188474679
f
GR
GS
[1 0 0 1 104.12411 41.17299] CT
N
f1188474679
f
GR
GS
[1 0 0 1 58.14697 106.68559] CT
N
f1188474679
f
GR
GS
[1 0 0 1 80.52222 95.70939] CT
N
f1188474679
f
GR
GS
[1 0 0 1 60.2438 30.92303] CT
N
f1188474679
f
GR
GS
[1 0 0 1 35.53125 21.45078] CT
N
f1188474679
f
GR
GS
[1 0 0 1 43.21711 99.19986] CT
N
f1188474679
f
GR
GS
[1 0 0 1 64.01471 42.67638] CT
N
f1188474679
f
GR
GS
[1 0 0 1 87.36205 38.80868] CT
N
f1188474679
f
GR
GS
[1 0 0 1 33.20155 95.90907] CT
N
f1188474679
f
GR
GS
[1 0 0 1 53.78076 101.11726] CT
N
f1188474679
f
GR
GS
[1 0 0 1 47.52627 110.43746] CT
N
f1188474679
f
GR
GS
[1 0 0 1 117.38522 36.53445] CT
N
f1188474679
f
GR
GS
[1 0 0 1 89.02853 75.11055] CT
N
f1188474679
f
GR
GS
[1 0 0 1 63.60853 95.20145] CT
N
f1188474679
f
GR
GS
[1 0 0 1 69.77824 37.88813] CT
N
f1188474679
f
GR
GS
[1 0 0 1 102.98946 52.01468] CT
N
f1188474679
f
GR
GS
[1 0 0 1 54.16955 94.32521] CT
N
f1188474679
f
GR
GS
[1 0 0 1 80.95383 41.56903] CT
N
f1188474679
f
GR
GS
[1 0 0 1 121.40505 103.86156] CT
N
f1188474679
f
GR
GS
[1 0 0 1 68.78253 87.79632] CT
N
f1188474679
f
GR
GS
[1 0 0 1 103.98348 26.05102] CT
N
f1188474679
f
GR
GS
[1 0 0 1 37.50833 106.03481] CT
N
f1188474679
f
GR
GS
[1 0 0 1 77.4978 93.06911] CT
N
f1188474679
f
GR
GS
[1 0 0 1 100.3635 33.0368] CT
N
f1188474679
f
GR
GS
[1 0 0 1 109.19555 37.19907] CT
N
f1188474679
f
GR
GS
[1 0 0 1 82.79241 87.19098] CT
N
f1188474679
f
GR
GS
[1 0 0 1 79.38381 101.0255] CT
N
f1188474679
f
GR
GS
[1 0 0 1 88.94186 69.83176] CT
N
f1188474679
f
GR
GS
[1 0 0 1 87.47452 47.12376] CT
N
f1188474679
f
GR
GS
[1 0 0 1 103.88528 20.37426] CT
N
f1188474679
f
GR
GS
[1 0 0 1 64.23512 43.39724] CT
N
f1188474679
f
GR
GS
[1 0 0 1 97.43504 23.23365] CT
N
f1188474679
f
GR
GS
[1 0 0 1 97.45639 34.45089] CT
N
f1188474679
f
GR
GS
[1 0 0 1 92.40586 43.27306] CT
N
f1188474679
f
GR
GS
[1 0 0 1 115.67535 23.47511] CT
N
f1188474679
f
GR
GS
[1 0 0 1 103.89358 30.94309] CT
N
f1188474679
f
GR
GS
[1 0 0 1 108.98122 14.74275] CT
N
f1188474679
f
GR
GS
[1 0 0 1 127.7593 13.04864] CT
N
f1188474679
f
GR
GS
[1 0 0 1 62.98259 102.40537] CT
N
f1188474679
f
GR
GS
[1 0 0 1 96.19589 18.36898] CT
N
f1188474679
f
GR
GS
[1 0 0 1 129.81055 28.87334] CT
N
f1188474679
f
GR
GS
[1 0 0 1 124.03148 104.18497] CT
N
f1188474679
f
GR
GS
[1 0 0 1 44.46054 98.64332] CT
N
f1188474679
f
GR
GS
[1 0 0 1 63.76749 103.62616] CT
N
f1188474679
f
GR
GS
[1 0 0 1 95.7872 51.90908] CT
N
f1188474679
f
GR
GS
[1 0 0 1 61.21393 94.48268] CT
N
f1188474679
f
GR
GS
[1 0 0 1 96.9268 30.18976] CT
N
f1188474679
f
GR
GS
[1 0 0 1 92.21461 39.39125] CT
N
f1188474679
f
GR
GS
[1 0 0 1 43.56301 87.55999] CT
N
f1188474679
f
GR
GS
[1 0 0 1 109.51791 47.32848] CT
N
f1188474679
f
GR
GS
[1 0 0 1 77.0851 94.73874] CT
N
f1188474679
f
GR
GS
[1 0 0 1 46.80932 102.57163] CT
N
f1188474679
f
GR
GS
[1 0 0 1 78.47993 83.70813] CT
N
f1188474679
f
GR
GS
[1 0 0 1 46.31085 105.24975] CT
N
f1188474679
f
GR
GS
[1 0 0 1 52.2043 108.63631] CT
N
f1188474679
f
GR
GS
[1 0 0 1 77.52154 96.68118] CT
N
f1188474679
f
GR
GS
[1 0 0 1 125.65287 25.5561] CT
N
f1188474679
f
GR
GS
[1 0 0 1 92.1963 33.49635] CT
N
f1188474679
f
GR
GS
[1 0 0 1 110.60703 42.65068] CT
N
f1188474679
f
GR
GS
[1 0 0 1 95.30057 45.58311] CT
N
f1188474679
f
GR
GS
[1 0 0 1 43.60035 102.97139] CT
N
f1188474679
f
GR
GS
[1 0 0 1 93.80579 33.03531] CT
N
f1188474679
f
GR
GS
[1 0 0 1 56.33562 92.62206] CT
N
f1188474679
f
GR
GS
[1 0 0 1 69.39836 40.21332] CT
N
f1188474679
f
GR
GS
[1 0 0 1 119.00396 28.83529] CT
N
f1188474679
f
GR
GS
[1 0 0 1 86.01577 38.58442] CT
N
f1188474679
f
GR
GS
[1 0 0 1 67.09576 43.44897] CT
N
f1188474679
f
GR
GS
[1 0 0 1 36.24812 18.2272] CT
N
f1188474679
f
GR
GS
[1 0 0 1 43.65857 99.93924] CT
N
f1188474679
f
GR
GS
[1 0 0 1 81.77039 34.36252] CT
N
f1188474679
f
GR
GS
[1 0 0 1 98.21796 98.13775] CT
N
f1188474679
f
GR
GS
[1 0 0 1 62.94138 85.19805] CT
N
f1188474679
f
GR
GS
[1 0 0 1 67.16541 100.93782] CT
N
f1188474679
f
GR
GS
[1 0 0 1 67.68079 78.13267] CT
N
f1188474679
f
GR
GS
[1 0 0 1 68.53592 97.40859] CT
N
f1188474679
f
GR
GS
[1 0 0 1 48.14147 101.31458] CT
N
f1188474679
f
GR
GS
[1 0 0 1 57.95457 107.19119] CT
N
f1188474679
f
GR
GS
[1 0 0 1 33.55265 21.19059] CT
N
f1188474679
f
GR
GS
[1 0 0 1 111.02689 24.41384] CT
N
f1188474679
f
GR
GS
[1 0 0 1 54.30345 95.78128] CT
N
f1188474679
f
GR
GS
[1 0 0 1 47.2611 93.45006] CT
N
f1188474679
f
GR
GS
[1 0 0 1 104.86873 23.64311] CT
N
f1188474679
f
GR
GS
[1 0 0 1 72.73172 48.94465] CT
N
f1188474679
f
GR
GS
[1 0 0 1 74.1884 31.4122] CT
N
f1188474679
f
GR
GS
[1 0 0 1 33.87683 16.08046] CT
N
f1188474679
f
GR
GS
[1 0 0 1 52.80855 37.81311] CT
N
f1188474679
f
GR
GS
[1 0 0 1 55.39839 104.76973] CT
N
f1188474679
f
GR
GS
[1 0 0 1 73.5013 36.6] CT
N
f1188474679
f
GR
GS
[1 0 0 1 77.21389 82.05644] CT
N
f1188474679
f
GR
GS
[1 0 0 1 50.06349 110.27119] CT
N
f1188474679
f
GR
GS
[1 0 0 1 109.33295 103.86997] CT
N
f1188474679
f
GR
GS
[1 0 0 1 108.42369 29.70505] CT
N
f1188474679
f
GR
GS
[1 0 0 1 113.60471 20.39243] CT
N
f1188474679
f
GR
GS
[1 0 0 1 98.72212 30.75404] CT
N
f1188474679
f
GR
GS
[1 0 0 1 56.04054 99.79009] CT
N
f1188474679
f
GR
GS
[1 0 0 1 34.43636 25.96577] CT
N
f1188474679
f
GR
GS
[1 0 0 1 41.11165 30.15869] CT
N
f1188474679
f
GR
GS
[1 0 0 1 110.64257 49.44479] CT
N
f1188474679
f
GR
GS
[1 0 0 1 65.16983 101.31673] CT
N
f1188474679
f
GR
GS
[1 0 0 1 128.63647 22.56794] CT
N
f1188474679
f
GR
GS
[1 0 0 1 57.04247 104.82745] CT
N
f1188474679
f
GR
GS
[1 0 0 1 60.27211 108.33754] CT
N
f1188474679
f
GR
GS
[1 0 0 1 109.26789 38.89587] CT
N
f1188474679
f
GR
GS
[1 0 0 1 93.5947 40.62886] CT
N
f1188474679
f
GR
GS
[1 0 0 1 72.02648 50.07441] CT
N
f1188474679
f
GR
GS
[1 0 0 1 40.78775 16.24211] CT
N
f1188474679
f
GR
GS
[1 0 0 1 79.10196 86.1389] CT
N
f1188474679
f
GR
GS
[1 0 0 1 59.40184 96.49499] CT
N
f1188474679
f
GR
GS
[1 0 0 1 47.53607 104.01442] CT
N
f1188474679
f
GR
GS
[1 0 0 1 88.18441 40.32149] CT
N
f1188474679
f
GR
GS
[1 0 0 1 98.46502 93.64681] CT
N
f1188474679
f
GR
GS
[1 0 0 1 124.74157 43.01181] CT
N
f1188474679
f
GR
GS
[1 0 0 1 64.10699 90.05091] CT
N
f1188474679
f
GR
GS
[1 0 0 1 58.50736 109.0528] CT
N
f1188474679
f
GR
GS
[1 0 0 1 58.27916 47.63794] CT
N
f1188474679
f
GR
GS
[1 0 0 1 80.47735 92.46974] CT
N
f1188474679
f
GR
GS
[1 0 0 1 30.88662 18.50411] CT
N
f1188474679
f
GR
GS
[1 0 0 1 54.80456 97.82581] CT
N
f1188474679
f
GR
GS
[1 0 0 1 67.32902 97.30379] CT
N
f1188474679
f
GR
GS
[1 0 0 1 68.77976 34.78425] CT
N
f1188474679
f
GR
GS
[1 0 0 1 54.84986 110.05251] CT
N
f1188474679
f
GR
GS
[1 0 0 1 82.4248 24.97417] CT
N
f1188474679
f
GR
GS
[1 0 0 1 106.88934 92.91906] CT
N
f1188474679
f
GR
GS
[1 0 0 1 107.62576 31.02255] CT
N
f1188474679
f
GR
GS
[1 0 0 1 96.6395 46.80961] CT
N
f1188474679
f
GR
GS
[1 0 0 1 96.3958 43.2513] CT
N
f1188474679
f
GR
GS
[1 0 0 1 88.99107 45.46709] CT
N
f1188474679
f
GR
GS
[1 0 0 1 56.58982 108.46209] CT
N
f1188474679
f
GR
GS
[1 0 0 1 58.55844 104.72663] CT
N
f1188474679
f
GR
GS
[1 0 0 1 43.9373 105.66782] CT
N
f1188474679
f
GR
GS
[1 0 0 1 93.47756 86.70845] CT
N
f1188474679
f
GR
GS
[1 0 0 1 75.44915 96.91211] CT
N
f1188474679
f
GR
GS
[1 0 0 1 45.72609 102.31082] CT
N
f1188474679
f
GR
GS
[1 0 0 1 58.10754 97.41127] CT
N
f1188474679
f
GR
GS
[1 0 0 1 99.52327 52.97332] CT
N
f1188474679
f
GR
GS
[1 0 0 1 39.25565 115.57461] CT
N
f1188474679
f
GR
GS
[1 0 0 1 47.51247 99.90366] CT
N
f1188474679
f
GR
GS
[1 0 0 1 101.40698 26.81647] CT
N
f1188474679
f
GR
GS
[1 0 0 1 115.16025 38.74967] CT
N
f1188474679
f
GR
GS
[1 0 0 1 90.62579 93.6255] CT
N
f1188474679
f
GR
GS
[1 0 0 1 34.91825 86.59494] CT
N
f1188474679
f
GR
GS
[1 0 0 1 94.90202 40.36718] CT
N
f1188474679
f
GR
GS
[1 0 0 1 51.87653 104.96595] CT
N
f1188474679
f
GR
GS
[1 0 0 1 91.45975 38.70279] CT
N
f1188474679
f
GR
GS
[1 0 0 1 97.5884 33.87741] CT
N
f1188474679
f
GR
GS
[1 0 0 1 117.09338 31.84362] CT
N
f1188474679
f
GR
GS
[1 0 0 1 73.53426 91.18373] CT
N
f1188474679
f
GR
GS
[1 0 0 1 61.58669 53.41671] CT
N
f1188474679
f
GR
GS
[1 0 0 1 59.12281 100.99074] CT
N
f1188474679
f
GR
GS
[1 0 0 1 90.21217 75.57256] CT
N
f1188474679
f
GR
GS
[1 0 0 1 86.3062 87.03748] CT
N
f1188474679
f
GR
GS
[1 0 0 1 67.42471 85.7252] CT
N
f1188474679
f
GR
GS
[1 0 0 1 95.94627 89.32233] CT
N
f1188474679
f
GR
GS
[1 0 0 1 85.91576 79.79339] CT
N
f1188474679
f
GR
GS
[1 0 0 1 91.56541 48.69109] CT
N
f1188474679
f
GR
GS
[1 0 0 1 106.86906 15.82579] CT
N
f1188474679
f
GR
GS
[1 0 0 1 45.92083 85.37454] CT
N
f1188474679
f
GR
GS
[1 0 0 1 78.25962 85.02797] CT
N
f1188474679
f
GR
GS
[1 0 0 1 90.85664 94.64497] CT
N
f1188474679
f
GR
GS
[1 0 0 1 100.64999 79.74635] CT
N
f1188474679
f
GR
GS
[1 0 0 1 64.34019 39.70172] CT
N
f1188474679
f
GR
GS
[1 0 0 1 74.94108 32.82547] CT
N
f1188474679
f
GR
GS
[1 0 0 1 55.25957 97.55278] CT
N
f1188474679
f
GR
GS
[1 0 0 1 104.24714 51.23983] CT
N
f1188474679
f
GR
GS
[1 0 0 1 86.28394 77.91217] CT
N
f1188474679
f
GR
GS
[1 0 0 1 85.24666 44.65834] CT
N
f1188474679
f
GR
GS
[1 0 0 1 78.05449 37.18229] CT
N
f1188474679
f
GR
GS
[1 0 0 1 73.507 104.40308] CT
N
f1188474679
f
GR
GS
[1 0 0 1 102.68246 35.91666] CT
N
f1188474679
f
GR
GS
[1 0 0 1 29.87827 25.44079] CT
N
f1188474679
f
GR
GS
[1 0 0 1 102.30711 58.28226] CT
N
f1188474679
f
GR
GS
[1 0 0 1 112.69911 36.2029] CT
N
f1188474679
f
GR
GS
[1 0 0 1 87.83966 84.0354] CT
N
f1188474679
f
GR
GS
[1 0 0 1 80.99544 100.37965] CT
N
f1188474679
f
GR
GS
[1 0 0 1 100.01893 31.07787] CT
N
f1188474679
f
GR
GS
[1 0 0 1 57.68516 55.31274] CT
N
f1188474679
f
GR
GS
[1 0 0 1 89.37676 80.04086] CT
N
f1188474679
f
GR
GS
[1 0 0 1 56.23927 81.69176] CT
N
f1188474679
f
GR
GS
[1 0 0 1 82.84223 84.07137] CT
N
f1188474679
f
GR
GS
[1 0 0 1 56.54872 68.55948] CT
N
f1188474679
f
GR
GS
[1 0 0 1 41.58746 51.89589] CT
N
f1188474679
f
GR
GS
[1 0 0 1 79.7392 105.65447] CT
N
f1188474679
f
GR
GS
[1 0 0 1 50.89873 83.29333] CT
N
f1188474679
f
GR
GS
[1 0 0 1 92.2344 83.81283] CT
N
f1188474679
f
GR
GS
[1 0 0 1 35.06816 16.06802] CT
N
f1188474679
f
GR
GS
[1 0 0 1 53.07295 104.90405] CT
N
f1188474679
f
GR
GS
[1 0 0 1 101.91337 43.45278] CT
N
f1188474679
f
GR
GS
[1 0 0 1 76.12652 46.66656] CT
N
f1188474679
f
GR
GS
[1 0 0 1 72.84592 64.03307] CT
N
f1188474679
f
GR
GS
[1 0 0 1 80.07012 89.37962] CT
N
f1188474679
f
GR
GS
[1 0 0 1 91.58281 87.88817] CT
N
f1188474679
f
GR
GS
[1 0 0 1 71.34741 82.18279] CT
N
f1188474679
f
GR
GS
[1 0 0 1 96.81187 81.02363] CT
N
f1188474679
f
GR
GS
[1 0 0 1 78.68916 46.55408] CT
N
f1188474679
f
GR
GS
[1 0 0 1 51.21146 76.76726] CT
N
f1188474679
f
GR
GS
[1 0 0 1 85.65009 54.61414] CT
N
f1188474679
f
GR
GS
[1 0 0 1 60.47756 38.18651] CT
N
f1188474679
f
GR
GS
[1 0 0 1 123.78004 110.48962] CT
N
f1188474679
f
GR
GS
[1 0 0 1 86.38191 96.61466] CT
N
f1188474679
f
GR
GS
[1 0 0 1 86.77448 57.10021] CT
N
f1188474679
f
GR
GS
[1 0 0 1 67.39888 106.15791] CT
N
f1188474679
f
GR
GS
[1 0 0 1 115.32214 42.00893] CT
N
f1188474679
f
GR
GS
[1 0 0 1 37.58652 95.95982] CT
N
f1188474679
f
GR
GS
[1 0 0 1 54.03897 97.32903] CT
N
f1188474679
f
GR
GS
[1 0 0 1 101.85631 36.94812] CT
N
f1188474679
f
GR
GS
[1 0 0 1 104.75808 27.49135] CT
N
f1188474679
f
GR
GS
[1 0 0 1 109.5019 99.34532] CT
N
f1188474679
f
GR
GS
[1 0 0 1 73.73597 94.86303] CT
N
f1188474679
f
GR
GS
[1 0 0 1 89.34476 35.14659] CT
N
f1188474679
f
GR
GS
[1 0 0 1 98.90334 79.99895] CT
N
f1188474679
f
GR
GS
[1 0 0 1 35.11931 32.93489] CT
N
f1188474679
f
GR
GS
[1 0 0 1 99.69828 55.87373] CT
N
f1188474679
f
GR
GS
[1 0 0 1 108.423 27.34463] CT
N
f1188474679
f
GR
GS
[1 0 0 1 107.99759 31.44781] CT
N
f1188474679
f
GR
GS
[1 0 0 1 29.49259 101.24233] CT
N
f1188474679
f
GR
GS
[1 0 0 1 94.05839 58.02904] CT
N
f1188474679
f
GR
GS
[1 0 0 1 62.94479 91.7394] CT
N
f1188474679
f
GR
GS
[1 0 0 1 56.70462 97.30123] CT
N
f1188474679
f
GR
GS
[1 0 0 1 74.85907 93.11905] CT
N
f1188474679
f
GR
GS
[1 0 0 1 54.65556 105.6926] CT
N
f1188474679
f
GR
GS
[1 0 0 1 86.24321 92.85711] CT
N
f1188474679
f
GR
GS
[1 0 0 1 59.42612 99.60199] CT
N
f1188474679
f
GR
GS
[1 0 0 1 78.52959 53.12138] CT
N
f1188474679
f
GR
GS
[1 0 0 1 95.29163 57.01966] CT
N
f1188474679
f
GR
GS
[1 0 0 1 105.19799 114.84397] CT
N
f1188474679
f
GR
GS
[1 0 0 1 101.94738 32.13758] CT
N
f1188474679
f
GR
GS
[1 0 0 1 97.47627 35.9014] CT
N
f1188474679
f
GR
GS
[1 0 0 1 59.5343 44.31222] CT
N
f1188474679
f
GR
GS
[1 0 0 1 50.48058 98.33626] CT
N
f1188474679
f
GR
GS
[1 0 0 1 114.86971 39.16459] CT
N
f1188474679
f
GR
GS
[1 0 0 1 95.99833 82.30559] CT
N
f1188474679
f
GR
GS
[1 0 0 1 69.5529 94.22886] CT
N
f1188474679
f
GR
GS
[1 0 0 1 87.84692 76.07906] CT
N
f1188474679
f
GR
GS
[1 0 0 1 57.84955 100.51305] CT
N
f1188474679
f
GR
GS
[1 0 0 1 91.53899 95.90905] CT
N
f1188474679
f
GR
GS
[1 0 0 1 48.89657 103.86629] CT
N
f1188474679
f
GR
GS
[1 0 0 1 87.79807 33.51427] CT
N
f1188474679
f
GR
GS
[1 0 0 1 63.91681 98.09194] CT
N
f1188474679
f
GR
GS
[1 0 0 1 57.80441 95.53941] CT
N
f1188474679
f
GR
GS
[1 0 0 1 62.24305 95.10793] CT
N
f1188474679
f
GR
GS
[1 0 0 1 59.97952 104.9053] CT
N
f1188474679
f
GR
GS
[1 0 0 1 78.31152 70.89624] CT
N
f1188474679
f
GR
GS
[1 0 0 1 48.20876 95.29396] CT
N
f1188474679
f
GR
GS
[1 0 0 1 110.86338 40.13953] CT
N
f1188474679
f
GR
GS
[1 0 0 1 86.81613 47.84557] CT
N
f1188474679
f
GR
GS
[1 0 0 1 49.72799 41.09692] CT
N
f1188474679
f
GR
GS
[1 0 0 1 94.86011 58.59192] CT
N
f1188474679
f
GR
GS
[1 0 0 1 89.00543 77.04477] CT
N
f1188474679
f
GR
GS
[1 0 0 1 87.65944 33.03588] CT
N
f1188474679
f
GR
GS
[1 0 0 1 76.67263 89.89562] CT
N
f1188474679
f
GR
GS
[1 0 0 1 85.84254 45.73301] CT
N
f1188474679
f
GR
GS
[1 0 0 1 56.5241 109.91216] CT
N
f1188474679
f
GR
GS
[1 0 0 1 73.05064 112.94445] CT
N
f1188474679
f
GR
GS
[1 0 0 1 85.57854 91.74521] CT
N
f1188474679
f
GR
GS
[1 0 0 1 93.05798 33.24943] CT
N
f1188474679
f
GR
GS
[1 0 0 1 89.89769 39.72078] CT
N
f1188474679
f
GR
GS
[1 0 0 1 102.13486 45.51051] CT
N
f1188474679
f
GR
GS
[1 0 0 1 36.5499 80.96115] CT
N
f1188474679
f
GR
GS
[1 0 0 1 76.8707 93.61734] CT
N
f1188474679
f
GR
GS
[1 0 0 1 36.25681 30.22719] CT
N
f1188474679
f
GR
GS
[1 0 0 1 44.3432 107.40041] CT
N
f1188474679
f
GR
GS
[1 0 0 1 45.42723 103.03441] CT
N
f1188474679
f
GR
GS
[1 0 0 1 35.06285 28.02044] CT
N
f1188474679
f
GR
GS
[1 0 0 1 56.61539 107.8814] CT
N
f1188474679
f
GR
GS
[1 0 0 1 125.55845 35.66275] CT
N
f1188474679
f
GR
GS
[1 0 0 1 87.97966 96.75411] CT
N
f1188474679
f
GR
GS
[1 0 0 1 65.60331 97.82002] CT
N
f1188474679
f
GR
GS
[1 0 0 1 91.94389 39.68651] CT
N
f1188474679
f
GR
GS
[1 0 0 1 40.91293 102.5623] CT
N
f1188474679
f
GR
GS
[1 0 0 1 93.6412 33.40986] CT
N
f1188474679
f
GR
GS
[1 0 0 1 49.50704 89.81261] CT
N
f1188474679
f
GR
GS
[1 0 0 1 107.37862 25.22959] CT
N
f1188474679
f
GR
GS
[1 0 0 1 112.23116 31.10477] CT
N
f1188474679
f
GR
GS
[1 0 0 1 78.86469 89.38876] CT
N
f1188474679
f
GR
GS
[1 0 0 1 58.60567 100.72617] CT
N
f1188474679
f
GR
GS
[1 0 0 1 82.94862 107.63455] CT
N
f1188474679
f
GR
GS
[1 0 0 1 113.82805 18.78769] CT
N
f1188474679
f
GR
GS
[1 0 0 1 79.28725 51.60627] CT
N
f1188474679
f
GR
GS
[1 0 0 1 117.53692 28.46249] CT
N
f1188474679
f
GR
GS
[1 0 0 1 70.50066 38.46928] CT
N
f1188474679
f
GR
GS
[1 0 0 1 115.36141 39.02552] CT
N
f1188474679
f
GR
GS
[1 0 0 1 99.07932 91.0882] CT
N
f1188474679
f
GR
GS
[1 0 0 1 97.66708 35.52979] CT
N
f1188474679
f
GR
GS
[1 0 0 1 73.92418 35.42123] CT
N
f1188474679
f
GR
GS
[1 0 0 1 98.91885 31.39804] CT
N
f1188474679
f
GR
GS
[1 0 0 1 80.4893 34.21145] CT
N
f1188474679
f
GR
GS
[1 0 0 1 112.5136 50.68122] CT
N
f1188474679
f
GR
GS
[1 0 0 1 55.72104 117.4787] CT
N
f1188474679
f
GR
GS
[1 0 0 1 79.24152 46.0647] CT
N
f1188474679
f
GR
GS
[1 0 0 1 66.42358 88.32081] CT
N
f1188474679
f
GR
GS
[1 0 0 1 72.56604 47.11402] CT
N
f1188474679
f
GR
GS
[1 0 0 1 57.94206 90.14088] CT
N
f1188474679
f
GR
GS
[1 0 0 1 53.35966 92.55097] CT
N
f1188474679
f
GR
GS
[1 0 0 1 68.84669 92.63249] CT
N
f1188474679
f
GR
GS
[1 0 0 1 89.11817 89.69419] CT
N
f1188474679
f
GR
GS
[1 0 0 1 62.35006 98.00618] CT
N
f1188474679
f
GR
GS
[1 0 0 1 80.94468 90.73101] CT
N
f1188474679
f
GR
GS
[1 0 0 1 108.76071 30.61075] CT
N
f1188474679
f
GR
GS
[1 0 0 1 92.98338 33.98769] CT
N
f1188474679
f
GR
GS
[1 0 0 1 71.13525 89.95992] CT
N
f1188474679
f
GR
GS
[1 0 0 1 91.20267 33.97592] CT
N
f1188474679
f
GR
GS
[1 0 0 1 98.17717 55.2674] CT
N
f1188474679
f
GR
GS
[1 0 0 1 91.44246 96.39476] CT
N
f1188474679
f
GR
GS
[1 0 0 1 64.35948 96.95103] CT
N
f1188474679
f
GR
GS
[1 0 0 1 79.87221 42.16136] CT
N
f1188474679
f
GR
GS
[1 0 0 1 108.0618 27.63397] CT
N
f1188474679
f
GR
GS
[1 0 0 1 57.47575 106.04781] CT
N
f1188474679
f
GR
GS
[1 0 0 1 96.27715 26.06002] CT
N
f1188474679
f
GR
GS
[1 0 0 1 86.24764 81.30871] CT
N
f1188474679
f
GR
GS
[1 0 0 1 114.55944 37.41942] CT
N
f1188474679
f
GR
GS
[1 0 0 1 72.35153 58.26381] CT
N
f1188474679
f
GR
GS
[1 0 0 1 75.94118 97.17908] CT
N
f1188474679
f
GR
GS
[1 0 0 1 93.23151 27.8218] CT
N
f1188474679
f
GR
GS
[1 0 0 1 90.22258 48.83461] CT
N
f1188474679
f
GR
GS
[1 0 0 1 93.49178 82.59518] CT
N
f1188474679
f
GR
GS
[1 0 0 1 98.19843 35.22079] CT
N
f1188474679
f
GR
GS
[1 0 0 1 107.98219 24.37222] CT
N
f1188474679
f
GR
GS
[1 0 0 1 87.95866 100.62366] CT
N
f1188474679
f
GR
GS
[1 0 0 1 84.27325 40.8044] CT
N
f1188474679
f
GR
GS
[1 0 0 1 67.87024 107.42151] CT
N
f1188474679
f
GR
GS
[1 0 0 1 70.07544 94.03442] CT
N
f1188474679
f
GR
GS
[1 0 0 1 91.77142 44.36579] CT
N
f1188474679
f
GR
GS
[1 0 0 1 91.49094 34.33862] CT
N
f1188474679
f
GR
GS
[1 0 0 1 71.44983 92.76483] CT
N
f1188474679
f
GR
GS
[1 0 0 1 90.01184 28.25999] CT
N
f1188474679
f
GR
GS
[1 0 0 1 91.14845 88.56234] CT
N
f1188474679
f
GR
GS
[1 0 0 1 78.8175 69.44806] CT
N
f1188474679
f
GR
GS
[1 0 0 1 128.68646 91.46752] CT
N
f1188474679
f
GR
GS
[1 0 0 1 98.26359 30.82827] CT
N
f1188474679
f
GR
GS
[1 0 0 1 84.58704 91.92599] CT
N
f1188474679
f
GR
GS
[1 0 0 1 72.674 54.10015] CT
N
f1188474679
f
GR
GS
[1 0 0 1 89.10916 59.40746] CT
N
f1188474679
f
GR
GS
[1 0 0 1 97.84892 31.79533] CT
N
f1188474679
f
GR
GS
[1 0 0 1 51.31446 100.36448] CT
N
f1188474679
f
GR
GS
[1 0 0 1 44.81652 105.16468] CT
N
f1188474679
f
GR
GS
[1 0 0 1 40.98589 22.53403] CT
N
f1188474679
f
GR
GS
[1 0 0 1 102.29427 28.54136] CT
N
f1188474679
f
GR
GS
[1 0 0 1 63.81598 98.28976] CT
N
f1188474679
f
GR
GS
[1 0 0 1 61.69781 91.09861] CT
N
f1188474679
f
GR
GS
[1 0 0 1 99.64014 45.94326] CT
N
f1188474679
f
GR
GS
[1 0 0 1 98.16547 95.5088] CT
N
f1188474679
f
GR
GS
[1 0 0 1 46.71468 107.7884] CT
N
f1188474679
f
GR
GS
[1 0 0 1 46.03986 37.50565] CT
N
f1188474679
f
GR
GS
[1 0 0 1 115.97964 32.03564] CT
N
f1188474679
f
GR
GS
[1 0 0 1 102.11431 29.50538] CT
N
f1188474679
f
GR
GS
[1 0 0 1 88.77721 76.26702] CT
N
f1188474679
f
GR
GS
[1 0 0 1 57.44469 101.87582] CT
N
f1188474679
f
GR
GS
[1 0 0 1 84.54002 77.34896] CT
N
f1188474679
f
GR
GS
[1 0 0 1 82.34351 37.06294] CT
N
f1188474679
f
GR
GS
[1 0 0 1 106.7699 33.33652] CT
N
f1188474679
f
GR
GS
[1 0 0 1 99.9647 40.23067] CT
N
f1188474679
f
GR
GS
[1 0 0 1 73.62108 87.68761] CT
N
f1188474679
f
GR
GS
[1 0 0 1 93.43726 27.60498] CT
N
f1188474679
f
GR
GS
[1 0 0 1 90.46342 42.34601] CT
N
f1188474679
f
GR
GS
[1 0 0 1 93.1025 37.70913] CT
N
f1188474679
f
GR
GS
[1 0 0 1 61.33556 73.43963] CT
N
f1188474679
f
GR
GS
[1 0 0 1 84.08176 85.09269] CT
N
f1188474679
f
GR
GS
[1 0 0 1 108.68392 38.57484] CT
N
f1188474679
f
GR
GS
[1 0 0 1 88.02366 31.48129] CT
N
f1188474679
f
GR
GS
[1 0 0 1 100.83404 28.71277] CT
N
f1188474679
f
GR
GS
[1 0 0 1 62.91013 101.81356] CT
N
f1188474679
f
GR
GS
[1 0 0 1 82.49046 45.08889] CT
N
f1188474679
f
GR
GS
[1 0 0 1 72.33117 79.2276] CT
N
f1188474679
f
GR
GS
[1 0 0 1 112.24815 33.4581] CT
N
f1188474679
f
GR
GS
[1 0 0 1 53.63446 106.39893] CT
N
f1188474679
f
GR
GS
[1 0 0 1 46.19402 105.60162] CT
N
f1188474679
f
GR
GS
[1 0 0 1 91.45097 97.52147] CT
N
f1188474679
f
GR
GS
[1 0 0 1 44.34612 107.05727] CT
N
f1188474679
f
GR
GS
[1 0 0 1 40.64024 91.99229] CT
N
f1188474679
f
GR
GS
[1 0 0 1 48.08846 87.51096] CT
N
f1188474679
f
GR
GS
[1 0 0 1 97.97684 44.55598] CT
N
f1188474679
f
GR
GS
[1 0 0 1 125.22092 93.6448] CT
N
f1188474679
f
GR
GS
[1 0 0 1 84.0265 69.02396] CT
N
f1188474679
f
GR
GS
[1 0 0 1 89.35717 46.51875] CT
N
f1188474679
f
GR
GS
[1 0 0 1 90.17908 60.13414] CT
N
f1188474679
f
GR
GS
[1 0 0 1 58.77628 82.68592] CT
N
f1188474679
f
GR
GS
[1 0 0 1 69.64288 79.92181] CT
N
f1188474679
f
GR
GS
[1 0 0 1 108.48991 32.18113] CT
N
f1188474679
f
GR
GS
[1 0 0 1 33.41404 27.76034] CT
N
f1188474679
f
GR
GS
[1 0 0 1 68.73547 90.47584] CT
N
f1188474679
f
GR
GS
[1 0 0 1 66.43324 59.32742] CT
N
f1188474679
f
GR
GS
[1 0 0 1 79.71156 39.50986] CT
N
f1188474679
f
GR
GS
[1 0 0 1 101.18967 36.90765] CT
N
f1188474679
f
GR
GS
[1 0 0 1 119.75568 112.94817] CT
N
f1188474679
f
GR
GS
[1 0 0 1 71.71872 109.33661] CT
N
f1188474679
f
GR
GS
[1 0 0 1 51.27176 97.41962] CT
N
f1188474679
f
GR
GS
[1 0 0 1 80.46191 85.16068] CT
N
f1188474679
f
GR
GS
[1 0 0 1 100.35477 36.00731] CT
N
f1188474679
f
GR
GS
[1 0 0 1 89.06432 75.69319] CT
N
f1188474679
f
GR
GS
[1 0 0 1 76.18478 72.93513] CT
N
f1188474679
f
GR
GS
[1 0 0 1 60.86158 95.68259] CT
N
f1188474679
f
GR
GS
[1 0 0 1 37.35204 85.97719] CT
N
f1188474679
f
GR
GS
[1 0 0 1 98.61881 87.83083] CT
N
f1188474679
f
GR
GS
[1 0 0 1 81.57828 44.61551] CT
N
f1188474679
f
GR
GS
[1 0 0 1 74.03492 104.27852] CT
N
f1188474679
f
GR
GS
[1 0 0 1 43.47147 101.47686] CT
N
f1188474679
f
GR
GS
[1 0 0 1 60.13047 101.68201] CT
N
f1188474679
f
GR
GS
[1 0 0 1 111.93032 104.94851] CT
N
f1188474679
f
GR
GS
[1 0 0 1 69.84581 100.7388] CT
N
f1188474679
f
GR
GS
[1 0 0 1 101.04716 37.6812] CT
N
f1188474679
f
GR
GS
[1 0 0 1 89.60871 83.6993] CT
N
f1188474679
f
GR
GS
[1 0 0 1 91.06322 46.82769] CT
N
f1188474679
f
GR
GS
[1 0 0 1 68.54051 32.57219] CT
N
f1188474679
f
GR
GS
[1 0 0 1 105.14259 40.51675] CT
N
f1188474679
f
GR
GS
[1 0 0 1 86.58047 74.59676] CT
N
f1188474679
f
GR
GS
[1 0 0 1 54.50432 80.33318] CT
N
f1188474679
f
GR
GS
[1 0 0 1 98.34734 106.85635] CT
N
f1188474679
f
GR
GS
[1 0 0 1 47.0444 106.55824] CT
N
f1188474679
f
GR
GS
[1 0 0 1 34.10376 32.31653] CT
N
f1188474679
f
GR
GS
[1 0 0 1 95.16662 34.94488] CT
N
f1188474679
f
GR
GS
[1 0 0 1 67.88003 83.21922] CT
N
f1188474679
f
GR
GS
[1 0 0 1 75.28335 56.96675] CT
N
f1188474679
f
GR
GS
[1 0 0 1 63.389 75.53747] CT
N
f1188474679
f
GR
GS
[1 0 0 1 81.02243 43.76225] CT
N
f1188474679
f
GR
GS
[1 0 0 1 71.9394 86.47109] CT
N
f1188474679
f
GR
GS
[1 0 0 1 70.99983 89.36091] CT
N
f1188474679
f
GR
GS
[1 0 0 1 87.04415 36.13503] CT
N
f1188474679
f
GR
GS
[1 0 0 1 81.95164 31.09137] CT
N
f1188474679
f
GR
GS
[1 0 0 1 100.25705 31.94752] CT
N
f1188474679
f
GR
GS
[1 0 0 1 87.15527 85.87428] CT
N
f1188474679
f
GR
GS
[1 0 0 1 76.92114 18.39762] CT
N
f1188474679
f
GR
GS
[1 0 0 1 95.26891 13.90151] CT
N
f1188474679
f
GR
GS
[1 0 0 1 37.58506 24.99331] CT
N
f1188474679
f
GR
GS
[1 0 0 1 43.80846 118.31142] CT
N
f1188474679
f
GR
GS
[1 0 0 1 90.03452 63.8702] CT
N
f1188474679
f
GR
GS
[1 0 0 1 110.3941 56.72218] CT
N
f1188474679
f
GR
GS
[1 0 0 1 34.21922 94.12207] CT
N
f1188474679
f
GR
GS
[1 0 0 1 55.09523 83.46634] CT
N
f1188474679
f
GR
GS
[1 0 0 1 68.38468 45.47379] CT
N
f1188474679
f
GR
GS
[1 0 0 1 59.9607 85.26436] CT
N
f1188474679
f
GR
GS
[1 0 0 1 101.70709 31.92701] CT
N
f1188474679
f
GR
GS
[1 0 0 1 36.50367 31.36575] CT
N
f1188474679
f
GR
GS
[1 0 0 1 82.52331 41.26067] CT
N
f1188474679
f
GR
GS
[1 0 0 1 80.1804 81.30246] CT
N
f1188474679
f
GR
GS
[1 0 0 1 55.63567 91.40601] CT
N
f1188474679
f
GR
GS
[1 0 0 1 100.98367 51.00018] CT
N
f1188474679
f
GR
GS
[1 0 0 1 130.10062 107.77549] CT
N
f1188474679
f
GR
GS
[1 0 0 1 93.50536 34.18457] CT
N
f1188474679
f
GR
GS
[1 0 0 1 99.10472 61.15198] CT
N
f1188474679
f
GR
GS
[1 0 0 1 69.93441 79.18272] CT
N
f1188474679
f
GR
GS
[1 0 0 1 70.00243 100.95452] CT
N
f1188474679
f
GR
GS
[1 0 0 1 95.29723 69.0101] CT
N
f1188474679
f
GR
GS
[1 0 0 1 63.76911 89.06094] CT
N
f1188474679
f
GR
GS
[1 0 0 1 56.08746 79.70375] CT
N
f1188474679
f
GR
GS
[1 0 0 1 76.70083 89.46475] CT
N
f1188474679
f
GR
GS
[1 0 0 1 101.69461 47.49603] CT
N
f1188474679
f
GR
GS
[1 0 0 1 91.70037 87.51807] CT
N
f1188474679
f
GR
GS
[1 0 0 1 87.1983 98.7985] CT
N
f1188474679
f
GR
GS
[1 0 0 1 73.25191 109.04189] CT
N
f1188474679
f
GR
GS
[1 0 0 1 73.35017 48.13171] CT
N
f1188474679
f
GR
GS
[1 0 0 1 70.44602 66.54333] CT
N
f1188474679
f
GR
GS
[1 0 0 1 63.31183 40.17046] CT
N
f1188474679
f
GR
GS
[1 0 0 1 66.07177 89.83092] CT
N
f1188474679
f
GR
GS
[1 0 0 1 90.98707 79.28702] CT
N
f1188474679
f
GR
GS
[1 0 0 1 107.13985 26.52711] CT
N
f1188474679
f
GR
GS
[1 0 0 1 62.12625 92.68066] CT
N
f1188474679
f
GR
GS
[1 0 0 1 95.26847 57.70755] CT
N
f1188474679
f
GR
GS
[1 0 0 1 75.43374 90.51476] CT
N
f1188474679
f
GR
GS
[1 0 0 1 84.85347 50.42102] CT
N
f1188474679
f
GR
GS
[1 0 0 1 69.48653 88.23953] CT
N
f1188474679
f
GR
GS
[1 0 0 1 107.0348 36.83249] CT
N
f1188474679
f
GR
GS
[1 0 0 1 112.29618 115.77148] CT
N
f1188474679
f
GR
GS
[1 0 0 1 86.90649 65.46287] CT
N
f1188474679
f
GR
GS
[1 0 0 1 74.60955 82.04453] CT
N
f1188474679
f
GR
GS
[1 0 0 1 89.53733 50.76842] CT
N
f1188474679
f
GR
GS
[1 0 0 1 63.87435 82.78152] CT
N
f1188474679
f
GR
GS
[1 0 0 1 99.18124 30.99199] CT
N
f1188474679
f
GR
GS
[1 0 0 1 95.84312 41.44632] CT
N
f1188474679
f
GR
GS
[1 0 0 1 94.65497 69.28191] CT
N
f1188474679
f
GR
GS
[1 0 0 1 74.88672 56.94031] CT
N
f1188474679
f
GR
GS
[1 0 0 1 74.25435 70.19491] CT
N
f1188474679
f
GR
GS
[1 0 0 1 57.37436 43.2356] CT
N
f1188474679
f
GR
GS
[1 0 0 1 85.73957 86.28824] CT
N
f1188474679
f
GR
GS
[1 0 0 1 56.33134 105.80478] CT
N
f1188474679
f
GR
GS
[1 0 0 1 82.17255 85.54762] CT
N
f1188474679
f
GR
GS
[1 0 0 1 59.27029 71.00528] CT
N
f1188474679
f
GR
GS
[1 0 0 1 64.50571 56.59984] CT
N
f1188474679
f
GR
GS
[1 0 0 1 55.99199 86.5424] CT
N
f1188474679
f
GR
GS
[1 0 0 1 58.46798 25.95345] CT
N
f1188474679
f
GR
GS
[1 0 0 1 124.5557 108.58126] CT
N
f1188474679
f
GR
GS
[1 0 0 1 43.92464 100.44244] CT
N
f1188474679
f
GR
GS
[1 0 0 1 38.44336 25.48549] CT
N
f1188474679
f
GR
GS
[1 0 0 1 71.95431 97.97347] CT
N
f1188474679
f
GR
GS
[1 0 0 1 94.33806 58.61065] CT
N
f1188474679
f
GR
GS
[1 0 0 1 118.62446 104.76665] CT
N
f1188474679
f
GR
GS
[1 0 0 1 86.44286 92.11327] CT
N
f1188474679
f
GR
GS
[1 0 0 1 68.69994 91.96301] CT
N
f1188474679
f
GR
GS
[1 0 0 1 53.38772 82.93102] CT
N
f1188474679
f
GR
GS
[1 0 0 1 105.51213 95.1179] CT
N
f1188474679
f
GR
GS
[1 0 0 1 107.50262 51.99101] CT
N
f1188474679
f
GR
GS
[1 0 0 1 101.64059 42.35988] CT
N
f1188474679
f
GR
GS
[1 0 0 1 108.47562 36.59155] CT
N
f1188474679
f
GR
GS
[1 0 0 1 79.4832 70.78983] CT
N
f1188474679
f
GR
GS
[1 0 0 1 43.54262 94.56163] CT
N
f1188474679
f
GR
GS
[1 0 0 1 111.38307 26.2308] CT
N
f1188474679
f
GR
GS
[1 0 0 1 68.87326 32.78754] CT
N
f1188474679
f
GR
GS
[1 0 0 1 69.52065 57.89404] CT
N
f1188474679
f
GR
GS
[1 0 0 1 100.1012 43.64155] CT
N
f1188474679
f
GR
GS
[1 0 0 1 69.52049 91.43796] CT
N
f1188474679
f
GR
GS
[1 0 0 1 66.46595 83.25394] CT
N
f1188474679
f
GR
GS
[1 0 0 1 84.66106 86.00163] CT
N
f1188474679
f
GR
GS
[1 0 0 1 103.7878 26.89612] CT
N
f1188474679
f
GR
GS
[1 0 0 1 63.31181 98.85152] CT
N
f1188474679
f
GR
GS
[1 0 0 1 78.04005 81.50259] CT
N
f1188474679
f
GR
GS
[1 0 0 1 103.96178 45.70192] CT
N
f1188474679
f
GR
GS
[1 0 0 1 82.06674 32.14241] CT
N
f1188474679
f
GR
GS
[1 0 0 1 66.0435 100.83755] CT
N
f1188474679
f
GR
GS
[1 0 0 1 56.54773 89.62057] CT
N
f1188474679
f
GR
GS
[1 0 0 1 102.11579 33.37777] CT
N
f1188474679
f
GR
GS
[1 0 0 1 85.69656 82.72979] CT
N
f1188474679
f
GR
GS
[1 0 0 1 97.25941 42.88747] CT
N
f1188474679
f
GR
GS
[1 0 0 1 66.32143 112.76673] CT
N
f1188474679
f
GR
GS
[1 0 0 1 89.65677 58.65912] CT
N
f1188474679
f
GR
GS
[1 0 0 1 57.47696 102.59677] CT
N
f1188474679
f
GR
GS
[1 0 0 1 82.79904 68.53663] CT
N
f1188474679
f
GR
GS
[1 0 0 1 43.98512 78.80081] CT
N
f1188474679
f
GR
GS
[1 0 0 1 74.60289 91.41007] CT
N
f1188474679
f
GR
GS
[1 0 0 1 94.40733 26.47219] CT
N
f1188474679
f
GR
GS
[1 0 0 1 67.58578 74.17257] CT
N
f1188474679
f
GR
GS
[1 0 0 1 78.74866 96.83536] CT
N
f1188474679
f
GR
GS
[1 0 0 1 56.88688 100.67864] CT
N
f1188474679
f
GR
GS
[1 0 0 1 84.05681 85.08569] CT
N
f1188474679
f
GR
GS
[1 0 0 1 84.42599 33.46075] CT
N
f1188474679
f
GR
GS
[1 0 0 1 80.22395 78.07196] CT
N
f1188474679
f
GR
GS
[1 0 0 1 65.77875 96.99385] CT
N
f1188474679
f
GR
GS
[1 0 0 1 80.75581 62.07513] CT
N
f1188474679
f
GR
GS
[1 0 0 1 64.78088 82.69496] CT
N
f1188474679
f
GR
GS
[1 0 0 1 98.69823 24.56642] CT
N
f1188474679
f
GR
GS
[1 0 0 1 79.57912 53.01175] CT
N
f1188474679
f
GR
GS
[1 0 0 1 120.92769 102.20701] CT
N
f1188474679
f
GR
GS
[1 0 0 1 75.5549 38.69513] CT
N
f1188474679
f
GR
GS
[1 0 0 1 45.77712 72.69029] CT
N
f1188474679
f
GR
GS
[1 0 0 1 126.26217 98.03645] CT
N
f1188474679
f
GR
GS
[1 0 0 1 95.98903 31.76493] CT
N
f1188474679
f
GR
GS
[1 0 0 1 91.16936 35.32619] CT
N
f1188474679
f
GR
GS
[1 0 0 1 83.84615 93.67263] CT
N
f1188474679
f
GR
GS
[1 0 0 1 103.75356 31.68289] CT
N
f1188474679
f
GR
GS
[1 0 0 1 114.25066 99.60468] CT
N
f1188474679
f
GR
GS
[1 0 0 1 69.40893 40.33599] CT
N
f1188474679
f
GR
GS
[1 0 0 1 104.009 28.80146] CT
N
f1188474679
f
GR
GS
[1 0 0 1 42.20594 106.0171] CT
N
f1188474679
f
GR
GS
[1 0 0 1 114.23943 44.11613] CT
N
f1188474679
f
GR
GS
[1 0 0 1 105.24641 70.92177] CT
N
f1188474679
f
GR
GS
[1 0 0 1 84.88072 96.65216] CT
N
f1188474679
f
GR
GS
[1 0 0 1 91.25546 51.32082] CT
N
f1188474679
f
GR
GS
[1 0 0 1 76.8268 83.60098] CT
N
f1188474679
f
GR
GS
[1 0 0 1 99.59447 39.10422] CT
N
f1188474679
f
GR
GS
[1 0 0 1 89.08466 94.95906] CT
N
f1188474679
f
GR
GS
[1 0 0 1 98.12548 73.36185] CT
N
f1188474679
f
GR
GS
[1 0 0 1 90.16905 83.6483] CT
N
f1188474679
f
GR
GS
[1 0 0 1 96.16365 53.17588] CT
N
f1188474679
f
GR
GS
[1 0 0 1 73.12421 88.9701] CT
N
f1188474679
f
GR
GS
[1 0 0 1 84.33118 95.54908] CT
N
f1188474679
f
GR
GS
[1 0 0 1 88.19001 80.73618] CT
N
f1188474679
f
GR
GS
[1 0 0 1 89.70966 34.4928] CT
N
f1188474679
f
GR
GS
[1 0 0 1 119.16844 109.07761] CT
N
f1188474679
f
GR
GS
[1 0 0 1 88.89879 54.27708] CT
N
f1188474679
f
GR
GS
[1 0 0 1 118.8269 32.13475] CT
N
f1188474679
f
GR
GS
[1 0 0 1 85.58786 49.45655] CT
N
f1188474679
f
GR
GS
[1 0 0 1 92.94227 47.95335] CT
N
f1188474679
f
GR
GS
[1 0 0 1 34.25898 100.06222] CT
N
f1188474679
f
GR
GS
[1 0 0 1 29.48738 99.93353] CT
N
f1188474679
f
GR
GS
[1 0 0 1 35.94718 22.88012] CT
N
f1188474679
f
GR
GS
[1 0 0 1 96.40701 25.24648] CT
N
f1188474679
f
GR
GS
[1 0 0 1 66.789 60.65055] CT
N
f1188474679
f
GR
GS
[1 0 0 1 78.29691 47.78702] CT
N
f1188474679
f
GR
GS
[1 0 0 1 62.43309 59.38316] CT
N
f1188474679
f
GR
GS
[1 0 0 1 96.04553 46.68684] CT
N
f1188474679
f
GR
GS
[1 0 0 1 62.02048 100.74413] CT
N
f1188474679
f
GR
GS
[1 0 0 1 97.32002 56.44081] CT
N
f1188474679
f
GR
GS
[1 0 0 1 81.81423 73.12343] CT
N
f1188474679
f
GR
GS
[1 0 0 1 82.45953 65.14682] CT
N
f1188474679
f
GR
GS
[1 0 0 1 76.21168 94.30011] CT
N
f1188474679
f
GR
GS
[1 0 0 1 55.37816 100.18988] CT
N
f1188474679
f
GR
GS
[1 0 0 1 53.91818 88.09666] CT
N
f1188474679
f
GR
GS
[1 0 0 1 84.52281 38.11609] CT
N
f1188474679
f
GR
GS
[1 0 0 1 57.5242 92.19431] CT
N
f1188474679
f
GR
GS
[1 0 0 1 87.91734 33.15536] CT
N
f1188474679
f
GR
GS
[1 0 0 1 87.17859 22.13417] CT
N
f1188474679
f
GR
GS
[1 0 0 1 71.4747 99.15923] CT
N
f1188474679
f
GR
GS
[1 0 0 1 85.31641 67.74916] CT
N
f1188474679
f
GR
GS
[1 0 0 1 58.31833 99.2179] CT
N
f1188474679
f
GR
GS
[1 0 0 1 78.78391 78.03275] CT
N
f1188474679
f
GR
GS
[1 0 0 1 88.81155 36.54904] CT
N
f1188474679
f
GR
GS
[1 0 0 1 115.54175 24.61145] CT
N
f1188474679
f
GR
GS
[1 0 0 1 77.45021 96.23917] CT
N
f1188474679
f
GR
GS
[1 0 0 1 92.79446 26.31085] CT
N
f1188474679
f
GR
GS
[1 0 0 1 83.247 69.39256] CT
N
f1188474679
f
GR
GS
[1 0 0 1 61.93292 101.78616] CT
N
f1188474679
f
GR
GS
[1 0 0 1 37.26865 90.6457] CT
N
f1188474679
f
GR
GS
[1 0 0 1 105.61617 34.87115] CT
N
f1188474679
f
GR
GS
[1 0 0 1 62.80326 71.17323] CT
N
f1188474679
f
GR
GS
[1 0 0 1 76.53761 36.34326] CT
N
f1188474679
f
GR
GS
[1 0 0 1 64.64979 94.04252] CT
N
f1188474679
f
GR
GS
[1 0 0 1 64.82896 86.27883] CT
N
f1188474679
f
GR
GS
[1 0 0 1 77.08096 65.3568] CT
N
f1188474679
f
GR
GS
[1 0 0 1 80.80388 93.21225] CT
N
f1188474679
f
GR
GS
[1 0 0 1 74.82478 39.03318] CT
N
f1188474679
f
GR
GS
[1 0 0 1 43.28611 92.01661] CT
N
f1188474679
f
GR
GS
[1 0 0 1 61.2894 46.3923] CT
N
f1188474679
f
GR
GS
[1 0 0 1 87.74629 14.70023] CT
N
f1188474679
f
GR
GS
[1 0 0 1 33.15618 102.34414] CT
N
f1188474679
f
GR
GS
[1 0 0 1 63.14022 38.47634] CT
N
f1188474679
f
GR
GS
[1 0 0 1 96.08078 36.34288] CT
N
f1188474679
f
GR
GS
[1 0 0 1 89.53996 40.95951] CT
N
f1188474679
f
GR
GS
[1 0 0 1 86.96838 74.98472] CT
N
f1188474679
f
GR
GS
[1 0 0 1 126.06108 102.32272] CT
N
f1188474679
f
GR
GS
[1 0 0 1 90.48895 72.27166] CT
N
f1188474679
f
GR
GS
[1 0 0 1 37.06345 107.63748] CT
N
f1188474679
f
GR
GS
[1 0 0 1 54.3159 80.64152] CT
N
f1188474679
f
GR
GS
[1 0 0 1 59.44005 49.91358] CT
N
f1188474679
f
GR
GS
[1 0 0 1 71.54269 47.04598] CT
N
f1188474679
f
GR
GS
[1 0 0 1 75.03085 39.55794] CT
N
f1188474679
f
GR
GS
[1 0 0 1 70.75468 85.29755] CT
N
f1188474679
f
GR
GS
[1 0 0 1 96.93015 31.43372] CT
N
f1188474679
f
GR
GS
[1 0 0 1 96.35342 27.26743] CT
N
f1188474679
f
GR
GS
[1 0 0 1 58.14293 94.32444] CT
N
f1188474679
f
GR
%%Trailer
%%Pages: 1
%%EOF
