%!PS-Adobe-3.0 EPSF-3.0
%%Creator: (MATLAB, The Mathworks, Inc. Version 9.3.0.713579 \(R2017b\). Operating System: Mac OS X)
%%Title: ./testDist_S2_data.eps
%%CreationDate: 2018-08-10T09:47:57
%%Pages: (atend)
%%BoundingBox:     0     1   135   135
%%LanguageLevel: 3
%%EndComments
%%BeginProlog
%%BeginResource: procset (Apache XML Graphics Std ProcSet) 1.2 0
%%Version: 1.2 0
%%Copyright: (Copyright 2001-2003,2010 The Apache Software Foundation. License terms: http://www.apache.org/licenses/LICENSE-2.0)
/bd{bind def}bind def
/ld{load def}bd
/GR/grestore ld
/GS/gsave ld
/RM/rmoveto ld
/C/curveto ld
/t/show ld
/L/lineto ld
/ML/setmiterlimit ld
/CT/concat ld
/f/fill ld
/N/newpath ld
/S/stroke ld
/CC/setcmykcolor ld
/A/ashow ld
/cp/closepath ld
/RC/setrgbcolor ld
/LJ/setlinejoin ld
/GC/setgray ld
/LW/setlinewidth ld
/M/moveto ld
/re {4 2 roll M
1 index 0 rlineto
0 exch rlineto
neg 0 rlineto
cp } bd
/_ctm matrix def
/_tm matrix def
/BT { _ctm currentmatrix pop matrix _tm copy pop 0 0 moveto } bd
/ET { _ctm setmatrix } bd
/iTm { _ctm setmatrix _tm concat } bd
/Tm { _tm astore pop iTm 0 0 moveto } bd
/ux 0.0 def
/uy 0.0 def
/F {
  /Tp exch def
  /Tf exch def
  Tf findfont Tp scalefont setfont
  /cf Tf def  /cs Tp def
} bd
/ULS {currentpoint /uy exch def /ux exch def} bd
/ULE {
  /Tcx currentpoint pop def
  gsave
  newpath
  cf findfont cs scalefont dup
  /FontMatrix get 0 get /Ts exch def /FontInfo get dup
  /UnderlinePosition get Ts mul /To exch def
  /UnderlineThickness get Ts mul /Tt exch def
  ux uy To add moveto  Tcx uy To add lineto
  Tt setlinewidth stroke
  grestore
} bd
/OLE {
  /Tcx currentpoint pop def
  gsave
  newpath
  cf findfont cs scalefont dup
  /FontMatrix get 0 get /Ts exch def /FontInfo get dup
  /UnderlinePosition get Ts mul /To exch def
  /UnderlineThickness get Ts mul /Tt exch def
  ux uy To add cs add moveto Tcx uy To add cs add lineto
  Tt setlinewidth stroke
  grestore
} bd
/SOE {
  /Tcx currentpoint pop def
  gsave
  newpath
  cf findfont cs scalefont dup
  /FontMatrix get 0 get /Ts exch def /FontInfo get dup
  /UnderlinePosition get Ts mul /To exch def
  /UnderlineThickness get Ts mul /Tt exch def
  ux uy To add cs 10 mul 26 idiv add moveto Tcx uy To add cs 10 mul 26 idiv add lineto
  Tt setlinewidth stroke
  grestore
} bd
/QT {
/Y22 exch store
/X22 exch store
/Y21 exch store
/X21 exch store
currentpoint
/Y21 load 2 mul add 3 div exch
/X21 load 2 mul add 3 div exch
/X21 load 2 mul /X22 load add 3 div
/Y21 load 2 mul /Y22 load add 3 div
/X22 load /Y22 load curveto
} bd
/SSPD {
dup length /d exch dict def
{
/v exch def
/k exch def
currentpagedevice k known {
/cpdv currentpagedevice k get def
v cpdv ne {
/upd false def
/nullv v type /nulltype eq def
/nullcpdv cpdv type /nulltype eq def
nullv nullcpdv or
{
/upd true def
} {
/sametype v type cpdv type eq def
sametype {
v type /arraytype eq {
/vlen v length def
/cpdvlen cpdv length def
vlen cpdvlen eq {
0 1 vlen 1 sub {
/i exch def
/obj v i get def
/cpdobj cpdv i get def
obj cpdobj ne {
/upd true def
exit
} if
} for
} {
/upd true def
} ifelse
} {
v type /dicttype eq {
v {
/dv exch def
/dk exch def
/cpddv cpdv dk get def
dv cpddv ne {
/upd true def
exit
} if
} forall
} {
/upd true def
} ifelse
} ifelse
} if
} ifelse
upd true eq {
d k v put
} if
} if
} if
} forall
d length 0 gt {
d setpagedevice
} if
} bd
/RE { % /NewFontName [NewEncodingArray] /FontName RE -
  findfont dup length dict begin
  {
    1 index /FID ne
    {def} {pop pop} ifelse
  } forall
  /Encoding exch def
  /FontName 1 index def
  currentdict definefont pop
  end
} bind def
%%EndResource
%%BeginResource: procset (Apache XML Graphics EPS ProcSet) 1.0 0
%%Version: 1.0 0
%%Copyright: (Copyright 2002-2003 The Apache Software Foundation. License terms: http://www.apache.org/licenses/LICENSE-2.0)
/BeginEPSF { %def
/b4_Inc_state save def         % Save state for cleanup
/dict_count countdictstack def % Count objects on dict stack
/op_count count 1 sub def      % Count objects on operand stack
userdict begin                 % Push userdict on dict stack
/showpage { } def              % Redefine showpage, { } = null proc
0 setgray 0 setlinecap         % Prepare graphics state
1 setlinewidth 0 setlinejoin
10 setmiterlimit [ ] 0 setdash newpath
/languagelevel where           % If level not equal to 1 then
{pop languagelevel             % set strokeadjust and
1 ne                           % overprint to their defaults.
{false setstrokeadjust false setoverprint
} if
} if
} bd
/EndEPSF { %def
count op_count sub {pop} repeat            % Clean up stacks
countdictstack dict_count sub {end} repeat
b4_Inc_state restore
} bd
%%EndResource
%FOPBeginFontDict
%%IncludeResource: font Courier-Oblique
%%IncludeResource: font Courier-BoldOblique
%%IncludeResource: font Courier-Bold
%%IncludeResource: font ZapfDingbats
%%IncludeResource: font Symbol
%%IncludeResource: font Helvetica
%%IncludeResource: font Helvetica-Oblique
%%IncludeResource: font Helvetica-Bold
%%IncludeResource: font Helvetica-BoldOblique
%%IncludeResource: font Times-Roman
%%IncludeResource: font Times-Italic
%%IncludeResource: font Times-Bold
%%IncludeResource: font Times-BoldItalic
%%IncludeResource: font Courier
%FOPEndFontDict
%%BeginResource: encoding WinAnsiEncoding
/WinAnsiEncoding [
/.notdef /.notdef /.notdef /.notdef /.notdef
/.notdef /.notdef /.notdef /.notdef /.notdef
/.notdef /.notdef /.notdef /.notdef /.notdef
/.notdef /.notdef /.notdef /.notdef /.notdef
/.notdef /.notdef /.notdef /.notdef /.notdef
/.notdef /.notdef /.notdef /.notdef /.notdef
/.notdef /.notdef /space /exclam /quotedbl
/numbersign /dollar /percent /ampersand /quotesingle
/parenleft /parenright /asterisk /plus /comma
/hyphen /period /slash /zero /one
/two /three /four /five /six
/seven /eight /nine /colon /semicolon
/less /equal /greater /question /at
/A /B /C /D /E
/F /G /H /I /J
/K /L /M /N /O
/P /Q /R /S /T
/U /V /W /X /Y
/Z /bracketleft /backslash /bracketright /asciicircum
/underscore /quoteleft /a /b /c
/d /e /f /g /h
/i /j /k /l /m
/n /o /p /q /r
/s /t /u /v /w
/x /y /z /braceleft /bar
/braceright /asciitilde /bullet /Euro /bullet
/quotesinglbase /florin /quotedblbase /ellipsis /dagger
/daggerdbl /circumflex /perthousand /Scaron /guilsinglleft
/OE /bullet /Zcaron /bullet /bullet
/quoteleft /quoteright /quotedblleft /quotedblright /bullet
/endash /emdash /asciitilde /trademark /scaron
/guilsinglright /oe /bullet /zcaron /Ydieresis
/space /exclamdown /cent /sterling /currency
/yen /brokenbar /section /dieresis /copyright
/ordfeminine /guillemotleft /logicalnot /sfthyphen /registered
/macron /degree /plusminus /twosuperior /threesuperior
/acute /mu /paragraph /middot /cedilla
/onesuperior /ordmasculine /guillemotright /onequarter /onehalf
/threequarters /questiondown /Agrave /Aacute /Acircumflex
/Atilde /Adieresis /Aring /AE /Ccedilla
/Egrave /Eacute /Ecircumflex /Edieresis /Igrave
/Iacute /Icircumflex /Idieresis /Eth /Ntilde
/Ograve /Oacute /Ocircumflex /Otilde /Odieresis
/multiply /Oslash /Ugrave /Uacute /Ucircumflex
/Udieresis /Yacute /Thorn /germandbls /agrave
/aacute /acircumflex /atilde /adieresis /aring
/ae /ccedilla /egrave /eacute /ecircumflex
/edieresis /igrave /iacute /icircumflex /idieresis
/eth /ntilde /ograve /oacute /ocircumflex
/otilde /odieresis /divide /oslash /ugrave
/uacute /ucircumflex /udieresis /yacute /thorn
/ydieresis
] def
%%EndResource
%FOPBeginFontReencode
/Courier-Oblique findfont
dup length dict begin
  {1 index /FID ne {def} {pop pop} ifelse} forall
  /Encoding WinAnsiEncoding def
  currentdict
end
/Courier-Oblique exch definefont pop
/Courier-BoldOblique findfont
dup length dict begin
  {1 index /FID ne {def} {pop pop} ifelse} forall
  /Encoding WinAnsiEncoding def
  currentdict
end
/Courier-BoldOblique exch definefont pop
/Courier-Bold findfont
dup length dict begin
  {1 index /FID ne {def} {pop pop} ifelse} forall
  /Encoding WinAnsiEncoding def
  currentdict
end
/Courier-Bold exch definefont pop
/Helvetica findfont
dup length dict begin
  {1 index /FID ne {def} {pop pop} ifelse} forall
  /Encoding WinAnsiEncoding def
  currentdict
end
/Helvetica exch definefont pop
/Helvetica-Oblique findfont
dup length dict begin
  {1 index /FID ne {def} {pop pop} ifelse} forall
  /Encoding WinAnsiEncoding def
  currentdict
end
/Helvetica-Oblique exch definefont pop
/Helvetica-Bold findfont
dup length dict begin
  {1 index /FID ne {def} {pop pop} ifelse} forall
  /Encoding WinAnsiEncoding def
  currentdict
end
/Helvetica-Bold exch definefont pop
/Helvetica-BoldOblique findfont
dup length dict begin
  {1 index /FID ne {def} {pop pop} ifelse} forall
  /Encoding WinAnsiEncoding def
  currentdict
end
/Helvetica-BoldOblique exch definefont pop
/Times-Roman findfont
dup length dict begin
  {1 index /FID ne {def} {pop pop} ifelse} forall
  /Encoding WinAnsiEncoding def
  currentdict
end
/Times-Roman exch definefont pop
/Times-Italic findfont
dup length dict begin
  {1 index /FID ne {def} {pop pop} ifelse} forall
  /Encoding WinAnsiEncoding def
  currentdict
end
/Times-Italic exch definefont pop
/Times-Bold findfont
dup length dict begin
  {1 index /FID ne {def} {pop pop} ifelse} forall
  /Encoding WinAnsiEncoding def
  currentdict
end
/Times-Bold exch definefont pop
/Times-BoldItalic findfont
dup length dict begin
  {1 index /FID ne {def} {pop pop} ifelse} forall
  /Encoding WinAnsiEncoding def
  currentdict
end
/Times-BoldItalic exch definefont pop
/Courier findfont
dup length dict begin
  {1 index /FID ne {def} {pop pop} ifelse} forall
  /Encoding WinAnsiEncoding def
  currentdict
end
/Courier exch definefont pop
%FOPEndFontReencode
%%EndProlog
%%Page: 1 1
%%PageBoundingBox: 0 0 144 144
%%BeginPageSetup
[1 0 0 -1 0 144] CT
%%EndPageSetup
GS
1 GC
N
0 0 144 144 re
f
GR
GS
1 GC
N
0 0 144 144 re
f
GR
GS
1 GC
N
28.5 119.5 M
130.5 119.5 L
130.5 11 L
28.5 11 L
cp
f
GR
GS
0.149 GC
2 setlinecap
1 LJ
0.5 LW
N
28.5 119.5 M
130.5 119.5 L
S
GR
GS
0.149 GC
2 setlinecap
1 LJ
0.5 LW
N
28.5 11 M
130.5 11 L
S
GR
GS
0.149 GC
2 setlinecap
1 LJ
0.5 LW
N
28.5 119.5 M
28.5 118.418 L
S
GR
GS
0.149 GC
2 setlinecap
1 LJ
0.5 LW
N
79.5 119.5 M
79.5 118.418 L
S
GR
GS
0.149 GC
2 setlinecap
1 LJ
0.5 LW
N
130.5 119.5 M
130.5 118.418 L
S
GR
GS
0.149 GC
2 setlinecap
1 LJ
0.5 LW
N
28.5 11 M
28.5 12.082 L
S
GR
GS
0.149 GC
2 setlinecap
1 LJ
0.5 LW
N
79.5 11 M
79.5 12.082 L
S
GR
GS
0.149 GC
2 setlinecap
1 LJ
0.5 LW
N
130.5 11 M
130.5 12.082 L
S
GR
GS
[1 0 0 1 28.5 123.10001] CT
0.149 GC
N
0 6.892 M
-0.984 6.892 -1.336 6.087 QT
-1.688 5.282 -1.688 4.173 QT
-1.688 3.47 -1.563 2.861 QT
-1.438 2.251 -1.055 1.822 QT
-0.672 1.392 0 1.392 QT
0.531 1.392 0.867 1.65 QT
1.203 1.907 1.375 2.314 QT
1.547 2.72 1.617 3.189 QT
1.688 3.657 1.688 4.173 QT
1.688 4.861 1.555 5.454 QT
1.422 6.048 1.055 6.47 QT
0.688 6.892 0 6.892 QT
cp
0 6.689 M
0.453 6.689 0.672 6.228 QT
0.891 5.767 0.938 5.212 QT
0.984 4.657 0.984 4.032 QT
0.984 3.439 0.938 2.931 QT
0.891 2.423 0.672 2.009 QT
0.453 1.595 0 1.595 QT
-0.453 1.595 -0.672 2.009 QT
-0.891 2.423 -0.938 2.931 QT
-0.984 3.439 -0.984 4.032 QT
-0.984 4.486 -0.969 4.876 QT
-0.953 5.267 -0.859 5.689 QT
-0.766 6.111 -0.555 6.4 QT
-0.344 6.689 0 6.689 QT
cp
f
GR
GS
[1 0 0 1 79.5 123.10001] CT
0.149 GC
N
-1.611 6.579 M
-1.611 6.532 -1.58 6.454 QT
-1.361 5.986 -1.166 5.54 QT
-0.97 5.095 -0.814 4.673 QT
-0.658 4.251 -0.533 3.767 QT
-1.049 3.767 L
-1.345 3.767 -1.595 3.947 QT
-1.845 4.126 -2.017 4.407 QT
-2.033 4.439 -2.064 4.439 QT
-2.158 4.439 L
-2.236 4.439 -2.236 4.361 QT
-2.236 4.345 -2.22 4.314 QT
-1.955 3.876 -1.658 3.572 QT
-1.361 3.267 -0.986 3.267 QT
1.92 3.267 L
1.998 3.267 2.061 3.322 QT
2.123 3.376 2.123 3.47 QT
2.123 3.595 2.037 3.681 QT
1.951 3.767 1.842 3.767 QT
0.811 3.767 L
0.686 4.392 0.67 4.986 QT
0.67 5.767 0.951 6.376 QT
0.967 6.423 0.967 6.486 QT
0.967 6.564 0.92 6.642 QT
0.873 6.72 0.787 6.767 QT
0.701 6.814 0.623 6.814 QT
0.405 6.814 0.326 6.47 QT
0.248 6.126 0.248 5.798 QT
0.248 5.345 0.326 4.915 QT
0.405 4.486 0.576 3.767 QT
-0.299 3.767 L
-0.924 6.329 -1.049 6.595 QT
-1.174 6.814 -1.361 6.814 QT
-1.47 6.814 -1.541 6.743 QT
-1.611 6.673 -1.611 6.579 QT
cp
f
GR
GS
[1 0 0 1 130.5 123.10001] CT
0.149 GC
N
-4.017 6.72 M
-4.017 6.501 L
-4.017 6.486 -4.002 6.454 QT
-2.767 5.079 L
-2.486 4.782 -2.306 4.572 QT
-2.127 4.361 -1.955 4.095 QT
-1.783 3.829 -1.689 3.548 QT
-1.595 3.267 -1.595 2.954 QT
-1.595 2.626 -1.713 2.329 QT
-1.83 2.032 -2.072 1.853 QT
-2.314 1.673 -2.658 1.673 QT
-3.002 1.673 -3.275 1.884 QT
-3.549 2.095 -3.674 2.423 QT
-3.642 2.407 -3.58 2.407 QT
-3.408 2.407 -3.275 2.532 QT
-3.142 2.657 -3.142 2.845 QT
-3.142 3.032 -3.275 3.157 QT
-3.408 3.282 -3.58 3.282 QT
-3.767 3.282 -3.892 3.15 QT
-4.017 3.017 -4.017 2.845 QT
-4.017 2.548 -3.908 2.282 QT
-3.799 2.017 -3.588 1.814 QT
-3.377 1.611 -3.103 1.501 QT
-2.83 1.392 -2.533 1.392 QT
-2.08 1.392 -1.681 1.587 QT
-1.283 1.782 -1.056 2.134 QT
-0.83 2.486 -0.83 2.954 QT
-0.83 3.298 -0.978 3.611 QT
-1.127 3.923 -1.369 4.181 QT
-1.611 4.439 -1.978 4.767 QT
-2.345 5.095 -2.47 5.204 QT
-3.377 6.064 L
-2.611 6.064 L
-2.033 6.064 -1.658 6.056 QT
-1.283 6.048 -1.252 6.032 QT
-1.158 5.923 -1.064 5.298 QT
-0.83 5.298 L
-1.049 6.72 L
-4.017 6.72 L
cp
f
GR
GS
[1 0 0 1 130.5 123.10001] CT
0.149 GC
N
0.389 6.579 M
0.389 6.532 0.42 6.454 QT
0.639 5.986 0.834 5.54 QT
1.03 5.095 1.186 4.673 QT
1.342 4.251 1.467 3.767 QT
0.951 3.767 L
0.655 3.767 0.405 3.947 QT
0.155 4.126 -0.017 4.407 QT
-0.033 4.439 -0.064 4.439 QT
-0.158 4.439 L
-0.236 4.439 -0.236 4.361 QT
-0.236 4.345 -0.22 4.314 QT
0.045 3.876 0.342 3.572 QT
0.639 3.267 1.014 3.267 QT
3.92 3.267 L
3.998 3.267 4.061 3.322 QT
4.123 3.376 4.123 3.47 QT
4.123 3.595 4.037 3.681 QT
3.951 3.767 3.842 3.767 QT
2.811 3.767 L
2.686 4.392 2.67 4.986 QT
2.67 5.767 2.951 6.376 QT
2.967 6.423 2.967 6.486 QT
2.967 6.564 2.92 6.642 QT
2.873 6.72 2.787 6.767 QT
2.701 6.814 2.623 6.814 QT
2.405 6.814 2.326 6.47 QT
2.248 6.126 2.248 5.798 QT
2.248 5.345 2.326 4.915 QT
2.405 4.486 2.576 3.767 QT
1.701 3.767 L
1.076 6.329 0.951 6.595 QT
0.826 6.814 0.639 6.814 QT
0.53 6.814 0.459 6.743 QT
0.389 6.673 0.389 6.579 QT
cp
f
GR
GS
[1 0 0 1 79.50005 133.44] CT
0.149 GC
N
-0.872 9.142 M
-0.465 7.517 L
-0.934 7.517 -1.325 7.306 QT
-1.715 7.095 -1.958 6.712 QT
-2.2 6.329 -2.2 5.876 QT
-2.2 5.392 -1.958 4.947 QT
-1.715 4.501 -1.294 4.142 QT
-0.872 3.783 -0.387 3.587 QT
0.097 3.392 0.566 3.392 QT
1.113 1.204 L
1.128 1.142 1.175 1.142 QT
1.285 1.142 L
1.316 1.142 1.339 1.173 QT
1.363 1.204 1.363 1.236 QT
0.831 3.392 L
1.16 3.392 1.48 3.517 QT
1.8 3.642 2.042 3.861 QT
2.285 4.079 2.417 4.376 QT
2.55 4.673 2.55 5.017 QT
2.55 5.517 2.308 5.954 QT
2.066 6.392 1.66 6.751 QT
1.253 7.111 0.753 7.314 QT
0.253 7.517 -0.215 7.517 QT
-0.622 9.189 L
-0.637 9.236 -0.7 9.236 QT
-0.809 9.236 L
-0.84 9.236 -0.856 9.204 QT
-0.872 9.173 -0.872 9.142 QT
cp
-0.419 7.283 M
0.503 3.626 L
0.269 3.626 0.019 3.712 QT
-0.231 3.798 -0.45 3.939 QT
-0.669 4.079 -0.856 4.267 QT
-1.075 4.486 -1.239 4.783 QT
-1.403 5.079 -1.489 5.415 QT
-1.575 5.751 -1.575 6.064 QT
-1.575 6.408 -1.426 6.681 QT
-1.278 6.954 -1.02 7.119 QT
-0.762 7.283 -0.419 7.283 QT
cp
-0.153 7.283 M
0.191 7.283 0.574 7.087 QT
0.956 6.892 1.206 6.642 QT
1.535 6.298 1.73 5.814 QT
1.925 5.329 1.925 4.829 QT
1.925 4.501 1.785 4.22 QT
1.644 3.939 1.378 3.783 QT
1.113 3.626 0.769 3.626 QT
-0.153 7.283 L
cp
f
GR
GS
0.149 GC
2 setlinecap
1 LJ
0.5 LW
N
28.5 119.5 M
28.5 11 L
S
GR
GS
0.149 GC
2 setlinecap
1 LJ
0.5 LW
N
130.5 119.5 M
130.5 11 L
S
GR
GS
0.149 GC
2 setlinecap
1 LJ
0.5 LW
N
28.5 119.5 M
29.582 119.5 L
S
GR
GS
0.149 GC
2 setlinecap
1 LJ
0.5 LW
N
28.5 65.25 M
29.582 65.25 L
S
GR
GS
0.149 GC
2 setlinecap
1 LJ
0.5 LW
N
28.5 11 M
29.582 11 L
S
GR
GS
0.149 GC
2 setlinecap
1 LJ
0.5 LW
N
130.5 119.5 M
129.418 119.5 L
S
GR
GS
0.149 GC
2 setlinecap
1 LJ
0.5 LW
N
130.5 65.25 M
129.418 65.25 L
S
GR
GS
0.149 GC
2 setlinecap
1 LJ
0.5 LW
N
130.5 11 M
129.418 11 L
S
GR
GS
[1 0 0 1 24.9 119.5] CT
0.149 GC
N
-10.257 0.076 M
-10.319 0.076 -10.359 0.029 QT
-10.398 -0.018 -10.398 -0.08 QT
-10.398 -0.143 -10.359 -0.189 QT
-10.319 -0.236 -10.257 -0.236 QT
-5.663 -0.236 L
-5.601 -0.236 -5.562 -0.189 QT
-5.523 -0.143 -5.523 -0.08 QT
-5.523 -0.018 -5.562 0.029 QT
-5.601 0.076 -5.663 0.076 QT
-10.257 0.076 L
cp
f
GR
GS
[1 0 0 1 24.9 119.5] CT
0.149 GC
N
-4.035 1.779 M
-4.035 1.732 -4.003 1.654 QT
-3.785 1.186 -3.589 0.74 QT
-3.394 0.295 -3.238 -0.127 QT
-3.082 -0.549 -2.957 -1.033 QT
-3.472 -1.033 L
-3.769 -1.033 -4.019 -0.853 QT
-4.269 -0.674 -4.441 -0.393 QT
-4.457 -0.361 -4.488 -0.361 QT
-4.582 -0.361 L
-4.66 -0.361 -4.66 -0.439 QT
-4.66 -0.455 -4.644 -0.486 QT
-4.378 -0.924 -4.082 -1.228 QT
-3.785 -1.533 -3.41 -1.533 QT
-0.503 -1.533 L
-0.425 -1.533 -0.363 -1.478 QT
-0.3 -1.424 -0.3 -1.33 QT
-0.3 -1.205 -0.386 -1.119 QT
-0.472 -1.033 -0.582 -1.033 QT
-1.613 -1.033 L
-1.738 -0.408 -1.753 0.186 QT
-1.753 0.967 -1.472 1.576 QT
-1.457 1.623 -1.457 1.686 QT
-1.457 1.764 -1.503 1.842 QT
-1.55 1.92 -1.636 1.967 QT
-1.722 2.014 -1.8 2.014 QT
-2.019 2.014 -2.097 1.67 QT
-2.175 1.326 -2.175 0.998 QT
-2.175 0.545 -2.097 0.115 QT
-2.019 -0.314 -1.847 -1.033 QT
-2.722 -1.033 L
-3.347 1.529 -3.472 1.795 QT
-3.597 2.014 -3.785 2.014 QT
-3.894 2.014 -3.964 1.943 QT
-4.035 1.873 -4.035 1.779 QT
cp
f
GR
GS
[1 0 0 1 24.9 65.25] CT
0.149 GC
N
-2 2.092 M
-2.984 2.092 -3.336 1.287 QT
-3.688 0.482 -3.688 -0.627 QT
-3.688 -1.33 -3.563 -1.939 QT
-3.438 -2.549 -3.055 -2.978 QT
-2.672 -3.408 -2 -3.408 QT
-1.469 -3.408 -1.133 -3.15 QT
-0.797 -2.893 -0.625 -2.486 QT
-0.453 -2.08 -0.383 -1.611 QT
-0.313 -1.143 -0.313 -0.627 QT
-0.313 0.061 -0.445 0.654 QT
-0.578 1.248 -0.945 1.67 QT
-1.313 2.092 -2 2.092 QT
cp
-2 1.889 M
-1.547 1.889 -1.328 1.428 QT
-1.109 0.967 -1.063 0.412 QT
-1.016 -0.143 -1.016 -0.768 QT
-1.016 -1.361 -1.063 -1.869 QT
-1.109 -2.377 -1.328 -2.791 QT
-1.547 -3.205 -2 -3.205 QT
-2.453 -3.205 -2.672 -2.791 QT
-2.891 -2.377 -2.938 -1.869 QT
-2.984 -1.361 -2.984 -0.768 QT
-2.984 -0.314 -2.969 0.076 QT
-2.953 0.467 -2.859 0.889 QT
-2.766 1.311 -2.555 1.6 QT
-2.344 1.889 -2 1.889 QT
cp
f
GR
GS
[1 0 0 1 24.9 11] CT
0.149 GC
N
/f529709247{-4.035 1.779 M
-4.035 1.732 -4.003 1.654 QT
-3.785 1.186 -3.589 0.74 QT
-3.394 0.295 -3.238 -0.127 QT
-3.082 -0.549 -2.957 -1.033 QT
-3.472 -1.033 L
-3.769 -1.033 -4.019 -0.853 QT
-4.269 -0.674 -4.441 -0.393 QT
-4.457 -0.361 -4.488 -0.361 QT
-4.582 -0.361 L
-4.66 -0.361 -4.66 -0.439 QT
-4.66 -0.455 -4.644 -0.486 QT
-4.378 -0.924 -4.082 -1.228 QT
-3.785 -1.533 -3.41 -1.533 QT
-0.503 -1.533 L
-0.425 -1.533 -0.363 -1.478 QT
-0.3 -1.424 -0.3 -1.33 QT
-0.3 -1.205 -0.386 -1.119 QT
-0.472 -1.033 -0.582 -1.033 QT
-1.613 -1.033 L
-1.738 -0.408 -1.753 0.186 QT
-1.753 0.967 -1.472 1.576 QT
-1.457 1.623 -1.457 1.686 QT
-1.457 1.764 -1.503 1.842 QT
-1.55 1.92 -1.636 1.967 QT
-1.722 2.014 -1.8 2.014 QT
-2.019 2.014 -2.097 1.67 QT
-2.175 1.326 -2.175 0.998 QT
-2.175 0.545 -2.097 0.115 QT
-2.019 -0.314 -1.847 -1.033 QT
-2.722 -1.033 L
-3.347 1.529 -3.472 1.795 QT
-3.597 2.014 -3.785 2.014 QT
-3.894 2.014 -3.964 1.943 QT
-4.035 1.873 -4.035 1.779 QT
cp}def
f529709247
f
GR
GS
[0 -1 1 0 10.56 65.24995] CT
0.149 GC
N
/f737393408{-0.325 -3.027 M
-0.638 -3.027 -0.903 -3.145 QT
-1.169 -3.262 -1.372 -3.481 QT
-1.575 -3.699 -1.669 -3.973 QT
-1.763 -4.246 -1.763 -4.559 QT
-1.763 -5.121 -1.497 -5.652 QT
-1.231 -6.184 -0.771 -6.566 QT
-0.31 -6.949 0.222 -7.09 QT
-0.028 -7.574 -0.169 -7.934 QT
-0.31 -8.293 -0.31 -8.652 QT
-0.31 -8.934 -0.185 -9.137 QT
-0.06 -9.34 0.167 -9.465 QT
0.394 -9.59 0.675 -9.59 QT
0.94 -9.59 1.737 -9.402 QT
1.94 -9.356 1.94 -9.168 QT
1.94 -9.012 1.831 -8.887 QT
1.722 -8.762 1.565 -8.762 QT
1.456 -8.762 1.37 -8.816 QT
1.284 -8.871 1.097 -8.996 QT
0.909 -9.121 0.761 -9.191 QT
0.612 -9.262 0.44 -9.262 QT
0.253 -9.262 0.112 -9.145 QT
-0.028 -9.027 -0.028 -8.856 QT
-0.028 -8.574 0.222 -8.199 QT
0.472 -7.824 0.94 -7.246 QT
1.472 -6.574 1.472 -5.746 QT
1.472 -5.356 1.354 -4.879 QT
1.237 -4.402 1.011 -3.988 QT
0.784 -3.574 0.44 -3.301 QT
0.097 -3.027 -0.325 -3.027 QT
cp
-0.31 -3.277 M
0.05 -3.277 0.3 -3.645 QT
0.55 -4.012 0.683 -4.512 QT
0.815 -5.012 0.815 -5.356 QT
0.815 -6.027 0.347 -6.871 QT
-0.138 -6.731 -0.474 -6.309 QT
-0.81 -5.887 -0.989 -5.34 QT
-1.169 -4.793 -1.169 -4.309 QT
-1.169 -3.871 -0.942 -3.574 QT
-0.716 -3.277 -0.31 -3.277 QT
cp}def
f737393408
f
GR
GS
[1 0 0 1 102.28652 39.77847] CT
N
0.5 0 M
0.5 0.276 0.276 0.5 0 0.5 C
-0.276 0.5 -0.5 0.276 -0.5 0 C
-0.5 -0.276 -0.276 -0.5 0 -0.5 C
0.276 -0.5 0.5 -0.276 0.5 0 C
cp
f
GR
GS
[1 0 0 1 119.90208 42.72149] CT
N
/f1188474679{0.5 0 M
0.5 0.276 0.276 0.5 0 0.5 C
-0.276 0.5 -0.5 0.276 -0.5 0 C
-0.5 -0.276 -0.276 -0.5 0 -0.5 C
0.276 -0.5 0.5 -0.276 0.5 0 C
cp}def
f1188474679
f
GR
GS
[1 0 0 1 89.9997 60.44477] CT
N
f1188474679
f
GR
GS
[1 0 0 1 104.16952 50.47006] CT
N
f1188474679
f
GR
GS
[1 0 0 1 50.45858 107.26551] CT
N
f1188474679
f
GR
GS
[1 0 0 1 31.26572 86.82949] CT
N
f1188474679
f
GR
GS
[1 0 0 1 62.29057 69.34663] CT
N
f1188474679
f
GR
GS
[1 0 0 1 106.69299 51.75263] CT
N
f1188474679
f
GR
GS
[1 0 0 1 69.23984 63.47607] CT
N
f1188474679
f
GR
GS
[1 0 0 1 48.6193 83.30569] CT
N
f1188474679
f
GR
GS
[1 0 0 1 92.6108 95.13219] CT
N
f1188474679
f
GR
GS
[1 0 0 1 122.17126 56.88378] CT
N
f1188474679
f
GR
GS
[1 0 0 1 58.84549 78.95113] CT
N
f1188474679
f
GR
GS
[1 0 0 1 55.73261 87.54185] CT
N
f1188474679
f
GR
GS
[1 0 0 1 91.31558 71.86121] CT
N
f1188474679
f
GR
GS
[1 0 0 1 72.95988 69.67725] CT
N
f1188474679
f
GR
GS
[1 0 0 1 43.91431 74.51953] CT
N
f1188474679
f
GR
GS
[1 0 0 1 83.34603 61.37495] CT
N
f1188474679
f
GR
GS
[1 0 0 1 100.12389 25.94392] CT
N
f1188474679
f
GR
GS
[1 0 0 1 104.05805 44.40434] CT
N
f1188474679
f
GR
GS
[1 0 0 1 44.66906 82.64049] CT
N
f1188474679
f
GR
GS
[1 0 0 1 108.0822 55.9967] CT
N
f1188474679
f
GR
GS
[1 0 0 1 85.75495 51.68671] CT
N
f1188474679
f
GR
GS
[1 0 0 1 94.97765 31.4452] CT
N
f1188474679
f
GR
GS
[1 0 0 1 58.22143 93.28616] CT
N
f1188474679
f
GR
GS
[1 0 0 1 60.62648 57.77646] CT
N
f1188474679
f
GR
GS
[1 0 0 1 71.18525 81.37125] CT
N
f1188474679
f
GR
GS
[1 0 0 1 80.80359 34.81675] CT
N
f1188474679
f
GR
GS
[1 0 0 1 93.98283 45.88961] CT
N
f1188474679
f
GR
GS
[1 0 0 1 84.62953 54.17873] CT
N
f1188474679
f
GR
GS
[1 0 0 1 36.24767 103.76311] CT
N
f1188474679
f
GR
GS
[1 0 0 1 78.88656 60.35484] CT
N
f1188474679
f
GR
GS
[1 0 0 1 72.51027 55.4357] CT
N
f1188474679
f
GR
GS
[1 0 0 1 114.44595 20.35301] CT
N
f1188474679
f
GR
GS
[1 0 0 1 87.72654 59.87848] CT
N
f1188474679
f
GR
GS
[1 0 0 1 41.69509 80.68118] CT
N
f1188474679
f
GR
GS
[1 0 0 1 47.04754 69.61081] CT
N
f1188474679
f
GR
GS
[1 0 0 1 125.0116 35.88686] CT
N
f1188474679
f
GR
GS
[1 0 0 1 99.73735 58.26717] CT
N
f1188474679
f
GR
GS
[1 0 0 1 89.59261 74.46552] CT
N
f1188474679
f
GR
GS
[1 0 0 1 99.82445 101.49625] CT
N
f1188474679
f
GR
GS
[1 0 0 1 82.04396 76.74904] CT
N
f1188474679
f
GR
GS
[1 0 0 1 112.47045 44.37254] CT
N
f1188474679
f
GR
GS
[1 0 0 1 75.52982 49.65047] CT
N
f1188474679
f
GR
GS
[1 0 0 1 114.12467 36.97648] CT
N
f1188474679
f
GR
GS
[1 0 0 1 114.41905 75.0826] CT
N
f1188474679
f
GR
GS
[1 0 0 1 75.96694 76.47347] CT
N
f1188474679
f
GR
GS
[1 0 0 1 87.01751 57.83832] CT
N
f1188474679
f
GR
GS
[1 0 0 1 78.96755 105.49776] CT
N
f1188474679
f
GR
GS
[1 0 0 1 59.86188 60.63198] CT
N
f1188474679
f
GR
GS
[1 0 0 1 72.87897 65.13672] CT
N
f1188474679
f
GR
GS
[1 0 0 1 51.45231 66.7847] CT
N
f1188474679
f
GR
GS
[1 0 0 1 62.93867 98.73277] CT
N
f1188474679
f
GR
GS
[1 0 0 1 114.57243 52.92727] CT
N
f1188474679
f
GR
GS
[1 0 0 1 54.99996 72.36409] CT
N
f1188474679
f
GR
GS
[1 0 0 1 81.14263 65.63352] CT
N
f1188474679
f
GR
GS
[1 0 0 1 103.75925 18.8544] CT
N
f1188474679
f
GR
GS
[1 0 0 1 67.22428 60.14772] CT
N
f1188474679
f
GR
GS
[1 0 0 1 108.64838 31.6449] CT
N
f1188474679
f
GR
GS
[1 0 0 1 34.55334 31.18216] CT
N
f1188474679
f
GR
GS
[1 0 0 1 39.80978 100.09043] CT
N
f1188474679
f
GR
GS
[1 0 0 1 74.18536 63.97301] CT
N
f1188474679
f
GR
GS
[1 0 0 1 129.89545 93.7552] CT
N
f1188474679
f
GR
GS
[1 0 0 1 65.65615 85.09726] CT
N
f1188474679
f
GR
GS
[1 0 0 1 43.04831 82.59703] CT
N
f1188474679
f
GR
GS
[1 0 0 1 96.67841 55.60642] CT
N
f1188474679
f
GR
GS
[1 0 0 1 57.08962 20.85119] CT
N
f1188474679
f
GR
GS
[1 0 0 1 127.46986 94.24419] CT
N
f1188474679
f
GR
GS
[1 0 0 1 70.3152 81.99947] CT
N
f1188474679
f
GR
GS
[1 0 0 1 104.11752 63.57488] CT
N
f1188474679
f
GR
GS
[1 0 0 1 121.88988 46.94954] CT
N
f1188474679
f
GR
GS
[1 0 0 1 49.54998 88.64725] CT
N
f1188474679
f
GR
GS
[1 0 0 1 40.71552 77.58188] CT
N
f1188474679
f
GR
GS
[1 0 0 1 68.94387 86.60163] CT
N
f1188474679
f
GR
GS
[1 0 0 1 111.42471 48.05746] CT
N
f1188474679
f
GR
GS
[1 0 0 1 90.21513 55.75131] CT
N
f1188474679
f
GR
GS
[1 0 0 1 69.57461 89.48038] CT
N
f1188474679
f
GR
GS
[1 0 0 1 60.85569 74.31773] CT
N
f1188474679
f
GR
GS
[1 0 0 1 64.46546 76.12309] CT
N
f1188474679
f
GR
GS
[1 0 0 1 122.04108 49.98562] CT
N
f1188474679
f
GR
GS
[1 0 0 1 43.79353 65.2675] CT
N
f1188474679
f
GR
GS
[1 0 0 1 51.38494 86.47819] CT
N
f1188474679
f
GR
GS
[1 0 0 1 104.12411 62.69063] CT
N
f1188474679
f
GR
GS
[1 0 0 1 58.14697 102.40424] CT
N
f1188474679
f
GR
GS
[1 0 0 1 80.52222 89.50262] CT
N
f1188474679
f
GR
GS
[1 0 0 1 60.2438 54.14053] CT
N
f1188474679
f
GR
GS
[1 0 0 1 35.53125 35.30597] CT
N
f1188474679
f
GR
GS
[1 0 0 1 43.21711 82.15688] CT
N
f1188474679
f
GR
GS
[1 0 0 1 64.01471 48.97396] CT
N
f1188474679
f
GR
GS
[1 0 0 1 87.36205 45.62086] CT
N
f1188474679
f
GR
GS
[1 0 0 1 33.20155 79.75558] CT
N
f1188474679
f
GR
GS
[1 0 0 1 53.78076 88.96672] CT
N
f1188474679
f
GR
GS
[1 0 0 1 47.52627 85.9289] CT
N
f1188474679
f
GR
GS
[1 0 0 1 117.38522 48.94748] CT
N
f1188474679
f
GR
GS
[1 0 0 1 89.02853 65.61734] CT
N
f1188474679
f
GR
GS
[1 0 0 1 63.60853 78.5934] CT
N
f1188474679
f
GR
GS
[1 0 0 1 69.77824 59.22026] CT
N
f1188474679
f
GR
GS
[1 0 0 1 102.98946 70.59564] CT
N
f1188474679
f
GR
GS
[1 0 0 1 54.16955 96.3694] CT
N
f1188474679
f
GR
GS
[1 0 0 1 80.95383 62.27579] CT
N
f1188474679
f
GR
GS
[1 0 0 1 121.40505 94.38123] CT
N
f1188474679
f
GR
GS
[1 0 0 1 68.78253 74.02057] CT
N
f1188474679
f
GR
GS
[1 0 0 1 103.98348 38.8147] CT
N
f1188474679
f
GR
GS
[1 0 0 1 37.50833 90.22932] CT
N
f1188474679
f
GR
GS
[1 0 0 1 77.4978 92.0372] CT
N
f1188474679
f
GR
GS
[1 0 0 1 100.3635 44.73734] CT
N
f1188474679
f
GR
GS
[1 0 0 1 109.19555 39.16439] CT
N
f1188474679
f
GR
GS
[1 0 0 1 82.79241 65.90944] CT
N
f1188474679
f
GR
GS
[1 0 0 1 79.38381 76.59395] CT
N
f1188474679
f
GR
GS
[1 0 0 1 88.94186 57.60938] CT
N
f1188474679
f
GR
GS
[1 0 0 1 87.47452 48.94332] CT
N
f1188474679
f
GR
GS
[1 0 0 1 103.88528 27.83724] CT
N
f1188474679
f
GR
GS
[1 0 0 1 64.23512 50.90849] CT
N
f1188474679
f
GR
GS
[1 0 0 1 97.43504 26.57599] CT
N
f1188474679
f
GR
GS
[1 0 0 1 97.45639 25.51593] CT
N
f1188474679
f
GR
GS
[1 0 0 1 92.40586 67.01369] CT
N
f1188474679
f
GR
GS
[1 0 0 1 115.67535 31.37544] CT
N
f1188474679
f
GR
GS
[1 0 0 1 103.89358 37.70097] CT
N
f1188474679
f
GR
GS
[1 0 0 1 108.98122 19.1225] CT
N
f1188474679
f
GR
GS
[1 0 0 1 127.7593 30.1382] CT
N
f1188474679
f
GR
GS
[1 0 0 1 62.98259 88.31119] CT
N
f1188474679
f
GR
GS
[1 0 0 1 96.19589 27.49198] CT
N
f1188474679
f
GR
GS
[1 0 0 1 129.81055 44.90965] CT
N
f1188474679
f
GR
GS
[1 0 0 1 124.03148 90.98037] CT
N
f1188474679
f
GR
GS
[1 0 0 1 44.46054 78.4827] CT
N
f1188474679
f
GR
GS
[1 0 0 1 63.76749 85.06085] CT
N
f1188474679
f
GR
GS
[1 0 0 1 95.7872 66.19503] CT
N
f1188474679
f
GR
GS
[1 0 0 1 61.21393 87.69959] CT
N
f1188474679
f
GR
GS
[1 0 0 1 96.9268 38.09466] CT
N
f1188474679
f
GR
GS
[1 0 0 1 92.21461 49.97726] CT
N
f1188474679
f
GR
GS
[1 0 0 1 43.56301 83.08149] CT
N
f1188474679
f
GR
GS
[1 0 0 1 109.51791 63.74068] CT
N
f1188474679
f
GR
GS
[1 0 0 1 77.0851 74.14512] CT
N
f1188474679
f
GR
GS
[1 0 0 1 46.80932 89.36243] CT
N
f1188474679
f
GR
GS
[1 0 0 1 78.47993 71.22455] CT
N
f1188474679
f
GR
GS
[1 0 0 1 46.31085 108.93992] CT
N
f1188474679
f
GR
GS
[1 0 0 1 52.2043 109.97044] CT
N
f1188474679
f
GR
GS
[1 0 0 1 77.52154 102.12356] CT
N
f1188474679
f
GR
GS
[1 0 0 1 125.65287 37.92324] CT
N
f1188474679
f
GR
GS
[1 0 0 1 92.1963 50.93343] CT
N
f1188474679
f
GR
GS
[1 0 0 1 110.60703 57.05671] CT
N
f1188474679
f
GR
GS
[1 0 0 1 95.30057 66.85352] CT
N
f1188474679
f
GR
GS
[1 0 0 1 43.60035 100.99028] CT
N
f1188474679
f
GR
GS
[1 0 0 1 93.80579 23.68682] CT
N
f1188474679
f
GR
GS
[1 0 0 1 56.33562 89.14553] CT
N
f1188474679
f
GR
GS
[1 0 0 1 69.39836 62.10178] CT
N
f1188474679
f
GR
GS
[1 0 0 1 119.00396 30.19556] CT
N
f1188474679
f
GR
GS
[1 0 0 1 86.01577 52.83651] CT
N
f1188474679
f
GR
GS
[1 0 0 1 67.09576 52.46653] CT
N
f1188474679
f
GR
GS
[1 0 0 1 36.24812 28.74012] CT
N
f1188474679
f
GR
GS
[1 0 0 1 43.65857 79.71825] CT
N
f1188474679
f
GR
GS
[1 0 0 1 81.77039 51.7128] CT
N
f1188474679
f
GR
GS
[1 0 0 1 98.21796 78.88642] CT
N
f1188474679
f
GR
GS
[1 0 0 1 62.94138 66.52351] CT
N
f1188474679
f
GR
GS
[1 0 0 1 67.16541 90.68723] CT
N
f1188474679
f
GR
GS
[1 0 0 1 67.68079 63.00936] CT
N
f1188474679
f
GR
GS
[1 0 0 1 68.53592 84.50476] CT
N
f1188474679
f
GR
GS
[1 0 0 1 48.14147 111.92159] CT
N
f1188474679
f
GR
GS
[1 0 0 1 57.95457 92.8586] CT
N
f1188474679
f
GR
GS
[1 0 0 1 33.55265 37.80388] CT
N
f1188474679
f
GR
GS
[1 0 0 1 111.02689 28.81677] CT
N
f1188474679
f
GR
GS
[1 0 0 1 54.30345 90.30518] CT
N
f1188474679
f
GR
GS
[1 0 0 1 47.2611 84.77574] CT
N
f1188474679
f
GR
GS
[1 0 0 1 104.86873 31.42911] CT
N
f1188474679
f
GR
GS
[1 0 0 1 72.73172 65.12662] CT
N
f1188474679
f
GR
GS
[1 0 0 1 74.1884 46.42387] CT
N
f1188474679
f
GR
GS
[1 0 0 1 33.87683 14.19438] CT
N
f1188474679
f
GR
GS
[1 0 0 1 52.80855 59.88597] CT
N
f1188474679
f
GR
GS
[1 0 0 1 55.39839 97.9389] CT
N
f1188474679
f
GR
GS
[1 0 0 1 73.5013 55.59934] CT
N
f1188474679
f
GR
GS
[1 0 0 1 77.21389 61.41912] CT
N
f1188474679
f
GR
GS
[1 0 0 1 50.06349 112.8684] CT
N
f1188474679
f
GR
GS
[1 0 0 1 109.33295 99.56654] CT
N
f1188474679
f
GR
GS
[1 0 0 1 108.42369 47.25723] CT
N
f1188474679
f
GR
GS
[1 0 0 1 113.60471 25.20633] CT
N
f1188474679
f
GR
GS
[1 0 0 1 98.72212 60.36576] CT
N
f1188474679
f
GR
GS
[1 0 0 1 56.04054 79.97122] CT
N
f1188474679
f
GR
GS
[1 0 0 1 34.43636 32.48915] CT
N
f1188474679
f
GR
GS
[1 0 0 1 41.11165 48.1994] CT
N
f1188474679
f
GR
GS
[1 0 0 1 110.64257 56.36113] CT
N
f1188474679
f
GR
GS
[1 0 0 1 65.16983 82.76357] CT
N
f1188474679
f
GR
GS
[1 0 0 1 128.63647 31.44857] CT
N
f1188474679
f
GR
GS
[1 0 0 1 57.04247 98.69037] CT
N
f1188474679
f
GR
GS
[1 0 0 1 60.27211 94.12002] CT
N
f1188474679
f
GR
GS
[1 0 0 1 109.26789 52.97449] CT
N
f1188474679
f
GR
GS
[1 0 0 1 93.5947 48.12288] CT
N
f1188474679
f
GR
GS
[1 0 0 1 72.02648 68.8036] CT
N
f1188474679
f
GR
GS
[1 0 0 1 40.78775 29.46894] CT
N
f1188474679
f
GR
GS
[1 0 0 1 79.10196 72.48155] CT
N
f1188474679
f
GR
GS
[1 0 0 1 59.40184 94.12835] CT
N
f1188474679
f
GR
GS
[1 0 0 1 47.53607 65.01775] CT
N
f1188474679
f
GR
GS
[1 0 0 1 88.18441 32.21464] CT
N
f1188474679
f
GR
GS
[1 0 0 1 98.46502 86.93439] CT
N
f1188474679
f
GR
GS
[1 0 0 1 124.74157 65.65275] CT
N
f1188474679
f
GR
GS
[1 0 0 1 64.10699 79.26441] CT
N
f1188474679
f
GR
GS
[1 0 0 1 58.50736 90.72001] CT
N
f1188474679
f
GR
GS
[1 0 0 1 58.27916 58.34566] CT
N
f1188474679
f
GR
GS
[1 0 0 1 80.47735 73.78305] CT
N
f1188474679
f
GR
GS
[1 0 0 1 30.88662 31.05369] CT
N
f1188474679
f
GR
GS
[1 0 0 1 54.80456 93.26488] CT
N
f1188474679
f
GR
GS
[1 0 0 1 67.32902 88.59656] CT
N
f1188474679
f
GR
GS
[1 0 0 1 68.77976 53.58731] CT
N
f1188474679
f
GR
GS
[1 0 0 1 54.84986 86.16924] CT
N
f1188474679
f
GR
GS
[1 0 0 1 82.4248 37.62607] CT
N
f1188474679
f
GR
GS
[1 0 0 1 106.88934 84.39404] CT
N
f1188474679
f
GR
GS
[1 0 0 1 107.62576 55.22805] CT
N
f1188474679
f
GR
GS
[1 0 0 1 96.6395 65.04728] CT
N
f1188474679
f
GR
GS
[1 0 0 1 96.3958 67.86967] CT
N
f1188474679
f
GR
GS
[1 0 0 1 88.99107 83.1954] CT
N
f1188474679
f
GR
GS
[1 0 0 1 56.58982 102.83968] CT
N
f1188474679
f
GR
GS
[1 0 0 1 58.55844 90.92287] CT
N
f1188474679
f
GR
GS
[1 0 0 1 43.9373 91.1493] CT
N
f1188474679
f
GR
GS
[1 0 0 1 93.47756 71.43526] CT
N
f1188474679
f
GR
GS
[1 0 0 1 75.44915 87.52953] CT
N
f1188474679
f
GR
GS
[1 0 0 1 45.72609 95.02734] CT
N
f1188474679
f
GR
GS
[1 0 0 1 58.10754 77.61287] CT
N
f1188474679
f
GR
GS
[1 0 0 1 99.52327 74.58426] CT
N
f1188474679
f
GR
GS
[1 0 0 1 39.25565 108.16047] CT
N
f1188474679
f
GR
GS
[1 0 0 1 47.51247 87.65422] CT
N
f1188474679
f
GR
GS
[1 0 0 1 101.40698 51.18717] CT
N
f1188474679
f
GR
GS
[1 0 0 1 115.16025 52.176] CT
N
f1188474679
f
GR
GS
[1 0 0 1 90.62579 93.95594] CT
N
f1188474679
f
GR
GS
[1 0 0 1 34.91825 78.76112] CT
N
f1188474679
f
GR
GS
[1 0 0 1 94.90202 38.52786] CT
N
f1188474679
f
GR
GS
[1 0 0 1 51.87653 110.05273] CT
N
f1188474679
f
GR
GS
[1 0 0 1 91.45975 57.72234] CT
N
f1188474679
f
GR
GS
[1 0 0 1 97.5884 35.68002] CT
N
f1188474679
f
GR
GS
[1 0 0 1 117.09338 40.75556] CT
N
f1188474679
f
GR
GS
[1 0 0 1 73.53426 84.4657] CT
N
f1188474679
f
GR
GS
[1 0 0 1 61.58669 65.48409] CT
N
f1188474679
f
GR
GS
[1 0 0 1 59.12281 85.60556] CT
N
f1188474679
f
GR
GS
[1 0 0 1 90.21217 56.30014] CT
N
f1188474679
f
GR
GS
[1 0 0 1 86.3062 78.76102] CT
N
f1188474679
f
GR
GS
[1 0 0 1 67.42471 82.40652] CT
N
f1188474679
f
GR
GS
[1 0 0 1 95.94627 81.48284] CT
N
f1188474679
f
GR
GS
[1 0 0 1 85.91576 70.8764] CT
N
f1188474679
f
GR
GS
[1 0 0 1 91.56541 75.9392] CT
N
f1188474679
f
GR
GS
[1 0 0 1 106.86906 39.0124] CT
N
f1188474679
f
GR
GS
[1 0 0 1 45.92083 75.95238] CT
N
f1188474679
f
GR
GS
[1 0 0 1 78.25962 80.73883] CT
N
f1188474679
f
GR
GS
[1 0 0 1 90.85664 76.61407] CT
N
f1188474679
f
GR
GS
[1 0 0 1 100.64999 69.75536] CT
N
f1188474679
f
GR
GS
[1 0 0 1 64.34019 60.12271] CT
N
f1188474679
f
GR
GS
[1 0 0 1 74.94108 43.78224] CT
N
f1188474679
f
GR
GS
[1 0 0 1 55.25957 70.02808] CT
N
f1188474679
f
GR
GS
[1 0 0 1 104.24714 61.14061] CT
N
f1188474679
f
GR
GS
[1 0 0 1 86.28394 65.00562] CT
N
f1188474679
f
GR
GS
[1 0 0 1 85.24666 55.61281] CT
N
f1188474679
f
GR
GS
[1 0 0 1 78.05449 53.61385] CT
N
f1188474679
f
GR
GS
[1 0 0 1 73.507 71.46583] CT
N
f1188474679
f
GR
GS
[1 0 0 1 102.68246 46.48379] CT
N
f1188474679
f
GR
GS
[1 0 0 1 29.87827 36.36289] CT
N
f1188474679
f
GR
GS
[1 0 0 1 102.30711 66.18599] CT
N
f1188474679
f
GR
GS
[1 0 0 1 112.69911 48.60286] CT
N
f1188474679
f
GR
GS
[1 0 0 1 87.83966 63.51407] CT
N
f1188474679
f
GR
GS
[1 0 0 1 80.99544 89.67441] CT
N
f1188474679
f
GR
GS
[1 0 0 1 100.01893 39.65623] CT
N
f1188474679
f
GR
GS
[1 0 0 1 57.68516 75.644] CT
N
f1188474679
f
GR
GS
[1 0 0 1 89.37676 69.61703] CT
N
f1188474679
f
GR
GS
[1 0 0 1 56.23927 74.26503] CT
N
f1188474679
f
GR
GS
[1 0 0 1 82.84223 80.89351] CT
N
f1188474679
f
GR
GS
[1 0 0 1 56.54872 60.96254] CT
N
f1188474679
f
GR
GS
[1 0 0 1 41.58746 67.25719] CT
N
f1188474679
f
GR
GS
[1 0 0 1 79.7392 108.37292] CT
N
f1188474679
f
GR
GS
[1 0 0 1 50.89873 58.91473] CT
N
f1188474679
f
GR
GS
[1 0 0 1 92.2344 73.35312] CT
N
f1188474679
f
GR
GS
[1 0 0 1 35.06816 27.05489] CT
N
f1188474679
f
GR
GS
[1 0 0 1 53.07295 88.35587] CT
N
f1188474679
f
GR
GS
[1 0 0 1 101.91337 52.40087] CT
N
f1188474679
f
GR
GS
[1 0 0 1 76.12652 40.33934] CT
N
f1188474679
f
GR
GS
[1 0 0 1 72.84592 62.32593] CT
N
f1188474679
f
GR
GS
[1 0 0 1 80.07012 97.71646] CT
N
f1188474679
f
GR
GS
[1 0 0 1 91.58281 78.75459] CT
N
f1188474679
f
GR
GS
[1 0 0 1 71.34741 77.57534] CT
N
f1188474679
f
GR
GS
[1 0 0 1 96.81187 57.83297] CT
N
f1188474679
f
GR
GS
[1 0 0 1 78.68916 70.43061] CT
N
f1188474679
f
GR
GS
[1 0 0 1 51.21146 60.27715] CT
N
f1188474679
f
GR
GS
[1 0 0 1 85.65009 69.35575] CT
N
f1188474679
f
GR
GS
[1 0 0 1 60.47756 65.75024] CT
N
f1188474679
f
GR
GS
[1 0 0 1 123.78004 111.31204] CT
N
f1188474679
f
GR
GS
[1 0 0 1 86.38191 58.06083] CT
N
f1188474679
f
GR
GS
[1 0 0 1 86.77448 65.2924] CT
N
f1188474679
f
GR
GS
[1 0 0 1 67.39888 62.45708] CT
N
f1188474679
f
GR
GS
[1 0 0 1 115.32214 51.52644] CT
N
f1188474679
f
GR
GS
[1 0 0 1 37.58652 81.23056] CT
N
f1188474679
f
GR
GS
[1 0 0 1 54.03897 55.14836] CT
N
f1188474679
f
GR
GS
[1 0 0 1 101.85631 36.09002] CT
N
f1188474679
f
GR
GS
[1 0 0 1 104.75808 51.79484] CT
N
f1188474679
f
GR
GS
[1 0 0 1 109.5019 87.30505] CT
N
f1188474679
f
GR
GS
[1 0 0 1 73.73597 79.13512] CT
N
f1188474679
f
GR
GS
[1 0 0 1 89.34476 35.96923] CT
N
f1188474679
f
GR
GS
[1 0 0 1 98.90334 79.15717] CT
N
f1188474679
f
GR
GS
[1 0 0 1 35.11931 63.59541] CT
N
f1188474679
f
GR
GS
[1 0 0 1 99.69828 71.3875] CT
N
f1188474679
f
GR
GS
[1 0 0 1 108.423 36.31668] CT
N
f1188474679
f
GR
GS
[1 0 0 1 107.99759 38.90565] CT
N
f1188474679
f
GR
GS
[1 0 0 1 29.49259 105.381] CT
N
f1188474679
f
GR
GS
[1 0 0 1 94.05839 49.87328] CT
N
f1188474679
f
GR
GS
[1 0 0 1 62.94479 80.79678] CT
N
f1188474679
f
GR
GS
[1 0 0 1 56.70462 72.36282] CT
N
f1188474679
f
GR
GS
[1 0 0 1 74.85907 73.87846] CT
N
f1188474679
f
GR
GS
[1 0 0 1 54.65556 97.51547] CT
N
f1188474679
f
GR
GS
[1 0 0 1 86.24321 75.01743] CT
N
f1188474679
f
GR
GS
[1 0 0 1 59.42612 88.42371] CT
N
f1188474679
f
GR
GS
[1 0 0 1 78.52959 65.10649] CT
N
f1188474679
f
GR
GS
[1 0 0 1 95.29163 71.83701] CT
N
f1188474679
f
GR
GS
[1 0 0 1 105.19799 112.27202] CT
N
f1188474679
f
GR
GS
[1 0 0 1 101.94738 56.14092] CT
N
f1188474679
f
GR
GS
[1 0 0 1 97.47627 40.80542] CT
N
f1188474679
f
GR
GS
[1 0 0 1 59.5343 62.19177] CT
N
f1188474679
f
GR
GS
[1 0 0 1 50.48058 93.87513] CT
N
f1188474679
f
GR
GS
[1 0 0 1 114.86971 51.1919] CT
N
f1188474679
f
GR
GS
[1 0 0 1 95.99833 59.52995] CT
N
f1188474679
f
GR
GS
[1 0 0 1 69.5529 77.39525] CT
N
f1188474679
f
GR
GS
[1 0 0 1 87.84692 61.06782] CT
N
f1188474679
f
GR
GS
[1 0 0 1 57.84955 90.20502] CT
N
f1188474679
f
GR
GS
[1 0 0 1 91.53899 73.03526] CT
N
f1188474679
f
GR
GS
[1 0 0 1 48.89657 90.44723] CT
N
f1188474679
f
GR
GS
[1 0 0 1 87.79807 55.88313] CT
N
f1188474679
f
GR
GS
[1 0 0 1 63.91681 81.56528] CT
N
f1188474679
f
GR
GS
[1 0 0 1 57.80441 73.87762] CT
N
f1188474679
f
GR
GS
[1 0 0 1 62.24305 78.5518] CT
N
f1188474679
f
GR
GS
[1 0 0 1 59.97952 97.99889] CT
N
f1188474679
f
GR
GS
[1 0 0 1 78.31152 62.43404] CT
N
f1188474679
f
GR
GS
[1 0 0 1 48.20876 83.2812] CT
N
f1188474679
f
GR
GS
[1 0 0 1 110.86338 57.90705] CT
N
f1188474679
f
GR
GS
[1 0 0 1 86.81613 55.67014] CT
N
f1188474679
f
GR
GS
[1 0 0 1 49.72799 61.18922] CT
N
f1188474679
f
GR
GS
[1 0 0 1 94.86011 75.14632] CT
N
f1188474679
f
GR
GS
[1 0 0 1 89.00543 61.86954] CT
N
f1188474679
f
GR
GS
[1 0 0 1 87.65944 55.74163] CT
N
f1188474679
f
GR
GS
[1 0 0 1 76.67263 65.68518] CT
N
f1188474679
f
GR
GS
[1 0 0 1 85.84254 67.89321] CT
N
f1188474679
f
GR
GS
[1 0 0 1 56.5241 102.09066] CT
N
f1188474679
f
GR
GS
[1 0 0 1 73.05064 101.42562] CT
N
f1188474679
f
GR
GS
[1 0 0 1 85.57854 68.145] CT
N
f1188474679
f
GR
GS
[1 0 0 1 93.05798 36.63219] CT
N
f1188474679
f
GR
GS
[1 0 0 1 89.89769 43.43777] CT
N
f1188474679
f
GR
GS
[1 0 0 1 102.13486 64.83845] CT
N
f1188474679
f
GR
GS
[1 0 0 1 36.5499 63.60389] CT
N
f1188474679
f
GR
GS
[1 0 0 1 76.8707 72.52825] CT
N
f1188474679
f
GR
GS
[1 0 0 1 36.25681 50.14885] CT
N
f1188474679
f
GR
GS
[1 0 0 1 44.3432 92.02183] CT
N
f1188474679
f
GR
GS
[1 0 0 1 45.42723 103.92385] CT
N
f1188474679
f
GR
GS
[1 0 0 1 35.06285 45.60216] CT
N
f1188474679
f
GR
GS
[1 0 0 1 56.61539 91.79697] CT
N
f1188474679
f
GR
GS
[1 0 0 1 125.55845 40.72632] CT
N
f1188474679
f
GR
GS
[1 0 0 1 87.97966 77.98577] CT
N
f1188474679
f
GR
GS
[1 0 0 1 65.60331 81.51031] CT
N
f1188474679
f
GR
GS
[1 0 0 1 91.94389 50.47603] CT
N
f1188474679
f
GR
GS
[1 0 0 1 40.91293 81.07483] CT
N
f1188474679
f
GR
GS
[1 0 0 1 93.6412 40.46151] CT
N
f1188474679
f
GR
GS
[1 0 0 1 49.50704 67.01534] CT
N
f1188474679
f
GR
GS
[1 0 0 1 107.37862 42.33888] CT
N
f1188474679
f
GR
GS
[1 0 0 1 112.23116 67.49504] CT
N
f1188474679
f
GR
GS
[1 0 0 1 78.86469 81.07143] CT
N
f1188474679
f
GR
GS
[1 0 0 1 58.60567 92.61] CT
N
f1188474679
f
GR
GS
[1 0 0 1 82.94862 109.12469] CT
N
f1188474679
f
GR
GS
[1 0 0 1 113.82805 18.63159] CT
N
f1188474679
f
GR
GS
[1 0 0 1 79.28725 64.27839] CT
N
f1188474679
f
GR
GS
[1 0 0 1 117.53692 41.45565] CT
N
f1188474679
f
GR
GS
[1 0 0 1 70.50066 56.97127] CT
N
f1188474679
f
GR
GS
[1 0 0 1 115.36141 62.68029] CT
N
f1188474679
f
GR
GS
[1 0 0 1 99.07932 73.08611] CT
N
f1188474679
f
GR
GS
[1 0 0 1 97.66708 46.77231] CT
N
f1188474679
f
GR
GS
[1 0 0 1 73.92418 57.11284] CT
N
f1188474679
f
GR
GS
[1 0 0 1 98.91885 40.05578] CT
N
f1188474679
f
GR
GS
[1 0 0 1 80.4893 43.78968] CT
N
f1188474679
f
GR
GS
[1 0 0 1 112.5136 54.18084] CT
N
f1188474679
f
GR
GS
[1 0 0 1 55.72104 116.05735] CT
N
f1188474679
f
GR
GS
[1 0 0 1 79.24152 52.8764] CT
N
f1188474679
f
GR
GS
[1 0 0 1 66.42358 63.78966] CT
N
f1188474679
f
GR
GS
[1 0 0 1 72.56604 50.73558] CT
N
f1188474679
f
GR
GS
[1 0 0 1 57.94206 72.13123] CT
N
f1188474679
f
GR
GS
[1 0 0 1 53.35966 68.51736] CT
N
f1188474679
f
GR
GS
[1 0 0 1 68.84669 82.59969] CT
N
f1188474679
f
GR
GS
[1 0 0 1 89.11817 68.30322] CT
N
f1188474679
f
GR
GS
[1 0 0 1 62.35006 73.13304] CT
N
f1188474679
f
GR
GS
[1 0 0 1 80.94468 78.61439] CT
N
f1188474679
f
GR
GS
[1 0 0 1 108.76071 56.70974] CT
N
f1188474679
f
GR
GS
[1 0 0 1 92.98338 35.30115] CT
N
f1188474679
f
GR
GS
[1 0 0 1 71.13525 74.56654] CT
N
f1188474679
f
GR
GS
[1 0 0 1 91.20267 46.85608] CT
N
f1188474679
f
GR
GS
[1 0 0 1 98.17717 63.98814] CT
N
f1188474679
f
GR
GS
[1 0 0 1 91.44246 79.2076] CT
N
f1188474679
f
GR
GS
[1 0 0 1 64.35948 95.30989] CT
N
f1188474679
f
GR
GS
[1 0 0 1 79.87221 45.23668] CT
N
f1188474679
f
GR
GS
[1 0 0 1 108.0618 33.5294] CT
N
f1188474679
f
GR
GS
[1 0 0 1 57.47575 105.91449] CT
N
f1188474679
f
GR
GS
[1 0 0 1 96.27715 14.01423] CT
N
f1188474679
f
GR
GS
[1 0 0 1 86.24764 65.52111] CT
N
f1188474679
f
GR
GS
[1 0 0 1 114.55944 50.00252] CT
N
f1188474679
f
GR
GS
[1 0 0 1 72.35153 74.25487] CT
N
f1188474679
f
GR
GS
[1 0 0 1 75.94118 85.14391] CT
N
f1188474679
f
GR
GS
[1 0 0 1 93.23151 34.60601] CT
N
f1188474679
f
GR
GS
[1 0 0 1 90.22258 62.86781] CT
N
f1188474679
f
GR
GS
[1 0 0 1 93.49178 71.41292] CT
N
f1188474679
f
GR
GS
[1 0 0 1 98.19843 48.80132] CT
N
f1188474679
f
GR
GS
[1 0 0 1 107.98219 26.84213] CT
N
f1188474679
f
GR
GS
[1 0 0 1 87.95866 78.87517] CT
N
f1188474679
f
GR
GS
[1 0 0 1 84.27325 55.32791] CT
N
f1188474679
f
GR
GS
[1 0 0 1 67.87024 90.59798] CT
N
f1188474679
f
GR
GS
[1 0 0 1 70.07544 92.08026] CT
N
f1188474679
f
GR
GS
[1 0 0 1 91.77142 43.37504] CT
N
f1188474679
f
GR
GS
[1 0 0 1 91.49094 48.71442] CT
N
f1188474679
f
GR
GS
[1 0 0 1 71.44983 73.43684] CT
N
f1188474679
f
GR
GS
[1 0 0 1 90.01184 46.37998] CT
N
f1188474679
f
GR
GS
[1 0 0 1 91.14845 63.2431] CT
N
f1188474679
f
GR
GS
[1 0 0 1 78.8175 67.31151] CT
N
f1188474679
f
GR
GS
[1 0 0 1 128.68646 74.20972] CT
N
f1188474679
f
GR
GS
[1 0 0 1 98.26359 27.18427] CT
N
f1188474679
f
GR
GS
[1 0 0 1 84.58704 69.49944] CT
N
f1188474679
f
GR
GS
[1 0 0 1 72.674 70.35959] CT
N
f1188474679
f
GR
GS
[1 0 0 1 89.10916 79.92298] CT
N
f1188474679
f
GR
GS
[1 0 0 1 97.84892 37.9219] CT
N
f1188474679
f
GR
GS
[1 0 0 1 51.31446 89.69382] CT
N
f1188474679
f
GR
GS
[1 0 0 1 44.81652 95.70253] CT
N
f1188474679
f
GR
GS
[1 0 0 1 40.98589 18.82539] CT
N
f1188474679
f
GR
GS
[1 0 0 1 102.29427 51.93868] CT
N
f1188474679
f
GR
GS
[1 0 0 1 63.81598 74.46454] CT
N
f1188474679
f
GR
GS
[1 0 0 1 61.69781 64.522] CT
N
f1188474679
f
GR
GS
[1 0 0 1 99.64014 72.88673] CT
N
f1188474679
f
GR
GS
[1 0 0 1 98.16547 92.66479] CT
N
f1188474679
f
GR
GS
[1 0 0 1 46.71468 105.80405] CT
N
f1188474679
f
GR
GS
[1 0 0 1 46.03986 41.99867] CT
N
f1188474679
f
GR
GS
[1 0 0 1 115.97964 48.54216] CT
N
f1188474679
f
GR
GS
[1 0 0 1 102.11431 46.00519] CT
N
f1188474679
f
GR
GS
[1 0 0 1 88.77721 65.03438] CT
N
f1188474679
f
GR
GS
[1 0 0 1 57.44469 99.94923] CT
N
f1188474679
f
GR
GS
[1 0 0 1 84.54002 74.89028] CT
N
f1188474679
f
GR
GS
[1 0 0 1 82.34351 67.42417] CT
N
f1188474679
f
GR
GS
[1 0 0 1 106.7699 63.06935] CT
N
f1188474679
f
GR
GS
[1 0 0 1 99.9647 59.69912] CT
N
f1188474679
f
GR
GS
[1 0 0 1 73.62108 88.99581] CT
N
f1188474679
f
GR
GS
[1 0 0 1 93.43726 58.15504] CT
N
f1188474679
f
GR
GS
[1 0 0 1 90.46342 67.15781] CT
N
f1188474679
f
GR
GS
[1 0 0 1 93.1025 59.93419] CT
N
f1188474679
f
GR
GS
[1 0 0 1 61.33556 70.5772] CT
N
f1188474679
f
GR
GS
[1 0 0 1 84.08176 65.11759] CT
N
f1188474679
f
GR
GS
[1 0 0 1 108.68392 60.67881] CT
N
f1188474679
f
GR
GS
[1 0 0 1 88.02366 48.51122] CT
N
f1188474679
f
GR
GS
[1 0 0 1 100.83404 38.12854] CT
N
f1188474679
f
GR
GS
[1 0 0 1 62.91013 98.12502] CT
N
f1188474679
f
GR
GS
[1 0 0 1 82.49046 41.82356] CT
N
f1188474679
f
GR
GS
[1 0 0 1 72.33117 65.51033] CT
N
f1188474679
f
GR
GS
[1 0 0 1 112.24815 55.86004] CT
N
f1188474679
f
GR
GS
[1 0 0 1 53.63446 96.2739] CT
N
f1188474679
f
GR
GS
[1 0 0 1 46.19402 101.45364] CT
N
f1188474679
f
GR
GS
[1 0 0 1 91.45097 91.77605] CT
N
f1188474679
f
GR
GS
[1 0 0 1 44.34612 92.20652] CT
N
f1188474679
f
GR
GS
[1 0 0 1 40.64024 76.35586] CT
N
f1188474679
f
GR
GS
[1 0 0 1 48.08846 72.94955] CT
N
f1188474679
f
GR
GS
[1 0 0 1 97.97684 58.42648] CT
N
f1188474679
f
GR
GS
[1 0 0 1 125.22092 82.85593] CT
N
f1188474679
f
GR
GS
[1 0 0 1 84.0265 71.91734] CT
N
f1188474679
f
GR
GS
[1 0 0 1 89.35717 63.43941] CT
N
f1188474679
f
GR
GS
[1 0 0 1 90.17908 60.32806] CT
N
f1188474679
f
GR
GS
[1 0 0 1 58.77628 71.13518] CT
N
f1188474679
f
GR
GS
[1 0 0 1 69.64288 61.69062] CT
N
f1188474679
f
GR
GS
[1 0 0 1 108.48991 51.38716] CT
N
f1188474679
f
GR
GS
[1 0 0 1 33.41404 24.24504] CT
N
f1188474679
f
GR
GS
[1 0 0 1 68.73547 84.94136] CT
N
f1188474679
f
GR
GS
[1 0 0 1 66.43324 53.60004] CT
N
f1188474679
f
GR
GS
[1 0 0 1 79.71156 37.8667] CT
N
f1188474679
f
GR
GS
[1 0 0 1 101.18967 58.61375] CT
N
f1188474679
f
GR
GS
[1 0 0 1 119.75568 101.61211] CT
N
f1188474679
f
GR
GS
[1 0 0 1 71.71872 91.73695] CT
N
f1188474679
f
GR
GS
[1 0 0 1 51.27176 95.29543] CT
N
f1188474679
f
GR
GS
[1 0 0 1 80.46191 77.54843] CT
N
f1188474679
f
GR
GS
[1 0 0 1 100.35477 61.0316] CT
N
f1188474679
f
GR
GS
[1 0 0 1 89.06432 65.46108] CT
N
f1188474679
f
GR
GS
[1 0 0 1 76.18478 71.57786] CT
N
f1188474679
f
GR
GS
[1 0 0 1 60.86158 84.70979] CT
N
f1188474679
f
GR
GS
[1 0 0 1 37.35204 76.91153] CT
N
f1188474679
f
GR
GS
[1 0 0 1 98.61881 76.89383] CT
N
f1188474679
f
GR
GS
[1 0 0 1 81.57828 72.31468] CT
N
f1188474679
f
GR
GS
[1 0 0 1 74.03492 101.07816] CT
N
f1188474679
f
GR
GS
[1 0 0 1 43.47147 92.80956] CT
N
f1188474679
f
GR
GS
[1 0 0 1 60.13047 91.75572] CT
N
f1188474679
f
GR
GS
[1 0 0 1 111.93032 109.52373] CT
N
f1188474679
f
GR
GS
[1 0 0 1 69.84581 92.90136] CT
N
f1188474679
f
GR
GS
[1 0 0 1 101.04716 64.22166] CT
N
f1188474679
f
GR
GS
[1 0 0 1 89.60871 63.9434] CT
N
f1188474679
f
GR
GS
[1 0 0 1 91.06322 60.85791] CT
N
f1188474679
f
GR
GS
[1 0 0 1 68.54051 46.47174] CT
N
f1188474679
f
GR
GS
[1 0 0 1 105.14259 61.23466] CT
N
f1188474679
f
GR
GS
[1 0 0 1 86.58047 55.1123] CT
N
f1188474679
f
GR
GS
[1 0 0 1 54.50432 63.87198] CT
N
f1188474679
f
GR
GS
[1 0 0 1 98.34734 56.31032] CT
N
f1188474679
f
GR
GS
[1 0 0 1 47.0444 110.67627] CT
N
f1188474679
f
GR
GS
[1 0 0 1 34.10376 34.73472] CT
N
f1188474679
f
GR
GS
[1 0 0 1 95.16662 55.45438] CT
N
f1188474679
f
GR
GS
[1 0 0 1 67.88003 79.29892] CT
N
f1188474679
f
GR
GS
[1 0 0 1 75.28335 80.56978] CT
N
f1188474679
f
GR
GS
[1 0 0 1 63.389 62.01532] CT
N
f1188474679
f
GR
GS
[1 0 0 1 81.02243 47.56958] CT
N
f1188474679
f
GR
GS
[1 0 0 1 71.9394 83.15894] CT
N
f1188474679
f
GR
GS
[1 0 0 1 70.99983 76.64983] CT
N
f1188474679
f
GR
GS
[1 0 0 1 87.04415 53.93253] CT
N
f1188474679
f
GR
GS
[1 0 0 1 81.95164 35.88136] CT
N
f1188474679
f
GR
GS
[1 0 0 1 100.25705 32.21139] CT
N
f1188474679
f
GR
GS
[1 0 0 1 87.15527 68.37831] CT
N
f1188474679
f
GR
GS
[1 0 0 1 76.92114 28.60891] CT
N
f1188474679
f
GR
GS
[1 0 0 1 95.26891 14.90198] CT
N
f1188474679
f
GR
GS
[1 0 0 1 37.58506 40.52922] CT
N
f1188474679
f
GR
GS
[1 0 0 1 43.80846 113.49625] CT
N
f1188474679
f
GR
GS
[1 0 0 1 90.03452 57.83519] CT
N
f1188474679
f
GR
GS
[1 0 0 1 110.3941 67.20175] CT
N
f1188474679
f
GR
GS
[1 0 0 1 34.21922 83.48392] CT
N
f1188474679
f
GR
GS
[1 0 0 1 55.09523 50.54153] CT
N
f1188474679
f
GR
GS
[1 0 0 1 68.38468 57.94569] CT
N
f1188474679
f
GR
GS
[1 0 0 1 59.9607 68.25375] CT
N
f1188474679
f
GR
GS
[1 0 0 1 101.70709 35.18213] CT
N
f1188474679
f
GR
GS
[1 0 0 1 36.50367 37.00292] CT
N
f1188474679
f
GR
GS
[1 0 0 1 82.52331 51.22975] CT
N
f1188474679
f
GR
GS
[1 0 0 1 80.1804 70.62895] CT
N
f1188474679
f
GR
GS
[1 0 0 1 55.63567 78.65652] CT
N
f1188474679
f
GR
GS
[1 0 0 1 100.98367 51.55284] CT
N
f1188474679
f
GR
GS
[1 0 0 1 130.10062 92.79478] CT
N
f1188474679
f
GR
GS
[1 0 0 1 93.50536 42.74214] CT
N
f1188474679
f
GR
GS
[1 0 0 1 99.10472 61.31597] CT
N
f1188474679
f
GR
GS
[1 0 0 1 69.93441 65.35397] CT
N
f1188474679
f
GR
GS
[1 0 0 1 70.00243 89.7883] CT
N
f1188474679
f
GR
GS
[1 0 0 1 95.29723 61.57107] CT
N
f1188474679
f
GR
GS
[1 0 0 1 63.76911 71.84184] CT
N
f1188474679
f
GR
GS
[1 0 0 1 56.08746 66.33231] CT
N
f1188474679
f
GR
GS
[1 0 0 1 76.70083 76.38831] CT
N
f1188474679
f
GR
GS
[1 0 0 1 101.69461 61.80848] CT
N
f1188474679
f
GR
GS
[1 0 0 1 91.70037 72.77782] CT
N
f1188474679
f
GR
GS
[1 0 0 1 87.1983 81.98783] CT
N
f1188474679
f
GR
GS
[1 0 0 1 73.25191 108.71275] CT
N
f1188474679
f
GR
GS
[1 0 0 1 73.35017 52.96072] CT
N
f1188474679
f
GR
GS
[1 0 0 1 70.44602 62.78701] CT
N
f1188474679
f
GR
GS
[1 0 0 1 63.31183 41.55293] CT
N
f1188474679
f
GR
GS
[1 0 0 1 66.07177 79.10771] CT
N
f1188474679
f
GR
GS
[1 0 0 1 90.98707 58.75992] CT
N
f1188474679
f
GR
GS
[1 0 0 1 107.13985 29.51258] CT
N
f1188474679
f
GR
GS
[1 0 0 1 62.12625 85.31007] CT
N
f1188474679
f
GR
GS
[1 0 0 1 95.26847 60.84084] CT
N
f1188474679
f
GR
GS
[1 0 0 1 75.43374 70.25748] CT
N
f1188474679
f
GR
GS
[1 0 0 1 84.85347 74.4671] CT
N
f1188474679
f
GR
GS
[1 0 0 1 69.48653 78.58574] CT
N
f1188474679
f
GR
GS
[1 0 0 1 107.0348 46.03896] CT
N
f1188474679
f
GR
GS
[1 0 0 1 112.29618 69.06866] CT
N
f1188474679
f
GR
GS
[1 0 0 1 86.90649 75.92502] CT
N
f1188474679
f
GR
GS
[1 0 0 1 74.60955 69.91389] CT
N
f1188474679
f
GR
GS
[1 0 0 1 89.53733 68.9498] CT
N
f1188474679
f
GR
GS
[1 0 0 1 63.87435 70.60572] CT
N
f1188474679
f
GR
GS
[1 0 0 1 99.18124 43.06602] CT
N
f1188474679
f
GR
GS
[1 0 0 1 95.84312 58.01842] CT
N
f1188474679
f
GR
GS
[1 0 0 1 94.65497 61.17137] CT
N
f1188474679
f
GR
GS
[1 0 0 1 74.88672 69.22356] CT
N
f1188474679
f
GR
GS
[1 0 0 1 74.25435 67.37497] CT
N
f1188474679
f
GR
GS
[1 0 0 1 57.37436 66.45458] CT
N
f1188474679
f
GR
GS
[1 0 0 1 85.73957 67.55792] CT
N
f1188474679
f
GR
GS
[1 0 0 1 56.33134 89.23757] CT
N
f1188474679
f
GR
GS
[1 0 0 1 82.17255 72.5624] CT
N
f1188474679
f
GR
GS
[1 0 0 1 59.27029 56.5052] CT
N
f1188474679
f
GR
GS
[1 0 0 1 64.50571 70.76434] CT
N
f1188474679
f
GR
GS
[1 0 0 1 55.99199 74.20777] CT
N
f1188474679
f
GR
GS
[1 0 0 1 58.46798 28.79237] CT
N
f1188474679
f
GR
GS
[1 0 0 1 124.5557 100.2649] CT
N
f1188474679
f
GR
GS
[1 0 0 1 43.92464 95.06058] CT
N
f1188474679
f
GR
GS
[1 0 0 1 38.44336 31.10885] CT
N
f1188474679
f
GR
GS
[1 0 0 1 71.95431 82.9033] CT
N
f1188474679
f
GR
GS
[1 0 0 1 94.33806 64.21727] CT
N
f1188474679
f
GR
GS
[1 0 0 1 118.62446 88.55987] CT
N
f1188474679
f
GR
GS
[1 0 0 1 86.44286 70.6081] CT
N
f1188474679
f
GR
GS
[1 0 0 1 68.69994 89.48783] CT
N
f1188474679
f
GR
GS
[1 0 0 1 53.38772 75.91884] CT
N
f1188474679
f
GR
GS
[1 0 0 1 105.51213 71.61064] CT
N
f1188474679
f
GR
GS
[1 0 0 1 107.50262 67.06325] CT
N
f1188474679
f
GR
GS
[1 0 0 1 101.64059 62.9214] CT
N
f1188474679
f
GR
GS
[1 0 0 1 108.47562 40.14899] CT
N
f1188474679
f
GR
GS
[1 0 0 1 79.4832 69.19093] CT
N
f1188474679
f
GR
GS
[1 0 0 1 43.54262 76.67267] CT
N
f1188474679
f
GR
GS
[1 0 0 1 111.38307 33.90985] CT
N
f1188474679
f
GR
GS
[1 0 0 1 68.87326 42.72173] CT
N
f1188474679
f
GR
GS
[1 0 0 1 69.52065 54.17075] CT
N
f1188474679
f
GR
GS
[1 0 0 1 100.1012 48.20363] CT
N
f1188474679
f
GR
GS
[1 0 0 1 69.52049 82.7061] CT
N
f1188474679
f
GR
GS
[1 0 0 1 66.46595 87.35581] CT
N
f1188474679
f
GR
GS
[1 0 0 1 84.66106 65.80675] CT
N
f1188474679
f
GR
GS
[1 0 0 1 103.7878 29.68696] CT
N
f1188474679
f
GR
GS
[1 0 0 1 63.31181 80.97853] CT
N
f1188474679
f
GR
GS
[1 0 0 1 78.04005 71.45943] CT
N
f1188474679
f
GR
GS
[1 0 0 1 103.96178 52.63287] CT
N
f1188474679
f
GR
GS
[1 0 0 1 82.06674 47.16524] CT
N
f1188474679
f
GR
GS
[1 0 0 1 66.0435 91.73363] CT
N
f1188474679
f
GR
GS
[1 0 0 1 56.54773 84.27786] CT
N
f1188474679
f
GR
GS
[1 0 0 1 102.11579 59.4652] CT
N
f1188474679
f
GR
GS
[1 0 0 1 85.69656 68.52144] CT
N
f1188474679
f
GR
GS
[1 0 0 1 97.25941 55.18597] CT
N
f1188474679
f
GR
GS
[1 0 0 1 66.32143 110.78622] CT
N
f1188474679
f
GR
GS
[1 0 0 1 89.65677 75.80915] CT
N
f1188474679
f
GR
GS
[1 0 0 1 57.47696 99.82392] CT
N
f1188474679
f
GR
GS
[1 0 0 1 82.79904 61.81333] CT
N
f1188474679
f
GR
GS
[1 0 0 1 43.98512 58.87222] CT
N
f1188474679
f
GR
GS
[1 0 0 1 74.60289 73.21536] CT
N
f1188474679
f
GR
GS
[1 0 0 1 94.40733 41.69859] CT
N
f1188474679
f
GR
GS
[1 0 0 1 67.58578 75.73108] CT
N
f1188474679
f
GR
GS
[1 0 0 1 78.74866 85.76442] CT
N
f1188474679
f
GR
GS
[1 0 0 1 56.88688 95.37241] CT
N
f1188474679
f
GR
GS
[1 0 0 1 84.05681 71.94698] CT
N
f1188474679
f
GR
GS
[1 0 0 1 84.42599 48.39259] CT
N
f1188474679
f
GR
GS
[1 0 0 1 80.22395 71.375] CT
N
f1188474679
f
GR
GS
[1 0 0 1 65.77875 85.36054] CT
N
f1188474679
f
GR
GS
[1 0 0 1 80.75581 57.83977] CT
N
f1188474679
f
GR
GS
[1 0 0 1 64.78088 75.03168] CT
N
f1188474679
f
GR
GS
[1 0 0 1 98.69823 24.26994] CT
N
f1188474679
f
GR
GS
[1 0 0 1 79.57912 56.69611] CT
N
f1188474679
f
GR
GS
[1 0 0 1 120.92769 93.03934] CT
N
f1188474679
f
GR
GS
[1 0 0 1 75.5549 59.63717] CT
N
f1188474679
f
GR
GS
[1 0 0 1 45.77712 66.31937] CT
N
f1188474679
f
GR
GS
[1 0 0 1 126.26217 79.79163] CT
N
f1188474679
f
GR
GS
[1 0 0 1 95.98903 48.59016] CT
N
f1188474679
f
GR
GS
[1 0 0 1 91.16936 54.00124] CT
N
f1188474679
f
GR
GS
[1 0 0 1 83.84615 70.49073] CT
N
f1188474679
f
GR
GS
[1 0 0 1 103.75356 45.03055] CT
N
f1188474679
f
GR
GS
[1 0 0 1 114.25066 95.80742] CT
N
f1188474679
f
GR
GS
[1 0 0 1 69.40893 49.28159] CT
N
f1188474679
f
GR
GS
[1 0 0 1 104.009 37.9262] CT
N
f1188474679
f
GR
GS
[1 0 0 1 42.20594 99.50861] CT
N
f1188474679
f
GR
GS
[1 0 0 1 114.23943 62.82988] CT
N
f1188474679
f
GR
GS
[1 0 0 1 105.24641 76.70161] CT
N
f1188474679
f
GR
GS
[1 0 0 1 84.88072 80.5733] CT
N
f1188474679
f
GR
GS
[1 0 0 1 91.25546 64.61959] CT
N
f1188474679
f
GR
GS
[1 0 0 1 76.8268 65.53744] CT
N
f1188474679
f
GR
GS
[1 0 0 1 99.59447 62.98621] CT
N
f1188474679
f
GR
GS
[1 0 0 1 89.08466 82.6377] CT
N
f1188474679
f
GR
GS
[1 0 0 1 98.12548 67.48474] CT
N
f1188474679
f
GR
GS
[1 0 0 1 90.16905 76.05312] CT
N
f1188474679
f
GR
GS
[1 0 0 1 96.16365 74.33716] CT
N
f1188474679
f
GR
GS
[1 0 0 1 73.12421 72.23238] CT
N
f1188474679
f
GR
GS
[1 0 0 1 84.33118 80.47153] CT
N
f1188474679
f
GR
GS
[1 0 0 1 88.19001 64.70181] CT
N
f1188474679
f
GR
GS
[1 0 0 1 89.70966 61.24697] CT
N
f1188474679
f
GR
GS
[1 0 0 1 119.16844 103.10059] CT
N
f1188474679
f
GR
GS
[1 0 0 1 88.89879 66.9022] CT
N
f1188474679
f
GR
GS
[1 0 0 1 118.8269 30.56326] CT
N
f1188474679
f
GR
GS
[1 0 0 1 85.58786 59.52762] CT
N
f1188474679
f
GR
GS
[1 0 0 1 92.94227 62.20399] CT
N
f1188474679
f
GR
GS
[1 0 0 1 34.25898 93.68994] CT
N
f1188474679
f
GR
GS
[1 0 0 1 29.48738 86.40068] CT
N
f1188474679
f
GR
GS
[1 0 0 1 35.94718 29.28298] CT
N
f1188474679
f
GR
GS
[1 0 0 1 96.40701 32.68491] CT
N
f1188474679
f
GR
GS
[1 0 0 1 66.789 75.16175] CT
N
f1188474679
f
GR
GS
[1 0 0 1 78.29691 59.06172] CT
N
f1188474679
f
GR
GS
[1 0 0 1 62.43309 73.26731] CT
N
f1188474679
f
GR
GS
[1 0 0 1 96.04553 44.47919] CT
N
f1188474679
f
GR
GS
[1 0 0 1 62.02048 84.60548] CT
N
f1188474679
f
GR
GS
[1 0 0 1 97.32002 73.06663] CT
N
f1188474679
f
GR
GS
[1 0 0 1 81.81423 69.62548] CT
N
f1188474679
f
GR
GS
[1 0 0 1 82.45953 69.7611] CT
N
f1188474679
f
GR
GS
[1 0 0 1 76.21168 76.79748] CT
N
f1188474679
f
GR
GS
[1 0 0 1 55.37816 72.40231] CT
N
f1188474679
f
GR
GS
[1 0 0 1 53.91818 66.14146] CT
N
f1188474679
f
GR
GS
[1 0 0 1 84.52281 57.74836] CT
N
f1188474679
f
GR
GS
[1 0 0 1 57.5242 73.59942] CT
N
f1188474679
f
GR
GS
[1 0 0 1 87.91734 52.19747] CT
N
f1188474679
f
GR
GS
[1 0 0 1 87.17859 30.31897] CT
N
f1188474679
f
GR
GS
[1 0 0 1 71.4747 84.02792] CT
N
f1188474679
f
GR
GS
[1 0 0 1 85.31641 66.43484] CT
N
f1188474679
f
GR
GS
[1 0 0 1 58.31833 79.67012] CT
N
f1188474679
f
GR
GS
[1 0 0 1 78.78391 69.59137] CT
N
f1188474679
f
GR
GS
[1 0 0 1 88.81155 56.26023] CT
N
f1188474679
f
GR
GS
[1 0 0 1 115.54175 35.83223] CT
N
f1188474679
f
GR
GS
[1 0 0 1 77.45021 80.98565] CT
N
f1188474679
f
GR
GS
[1 0 0 1 92.79446 33.60695] CT
N
f1188474679
f
GR
GS
[1 0 0 1 83.247 73.70798] CT
N
f1188474679
f
GR
GS
[1 0 0 1 61.93292 86.39067] CT
N
f1188474679
f
GR
GS
[1 0 0 1 37.26865 76.21092] CT
N
f1188474679
f
GR
GS
[1 0 0 1 105.61617 40.85453] CT
N
f1188474679
f
GR
GS
[1 0 0 1 62.80326 58.77464] CT
N
f1188474679
f
GR
GS
[1 0 0 1 76.53761 55.02118] CT
N
f1188474679
f
GR
GS
[1 0 0 1 64.64979 90.65262] CT
N
f1188474679
f
GR
GS
[1 0 0 1 64.82896 79.54114] CT
N
f1188474679
f
GR
GS
[1 0 0 1 77.08096 63.76412] CT
N
f1188474679
f
GR
GS
[1 0 0 1 80.80388 82.06189] CT
N
f1188474679
f
GR
GS
[1 0 0 1 74.82478 50.52668] CT
N
f1188474679
f
GR
GS
[1 0 0 1 43.28611 71.59645] CT
N
f1188474679
f
GR
GS
[1 0 0 1 61.2894 52.175] CT
N
f1188474679
f
GR
GS
[1 0 0 1 87.74629 19.51053] CT
N
f1188474679
f
GR
GS
[1 0 0 1 33.15618 95.85588] CT
N
f1188474679
f
GR
GS
[1 0 0 1 63.14022 60.3422] CT
N
f1188474679
f
GR
GS
[1 0 0 1 96.08078 63.9219] CT
N
f1188474679
f
GR
GS
[1 0 0 1 89.53996 58.3299] CT
N
f1188474679
f
GR
GS
[1 0 0 1 86.96838 50.4506] CT
N
f1188474679
f
GR
GS
[1 0 0 1 126.06108 86.50745] CT
N
f1188474679
f
GR
GS
[1 0 0 1 90.48895 64.85298] CT
N
f1188474679
f
GR
GS
[1 0 0 1 37.06345 97.45288] CT
N
f1188474679
f
GR
GS
[1 0 0 1 54.3159 64.19666] CT
N
f1188474679
f
GR
GS
[1 0 0 1 59.44005 63.40192] CT
N
f1188474679
f
GR
GS
[1 0 0 1 71.54269 51.56975] CT
N
f1188474679
f
GR
GS
[1 0 0 1 75.03085 60.70385] CT
N
f1188474679
f
GR
GS
[1 0 0 1 70.75468 87.79225] CT
N
f1188474679
f
GR
GS
[1 0 0 1 96.93015 45.98668] CT
N
f1188474679
f
GR
GS
[1 0 0 1 96.35342 42.20139] CT
N
f1188474679
f
GR
GS
[1 0 0 1 58.14293 77.98946] CT
N
f1188474679
f
GR
%%Trailer
%%Pages: 1
%%EOF
