%!PS-Adobe-3.0 EPSF-3.0
%%Creator: (MATLAB, The Mathworks, Inc. Version 9.3.0.713579 \(R2017b\). Operating System: Mac OS X)
%%Title: ./thp_phi.eps
%%CreationDate: 2018-07-10T12:34:21
%%Pages: (atend)
%%BoundingBox:    49    62   332   335
%%LanguageLevel: 3
%%EndComments
%%BeginProlog
%%BeginResource: procset (Apache XML Graphics Std ProcSet) 1.2 0
%%Version: 1.2 0
%%Copyright: (Copyright 2001-2003,2010 The Apache Software Foundation. License terms: http://www.apache.org/licenses/LICENSE-2.0)
/bd{bind def}bind def
/ld{load def}bd
/GR/grestore ld
/GS/gsave ld
/RM/rmoveto ld
/C/curveto ld
/t/show ld
/L/lineto ld
/ML/setmiterlimit ld
/CT/concat ld
/f/fill ld
/N/newpath ld
/S/stroke ld
/CC/setcmykcolor ld
/A/ashow ld
/cp/closepath ld
/RC/setrgbcolor ld
/LJ/setlinejoin ld
/GC/setgray ld
/LW/setlinewidth ld
/M/moveto ld
/re {4 2 roll M
1 index 0 rlineto
0 exch rlineto
neg 0 rlineto
cp } bd
/_ctm matrix def
/_tm matrix def
/BT { _ctm currentmatrix pop matrix _tm copy pop 0 0 moveto } bd
/ET { _ctm setmatrix } bd
/iTm { _ctm setmatrix _tm concat } bd
/Tm { _tm astore pop iTm 0 0 moveto } bd
/ux 0.0 def
/uy 0.0 def
/F {
  /Tp exch def
  /Tf exch def
  Tf findfont Tp scalefont setfont
  /cf Tf def  /cs Tp def
} bd
/ULS {currentpoint /uy exch def /ux exch def} bd
/ULE {
  /Tcx currentpoint pop def
  gsave
  newpath
  cf findfont cs scalefont dup
  /FontMatrix get 0 get /Ts exch def /FontInfo get dup
  /UnderlinePosition get Ts mul /To exch def
  /UnderlineThickness get Ts mul /Tt exch def
  ux uy To add moveto  Tcx uy To add lineto
  Tt setlinewidth stroke
  grestore
} bd
/OLE {
  /Tcx currentpoint pop def
  gsave
  newpath
  cf findfont cs scalefont dup
  /FontMatrix get 0 get /Ts exch def /FontInfo get dup
  /UnderlinePosition get Ts mul /To exch def
  /UnderlineThickness get Ts mul /Tt exch def
  ux uy To add cs add moveto Tcx uy To add cs add lineto
  Tt setlinewidth stroke
  grestore
} bd
/SOE {
  /Tcx currentpoint pop def
  gsave
  newpath
  cf findfont cs scalefont dup
  /FontMatrix get 0 get /Ts exch def /FontInfo get dup
  /UnderlinePosition get Ts mul /To exch def
  /UnderlineThickness get Ts mul /Tt exch def
  ux uy To add cs 10 mul 26 idiv add moveto Tcx uy To add cs 10 mul 26 idiv add lineto
  Tt setlinewidth stroke
  grestore
} bd
/QT {
/Y22 exch store
/X22 exch store
/Y21 exch store
/X21 exch store
currentpoint
/Y21 load 2 mul add 3 div exch
/X21 load 2 mul add 3 div exch
/X21 load 2 mul /X22 load add 3 div
/Y21 load 2 mul /Y22 load add 3 div
/X22 load /Y22 load curveto
} bd
/SSPD {
dup length /d exch dict def
{
/v exch def
/k exch def
currentpagedevice k known {
/cpdv currentpagedevice k get def
v cpdv ne {
/upd false def
/nullv v type /nulltype eq def
/nullcpdv cpdv type /nulltype eq def
nullv nullcpdv or
{
/upd true def
} {
/sametype v type cpdv type eq def
sametype {
v type /arraytype eq {
/vlen v length def
/cpdvlen cpdv length def
vlen cpdvlen eq {
0 1 vlen 1 sub {
/i exch def
/obj v i get def
/cpdobj cpdv i get def
obj cpdobj ne {
/upd true def
exit
} if
} for
} {
/upd true def
} ifelse
} {
v type /dicttype eq {
v {
/dv exch def
/dk exch def
/cpddv cpdv dk get def
dv cpddv ne {
/upd true def
exit
} if
} forall
} {
/upd true def
} ifelse
} ifelse
} if
} ifelse
upd true eq {
d k v put
} if
} if
} if
} forall
d length 0 gt {
d setpagedevice
} if
} bd
/RE { % /NewFontName [NewEncodingArray] /FontName RE -
  findfont dup length dict begin
  {
    1 index /FID ne
    {def} {pop pop} ifelse
  } forall
  /Encoding exch def
  /FontName 1 index def
  currentdict definefont pop
  end
} bind def
%%EndResource
%%BeginResource: procset (Apache XML Graphics EPS ProcSet) 1.0 0
%%Version: 1.0 0
%%Copyright: (Copyright 2002-2003 The Apache Software Foundation. License terms: http://www.apache.org/licenses/LICENSE-2.0)
/BeginEPSF { %def
/b4_Inc_state save def         % Save state for cleanup
/dict_count countdictstack def % Count objects on dict stack
/op_count count 1 sub def      % Count objects on operand stack
userdict begin                 % Push userdict on dict stack
/showpage { } def              % Redefine showpage, { } = null proc
0 setgray 0 setlinecap         % Prepare graphics state
1 setlinewidth 0 setlinejoin
10 setmiterlimit [ ] 0 setdash newpath
/languagelevel where           % If level not equal to 1 then
{pop languagelevel             % set strokeadjust and
1 ne                           % overprint to their defaults.
{false setstrokeadjust false setoverprint
} if
} if
} bd
/EndEPSF { %def
count op_count sub {pop} repeat            % Clean up stacks
countdictstack dict_count sub {end} repeat
b4_Inc_state restore
} bd
%%EndResource
%FOPBeginFontDict
%%IncludeResource: font Courier-Oblique
%%IncludeResource: font Courier-BoldOblique
%%IncludeResource: font Courier-Bold
%%IncludeResource: font ZapfDingbats
%%IncludeResource: font Symbol
%%IncludeResource: font Helvetica
%%IncludeResource: font Helvetica-Oblique
%%IncludeResource: font Helvetica-Bold
%%IncludeResource: font Helvetica-BoldOblique
%%IncludeResource: font Times-Roman
%%IncludeResource: font Times-Italic
%%IncludeResource: font Times-Bold
%%IncludeResource: font Times-BoldItalic
%%IncludeResource: font Courier
%FOPEndFontDict
%%BeginResource: encoding WinAnsiEncoding
/WinAnsiEncoding [
/.notdef /.notdef /.notdef /.notdef /.notdef
/.notdef /.notdef /.notdef /.notdef /.notdef
/.notdef /.notdef /.notdef /.notdef /.notdef
/.notdef /.notdef /.notdef /.notdef /.notdef
/.notdef /.notdef /.notdef /.notdef /.notdef
/.notdef /.notdef /.notdef /.notdef /.notdef
/.notdef /.notdef /space /exclam /quotedbl
/numbersign /dollar /percent /ampersand /quotesingle
/parenleft /parenright /asterisk /plus /comma
/hyphen /period /slash /zero /one
/two /three /four /five /six
/seven /eight /nine /colon /semicolon
/less /equal /greater /question /at
/A /B /C /D /E
/F /G /H /I /J
/K /L /M /N /O
/P /Q /R /S /T
/U /V /W /X /Y
/Z /bracketleft /backslash /bracketright /asciicircum
/underscore /quoteleft /a /b /c
/d /e /f /g /h
/i /j /k /l /m
/n /o /p /q /r
/s /t /u /v /w
/x /y /z /braceleft /bar
/braceright /asciitilde /bullet /Euro /bullet
/quotesinglbase /florin /quotedblbase /ellipsis /dagger
/daggerdbl /circumflex /perthousand /Scaron /guilsinglleft
/OE /bullet /Zcaron /bullet /bullet
/quoteleft /quoteright /quotedblleft /quotedblright /bullet
/endash /emdash /asciitilde /trademark /scaron
/guilsinglright /oe /bullet /zcaron /Ydieresis
/space /exclamdown /cent /sterling /currency
/yen /brokenbar /section /dieresis /copyright
/ordfeminine /guillemotleft /logicalnot /sfthyphen /registered
/macron /degree /plusminus /twosuperior /threesuperior
/acute /mu /paragraph /middot /cedilla
/onesuperior /ordmasculine /guillemotright /onequarter /onehalf
/threequarters /questiondown /Agrave /Aacute /Acircumflex
/Atilde /Adieresis /Aring /AE /Ccedilla
/Egrave /Eacute /Ecircumflex /Edieresis /Igrave
/Iacute /Icircumflex /Idieresis /Eth /Ntilde
/Ograve /Oacute /Ocircumflex /Otilde /Odieresis
/multiply /Oslash /Ugrave /Uacute /Ucircumflex
/Udieresis /Yacute /Thorn /germandbls /agrave
/aacute /acircumflex /atilde /adieresis /aring
/ae /ccedilla /egrave /eacute /ecircumflex
/edieresis /igrave /iacute /icircumflex /idieresis
/eth /ntilde /ograve /oacute /ocircumflex
/otilde /odieresis /divide /oslash /ugrave
/uacute /ucircumflex /udieresis /yacute /thorn
/ydieresis
] def
%%EndResource
%FOPBeginFontReencode
/Courier-Oblique findfont
dup length dict begin
  {1 index /FID ne {def} {pop pop} ifelse} forall
  /Encoding WinAnsiEncoding def
  currentdict
end
/Courier-Oblique exch definefont pop
/Courier-BoldOblique findfont
dup length dict begin
  {1 index /FID ne {def} {pop pop} ifelse} forall
  /Encoding WinAnsiEncoding def
  currentdict
end
/Courier-BoldOblique exch definefont pop
/Courier-Bold findfont
dup length dict begin
  {1 index /FID ne {def} {pop pop} ifelse} forall
  /Encoding WinAnsiEncoding def
  currentdict
end
/Courier-Bold exch definefont pop
/Helvetica findfont
dup length dict begin
  {1 index /FID ne {def} {pop pop} ifelse} forall
  /Encoding WinAnsiEncoding def
  currentdict
end
/Helvetica exch definefont pop
/Helvetica-Oblique findfont
dup length dict begin
  {1 index /FID ne {def} {pop pop} ifelse} forall
  /Encoding WinAnsiEncoding def
  currentdict
end
/Helvetica-Oblique exch definefont pop
/Helvetica-Bold findfont
dup length dict begin
  {1 index /FID ne {def} {pop pop} ifelse} forall
  /Encoding WinAnsiEncoding def
  currentdict
end
/Helvetica-Bold exch definefont pop
/Helvetica-BoldOblique findfont
dup length dict begin
  {1 index /FID ne {def} {pop pop} ifelse} forall
  /Encoding WinAnsiEncoding def
  currentdict
end
/Helvetica-BoldOblique exch definefont pop
/Times-Roman findfont
dup length dict begin
  {1 index /FID ne {def} {pop pop} ifelse} forall
  /Encoding WinAnsiEncoding def
  currentdict
end
/Times-Roman exch definefont pop
/Times-Italic findfont
dup length dict begin
  {1 index /FID ne {def} {pop pop} ifelse} forall
  /Encoding WinAnsiEncoding def
  currentdict
end
/Times-Italic exch definefont pop
/Times-Bold findfont
dup length dict begin
  {1 index /FID ne {def} {pop pop} ifelse} forall
  /Encoding WinAnsiEncoding def
  currentdict
end
/Times-Bold exch definefont pop
/Times-BoldItalic findfont
dup length dict begin
  {1 index /FID ne {def} {pop pop} ifelse} forall
  /Encoding WinAnsiEncoding def
  currentdict
end
/Times-BoldItalic exch definefont pop
/Courier findfont
dup length dict begin
  {1 index /FID ne {def} {pop pop} ifelse} forall
  /Encoding WinAnsiEncoding def
  currentdict
end
/Courier exch definefont pop
%FOPEndFontReencode
%%EndProlog
%%Page: 1 1
%%PageBoundingBox: 0 0 360 360
%%BeginPageSetup
[1 0 0 -1 0 360] CT
%%EndPageSetup
GS
1 GC
N
0 0 360 360 re
f
GR
GS
1 GC
N
0 0 360 360 re
f
GR
GS
1 GC
N
132 218 M
132 27 L
95 27 L
95 218 L
cp
f
GR
GS
0.149 GC
2 setlinecap
1 LJ
0.5 LW
N
95 218 M
95 27 L
S
GR
GS
0.149 GC
2 setlinecap
1 LJ
0.5 LW
N
132 218 M
132 27 L
S
GR
GS
0.149 GC
2 setlinecap
1 LJ
0.5 LW
N
95 218 M
96.91 218 L
S
GR
GS
0.149 GC
2 setlinecap
1 LJ
0.5 LW
N
95 170.25 M
96.91 170.25 L
S
GR
GS
0.149 GC
2 setlinecap
1 LJ
0.5 LW
N
95 122.5 M
96.91 122.5 L
S
GR
GS
0.149 GC
2 setlinecap
1 LJ
0.5 LW
N
95 74.75 M
96.91 74.75 L
S
GR
GS
0.149 GC
2 setlinecap
1 LJ
0.5 LW
N
95 27 M
96.91 27 L
S
GR
GS
0.149 GC
2 setlinecap
1 LJ
0.5 LW
N
132 218 M
130.09 218 L
S
GR
GS
0.149 GC
2 setlinecap
1 LJ
0.5 LW
N
132 170.25 M
130.09 170.25 L
S
GR
GS
0.149 GC
2 setlinecap
1 LJ
0.5 LW
N
132 122.5 M
130.09 122.5 L
S
GR
GS
0.149 GC
2 setlinecap
1 LJ
0.5 LW
N
132 74.75 M
130.09 74.75 L
S
GR
GS
0.149 GC
2 setlinecap
1 LJ
0.5 LW
N
132 27 M
130.09 27 L
S
GR
GS
[1 0 0 1 91 218] CT
0.149 GC
N
-12.821 0.103 M
-12.899 0.103 -12.954 0.041 QT
-13.009 -0.022 -13.009 -0.1 QT
-13.009 -0.178 -12.954 -0.241 QT
-12.899 -0.303 -12.821 -0.303 QT
-7.071 -0.303 L
-6.993 -0.303 -6.946 -0.241 QT
-6.899 -0.178 -6.899 -0.1 QT
-6.899 -0.022 -6.946 0.041 QT
-6.993 0.103 -7.071 0.103 QT
-12.821 0.103 L
cp
f
GR
GS
[1 0 0 1 91 218] CT
0.149 GC
N
-5.043 2.228 M
-5.043 2.181 -5.012 2.072 QT
-4.731 1.494 -4.489 0.931 QT
-4.247 0.369 -4.051 -0.163 QT
-3.856 -0.694 -3.7 -1.288 QT
-4.34 -1.288 L
-4.7 -1.288 -5.02 -1.061 QT
-5.34 -0.834 -5.543 -0.475 QT
-5.575 -0.444 -5.606 -0.444 QT
-5.731 -0.444 L
-5.825 -0.444 -5.825 -0.538 QT
-5.825 -0.553 -5.793 -0.6 QT
-5.465 -1.163 -5.098 -1.538 QT
-4.731 -1.913 -4.262 -1.913 QT
-0.622 -1.913 L
-0.528 -1.913 -0.457 -1.842 QT
-0.387 -1.772 -0.387 -1.663 QT
-0.387 -1.506 -0.489 -1.397 QT
-0.59 -1.288 -0.731 -1.288 QT
-2.012 -1.288 L
-2.168 -0.506 -2.184 0.244 QT
-2.184 1.197 -1.856 1.978 QT
-1.825 2.041 -1.825 2.103 QT
-1.825 2.212 -1.887 2.306 QT
-1.95 2.4 -2.051 2.455 QT
-2.153 2.509 -2.262 2.509 QT
-2.528 2.509 -2.622 2.08 QT
-2.715 1.65 -2.715 1.244 QT
-2.715 0.681 -2.622 0.15 QT
-2.528 -0.381 -2.309 -1.288 QT
-3.403 -1.288 L
-4.184 1.916 -4.356 2.244 QT
-4.497 2.509 -4.747 2.509 QT
-4.856 2.509 -4.95 2.431 QT
-5.043 2.353 -5.043 2.228 QT
cp
f
GR
GS
[1 0 0 1 91 170.25] CT
0.149 GC
N
-25.599 0.103 M
-25.677 0.103 -25.732 0.041 QT
-25.787 -0.022 -25.787 -0.1 QT
-25.787 -0.178 -25.732 -0.241 QT
-25.677 -0.303 -25.599 -0.303 QT
-19.849 -0.303 L
-19.771 -0.303 -19.724 -0.241 QT
-19.677 -0.178 -19.677 -0.1 QT
-19.677 -0.022 -19.724 0.041 QT
-19.771 0.103 -19.849 0.103 QT
-25.599 0.103 L
cp
f
GR
GS
[1 0 0 1 91 170.25] CT
0.149 GC
N
-16.337 2.619 M
-17.556 2.619 -18.001 1.611 QT
-18.446 0.603 -18.446 -0.788 QT
-18.446 -1.663 -18.29 -2.428 QT
-18.134 -3.194 -17.657 -3.725 QT
-17.181 -4.256 -16.337 -4.256 QT
-15.681 -4.256 -15.259 -3.936 QT
-14.837 -3.616 -14.618 -3.108 QT
-14.399 -2.6 -14.321 -2.014 QT
-14.243 -1.428 -14.243 -0.788 QT
-14.243 0.072 -14.399 0.822 QT
-14.556 1.572 -15.017 2.095 QT
-15.477 2.619 -16.337 2.619 QT
cp
-16.337 2.353 M
-15.774 2.353 -15.501 1.783 QT
-15.227 1.212 -15.165 0.525 QT
-15.102 -0.163 -15.102 -0.944 QT
-15.102 -1.709 -15.165 -2.342 QT
-15.227 -2.975 -15.501 -3.491 QT
-15.774 -4.006 -16.337 -4.006 QT
-16.899 -4.006 -17.173 -3.483 QT
-17.446 -2.959 -17.509 -2.334 QT
-17.571 -1.709 -17.571 -0.944 QT
-17.571 -0.397 -17.548 0.095 QT
-17.524 0.587 -17.407 1.119 QT
-17.29 1.65 -17.024 2.002 QT
-16.759 2.353 -16.337 2.353 QT
cp
f
GR
GS
[1 0 0 1 91 170.25] CT
0.149 GC
N
-12.993 1.853 M
-12.993 1.619 -12.829 1.462 QT
-12.665 1.306 -12.446 1.306 QT
-12.306 1.306 -12.173 1.377 QT
-12.04 1.447 -11.97 1.58 QT
-11.899 1.712 -11.899 1.853 QT
-11.899 2.072 -12.063 2.236 QT
-12.227 2.4 -12.446 2.4 QT
-12.665 2.4 -12.829 2.236 QT
-12.993 2.072 -12.993 1.853 QT
cp
f
GR
GS
[1 0 0 1 91 170.25] CT
0.149 GC
N
-10.184 1.259 M
-10.09 1.556 -9.879 1.798 QT
-9.668 2.041 -9.372 2.173 QT
-9.075 2.306 -8.762 2.306 QT
-8.043 2.306 -7.77 1.744 QT
-7.497 1.181 -7.497 0.384 QT
-7.497 0.025 -7.512 -0.209 QT
-7.528 -0.444 -7.575 -0.663 QT
-7.668 -1.006 -7.903 -1.272 QT
-8.137 -1.538 -8.465 -1.538 QT
-8.809 -1.538 -9.051 -1.436 QT
-9.293 -1.334 -9.442 -1.202 QT
-9.59 -1.069 -9.708 -0.913 QT
-9.825 -0.756 -9.856 -0.756 QT
-9.965 -0.756 L
-9.997 -0.756 -10.036 -0.788 QT
-10.075 -0.819 -10.075 -0.85 QT
-10.075 -4.178 L
-10.075 -4.209 -10.036 -4.233 QT
-9.997 -4.256 -9.965 -4.256 QT
-9.934 -4.256 L
-9.262 -3.944 -8.512 -3.944 QT
-7.762 -3.944 -7.075 -4.256 QT
-7.043 -4.256 L
-7.012 -4.256 -6.981 -4.233 QT
-6.95 -4.209 -6.95 -4.178 QT
-6.95 -4.084 L
-6.95 -4.038 -6.981 -4.038 QT
-7.325 -3.584 -7.84 -3.334 QT
-8.356 -3.084 -8.903 -3.084 QT
-9.293 -3.084 -9.715 -3.194 QT
-9.715 -1.303 L
-9.387 -1.569 -9.129 -1.686 QT
-8.872 -1.803 -8.465 -1.803 QT
-7.903 -1.803 -7.465 -1.483 QT
-7.028 -1.163 -6.793 -0.655 QT
-6.559 -0.147 -6.559 0.384 QT
-6.559 0.994 -6.856 1.502 QT
-7.153 2.009 -7.661 2.314 QT
-8.168 2.619 -8.762 2.619 QT
-9.262 2.619 -9.676 2.369 QT
-10.09 2.119 -10.325 1.689 QT
-10.559 1.259 -10.559 0.775 QT
-10.559 0.541 -10.411 0.4 QT
-10.262 0.259 -10.043 0.259 QT
-9.825 0.259 -9.676 0.408 QT
-9.528 0.556 -9.528 0.775 QT
-9.528 0.978 -9.676 1.127 QT
-9.825 1.275 -10.043 1.275 QT
-10.075 1.275 -10.122 1.267 QT
-10.168 1.259 -10.184 1.259 QT
cp
f
GR
GS
[1 0 0 1 91 170.25] CT
0.149 GC
N
/f183725701{-5.043 2.228 M
-5.043 2.181 -5.012 2.072 QT
-4.731 1.494 -4.489 0.931 QT
-4.247 0.369 -4.051 -0.163 QT
-3.856 -0.694 -3.7 -1.288 QT
-4.34 -1.288 L
-4.7 -1.288 -5.02 -1.061 QT
-5.34 -0.834 -5.543 -0.475 QT
-5.575 -0.444 -5.606 -0.444 QT
-5.731 -0.444 L
-5.825 -0.444 -5.825 -0.538 QT
-5.825 -0.553 -5.793 -0.6 QT
-5.465 -1.163 -5.098 -1.538 QT
-4.731 -1.913 -4.262 -1.913 QT
-0.622 -1.913 L
-0.528 -1.913 -0.457 -1.842 QT
-0.387 -1.772 -0.387 -1.663 QT
-0.387 -1.506 -0.489 -1.397 QT
-0.59 -1.288 -0.731 -1.288 QT
-2.012 -1.288 L
-2.168 -0.506 -2.184 0.244 QT
-2.184 1.197 -1.856 1.978 QT
-1.825 2.041 -1.825 2.103 QT
-1.825 2.212 -1.887 2.306 QT
-1.95 2.4 -2.051 2.455 QT
-2.153 2.509 -2.262 2.509 QT
-2.528 2.509 -2.622 2.08 QT
-2.715 1.65 -2.715 1.244 QT
-2.715 0.681 -2.622 0.15 QT
-2.528 -0.381 -2.309 -1.288 QT
-3.403 -1.288 L
-4.184 1.916 -4.356 2.244 QT
-4.497 2.509 -4.747 2.509 QT
-4.856 2.509 -4.95 2.431 QT
-5.043 2.353 -5.043 2.228 QT
cp}def
f183725701
f
GR
GS
[1 0 0 1 91 122.5] CT
0.149 GC
N
/f218240023{-2.5 2.619 M
-3.719 2.619 -4.164 1.611 QT
-4.609 0.603 -4.609 -0.788 QT
-4.609 -1.663 -4.453 -2.428 QT
-4.297 -3.194 -3.82 -3.725 QT
-3.344 -4.256 -2.5 -4.256 QT
-1.844 -4.256 -1.422 -3.936 QT
-1 -3.616 -0.781 -3.108 QT
-0.563 -2.6 -0.484 -2.014 QT
-0.406 -1.428 -0.406 -0.788 QT
-0.406 0.072 -0.563 0.822 QT
-0.719 1.572 -1.18 2.095 QT
-1.641 2.619 -2.5 2.619 QT
cp
-2.5 2.353 M
-1.938 2.353 -1.664 1.783 QT
-1.391 1.212 -1.328 0.525 QT
-1.266 -0.163 -1.266 -0.944 QT
-1.266 -1.709 -1.328 -2.342 QT
-1.391 -2.975 -1.664 -3.491 QT
-1.938 -4.006 -2.5 -4.006 QT
-3.063 -4.006 -3.336 -3.483 QT
-3.609 -2.959 -3.672 -2.334 QT
-3.734 -1.709 -3.734 -0.944 QT
-3.734 -0.397 -3.711 0.095 QT
-3.688 0.587 -3.57 1.119 QT
-3.453 1.65 -3.188 2.002 QT
-2.922 2.353 -2.5 2.353 QT
cp}def
f218240023
f
GR
GS
[1 0 0 1 91 74.75] CT
0.149 GC
N
/f-1860464567{-16.337 2.619 M
-17.556 2.619 -18.001 1.611 QT
-18.446 0.603 -18.446 -0.788 QT
-18.446 -1.663 -18.29 -2.428 QT
-18.134 -3.194 -17.657 -3.725 QT
-17.181 -4.256 -16.337 -4.256 QT
-15.681 -4.256 -15.259 -3.936 QT
-14.837 -3.616 -14.618 -3.108 QT
-14.399 -2.6 -14.321 -2.014 QT
-14.243 -1.428 -14.243 -0.788 QT
-14.243 0.072 -14.399 0.822 QT
-14.556 1.572 -15.017 2.095 QT
-15.477 2.619 -16.337 2.619 QT
cp
-16.337 2.353 M
-15.774 2.353 -15.501 1.783 QT
-15.227 1.212 -15.165 0.525 QT
-15.102 -0.163 -15.102 -0.944 QT
-15.102 -1.709 -15.165 -2.342 QT
-15.227 -2.975 -15.501 -3.491 QT
-15.774 -4.006 -16.337 -4.006 QT
-16.899 -4.006 -17.173 -3.483 QT
-17.446 -2.959 -17.509 -2.334 QT
-17.571 -1.709 -17.571 -0.944 QT
-17.571 -0.397 -17.548 0.095 QT
-17.524 0.587 -17.407 1.119 QT
-17.29 1.65 -17.024 2.002 QT
-16.759 2.353 -16.337 2.353 QT
cp}def
f-1860464567
f
GR
GS
[1 0 0 1 91 74.75] CT
0.149 GC
N
/f-711540231{-12.993 1.853 M
-12.993 1.619 -12.829 1.462 QT
-12.665 1.306 -12.446 1.306 QT
-12.306 1.306 -12.173 1.377 QT
-12.04 1.447 -11.97 1.58 QT
-11.899 1.712 -11.899 1.853 QT
-11.899 2.072 -12.063 2.236 QT
-12.227 2.4 -12.446 2.4 QT
-12.665 2.4 -12.829 2.236 QT
-12.993 2.072 -12.993 1.853 QT
cp}def
f-711540231
f
GR
GS
[1 0 0 1 91 74.75] CT
0.149 GC
N
/f353734786{-10.184 1.259 M
-10.09 1.556 -9.879 1.798 QT
-9.668 2.041 -9.372 2.173 QT
-9.075 2.306 -8.762 2.306 QT
-8.043 2.306 -7.77 1.744 QT
-7.497 1.181 -7.497 0.384 QT
-7.497 0.025 -7.512 -0.209 QT
-7.528 -0.444 -7.575 -0.663 QT
-7.668 -1.006 -7.903 -1.272 QT
-8.137 -1.538 -8.465 -1.538 QT
-8.809 -1.538 -9.051 -1.436 QT
-9.293 -1.334 -9.442 -1.202 QT
-9.59 -1.069 -9.708 -0.913 QT
-9.825 -0.756 -9.856 -0.756 QT
-9.965 -0.756 L
-9.997 -0.756 -10.036 -0.788 QT
-10.075 -0.819 -10.075 -0.85 QT
-10.075 -4.178 L
-10.075 -4.209 -10.036 -4.233 QT
-9.997 -4.256 -9.965 -4.256 QT
-9.934 -4.256 L
-9.262 -3.944 -8.512 -3.944 QT
-7.762 -3.944 -7.075 -4.256 QT
-7.043 -4.256 L
-7.012 -4.256 -6.981 -4.233 QT
-6.95 -4.209 -6.95 -4.178 QT
-6.95 -4.084 L
-6.95 -4.038 -6.981 -4.038 QT
-7.325 -3.584 -7.84 -3.334 QT
-8.356 -3.084 -8.903 -3.084 QT
-9.293 -3.084 -9.715 -3.194 QT
-9.715 -1.303 L
-9.387 -1.569 -9.129 -1.686 QT
-8.872 -1.803 -8.465 -1.803 QT
-7.903 -1.803 -7.465 -1.483 QT
-7.028 -1.163 -6.793 -0.655 QT
-6.559 -0.147 -6.559 0.384 QT
-6.559 0.994 -6.856 1.502 QT
-7.153 2.009 -7.661 2.314 QT
-8.168 2.619 -8.762 2.619 QT
-9.262 2.619 -9.676 2.369 QT
-10.09 2.119 -10.325 1.689 QT
-10.559 1.259 -10.559 0.775 QT
-10.559 0.541 -10.411 0.4 QT
-10.262 0.259 -10.043 0.259 QT
-9.825 0.259 -9.676 0.408 QT
-9.528 0.556 -9.528 0.775 QT
-9.528 0.978 -9.676 1.127 QT
-9.825 1.275 -10.043 1.275 QT
-10.075 1.275 -10.122 1.267 QT
-10.168 1.259 -10.184 1.259 QT
cp}def
f353734786
f
GR
GS
[1 0 0 1 91 74.75] CT
0.149 GC
N
f183725701
f
GR
GS
[1 0 0 1 91 27] CT
0.149 GC
N
f183725701
f
GR
GS
[0 -1 1 0 61.38533 122.49991] CT
0.149 GC
N
/f1970553912{-3.028 -3.835 M
-3.528 -3.835 -3.825 -4.202 QT
-4.122 -4.569 -4.239 -5.085 QT
-4.356 -5.601 -4.356 -6.101 QT
-4.356 -6.116 L
-4.356 -6.663 -4.247 -7.257 QT
-4.138 -7.851 -3.942 -8.437 QT
-3.747 -9.023 -3.513 -9.476 QT
-3.356 -9.804 -3.099 -10.202 QT
-2.841 -10.601 -2.528 -10.944 QT
-2.216 -11.288 -1.856 -11.499 QT
-1.497 -11.71 -1.122 -11.71 QT
-1.106 -11.71 L
-0.716 -11.71 -0.45 -11.491 QT
-0.185 -11.273 -0.036 -10.929 QT
0.112 -10.585 0.175 -10.194 QT
0.237 -9.804 0.237 -9.444 QT
0.237 -8.616 0.011 -7.749 QT
-0.216 -6.882 -0.622 -6.069 QT
-0.763 -5.773 -1.028 -5.358 QT
-1.294 -4.944 -1.591 -4.616 QT
-1.888 -4.288 -2.263 -4.062 QT
-2.638 -3.835 -3.013 -3.835 QT
-3.028 -3.835 L
cp
-2.997 -4.132 M
-2.638 -4.132 -2.302 -4.523 QT
-1.966 -4.913 -1.716 -5.468 QT
-1.466 -6.023 -1.271 -6.601 QT
-1.075 -7.179 -0.981 -7.585 QT
-3.231 -7.585 L
-3.403 -6.898 -3.497 -6.398 QT
-3.591 -5.898 -3.591 -5.413 QT
-3.591 -4.132 -2.997 -4.132 QT
cp
-3.138 -7.976 M
-0.888 -7.976 L
-0.778 -8.46 -0.708 -8.788 QT
-0.638 -9.116 -0.583 -9.476 QT
-0.528 -9.835 -0.528 -10.148 QT
-0.528 -11.429 -1.122 -11.429 QT
-1.825 -11.429 -2.333 -10.304 QT
-2.841 -9.179 -3.138 -7.976 QT
cp}def
f1970553912
f
GR
GS
[0 -1 1 0 61.38533 122.49991] CT
0.149 GC
N
/f-1028764680{0.167 -0.763 M
0.089 -0.763 0.089 -0.857 QT
0.12 -1.029 0.198 -1.029 QT
0.448 -1.029 0.55 -1.076 QT
0.651 -1.123 0.714 -1.31 QT
1.604 -4.919 L
1.667 -5.06 1.667 -5.294 QT
1.667 -5.638 1.432 -5.638 QT
1.182 -5.638 1.065 -5.341 QT
0.948 -5.044 0.823 -4.591 QT
0.823 -4.529 0.761 -4.529 QT
0.667 -4.529 L
0.651 -4.529 0.628 -4.56 QT
0.604 -4.591 0.604 -4.623 QT
0.682 -4.966 0.768 -5.208 QT
0.854 -5.451 1.018 -5.646 QT
1.182 -5.841 1.448 -5.841 QT
1.714 -5.841 1.925 -5.693 QT
2.136 -5.544 2.182 -5.279 QT
2.401 -5.529 2.667 -5.685 QT
2.932 -5.841 3.214 -5.841 QT
3.557 -5.841 3.807 -5.662 QT
4.057 -5.482 4.182 -5.193 QT
4.307 -4.904 4.307 -4.576 QT
4.307 -4.06 4.042 -3.505 QT
3.776 -2.951 3.323 -2.583 QT
2.87 -2.216 2.354 -2.216 QT
2.12 -2.216 1.932 -2.349 QT
1.745 -2.482 1.636 -2.701 QT
1.276 -1.279 L
1.261 -1.154 1.245 -1.138 QT
1.245 -1.029 1.776 -1.029 QT
1.854 -1.029 1.854 -0.935 QT
1.839 -0.826 1.815 -0.794 QT
1.792 -0.763 1.729 -0.763 QT
0.167 -0.763 L
cp
2.37 -2.435 M
2.636 -2.435 2.878 -2.662 QT
3.12 -2.888 3.261 -3.169 QT
3.37 -3.388 3.471 -3.701 QT
3.573 -4.013 3.643 -4.365 QT
3.714 -4.716 3.714 -4.919 QT
3.714 -5.107 3.659 -5.263 QT
3.604 -5.419 3.495 -5.529 QT
3.386 -5.638 3.198 -5.638 QT
2.917 -5.638 2.651 -5.427 QT
2.386 -5.216 2.182 -4.919 QT
2.182 -4.888 L
1.745 -3.123 L
1.792 -2.841 1.948 -2.638 QT
2.104 -2.435 2.37 -2.435 QT
cp}def
f-1028764680
f
GR
GS
0.149 GC
2 setlinecap
1 LJ
0.5 LW
N
95 218 M
132 218 L
S
GR
GS
0.149 GC
2 setlinecap
1 LJ
0.5 LW
N
95 27 M
132 27 L
S
GR
GS
0.149 GC
2 setlinecap
1 LJ
0.5 LW
N
95 218 M
95 216.09 L
S
GR
GS
0.149 GC
2 setlinecap
1 LJ
0.5 LW
N
113.5 218 M
113.5 216.09 L
S
GR
GS
0.149 GC
2 setlinecap
1 LJ
0.5 LW
N
132 218 M
132 216.09 L
S
GR
GS
0.149 GC
2 setlinecap
1 LJ
0.5 LW
N
95 27 M
95 28.91 L
S
GR
GS
0.149 GC
2 setlinecap
1 LJ
0.5 LW
N
113.5 27 M
113.5 28.91 L
S
GR
GS
0.149 GC
2 setlinecap
1 LJ
0.5 LW
N
132 27 M
132 28.91 L
S
GR
GS
0.88 GC
N
95 216.736 M
98.435 216.736 L
98.435 212.085 L
95 212.085 L
cp
95 212.085 M
99.294 212.085 L
99.294 207.434 L
95 207.434 L
cp
95 207.434 M
102.729 207.434 L
102.729 202.783 L
95 202.783 L
cp
95 202.783 M
101.87 202.783 L
101.87 198.132 L
95 198.132 L
cp
95 198.132 M
107.882 198.132 L
107.882 193.481 L
95 193.481 L
cp
95 193.481 M
106.164 193.481 L
106.164 188.83 L
95 188.83 L
cp
95 188.83 M
107.023 188.83 L
107.023 184.179 L
95 184.179 L
cp
95 184.179 M
105.305 184.179 L
105.305 179.528 L
95 179.528 L
cp
95 179.528 M
114.752 179.528 L
114.752 174.877 L
95 174.877 L
cp
95 174.877 M
118.187 174.877 L
118.187 170.226 L
95 170.226 L
cp
95 170.226 M
114.752 170.226 L
114.752 165.575 L
95 165.575 L
cp
95 165.575 M
113.893 165.575 L
113.893 160.924 L
95 160.924 L
cp
95 160.924 M
115.611 160.924 L
115.611 156.273 L
95 156.273 L
cp
95 156.273 M
111.317 156.273 L
111.317 151.622 L
95 151.622 L
cp
95 151.622 M
114.752 151.622 L
114.752 146.971 L
95 146.971 L
cp
95 146.971 M
113.034 146.971 L
113.034 142.32 L
95 142.32 L
cp
95 142.32 M
110.458 142.32 L
110.458 137.669 L
110.458 133.018 L
95 133.018 L
95 137.669 L
cp
95 133.018 M
114.752 133.018 L
114.752 128.367 L
95 128.367 L
cp
95 128.367 M
107.023 128.367 L
107.023 123.716 L
107.023 119.065 L
95 119.065 L
95 123.716 L
cp
95 119.065 M
113.893 119.065 L
113.893 114.414 L
95 114.414 L
cp
95 114.414 M
111.317 114.414 L
111.317 109.763 L
95 109.763 L
cp
95 109.763 M
112.175 109.763 L
112.175 105.112 L
95 105.112 L
cp
95 105.112 M
114.752 105.112 L
114.752 100.461 L
95 100.461 L
cp
95 100.461 M
122.481 100.461 L
122.481 95.81 L
95 95.81 L
cp
95 95.81 M
120.763 95.81 L
120.763 91.159 L
95 91.159 L
cp
95 91.159 M
121.622 91.159 L
121.622 86.508 L
95 86.508 L
cp
95 86.508 M
116.469 86.508 L
116.469 81.857 L
95 81.857 L
cp
95 81.857 M
113.034 81.857 L
113.034 77.206 L
95 77.206 L
cp
95 77.206 M
115.611 77.206 L
115.611 72.555 L
95 72.555 L
cp
95 72.555 M
111.317 72.555 L
111.317 67.904 L
95 67.904 L
cp
95 67.904 M
107.023 67.904 L
107.023 63.253 L
95 63.253 L
cp
95 63.253 M
112.175 63.253 L
112.175 58.602 L
95 58.602 L
cp
95 58.602 M
110.458 58.602 L
110.458 53.951 L
95 53.951 L
cp
95 53.951 M
102.729 53.951 L
102.729 49.3 L
95 49.3 L
cp
95 49.3 M
101.87 49.3 L
101.87 44.649 L
95 44.649 L
cp
95 44.649 M
99.294 44.649 L
99.294 39.998 L
95 39.998 L
cp
95 39.998 M
101.011 39.998 L
101.011 35.347 L
95 35.347 L
cp
95 35.347 M
100.153 35.347 L
100.153 30.696 L
95 30.696 L
cp
95 30.696 M
96.718 30.696 L
96.718 27 L
95 27 L
cp
f
GR
GS
2 setlinecap
10.0 ML
0.5 LW
N
95 216.736 M
98.435 216.736 L
98.435 212.085 L
S
GR
GS
2 setlinecap
10.0 ML
0.5 LW
N
95 212.085 M
95 212.085 L
99.294 212.085 L
99.294 207.434 L
S
GR
GS
2 setlinecap
10.0 ML
0.5 LW
N
95 207.434 M
95 207.434 L
102.729 207.434 L
102.729 202.783 L
95 202.783 L
95 202.783 L
S
GR
GS
2 setlinecap
10.0 ML
0.5 LW
N
101.87 202.783 M
101.87 198.132 L
S
GR
GS
2 setlinecap
10.0 ML
0.5 LW
N
95 198.132 M
95 198.132 L
107.882 198.132 L
107.882 193.481 L
95 193.481 L
95 193.481 L
S
GR
GS
2 setlinecap
10.0 ML
0.5 LW
N
106.164 193.481 M
106.164 188.83 L
S
GR
GS
2 setlinecap
10.0 ML
0.5 LW
N
95 188.83 M
95 188.83 L
107.023 188.83 L
107.023 184.179 L
95 184.179 L
95 184.179 L
S
GR
GS
2 setlinecap
10.0 ML
0.5 LW
N
105.305 184.179 M
105.305 179.528 L
S
GR
GS
2 setlinecap
10.0 ML
0.5 LW
N
95 179.528 M
95 179.528 L
114.752 179.528 L
114.752 174.877 L
S
GR
GS
2 setlinecap
10.0 ML
0.5 LW
N
95 174.877 M
95 174.877 L
118.187 174.877 L
118.187 170.226 L
95 170.226 L
95 170.226 L
S
GR
GS
2 setlinecap
10.0 ML
0.5 LW
N
114.752 170.226 M
114.752 165.575 L
95 165.575 L
95 165.575 L
S
GR
GS
2 setlinecap
10.0 ML
0.5 LW
N
113.893 165.575 M
113.893 160.924 L
S
GR
GS
2 setlinecap
10.0 ML
0.5 LW
N
95 160.924 M
95 160.924 L
115.611 160.924 L
115.611 156.273 L
95 156.273 L
95 156.273 L
S
GR
GS
2 setlinecap
10.0 ML
0.5 LW
N
111.317 156.273 M
111.317 151.622 L
S
GR
GS
2 setlinecap
10.0 ML
0.5 LW
N
95 151.622 M
95 151.622 L
114.752 151.622 L
114.752 146.971 L
95 146.971 L
95 146.971 L
S
GR
GS
2 setlinecap
10.0 ML
0.5 LW
N
113.034 146.971 M
113.034 142.32 L
95 142.32 L
95 142.32 L
S
GR
GS
2 setlinecap
10.0 ML
0.5 LW
N
110.458 142.32 M
110.458 137.669 L
95 137.669 L
95 137.669 L
S
GR
GS
2 setlinecap
10.0 ML
0.5 LW
N
110.458 137.669 M
110.458 133.018 L
S
GR
GS
2 setlinecap
10.0 ML
0.5 LW
N
95 133.018 M
95 133.018 L
114.752 133.018 L
114.752 128.367 L
95 128.367 L
95 128.367 L
S
GR
GS
2 setlinecap
10.0 ML
0.5 LW
N
107.023 128.367 M
107.023 123.716 L
95 123.716 L
95 123.716 L
S
GR
GS
2 setlinecap
10.0 ML
0.5 LW
N
107.023 123.716 M
107.023 119.065 L
S
GR
GS
2 setlinecap
10.0 ML
0.5 LW
N
95 119.065 M
95 119.065 L
113.893 119.065 L
113.893 114.414 L
95 114.414 L
95 114.414 L
S
GR
GS
2 setlinecap
10.0 ML
0.5 LW
N
111.317 114.414 M
111.317 109.763 L
S
GR
GS
2 setlinecap
10.0 ML
0.5 LW
N
95 109.763 M
95 109.763 L
112.175 109.763 L
112.175 105.112 L
S
GR
GS
2 setlinecap
10.0 ML
0.5 LW
N
95 105.112 M
95 105.112 L
114.752 105.112 L
114.752 100.461 L
S
GR
GS
2 setlinecap
10.0 ML
0.5 LW
N
95 100.461 M
95 100.461 L
122.481 100.461 L
122.481 95.81 L
95 95.81 L
95 95.81 L
S
GR
GS
2 setlinecap
10.0 ML
0.5 LW
N
120.763 95.81 M
120.763 91.159 L
S
GR
GS
2 setlinecap
10.0 ML
0.5 LW
N
95 91.159 M
95 91.159 L
121.622 91.159 L
121.622 86.508 L
95 86.508 L
95 86.508 L
S
GR
GS
2 setlinecap
10.0 ML
0.5 LW
N
116.469 86.508 M
116.469 81.857 L
95 81.857 L
95 81.857 L
S
GR
GS
2 setlinecap
10.0 ML
0.5 LW
N
113.034 81.857 M
113.034 77.206 L
S
GR
GS
2 setlinecap
10.0 ML
0.5 LW
N
95 77.206 M
95 77.206 L
115.611 77.206 L
115.611 72.555 L
95 72.555 L
95 72.555 L
S
GR
GS
2 setlinecap
10.0 ML
0.5 LW
N
111.317 72.555 M
111.317 67.904 L
95 67.904 L
95 67.904 L
S
GR
GS
2 setlinecap
10.0 ML
0.5 LW
N
107.023 67.904 M
107.023 63.253 L
S
GR
GS
2 setlinecap
10.0 ML
0.5 LW
N
95 63.253 M
95 63.253 L
112.175 63.253 L
112.175 58.602 L
95 58.602 L
95 58.602 L
S
GR
GS
2 setlinecap
10.0 ML
0.5 LW
N
110.458 58.602 M
110.458 53.951 L
95 53.951 L
95 53.951 L
S
GR
GS
2 setlinecap
10.0 ML
0.5 LW
N
102.729 53.951 M
102.729 49.3 L
95 49.3 L
95 49.3 L
S
GR
GS
2 setlinecap
10.0 ML
0.5 LW
N
101.87 49.3 M
101.87 44.649 L
95 44.649 L
95 44.649 L
S
GR
GS
2 setlinecap
10.0 ML
0.5 LW
N
99.294 44.649 M
99.294 39.998 L
S
GR
GS
2 setlinecap
10.0 ML
0.5 LW
N
95 39.998 M
95 39.998 L
101.011 39.998 L
101.011 35.347 L
95 35.347 L
95 35.347 L
S
GR
GS
2 setlinecap
10.0 ML
0.5 LW
N
100.153 35.347 M
100.153 30.696 L
95 30.696 L
95 30.696 L
S
GR
GS
2 setlinecap
10.0 ML
0.5 LW
N
96.718 30.696 M
96.718 27 L
95 27 L
S
GR
GS
1 GC
N
143.5 269 M
326 269 L
326 232 L
143.5 232 L
cp
f
GR
GS
0.149 GC
2 setlinecap
1 LJ
0.5 LW
N
143.5 269 M
326 269 L
S
GR
GS
0.149 GC
2 setlinecap
1 LJ
0.5 LW
N
143.5 232 M
326 232 L
S
GR
GS
0.149 GC
2 setlinecap
1 LJ
0.5 LW
N
143.5 269 M
143.5 267.175 L
S
GR
GS
0.149 GC
2 setlinecap
1 LJ
0.5 LW
N
189.125 269 M
189.125 267.175 L
S
GR
GS
0.149 GC
2 setlinecap
1 LJ
0.5 LW
N
234.75 269 M
234.75 267.175 L
S
GR
GS
0.149 GC
2 setlinecap
1 LJ
0.5 LW
N
280.375 269 M
280.375 267.175 L
S
GR
GS
0.149 GC
2 setlinecap
1 LJ
0.5 LW
N
326 269 M
326 267.175 L
S
GR
GS
0.149 GC
2 setlinecap
1 LJ
0.5 LW
N
143.5 232 M
143.5 233.825 L
S
GR
GS
0.149 GC
2 setlinecap
1 LJ
0.5 LW
N
189.125 232 M
189.125 233.825 L
S
GR
GS
0.149 GC
2 setlinecap
1 LJ
0.5 LW
N
234.75 232 M
234.75 233.825 L
S
GR
GS
0.149 GC
2 setlinecap
1 LJ
0.5 LW
N
280.375 232 M
280.375 233.825 L
S
GR
GS
0.149 GC
2 setlinecap
1 LJ
0.5 LW
N
326 232 M
326 233.825 L
S
GR
GS
[1 0 0 1 143.5 273] CT
0.149 GC
N
/f365287046{0 8.619 M
-1.219 8.619 -1.664 7.611 QT
-2.109 6.603 -2.109 5.212 QT
-2.109 4.337 -1.953 3.572 QT
-1.797 2.806 -1.32 2.275 QT
-0.844 1.744 0 1.744 QT
0.656 1.744 1.078 2.064 QT
1.5 2.384 1.719 2.892 QT
1.938 3.4 2.016 3.986 QT
2.094 4.572 2.094 5.212 QT
2.094 6.072 1.938 6.822 QT
1.781 7.572 1.32 8.095 QT
0.859 8.619 0 8.619 QT
cp
0 8.353 M
0.563 8.353 0.836 7.783 QT
1.109 7.212 1.172 6.525 QT
1.234 5.837 1.234 5.056 QT
1.234 4.291 1.172 3.658 QT
1.109 3.025 0.836 2.509 QT
0.563 1.994 0 1.994 QT
-0.563 1.994 -0.836 2.517 QT
-1.109 3.041 -1.172 3.666 QT
-1.234 4.291 -1.234 5.056 QT
-1.234 5.603 -1.211 6.095 QT
-1.188 6.587 -1.07 7.119 QT
-0.953 7.65 -0.688 8.002 QT
-0.422 8.353 0 8.353 QT
cp}def
f365287046
f
GR
GS
[1 0 0 1 189.125 273] CT
0.149 GC
N
/f668698095{-6.918 8.619 M
-8.137 8.619 -8.582 7.611 QT
-9.028 6.603 -9.028 5.212 QT
-9.028 4.337 -8.872 3.572 QT
-8.715 2.806 -8.239 2.275 QT
-7.762 1.744 -6.918 1.744 QT
-6.262 1.744 -5.84 2.064 QT
-5.418 2.384 -5.2 2.892 QT
-4.981 3.4 -4.903 3.986 QT
-4.825 4.572 -4.825 5.212 QT
-4.825 6.072 -4.981 6.822 QT
-5.137 7.572 -5.598 8.095 QT
-6.059 8.619 -6.918 8.619 QT
cp
-6.918 8.353 M
-6.356 8.353 -6.082 7.783 QT
-5.809 7.212 -5.747 6.525 QT
-5.684 5.837 -5.684 5.056 QT
-5.684 4.291 -5.747 3.658 QT
-5.809 3.025 -6.082 2.509 QT
-6.356 1.994 -6.918 1.994 QT
-7.481 1.994 -7.754 2.517 QT
-8.028 3.041 -8.09 3.666 QT
-8.153 4.291 -8.153 5.056 QT
-8.153 5.603 -8.129 6.095 QT
-8.106 6.587 -7.989 7.119 QT
-7.872 7.65 -7.606 8.002 QT
-7.34 8.353 -6.918 8.353 QT
cp}def
f668698095
f
GR
GS
[1 0 0 1 189.125 273] CT
0.149 GC
N
/f-1664080999{-3.575 7.853 M
-3.575 7.619 -3.411 7.462 QT
-3.247 7.306 -3.028 7.306 QT
-2.887 7.306 -2.754 7.377 QT
-2.622 7.447 -2.551 7.58 QT
-2.481 7.712 -2.481 7.853 QT
-2.481 8.072 -2.645 8.236 QT
-2.809 8.4 -3.028 8.4 QT
-3.247 8.4 -3.411 8.236 QT
-3.575 8.072 -3.575 7.853 QT
cp}def
f-1664080999
f
GR
GS
[1 0 0 1 189.125 273] CT
0.149 GC
N
/f1511736146{-0.766 7.259 M
-0.672 7.556 -0.461 7.798 QT
-0.25 8.041 0.047 8.173 QT
0.344 8.306 0.656 8.306 QT
1.375 8.306 1.648 7.744 QT
1.922 7.181 1.922 6.384 QT
1.922 6.025 1.906 5.791 QT
1.891 5.556 1.844 5.337 QT
1.75 4.994 1.516 4.728 QT
1.281 4.462 0.953 4.462 QT
0.609 4.462 0.367 4.564 QT
0.125 4.666 -0.023 4.798 QT
-0.172 4.931 -0.289 5.087 QT
-0.406 5.244 -0.438 5.244 QT
-0.547 5.244 L
-0.578 5.244 -0.617 5.212 QT
-0.656 5.181 -0.656 5.15 QT
-0.656 1.822 L
-0.656 1.791 -0.617 1.767 QT
-0.578 1.744 -0.547 1.744 QT
-0.516 1.744 L
0.156 2.056 0.906 2.056 QT
1.656 2.056 2.344 1.744 QT
2.375 1.744 L
2.406 1.744 2.438 1.767 QT
2.469 1.791 2.469 1.822 QT
2.469 1.916 L
2.469 1.962 2.438 1.962 QT
2.094 2.416 1.578 2.666 QT
1.063 2.916 0.516 2.916 QT
0.125 2.916 -0.297 2.806 QT
-0.297 4.697 L
0.031 4.431 0.289 4.314 QT
0.547 4.197 0.953 4.197 QT
1.516 4.197 1.953 4.517 QT
2.391 4.837 2.625 5.345 QT
2.859 5.853 2.859 6.384 QT
2.859 6.994 2.563 7.502 QT
2.266 8.009 1.758 8.314 QT
1.25 8.619 0.656 8.619 QT
0.156 8.619 -0.258 8.369 QT
-0.672 8.119 -0.906 7.689 QT
-1.141 7.259 -1.141 6.775 QT
-1.141 6.541 -0.992 6.4 QT
-0.844 6.259 -0.625 6.259 QT
-0.406 6.259 -0.258 6.408 QT
-0.109 6.556 -0.109 6.775 QT
-0.109 6.978 -0.258 7.127 QT
-0.406 7.275 -0.625 7.275 QT
-0.656 7.275 -0.703 7.267 QT
-0.75 7.259 -0.766 7.259 QT
cp}def
f1511736146
f
GR
GS
[1 0 0 1 189.125 273] CT
0.149 GC
N
/f1803605107{4.375 8.228 M
4.375 8.181 4.406 8.072 QT
4.688 7.494 4.93 6.931 QT
5.172 6.369 5.367 5.837 QT
5.563 5.306 5.719 4.712 QT
5.078 4.712 L
4.719 4.712 4.398 4.939 QT
4.078 5.166 3.875 5.525 QT
3.844 5.556 3.813 5.556 QT
3.688 5.556 L
3.594 5.556 3.594 5.462 QT
3.594 5.447 3.625 5.4 QT
3.953 4.837 4.32 4.462 QT
4.688 4.087 5.156 4.087 QT
8.797 4.087 L
8.891 4.087 8.961 4.158 QT
9.031 4.228 9.031 4.337 QT
9.031 4.494 8.93 4.603 QT
8.828 4.712 8.688 4.712 QT
7.406 4.712 L
7.25 5.494 7.234 6.244 QT
7.234 7.197 7.563 7.978 QT
7.594 8.041 7.594 8.103 QT
7.594 8.212 7.531 8.306 QT
7.469 8.4 7.367 8.455 QT
7.266 8.509 7.156 8.509 QT
6.891 8.509 6.797 8.08 QT
6.703 7.65 6.703 7.244 QT
6.703 6.681 6.797 6.15 QT
6.891 5.619 7.109 4.712 QT
6.016 4.712 L
5.234 7.916 5.063 8.244 QT
4.922 8.509 4.672 8.509 QT
4.563 8.509 4.469 8.431 QT
4.375 8.353 4.375 8.228 QT
cp}def
f1803605107
f
GR
GS
[1 0 0 1 234.75 273] CT
0.149 GC
N
/f1778835136{-2.014 8.228 M
-2.014 8.181 -1.983 8.072 QT
-1.701 7.494 -1.459 6.931 QT
-1.217 6.369 -1.022 5.837 QT
-0.826 5.306 -0.67 4.712 QT
-1.311 4.712 L
-1.67 4.712 -1.99 4.939 QT
-2.311 5.166 -2.514 5.525 QT
-2.545 5.556 -2.576 5.556 QT
-2.701 5.556 L
-2.795 5.556 -2.795 5.462 QT
-2.795 5.447 -2.764 5.4 QT
-2.436 4.837 -2.069 4.462 QT
-1.701 4.087 -1.233 4.087 QT
2.408 4.087 L
2.502 4.087 2.572 4.158 QT
2.642 4.228 2.642 4.337 QT
2.642 4.494 2.541 4.603 QT
2.439 4.712 2.299 4.712 QT
1.017 4.712 L
0.861 5.494 0.845 6.244 QT
0.845 7.197 1.174 7.978 QT
1.205 8.041 1.205 8.103 QT
1.205 8.212 1.142 8.306 QT
1.08 8.4 0.978 8.455 QT
0.877 8.509 0.767 8.509 QT
0.502 8.509 0.408 8.08 QT
0.314 7.65 0.314 7.244 QT
0.314 6.681 0.408 6.15 QT
0.502 5.619 0.72 4.712 QT
-0.373 4.712 L
-1.155 7.916 -1.326 8.244 QT
-1.467 8.509 -1.717 8.509 QT
-1.826 8.509 -1.92 8.431 QT
-2.014 8.353 -2.014 8.228 QT
cp}def
f1778835136
f
GR
GS
[1 0 0 1 280.375 273] CT
0.149 GC
N
/f306294935{-8.497 8.4 M
-8.497 8.041 L
-7.247 8.041 -7.247 7.728 QT
-7.247 2.478 L
-7.762 2.728 -8.543 2.728 QT
-8.543 2.384 L
-7.325 2.384 -6.7 1.744 QT
-6.559 1.744 L
-6.528 1.744 -6.497 1.767 QT
-6.465 1.791 -6.465 1.822 QT
-6.465 7.728 L
-6.465 8.041 -5.215 8.041 QT
-5.215 8.4 L
-8.497 8.4 L
cp}def
f306294935
f
GR
GS
[1 0 0 1 280.375 273] CT
0.149 GC
N
f-1664080999
f
GR
GS
[1 0 0 1 280.375 273] CT
0.149 GC
N
f1511736146
f
GR
GS
[1 0 0 1 280.375 273] CT
0.149 GC
N
f1803605107
f
GR
GS
[1 0 0 1 326 273] CT
0.149 GC
N
/f881210254{-5.03 8.4 M
-5.03 8.134 L
-5.03 8.103 -5.014 8.072 QT
-3.451 6.353 L
-3.108 5.978 -2.889 5.72 QT
-2.67 5.462 -2.451 5.127 QT
-2.233 4.791 -2.108 4.439 QT
-1.983 4.087 -1.983 3.697 QT
-1.983 3.291 -2.139 2.916 QT
-2.295 2.541 -2.592 2.314 QT
-2.889 2.087 -3.311 2.087 QT
-3.748 2.087 -4.1 2.353 QT
-4.451 2.619 -4.592 3.025 QT
-4.545 3.025 -4.483 3.025 QT
-4.248 3.025 -4.092 3.173 QT
-3.936 3.322 -3.936 3.556 QT
-3.936 3.791 -4.092 3.947 QT
-4.248 4.103 -4.483 4.103 QT
-4.717 4.103 -4.873 3.939 QT
-5.03 3.775 -5.03 3.556 QT
-5.03 3.181 -4.889 2.853 QT
-4.748 2.525 -4.483 2.267 QT
-4.217 2.009 -3.881 1.877 QT
-3.545 1.744 -3.17 1.744 QT
-2.592 1.744 -2.1 1.986 QT
-1.608 2.228 -1.319 2.666 QT
-1.03 3.103 -1.03 3.697 QT
-1.03 4.134 -1.225 4.525 QT
-1.42 4.916 -1.717 5.236 QT
-2.014 5.556 -2.475 5.962 QT
-2.936 6.369 -3.092 6.494 QT
-4.217 7.587 L
-3.264 7.587 L
-2.545 7.587 -2.069 7.58 QT
-1.592 7.572 -1.576 7.541 QT
-1.451 7.416 -1.326 6.619 QT
-1.03 6.619 L
-1.326 8.4 L
-5.03 8.4 L
cp}def
f881210254
f
GR
GS
[1 0 0 1 326 273] CT
0.149 GC
N
/f1130178499{0.486 8.228 M
0.486 8.181 0.517 8.072 QT
0.799 7.494 1.041 6.931 QT
1.283 6.369 1.478 5.837 QT
1.674 5.306 1.83 4.712 QT
1.189 4.712 L
0.83 4.712 0.51 4.939 QT
0.189 5.166 -0.014 5.525 QT
-0.045 5.556 -0.076 5.556 QT
-0.201 5.556 L
-0.295 5.556 -0.295 5.462 QT
-0.295 5.447 -0.264 5.4 QT
0.064 4.837 0.431 4.462 QT
0.799 4.087 1.267 4.087 QT
4.908 4.087 L
5.002 4.087 5.072 4.158 QT
5.142 4.228 5.142 4.337 QT
5.142 4.494 5.041 4.603 QT
4.939 4.712 4.799 4.712 QT
3.517 4.712 L
3.361 5.494 3.345 6.244 QT
3.345 7.197 3.674 7.978 QT
3.705 8.041 3.705 8.103 QT
3.705 8.212 3.642 8.306 QT
3.58 8.4 3.478 8.455 QT
3.377 8.509 3.267 8.509 QT
3.002 8.509 2.908 8.08 QT
2.814 7.65 2.814 7.244 QT
2.814 6.681 2.908 6.15 QT
3.002 5.619 3.22 4.712 QT
2.127 4.712 L
1.345 7.916 1.174 8.244 QT
1.033 8.509 0.783 8.509 QT
0.674 8.509 0.58 8.431 QT
0.486 8.353 0.486 8.228 QT
cp}def
f1130178499
f
GR
GS
[1 0 0 1 234.75009 286] CT
0.149 GC
N
/f-1977375229{-1.152 11.381 M
-0.652 9.396 L
-1.215 9.396 -1.699 9.138 QT
-2.183 8.881 -2.472 8.412 QT
-2.761 7.943 -2.761 7.396 QT
-2.761 6.802 -2.465 6.256 QT
-2.168 5.709 -1.66 5.263 QT
-1.152 4.818 -0.558 4.584 QT
0.035 4.349 0.614 4.349 QT
1.285 1.677 L
1.301 1.615 1.364 1.615 QT
1.504 1.615 L
1.535 1.615 1.567 1.646 QT
1.598 1.677 1.598 1.709 QT
0.942 4.349 L
1.348 4.349 1.731 4.498 QT
2.114 4.646 2.418 4.92 QT
2.723 5.193 2.887 5.56 QT
3.051 5.927 3.051 6.349 QT
3.051 6.943 2.754 7.482 QT
2.457 8.021 1.957 8.459 QT
1.457 8.896 0.84 9.146 QT
0.223 9.396 -0.324 9.396 QT
-0.84 11.427 L
-0.855 11.49 -0.918 11.49 QT
-1.058 11.49 L
-1.09 11.49 -1.121 11.451 QT
-1.152 11.412 -1.152 11.381 QT
cp
-0.574 9.099 M
0.535 4.631 L
0.27 4.631 -0.043 4.74 QT
-0.355 4.849 -0.621 5.021 QT
-0.886 5.193 -1.105 5.427 QT
-1.386 5.693 -1.59 6.06 QT
-1.793 6.427 -1.894 6.826 QT
-1.996 7.224 -1.996 7.631 QT
-1.996 8.037 -1.816 8.373 QT
-1.636 8.709 -1.316 8.904 QT
-0.996 9.099 -0.574 9.099 QT
cp
-0.246 9.099 M
0.16 9.099 0.629 8.865 QT
1.098 8.631 1.395 8.318 QT
1.817 7.912 2.051 7.318 QT
2.285 6.724 2.285 6.115 QT
2.285 5.709 2.106 5.365 QT
1.926 5.021 1.606 4.826 QT
1.285 4.631 0.864 4.631 QT
-0.246 9.099 L
cp}def
f-1977375229
f
GR
GS
0.149 GC
2 setlinecap
1 LJ
0.5 LW
N
143.5 269 M
143.5 232 L
S
GR
GS
0.149 GC
2 setlinecap
1 LJ
0.5 LW
N
326 269 M
326 232 L
S
GR
GS
0.149 GC
2 setlinecap
1 LJ
0.5 LW
N
143.5 269 M
145.325 269 L
S
GR
GS
0.149 GC
2 setlinecap
1 LJ
0.5 LW
N
143.5 250.5 M
145.325 250.5 L
S
GR
GS
0.149 GC
2 setlinecap
1 LJ
0.5 LW
N
143.5 232 M
145.325 232 L
S
GR
GS
0.149 GC
2 setlinecap
1 LJ
0.5 LW
N
326 269 M
324.175 269 L
S
GR
GS
0.149 GC
2 setlinecap
1 LJ
0.5 LW
N
326 250.5 M
324.175 250.5 L
S
GR
GS
0.149 GC
2 setlinecap
1 LJ
0.5 LW
N
326 232 M
324.175 232 L
S
GR
GS
0.88 GC
N
147.944 265.565 M
143.5 265.565 L
143.5 269 L
147.944 269 L
152.388 269 L
152.388 265.565 L
cp
156.832 269 M
156.832 257.836 L
152.388 257.836 L
152.388 269 L
cp
161.276 269 M
161.276 259.554 L
156.832 259.554 L
156.832 269 L
cp
165.72 269 M
165.72 262.989 L
161.276 262.989 L
161.276 269 L
cp
170.164 269 M
170.164 262.13 L
165.72 262.13 L
165.72 269 L
cp
174.608 269 M
174.608 252.683 L
170.164 252.683 L
170.164 269 L
cp
179.052 269 M
179.052 256.118 L
174.608 256.118 L
174.608 269 L
cp
183.496 269 M
183.496 262.13 L
179.052 262.13 L
179.052 269 L
cp
187.94 269 M
187.94 260.412 L
183.496 260.412 L
183.496 269 L
cp
192.384 269 M
192.384 250.966 L
187.94 250.966 L
187.94 269 L
cp
196.828 269 M
196.828 243.237 L
192.384 243.237 L
192.384 269 L
cp
201.272 250.966 M
196.828 250.966 L
196.828 269 L
201.272 269 L
205.716 269 L
205.716 250.966 L
cp
210.16 269 M
210.16 250.107 L
205.716 250.107 L
205.716 269 L
cp
214.604 269 M
214.604 253.542 L
210.16 253.542 L
210.16 269 L
cp
219.048 269 M
219.048 245.813 L
214.604 245.813 L
214.604 269 L
cp
223.492 269 M
223.492 249.248 L
219.048 249.248 L
219.048 269 L
cp
227.936 269 M
227.936 248.389 L
223.492 248.389 L
223.492 269 L
cp
232.38 269 M
232.38 252.683 L
227.936 252.683 L
227.936 269 L
cp
236.824 269 M
236.824 244.954 L
232.38 244.954 L
232.38 269 L
cp
241.268 269 M
241.268 247.531 L
236.824 247.531 L
236.824 269 L
cp
245.712 269 M
245.712 251.825 L
241.268 251.825 L
241.268 269 L
cp
250.156 269 M
250.156 238.943 L
245.712 238.943 L
245.712 269 L
cp
254.6 269 M
254.6 240.661 L
250.156 240.661 L
250.156 269 L
cp
259.044 269 M
259.044 244.096 L
254.6 244.096 L
254.6 269 L
cp
263.488 269 M
263.488 249.248 L
259.044 249.248 L
259.044 269 L
cp
267.932 269 M
267.932 245.813 L
263.488 245.813 L
263.488 269 L
cp
272.376 269 M
272.376 244.096 L
267.932 244.096 L
267.932 269 L
cp
276.82 269 M
276.82 251.825 L
272.376 251.825 L
272.376 269 L
cp
281.264 269 M
281.264 253.542 L
276.82 253.542 L
276.82 269 L
cp
285.708 269 M
285.708 259.554 L
281.264 259.554 L
281.264 269 L
cp
290.152 269 M
290.152 252.683 L
285.708 252.683 L
285.708 269 L
cp
294.596 257.836 M
290.152 257.836 L
290.152 269 L
294.596 269 L
299.04 269 L
299.04 257.836 L
cp
303.484 262.989 M
299.04 262.989 L
299.04 269 L
303.484 269 L
307.928 269 L
307.928 262.989 L
cp
312.372 269 M
312.372 264.706 L
307.928 264.706 L
307.928 269 L
cp
316.816 263.847 M
312.372 263.847 L
312.372 269 L
316.816 269 L
321.26 269 L
321.26 263.847 L
cp
325.704 269 M
325.704 264.706 L
321.26 264.706 L
321.26 269 L
cp
f
GR
GS
2 setlinecap
10.0 ML
0.5 LW
N
143.5 269 M
143.5 265.565 L
147.944 265.565 L
147.944 269 L
147.944 269 L
S
GR
GS
2 setlinecap
10.0 ML
0.5 LW
N
147.944 265.565 M
152.388 265.565 L
S
GR
GS
2 setlinecap
10.0 ML
0.5 LW
N
152.388 269 M
152.388 269 L
152.388 257.836 L
156.832 257.836 L
156.832 269 L
156.832 269 L
S
GR
GS
2 setlinecap
10.0 ML
0.5 LW
N
156.832 259.554 M
161.276 259.554 L
161.276 269 L
161.276 269 L
S
GR
GS
2 setlinecap
10.0 ML
0.5 LW
N
161.276 262.989 M
165.72 262.989 L
S
GR
GS
2 setlinecap
10.0 ML
0.5 LW
N
165.72 269 M
165.72 269 L
165.72 262.13 L
170.164 262.13 L
S
GR
GS
2 setlinecap
10.0 ML
0.5 LW
N
170.164 269 M
170.164 269 L
170.164 252.683 L
174.608 252.683 L
174.608 269 L
174.608 269 L
S
GR
GS
2 setlinecap
10.0 ML
0.5 LW
N
174.608 256.118 M
179.052 256.118 L
179.052 269 L
179.052 269 L
S
GR
GS
2 setlinecap
10.0 ML
0.5 LW
N
179.052 262.13 M
183.496 262.13 L
S
GR
GS
2 setlinecap
10.0 ML
0.5 LW
N
183.496 269 M
183.496 269 L
183.496 260.412 L
187.94 260.412 L
S
GR
GS
2 setlinecap
10.0 ML
0.5 LW
N
187.94 269 M
187.94 269 L
187.94 250.966 L
192.384 250.966 L
S
GR
GS
2 setlinecap
10.0 ML
0.5 LW
N
192.384 269 M
192.384 269 L
192.384 243.237 L
196.828 243.237 L
196.828 269 L
196.828 269 L
S
GR
GS
2 setlinecap
10.0 ML
0.5 LW
N
196.828 250.966 M
201.272 250.966 L
201.272 269 L
201.272 269 L
S
GR
GS
2 setlinecap
10.0 ML
0.5 LW
N
201.272 250.966 M
205.716 250.966 L
S
GR
GS
2 setlinecap
10.0 ML
0.5 LW
N
205.716 269 M
205.716 269 L
205.716 250.107 L
210.16 250.107 L
210.16 269 L
210.16 269 L
S
GR
GS
2 setlinecap
10.0 ML
0.5 LW
N
210.16 253.542 M
214.604 253.542 L
S
GR
GS
2 setlinecap
10.0 ML
0.5 LW
N
214.604 269 M
214.604 269 L
214.604 245.813 L
219.048 245.813 L
219.048 269 L
219.048 269 L
S
GR
GS
2 setlinecap
10.0 ML
0.5 LW
N
219.048 249.248 M
223.492 249.248 L
S
GR
GS
2 setlinecap
10.0 ML
0.5 LW
N
223.492 269 M
223.492 269 L
223.492 248.389 L
227.936 248.389 L
227.936 269 L
227.936 269 L
S
GR
GS
2 setlinecap
10.0 ML
0.5 LW
N
227.936 252.683 M
232.38 252.683 L
S
GR
GS
2 setlinecap
10.0 ML
0.5 LW
N
232.38 269 M
232.38 269 L
232.38 244.954 L
236.824 244.954 L
236.824 269 L
236.824 269 L
S
GR
GS
2 setlinecap
10.0 ML
0.5 LW
N
236.824 247.531 M
241.268 247.531 L
241.268 269 L
241.268 269 L
S
GR
GS
2 setlinecap
10.0 ML
0.5 LW
N
241.268 251.825 M
245.712 251.825 L
S
GR
GS
2 setlinecap
10.0 ML
0.5 LW
N
245.712 269 M
245.712 269 L
245.712 238.943 L
250.156 238.943 L
250.156 269 L
250.156 269 L
S
GR
GS
2 setlinecap
10.0 ML
0.5 LW
N
250.156 240.661 M
254.6 240.661 L
254.6 269 L
254.6 269 L
S
GR
GS
2 setlinecap
10.0 ML
0.5 LW
N
254.6 244.096 M
259.044 244.096 L
259.044 269 L
259.044 269 L
S
GR
GS
2 setlinecap
10.0 ML
0.5 LW
N
259.044 249.248 M
263.488 249.248 L
S
GR
GS
2 setlinecap
10.0 ML
0.5 LW
N
263.488 269 M
263.488 269 L
263.488 245.813 L
267.932 245.813 L
S
GR
GS
2 setlinecap
10.0 ML
0.5 LW
N
267.932 269 M
267.932 269 L
267.932 244.096 L
272.376 244.096 L
272.376 269 L
272.376 269 L
S
GR
GS
2 setlinecap
10.0 ML
0.5 LW
N
272.376 251.825 M
276.82 251.825 L
276.82 269 L
276.82 269 L
S
GR
GS
2 setlinecap
10.0 ML
0.5 LW
N
276.82 253.542 M
281.264 253.542 L
281.264 269 L
281.264 269 L
S
GR
GS
2 setlinecap
10.0 ML
0.5 LW
N
281.264 259.554 M
285.708 259.554 L
S
GR
GS
2 setlinecap
10.0 ML
0.5 LW
N
285.708 269 M
285.708 269 L
285.708 252.683 L
290.152 252.683 L
290.152 269 L
290.152 269 L
S
GR
GS
2 setlinecap
10.0 ML
0.5 LW
N
290.152 257.836 M
294.596 257.836 L
S
GR
GS
2 setlinecap
10.0 ML
0.5 LW
N
294.596 269 M
294.596 269 L
294.596 257.836 L
299.04 257.836 L
299.04 269 L
299.04 269 L
S
GR
GS
2 setlinecap
10.0 ML
0.5 LW
N
299.04 262.989 M
303.484 262.989 L
S
GR
GS
2 setlinecap
10.0 ML
0.5 LW
N
303.484 269 M
303.484 269 L
303.484 262.989 L
307.928 262.989 L
307.928 269 L
307.928 269 L
S
GR
GS
2 setlinecap
10.0 ML
0.5 LW
N
307.928 264.706 M
312.372 264.706 L
S
GR
GS
2 setlinecap
10.0 ML
0.5 LW
N
312.372 269 M
312.372 269 L
312.372 263.847 L
316.816 263.847 L
316.816 269 L
316.816 269 L
S
GR
GS
2 setlinecap
10.0 ML
0.5 LW
N
316.816 263.847 M
321.26 263.847 L
321.26 269 L
321.26 269 L
S
GR
GS
2 setlinecap
10.0 ML
0.5 LW
N
321.26 264.706 M
325.704 264.706 L
325.704 269 L
S
GR
GS
1 LJ
2 LW
N
143.5 262.073 M
145.325 262.083 L
147.15 262.074 L
148.975 262.048 L
150.8 262.004 L
152.625 261.942 L
154.45 261.862 L
156.275 261.762 L
158.1 261.644 L
159.925 261.507 L
161.75 261.35 L
163.575 261.172 L
165.4 260.974 L
167.225 260.754 L
169.05 260.512 L
170.875 260.248 L
172.7 259.961 L
174.525 259.65 L
176.35 259.315 L
178.175 258.955 L
180 258.571 L
181.825 258.161 L
183.65 257.727 L
185.475 257.268 L
187.3 256.784 L
189.125 256.275 L
190.95 255.744 L
192.775 255.19 L
194.6 254.615 L
196.425 254.021 L
198.25 253.41 L
200.075 252.785 L
201.9 252.147 L
203.725 251.502 L
205.55 250.851 L
207.375 250.199 L
209.2 249.55 L
211.025 248.91 L
212.85 248.282 L
214.675 247.672 L
216.5 247.085 L
218.325 246.526 L
220.15 246.002 L
221.975 245.516 L
223.8 245.073 L
225.625 244.679 L
227.45 244.337 L
229.275 244.052 L
231.1 243.826 L
232.925 243.662 L
234.75 243.562 L
236.575 243.527 L
238.4 243.558 L
240.225 243.653 L
242.05 243.813 L
243.875 244.035 L
245.7 244.317 L
247.525 244.655 L
249.35 245.045 L
251.175 245.485 L
253 245.968 L
254.825 246.491 L
256.65 247.047 L
258.475 247.632 L
260.3 248.241 L
262.125 248.868 L
263.95 249.508 L
265.775 250.156 L
267.6 250.808 L
269.425 251.459 L
271.25 252.105 L
273.075 252.743 L
274.9 253.37 L
276.725 253.982 L
278.55 254.577 L
280.375 255.153 L
282.2 255.708 L
284.025 256.241 L
285.85 256.751 L
287.675 257.236 L
289.5 257.697 L
291.325 258.134 L
293.15 258.545 L
294.975 258.93 L
296.8 259.292 L
298.625 259.628 L
300.45 259.941 L
302.275 260.23 L
304.1 260.495 L
305.925 260.739 L
307.75 260.96 L
309.575 261.16 L
311.4 261.339 L
313.225 261.497 L
315.05 261.636 L
316.875 261.755 L
318.7 261.856 L
320.525 261.937 L
322.35 262.001 L
324.175 262.046 L
326 262.073 L
S
GR
GS
1 GC
N
143.5 218 M
326 218 L
326 27 L
143.5 27 L
cp
f
GR
GS
0.149 GC
2 setlinecap
1 LJ
0.5 LW
N
143.5 218 M
326 218 L
S
GR
GS
0.149 GC
2 setlinecap
1 LJ
0.5 LW
N
143.5 218 M
143.5 216.09 L
S
GR
GS
0.149 GC
2 setlinecap
1 LJ
0.5 LW
N
189.125 218 M
189.125 216.09 L
S
GR
GS
0.149 GC
2 setlinecap
1 LJ
0.5 LW
N
234.75 218 M
234.75 216.09 L
S
GR
GS
0.149 GC
2 setlinecap
1 LJ
0.5 LW
N
280.375 218 M
280.375 216.09 L
S
GR
GS
0.149 GC
2 setlinecap
1 LJ
0.5 LW
N
326 218 M
326 216.09 L
S
GR
GS
0.149 GC
2 setlinecap
1 LJ
0.5 LW
N
143.5 218 M
143.5 27 L
S
GR
GS
0.149 GC
2 setlinecap
1 LJ
0.5 LW
N
143.5 218 M
145.41 218 L
S
GR
GS
0.149 GC
2 setlinecap
1 LJ
0.5 LW
N
143.5 170.25 M
145.41 170.25 L
S
GR
GS
0.149 GC
2 setlinecap
1 LJ
0.5 LW
N
143.5 122.5 M
145.41 122.5 L
S
GR
GS
0.149 GC
2 setlinecap
1 LJ
0.5 LW
N
143.5 74.75 M
145.41 74.75 L
S
GR
GS
0.149 GC
2 setlinecap
1 LJ
0.5 LW
N
143.5 27 M
145.41 27 L
S
GR
GS
0.902 GC
N
280.375 218 M
326 218 L
326 170.25 L
cp
189.125 218 M
326 74.75 L
326 27 L
280.375 27 L
143.5 170.25 L
143.5 218 L
cp
143.5 74.75 M
189.125 27 L
143.5 27 L
cp
f
GR
GS
[1 0 0 1 256.13287 215.37984] CT
N
1 0 M
1 0.552 0.552 1 0 1 C
-0.552 1 -1 0.552 -1 0 C
-1 -0.552 -0.552 -1 0 -1 C
0.552 -1 1 -0.552 1 0 C
cp
f
GR
GS
[1 0 0 1 171.85213 35.11715] CT
N
/f-891180347{1 0 M
1 0.552 0.552 1 0 1 C
-0.552 1 -1 0.552 -1 0 C
-1 -0.552 -0.552 -1 0 -1 C
0.552 -1 1 -0.552 1 0 C
cp}def
f-891180347
f
GR
GS
[1 0 0 1 165.22151 197.54414] CT
N
f-891180347
f
GR
GS
[1 0 0 1 178.54799 182.37366] CT
N
f-891180347
f
GR
GS
[1 0 0 1 267.80905 73.05589] CT
N
f-891180347
f
GR
GS
[1 0 0 1 316.5546 197.63008] CT
N
f-891180347
f
GR
GS
[1 0 0 1 242.84888 75.3709] CT
N
f-891180347
f
GR
GS
[1 0 0 1 252.38661 84.9315] CT
N
f-891180347
f
GR
GS
[1 0 0 1 253.85718 71.70844] CT
N
f-891180347
f
GR
GS
[1 0 0 1 197.67079 174.74657] CT
N
f-891180347
f
GR
GS
[1 0 0 1 217.11348 169.28847] CT
N
f-891180347
f
GR
GS
[1 0 0 1 286.6192 76.40542] CT
N
f-891180347
f
GR
GS
[1 0 0 1 152.29228 162.27423] CT
N
f-891180347
f
GR
GS
[1 0 0 1 215.48993 179.8219] CT
N
f-891180347
f
GR
GS
[1 0 0 1 211.37076 177.62463] CT
N
f-891180347
f
GR
GS
[1 0 0 1 235.12854 92.94864] CT
N
f-891180347
f
GR
GS
[1 0 0 1 273.5575 76.53796] CT
N
f-891180347
f
GR
GS
[1 0 0 1 306.77609 80.81654] CT
N
f-891180347
f
GR
GS
[1 0 0 1 220.82761 97.01401] CT
N
f-891180347
f
GR
GS
[1 0 0 1 184.24358 141.34947] CT
N
f-891180347
f
GR
GS
[1 0 0 1 236.47107 168.59555] CT
N
f-891180347
f
GR
GS
[1 0 0 1 272.06369 62.40376] CT
N
f-891180347
f
GR
GS
[1 0 0 1 251.86263 75.62066] CT
N
f-891180347
f
GR
GS
[1 0 0 1 228.81836 86.6456] CT
N
f-891180347
f
GR
GS
[1 0 0 1 201.40186 127.81043] CT
N
f-891180347
f
GR
GS
[1 0 0 1 159.3382 171.95229] CT
N
f-891180347
f
GR
GS
[1 0 0 1 268.95767 136.92728] CT
N
f-891180347
f
GR
GS
[1 0 0 1 238.46849 62.2197] CT
N
f-891180347
f
GR
GS
[1 0 0 1 224.97179 96.84975] CT
N
f-891180347
f
GR
GS
[1 0 0 1 170.28719 155.16339] CT
N
f-891180347
f
GR
GS
[1 0 0 1 200.09373 116.61153] CT
N
f-891180347
f
GR
GS
[1 0 0 1 292.77484 110.72599] CT
N
f-891180347
f
GR
GS
[1 0 0 1 217.47658 99.20364] CT
N
f-891180347
f
GR
GS
[1 0 0 1 273.30252 31.42434] CT
N
f-891180347
f
GR
GS
[1 0 0 1 252.83665 72.33971] CT
N
f-891180347
f
GR
GS
[1 0 0 1 255.4391 48.33255] CT
N
f-891180347
f
GR
GS
[1 0 0 1 215.14111 111.29105] CT
N
f-891180347
f
GR
GS
[1 0 0 1 280.63013 53.98754] CT
N
f-891180347
f
GR
GS
[1 0 0 1 247.41849 68.34344] CT
N
f-891180347
f
GR
GS
[1 0 0 1 190.02734 117.98257] CT
N
f-891180347
f
GR
GS
[1 0 0 1 268.47195 147.67644] CT
N
f-891180347
f
GR
GS
[1 0 0 1 176.67993 141.93636] CT
N
f-891180347
f
GR
GS
[1 0 0 1 153.52634 181.66093] CT
N
f-891180347
f
GR
GS
[1 0 0 1 262.78098 45.17188] CT
N
f-891180347
f
GR
GS
[1 0 0 1 213.95937 149.20853] CT
N
f-891180347
f
GR
GS
[1 0 0 1 227.20551 142.25099] CT
N
f-891180347
f
GR
GS
[1 0 0 1 205.92395 166.39418] CT
N
f-891180347
f
GR
GS
[1 0 0 1 237.47395 139.09929] CT
N
f-891180347
f
GR
GS
[1 0 0 1 221.22246 157.80579] CT
N
f-891180347
f
GR
GS
[1 0 0 1 219.54137 160.51074] CT
N
f-891180347
f
GR
GS
[1 0 0 1 248.24811 135.87233] CT
N
f-891180347
f
GR
GS
[1 0 0 1 239.13652 143.97923] CT
N
f-891180347
f
GR
GS
[1 0 0 1 271.88882 119.04244] CT
N
f-891180347
f
GR
GS
[1 0 0 1 248.44693 130.79082] CT
N
f-891180347
f
GR
GS
[1 0 0 1 230.13586 143.51524] CT
N
f-891180347
f
GR
GS
[1 0 0 1 262.96399 115.9351] CT
N
f-891180347
f
GR
GS
[1 0 0 1 159.75514 35.38984] CT
N
f-891180347
f
GR
GS
[1 0 0 1 170.89014 168.24974] CT
N
f-891180347
f
GR
GS
[1 0 0 1 253.59851 71.5936] CT
N
f-891180347
f
GR
GS
[1 0 0 1 290.02621 90.65599] CT
N
f-891180347
f
GR
GS
[1 0 0 1 153.73291 27.9646] CT
N
f-891180347
f
GR
GS
[1 0 0 1 191.08461 206.77405] CT
N
f-891180347
f
GR
GS
[1 0 0 1 214.8623 175.72395] CT
N
f-891180347
f
GR
GS
[1 0 0 1 199.78998 133.10872] CT
N
f-891180347
f
GR
GS
[1 0 0 1 274.48328 95.23544] CT
N
f-891180347
f
GR
GS
[1 0 0 1 157.8203 202.10669] CT
N
f-891180347
f
GR
GS
[1 0 0 1 240.15936 94.45853] CT
N
f-891180347
f
GR
GS
[1 0 0 1 235.96738 75.2611] CT
N
f-891180347
f
GR
GS
[1 0 0 1 192.05156 132.79716] CT
N
f-891180347
f
GR
GS
[1 0 0 1 273.1889 114.90341] CT
N
f-891180347
f
GR
GS
[1 0 0 1 325.28543 60.432] CT
N
f-891180347
f
GR
GS
[1 0 0 1 259.80862 127.18337] CT
N
f-891180347
f
GR
GS
[1 0 0 1 269.82709 116.7804] CT
N
f-891180347
f
GR
GS
[1 0 0 1 217.6351 155.55589] CT
N
f-891180347
f
GR
GS
[1 0 0 1 217.75681 131.09802] CT
N
f-891180347
f
GR
GS
[1 0 0 1 263.01465 120.91711] CT
N
f-891180347
f
GR
GS
[1 0 0 1 206.60405 130.53323] CT
N
f-891180347
f
GR
GS
[1 0 0 1 192.85992 157.06281] CT
N
f-891180347
f
GR
GS
[1 0 0 1 229.74168 94.41096] CT
N
f-891180347
f
GR
GS
[1 0 0 1 274.46094 59.46181] CT
N
f-891180347
f
GR
GS
[1 0 0 1 256.5791 126.69476] CT
N
f-891180347
f
GR
GS
[1 0 0 1 248.52391 153.76443] CT
N
f-891180347
f
GR
GS
[1 0 0 1 223.57082 83.70377] CT
N
f-891180347
f
GR
GS
[1 0 0 1 223.74663 109.45488] CT
N
f-891180347
f
GR
GS
[1 0 0 1 218.55048 147.72365] CT
N
f-891180347
f
GR
GS
[1 0 0 1 205.78587 170.4384] CT
N
f-891180347
f
GR
GS
[1 0 0 1 210.724 195.34387] CT
N
f-891180347
f
GR
GS
[1 0 0 1 255.30284 54.79888] CT
N
f-891180347
f
GR
GS
[1 0 0 1 284.20364 116.8347] CT
N
f-891180347
f
GR
GS
[1 0 0 1 203.66461 136.59219] CT
N
f-891180347
f
GR
GS
[1 0 0 1 262.9632 113.55074] CT
N
f-891180347
f
GR
GS
[1 0 0 1 227.47458 100.98093] CT
N
f-891180347
f
GR
GS
[1 0 0 1 244.32851 151.24594] CT
N
f-891180347
f
GR
GS
[1 0 0 1 216.83374 105.45082] CT
N
f-891180347
f
GR
GS
[1 0 0 1 284.01569 90.76006] CT
N
f-891180347
f
GR
GS
[1 0 0 1 293.42944 108.34855] CT
N
f-891180347
f
GR
GS
[1 0 0 1 248.00182 61.12323] CT
N
f-891180347
f
GR
GS
[1 0 0 1 225.99994 87.55992] CT
N
f-891180347
f
GR
GS
[1 0 0 1 252.70894 63.4047] CT
N
f-891180347
f
GR
GS
[1 0 0 1 206.79234 182.29115] CT
N
f-891180347
f
GR
GS
[1 0 0 1 269.96396 105.69469] CT
N
f-891180347
f
GR
GS
[1 0 0 1 263.99136 95.01408] CT
N
f-891180347
f
GR
GS
[1 0 0 1 261.86551 82.49814] CT
N
f-891180347
f
GR
GS
[1 0 0 1 226.49585 92.52374] CT
N
f-891180347
f
GR
GS
[1 0 0 1 225.3644 99.87434] CT
N
f-891180347
f
GR
GS
[1 0 0 1 195.16246 120.39057] CT
N
f-891180347
f
GR
GS
[1 0 0 1 245.91394 65.61559] CT
N
f-891180347
f
GR
GS
[1 0 0 1 193.29626 128.64006] CT
N
f-891180347
f
GR
GS
[1 0 0 1 239.53175 84.64709] CT
N
f-891180347
f
GR
GS
[1 0 0 1 198.55469 159.48697] CT
N
f-891180347
f
GR
GS
[1 0 0 1 207.92197 166.25708] CT
N
f-891180347
f
GR
GS
[1 0 0 1 192.6891 178.07285] CT
N
f-891180347
f
GR
GS
[1 0 0 1 197.11919 197.84958] CT
N
f-891180347
f
GR
GS
[1 0 0 1 315.36438 79.86539] CT
N
f-891180347
f
GR
GS
[1 0 0 1 171.09801 149.87766] CT
N
f-891180347
f
GR
GS
[1 0 0 1 161.2908 174.77159] CT
N
f-891180347
f
GR
GS
[1 0 0 1 221.24913 146.56384] CT
N
f-891180347
f
GR
GS
[1 0 0 1 261.29849 41.60223] CT
N
f-891180347
f
GR
GS
[1 0 0 1 304.75211 75.12337] CT
N
f-891180347
f
GR
GS
[1 0 0 1 247.17229 157.97186] CT
N
f-891180347
f
GR
GS
[1 0 0 1 215.42636 134.52303] CT
N
f-891180347
f
GR
GS
[1 0 0 1 188.0295 186.36684] CT
N
f-891180347
f
GR
GS
[1 0 0 1 281.29132 116.87413] CT
N
f-891180347
f
GR
GS
[1 0 0 1 284.85275 96.37717] CT
N
f-891180347
f
GR
GS
[1 0 0 1 274.36429 94.95209] CT
N
f-891180347
f
GR
GS
[1 0 0 1 286.59363 107.0256] CT
N
f-891180347
f
GR
GS
[1 0 0 1 234.71994 93.49297] CT
N
f-891180347
f
GR
GS
[1 0 0 1 170.41449 159.89944] CT
N
f-891180347
f
GR
GS
[1 0 0 1 291.79568 102.97329] CT
N
f-891180347
f
GR
GS
[1 0 0 1 215.73647 150.48224] CT
N
f-891180347
f
GR
GS
[1 0 0 1 216.89481 136.05814] CT
N
f-891180347
f
GR
GS
[1 0 0 1 271.60999 101.5777] CT
N
f-891180347
f
GR
GS
[1 0 0 1 216.89452 103.9474] CT
N
f-891180347
f
GR
GS
[1 0 0 1 211.42928 120.95145] CT
N
f-891180347
f
GR
GS
[1 0 0 1 243.98425 139.10365] CT
N
f-891180347
f
GR
GS
[1 0 0 1 278.20612 99.12559] CT
N
f-891180347
f
GR
GS
[1 0 0 1 205.78584 132.84206] CT
N
f-891180347
f
GR
GS
[1 0 0 1 232.13783 86.72309] CT
N
f-891180347
f
GR
GS
[1 0 0 1 278.5174 111.98608] CT
N
f-891180347
f
GR
GS
[1 0 0 1 239.34245 86.56808] CT
N
f-891180347
f
GR
GS
[1 0 0 1 210.6734 137.24287] CT
N
f-891180347
f
GR
GS
[1 0 0 1 193.68343 150.55342] CT
N
f-891180347
f
GR
GS
[1 0 0 1 275.21454 102.10091] CT
N
f-891180347
f
GR
GS
[1 0 0 1 245.83699 75.77358] CT
N
f-891180347
f
GR
GS
[1 0 0 1 266.52542 67.55124] CT
N
f-891180347
f
GR
GS
[1 0 0 1 211.1707 133.36426] CT
N
f-891180347
f
GR
GS
[1 0 0 1 252.92265 57.38565] CT
N
f-891180347
f
GR
GS
[1 0 0 1 195.34604 129.158] CT
N
f-891180347
f
GR
GS
[1 0 0 1 240.65271 63.81157] CT
N
f-891180347
f
GR
GS
[1 0 0 1 171.20621 154.09644] CT
N
f-891180347
f
GR
GS
[1 0 0 1 225.98801 105.807] CT
N
f-891180347
f
GR
GS
[1 0 0 1 261.42242 114.50247] CT
N
f-891180347
f
GR
GS
[1 0 0 1 213.43289 133.74736] CT
N
f-891180347
f
GR
GS
[1 0 0 1 233.4057 141.32414] CT
N
f-891180347
f
GR
GS
[1 0 0 1 194.29025 121.49689] CT
N
f-891180347
f
GR
GS
[1 0 0 1 242.90312 98.63046] CT
N
f-891180347
f
GR
GS
[1 0 0 1 243.56366 88.8378] CT
N
f-891180347
f
GR
GS
[1 0 0 1 236.04529 82.40656] CT
N
f-891180347
f
GR
GS
[1 0 0 1 210.19972 112.91203] CT
N
f-891180347
f
GR
GS
[1 0 0 1 236.99692 125.88474] CT
N
f-891180347
f
GR
GS
[1 0 0 1 208.41432 115.99574] CT
N
f-891180347
f
GR
GS
[1 0 0 1 269.09976 124.16508] CT
N
f-891180347
f
GR
GS
[1 0 0 1 234.89156 131.7171] CT
N
f-891180347
f
GR
GS
[1 0 0 1 308.87308 65.6179] CT
N
f-891180347
f
GR
GS
[1 0 0 1 227.69136 152.25453] CT
N
f-891180347
f
GR
GS
[1 0 0 1 174.41249 161.69009] CT
N
f-891180347
f
GR
GS
[1 0 0 1 318.4176 81.07887] CT
N
f-891180347
f
GR
GS
[1 0 0 1 264.25241 109.65166] CT
N
f-891180347
f
GR
GS
[1 0 0 1 255.629 76.7904] CT
N
f-891180347
f
GR
GS
[1 0 0 1 242.52618 75.91125] CT
N
f-891180347
f
GR
GS
[1 0 0 1 278.14484 94.24551] CT
N
f-891180347
f
GR
GS
[1 0 0 1 296.92642 57.05667] CT
N
f-891180347
f
GR
GS
[1 0 0 1 216.6949 141.75131] CT
N
f-891180347
f
GR
GS
[1 0 0 1 278.6019 87.05578] CT
N
f-891180347
f
GR
GS
[1 0 0 1 168.02289 147.9025] CT
N
f-891180347
f
GR
GS
[1 0 0 1 296.90634 72.00792] CT
N
f-891180347
f
GR
GS
[1 0 0 1 280.81589 113.65585] CT
N
f-891180347
f
GR
GS
[1 0 0 1 244.37727 83.52547] CT
N
f-891180347
f
GR
GS
[1 0 0 1 255.78305 125.41058] CT
N
f-891180347
f
GR
GS
[1 0 0 1 229.96706 74.47573] CT
N
f-891180347
f
GR
GS
[1 0 0 1 270.70334 100.75548] CT
N
f-891180347
f
GR
GS
[1 0 0 1 251.899 112.27528] CT
N
f-891180347
f
GR
GS
[1 0 0 1 268.07501 89.07762] CT
N
f-891180347
f
GR
GS
[1 0 0 1 253.83923 100.17921] CT
N
f-891180347
f
GR
GS
[1 0 0 1 264.56488 97.46358] CT
N
f-891180347
f
GR
GS
[1 0 0 1 223.34235 99.25019] CT
N
f-891180347
f
GR
GS
[1 0 0 1 243.39401 158.35527] CT
N
f-891180347
f
GR
GS
[1 0 0 1 250.29831 93.38751] CT
N
f-891180347
f
GR
GS
[1 0 0 1 253.01727 89.86809] CT
N
f-891180347
f
GR
GS
[1 0 0 1 305.7254 45.02554] CT
N
f-891180347
f
GR
GS
[1 0 0 1 251.56647 67.83779] CT
N
f-891180347
f
GR
GS
[1 0 0 1 305.11432 56.53703] CT
N
f-891180347
f
GR
GS
[1 0 0 1 245.6425 69.03484] CT
N
f-891180347
f
GR
GS
[1 0 0 1 258.80112 69.1787] CT
N
f-891180347
f
GR
GS
[1 0 0 1 153.80406 147.69559] CT
N
f-891180347
f
GR
GS
[1 0 0 1 145.26665 38.22009] CT
N
f-891180347
f
GR
GS
[1 0 0 1 156.8246 173.2845] CT
N
f-891180347
f
GR
GS
[1 0 0 1 265.00027 137.8959] CT
N
f-891180347
f
GR
GS
[1 0 0 1 212.00728 157.06201] CT
N
f-891180347
f
GR
GS
[1 0 0 1 232.59741 161.64433] CT
N
f-891180347
f
GR
GS
[1 0 0 1 204.21361 138.64096] CT
N
f-891180347
f
GR
GS
[1 0 0 1 264.35352 70.67522] CT
N
f-891180347
f
GR
GS
[1 0 0 1 203.47537 147.61633] CT
N
f-891180347
f
GR
GS
[1 0 0 1 266.63388 89.24037] CT
N
f-891180347
f
GR
GS
[1 0 0 1 238.89066 86.18968] CT
N
f-891180347
f
GR
GS
[1 0 0 1 240.04523 98.61521] CT
N
f-891180347
f
GR
GS
[1 0 0 1 228.86649 96.90999] CT
N
f-891180347
f
GR
GS
[1 0 0 1 191.59082 152.7527] CT
N
f-891180347
f
GR
GS
[1 0 0 1 188.97861 168.40981] CT
N
f-891180347
f
GR
GS
[1 0 0 1 243.73689 137.595] CT
N
f-891180347
f
GR
GS
[1 0 0 1 195.43056 154.31573] CT
N
f-891180347
f
GR
GS
[1 0 0 1 249.81042 105.63686] CT
N
f-891180347
f
GR
GS
[1 0 0 1 248.48866 128.12944] CT
N
f-891180347
f
GR
GS
[1 0 0 1 220.39101 137.7337] CT
N
f-891180347
f
GR
GS
[1 0 0 1 245.1568 99.03232] CT
N
f-891180347
f
GR
GS
[1 0 0 1 196.85143 132.14331] CT
N
f-891180347
f
GR
GS
[1 0 0 1 233.46877 95.78149] CT
N
f-891180347
f
GR
GS
[1 0 0 1 251.41037 109.08875] CT
N
f-891180347
f
GR
GS
[1 0 0 1 299.23645 54.23521] CT
N
f-891180347
f
GR
GS
[1 0 0 1 231.08247 128.50816] CT
N
f-891180347
f
GR
GS
[1 0 0 1 258.53665 96.93886] CT
N
f-891180347
f
GR
GS
[1 0 0 1 241.45419 87.65929] CT
N
f-891180347
f
GR
GS
[1 0 0 1 203.31871 116.06478] CT
N
f-891180347
f
GR
GS
[1 0 0 1 159.18901 189.15694] CT
N
f-891180347
f
GR
GS
[1 0 0 1 281.47745 79.0836] CT
N
f-891180347
f
GR
GS
[1 0 0 1 204.87595 159.49959] CT
N
f-891180347
f
GR
GS
[1 0 0 1 229.44965 149.8304] CT
N
f-891180347
f
GR
GS
[1 0 0 1 208.17976 102.33529] CT
N
f-891180347
f
GR
GS
[1 0 0 1 208.50035 146.56731] CT
N
f-891180347
f
GR
GS
[1 0 0 1 230.42181 79.72344] CT
N
f-891180347
f
GR
GS
[1 0 0 1 237.08292 94.90183] CT
N
f-891180347
f
GR
GS
[1 0 0 1 226.38501 90.79581] CT
N
f-891180347
f
GR
GS
[1 0 0 1 169.95554 194.65614] CT
N
f-891180347
f
GR
GS
[1 0 0 1 202.1673 121.30698] CT
N
f-891180347
f
GR
GS
[1 0 0 1 249.50439 128.65424] CT
N
f-891180347
f
GR
GS
[1 0 0 1 151.83092 200.96788] CT
N
f-891180347
f
GR
GS
[1 0 0 1 205.47882 178.18819] CT
N
f-891180347
f
GR
GS
[1 0 0 1 264.4166 72.49731] CT
N
f-891180347
f
GR
GS
[1 0 0 1 252.71365 82.10731] CT
N
f-891180347
f
GR
GS
[1 0 0 1 248.11253 63.13913] CT
N
f-891180347
f
GR
GS
[1 0 0 1 318.0578 54.46791] CT
N
f-891180347
f
GR
GS
[1 0 0 1 254.41159 65.31023] CT
N
f-891180347
f
GR
GS
[1 0 0 1 158.82187 166.46655] CT
N
f-891180347
f
GR
GS
[1 0 0 1 189.69022 162.85893] CT
N
f-891180347
f
GR
GS
[1 0 0 1 198.85843 130.58374] CT
N
f-891180347
f
GR
GS
[1 0 0 1 220.51265 149.64955] CT
N
f-891180347
f
GR
GS
[1 0 0 1 226.75374 130.21799] CT
N
f-891180347
f
GR
GS
[1 0 0 1 219.10274 119.33176] CT
N
f-891180347
f
GR
GS
[1 0 0 1 265.93628 113.61618] CT
N
f-891180347
f
GR
GS
[1 0 0 1 264.90442 54.60447] CT
N
f-891180347
f
GR
GS
[1 0 0 1 196.53758 195.80533] CT
N
f-891180347
f
GR
GS
[1 0 0 1 196.47429 171.47542] CT
N
f-891180347
f
GR
GS
[1 0 0 1 270.57596 51.77997] CT
N
f-891180347
f
GR
GS
[1 0 0 1 162.74419 47.34662] CT
N
f-891180347
f
GR
GS
[1 0 0 1 177.51743 209.73882] CT
N
f-891180347
f
GR
GS
[1 0 0 1 273.94632 58.15586] CT
N
f-891180347
f
GR
GS
[1 0 0 1 298.55386 39.8072] CT
N
f-891180347
f
GR
GS
[1 0 0 1 254.65645 149.00101] CT
N
f-891180347
f
GR
GS
[1 0 0 1 154.98364 211.90939] CT
N
f-891180347
f
GR
GS
[1 0 0 1 262.30753 45.37788] CT
N
f-891180347
f
GR
GS
[1 0 0 1 185.32567 144.55411] CT
N
f-891180347
f
GR
GS
[1 0 0 1 256.14856 67.69555] CT
N
f-891180347
f
GR
GS
[1 0 0 1 267.11404 103.43116] CT
N
f-891180347
f
GR
GS
[1 0 0 1 302.01266 50.97955] CT
N
f-891180347
f
GR
GS
[1 0 0 1 224.076 124.81154] CT
N
f-891180347
f
GR
GS
[1 0 0 1 202.69923 203.70052] CT
N
f-891180347
f
GR
GS
[1 0 0 1 198.29082 171.39012] CT
N
f-891180347
f
GR
GS
[1 0 0 1 253.91638 131.35722] CT
N
f-891180347
f
GR
GS
[1 0 0 1 246.92775 101.32854] CT
N
f-891180347
f
GR
GS
[1 0 0 1 213.1447 117.00291] CT
N
f-891180347
f
GR
GS
[1 0 0 1 264.17593 91.86575] CT
N
f-891180347
f
GR
GS
[1 0 0 1 246.22919 125.43269] CT
N
f-891180347
f
GR
GS
[1 0 0 1 256.33762 72.11568] CT
N
f-891180347
f
GR
GS
[1 0 0 1 283.71918 48.8872] CT
N
f-891180347
f
GR
GS
[1 0 0 1 174.66962 197.36342] CT
N
f-891180347
f
GR
GS
[1 0 0 1 232.53069 152.49203] CT
N
f-891180347
f
GR
GS
[1 0 0 1 255.06947 118.42661] CT
N
f-891180347
f
GR
GS
[1 0 0 1 272.59192 90.27094] CT
N
f-891180347
f
GR
GS
[1 0 0 1 207.62584 150.92085] CT
N
f-891180347
f
GR
GS
[1 0 0 1 226.59309 104.83092] CT
N
f-891180347
f
GR
GS
[1 0 0 1 191.37863 181.86002] CT
N
f-891180347
f
GR
GS
[1 0 0 1 279.02795 52.26128] CT
N
f-891180347
f
GR
GS
[1 0 0 1 246.88792 78.69078] CT
N
f-891180347
f
GR
GS
[1 0 0 1 245.03201 81.97661] CT
N
f-891180347
f
GR
GS
[1 0 0 1 232.16367 69.81345] CT
N
f-891180347
f
GR
GS
[1 0 0 1 224.02724 197.94435] CT
N
f-891180347
f
GR
GS
[1 0 0 1 276.22842 107.3007] CT
N
f-891180347
f
GR
GS
[1 0 0 1 145.96603 184.89998] CT
N
f-891180347
f
GR
GS
[1 0 0 1 275.55682 80.60053] CT
N
f-891180347
f
GR
GS
[1 0 0 1 294.15036 74.88068] CT
N
f-891180347
f
GR
GS
[1 0 0 1 249.67146 85.56631] CT
N
f-891180347
f
GR
GS
[1 0 0 1 237.42566 184.38663] CT
N
f-891180347
f
GR
GS
[1 0 0 1 271.4628 106.88495] CT
N
f-891180347
f
GR
GS
[1 0 0 1 195.71854 150.65494] CT
N
f-891180347
f
GR
GS
[1 0 0 1 252.42166 99.14184] CT
N
f-891180347
f
GR
GS
[1 0 0 1 193.13153 168.93782] CT
N
f-891180347
f
GR
GS
[1 0 0 1 240.72997 80.48627] CT
N
f-891180347
f
GR
GS
[1 0 0 1 193.68521 164.48393] CT
N
f-891180347
f
GR
GS
[1 0 0 1 166.91629 149.9162] CT
N
f-891180347
f
GR
GS
[1 0 0 1 235.17798 140.47444] CT
N
f-891180347
f
GR
GS
[1 0 0 1 183.57616 191.71571] CT
N
f-891180347
f
GR
GS
[1 0 0 1 257.53458 99.65972] CT
N
f-891180347
f
GR
GS
[1 0 0 1 155.25186 178.54526] CT
N
f-891180347
f
GR
GS
[1 0 0 1 187.46631 176.41119] CT
N
f-891180347
f
GR
GS
[1 0 0 1 274.85236 106.15065] CT
N
f-891180347
f
GR
GS
[1 0 0 1 228.71411 166.18437] CT
N
f-891180347
f
GR
GS
[1 0 0 1 222.84441 187.04272] CT
N
f-891180347
f
GR
GS
[1 0 0 1 235.77007 133.98415] CT
N
f-891180347
f
GR
GS
[1 0 0 1 256.36874 71.79649] CT
N
f-891180347
f
GR
GS
[1 0 0 1 220.16325 111.09366] CT
N
f-891180347
f
GR
GS
[1 0 0 1 265.72467 132.59969] CT
N
f-891180347
f
GR
GS
[1 0 0 1 233.29922 66.67933] CT
N
f-891180347
f
GR
GS
[1 0 0 1 184.1357 177.84914] CT
N
f-891180347
f
GR
GS
[1 0 0 1 289.17447 117.62078] CT
N
f-891180347
f
GR
GS
[1 0 0 1 245.75383 162.71585] CT
N
f-891180347
f
GR
GS
[1 0 0 1 200.71475 177.55489] CT
N
f-891180347
f
GR
GS
[1 0 0 1 313.97653 89.26213] CT
N
f-891180347
f
GR
GS
[1 0 0 1 247.06322 80.1609] CT
N
f-891180347
f
GR
GS
[1 0 0 1 247.76563 155.96172] CT
N
f-891180347
f
GR
GS
[1 0 0 1 213.09848 199.95973] CT
N
f-891180347
f
GR
GS
[1 0 0 1 298.84351 79.44762] CT
N
f-891180347
f
GR
GS
[1 0 0 1 159.75774 203.57585] CT
N
f-891180347
f
GR
GS
[1 0 0 1 189.19473 189.27539] CT
N
f-891180347
f
GR
GS
[1 0 0 1 274.75024 97.41854] CT
N
f-891180347
f
GR
GS
[1 0 0 1 279.94217 104.77838] CT
N
f-891180347
f
GR
GS
[1 0 0 1 288.42987 89.61025] CT
N
f-891180347
f
GR
GS
[1 0 0 1 224.4369 173.19032] CT
N
f-891180347
f
GR
GS
[1 0 0 1 252.36438 118.49692] CT
N
f-891180347
f
GR
GS
[1 0 0 1 269.46677 116.36002] CT
N
f-891180347
f
GR
GS
[1 0 0 1 155.34337 60.94716] CT
N
f-891180347
f
GR
GS
[1 0 0 1 270.88907 119.88206] CT
N
f-891180347
f
GR
GS
[1 0 0 1 237.18169 179.41925] CT
N
f-891180347
f
GR
GS
[1 0 0 1 286.49948 109.68906] CT
N
f-891180347
f
GR
GS
[1 0 0 1 285.73834 107.11018] CT
N
f-891180347
f
GR
GS
[1 0 0 1 145.27596 41.9037] CT
N
f-891180347
f
GR
GS
[1 0 0 1 260.7981 85.10276] CT
N
f-891180347
f
GR
GS
[1 0 0 1 205.12915 131.20624] CT
N
f-891180347
f
GR
GS
[1 0 0 1 193.96414 179.00552] CT
N
f-891180347
f
GR
GS
[1 0 0 1 226.44638 156.97337] CT
N
f-891180347
f
GR
GS
[1 0 0 1 190.29794 131.51019] CT
N
f-891180347
f
GR
GS
[1 0 0 1 246.81505 81.00023] CT
N
f-891180347
f
GR
GS
[1 0 0 1 198.8335 174.81752] CT
N
f-891180347
f
GR
GS
[1 0 0 1 233.01373 181.51459] CT
N
f-891180347
f
GR
GS
[1 0 0 1 263.00464 103.17606] CT
N
f-891180347
f
GR
GS
[1 0 0 1 280.72925 39.08436] CT
N
f-891180347
f
GR
GS
[1 0 0 1 274.91321 90.6666] CT
N
f-891180347
f
GR
GS
[1 0 0 1 266.91342 101.32718] CT
N
f-891180347
f
GR
GS
[1 0 0 1 199.02705 171.66666] CT
N
f-891180347
f
GR
GS
[1 0 0 1 182.82799 151.28606] CT
N
f-891180347
f
GR
GS
[1 0 0 1 298.03406 55.35252] CT
N
f-891180347
f
GR
GS
[1 0 0 1 264.26907 79.70064] CT
N
f-891180347
f
GR
GS
[1 0 0 1 216.9525 92.35197] CT
N
f-891180347
f
GR
GS
[1 0 0 1 249.68443 74.00056] CT
N
f-891180347
f
GR
GS
[1 0 0 1 196.01266 145.34938] CT
N
f-891180347
f
GR
GS
[1 0 0 1 256.29034 165.4458] CT
N
f-891180347
f
GR
GS
[1 0 0 1 179.99387 152.73129] CT
N
f-891180347
f
GR
GS
[1 0 0 1 249.59705 80.03535] CT
N
f-891180347
f
GR
GS
[1 0 0 1 206.86832 124.98725] CT
N
f-891180347
f
GR
GS
[1 0 0 1 195.93192 171.06729] CT
N
f-891180347
f
GR
GS
[1 0 0 1 203.87358 162.64308] CT
N
f-891180347
f
GR
GS
[1 0 0 1 199.82365 143.8821] CT
N
f-891180347
f
GR
GS
[1 0 0 1 232.62354 85.23196] CT
N
f-891180347
f
GR
GS
[1 0 0 1 178.76323 179.51062] CT
N
f-891180347
f
GR
GS
[1 0 0 1 290.86584 71.90282] CT
N
f-891180347
f
GR
GS
[1 0 0 1 247.84013 153.0551] CT
N
f-891180347
f
GR
GS
[1 0 0 1 181.48146 124.30145] CT
N
f-891180347
f
GR
GS
[1 0 0 1 262.23254 72.15539] CT
N
f-891180347
f
GR
GS
[1 0 0 1 251.75728 94.11738] CT
N
f-891180347
f
GR
GS
[1 0 0 1 249.34898 121.07607] CT
N
f-891180347
f
GR
GS
[1 0 0 1 229.69122 162.63441] CT
N
f-891180347
f
GR
GS
[1 0 0 1 246.09818 76.28053] CT
N
f-891180347
f
GR
GS
[1 0 0 1 193.64116 148.86842] CT
N
f-891180347
f
GR
GS
[1 0 0 1 223.21071 180.53123] CT
N
f-891180347
f
GR
GS
[1 0 0 1 245.62582 131.43108] CT
N
f-891180347
f
GR
GS
[1 0 0 1 259.00815 126.05056] CT
N
f-891180347
f
GR
GS
[1 0 0 1 253.35371 106.23285] CT
N
f-891180347
f
GR
GS
[1 0 0 1 275.24866 65.83908] CT
N
f-891180347
f
GR
GS
[1 0 0 1 157.90302 182.53854] CT
N
f-891180347
f
GR
GS
[1 0 0 1 230.04561 164.71637] CT
N
f-891180347
f
GR
GS
[1 0 0 1 157.3786 170.01012] CT
N
f-891180347
f
GR
GS
[1 0 0 1 171.84691 214.87517] CT
N
f-891180347
f
GR
GS
[1 0 0 1 173.78647 157.81343] CT
N
f-891180347
f
GR
GS
[1 0 0 1 155.24234 195.24107] CT
N
f-891180347
f
GR
GS
[1 0 0 1 193.8045 39.74959] CT
N
f-891180347
f
GR
GS
[1 0 0 1 317.15851 206.38908] CT
N
f-891180347
f
GR
GS
[1 0 0 1 249.92194 74.82375] CT
N
f-891180347
f
GR
GS
[1 0 0 1 209.88583 114.18755] CT
N
f-891180347
f
GR
GS
[1 0 0 1 257.0148 120.11279] CT
N
f-891180347
f
GR
GS
[1 0 0 1 165.70941 178.45187] CT
N
f-891180347
f
GR
GS
[1 0 0 1 260.05167 144.17265] CT
N
f-891180347
f
GR
GS
[1 0 0 1 181.08614 186.76556] CT
N
f-891180347
f
GR
GS
[1 0 0 1 284.63086 33.69488] CT
N
f-891180347
f
GR
GS
[1 0 0 1 293.31308 98.22973] CT
N
f-891180347
f
GR
GS
[1 0 0 1 233.6133 162.36966] CT
N
f-891180347
f
GR
GS
[1 0 0 1 197.36555 113.51086] CT
N
f-891180347
f
GR
GS
[1 0 0 1 240.92033 59.48612] CT
N
f-891180347
f
GR
GS
[1 0 0 1 296.17029 108.35197] CT
N
f-891180347
f
GR
GS
[1 0 0 1 234.36934 161.33002] CT
N
f-891180347
f
GR
GS
[1 0 0 1 302.80624 72.55557] CT
N
f-891180347
f
GR
GS
[1 0 0 1 218.64825 117.54097] CT
N
f-891180347
f
GR
GS
[1 0 0 1 298.91379 42.92897] CT
N
f-891180347
f
GR
GS
[1 0 0 1 269.78165 98.72543] CT
N
f-891180347
f
GR
GS
[1 0 0 1 267.25482 90.6139] CT
N
f-891180347
f
GR
GS
[1 0 0 1 224.77367 99.65334] CT
N
f-891180347
f
GR
GS
[1 0 0 1 269.49451 91.76617] CT
N
f-891180347
f
GR
GS
[1 0 0 1 236.52008 77.75346] CT
N
f-891180347
f
GR
GS
[1 0 0 1 293.81845 53.63732] CT
N
f-891180347
f
GR
GS
[1 0 0 1 192.20432 116.75913] CT
N
f-891180347
f
GR
GS
[1 0 0 1 234.28752 172.16515] CT
N
f-891180347
f
GR
GS
[1 0 0 1 211.35345 166.47284] CT
N
f-891180347
f
GR
GS
[1 0 0 1 222.34366 186.28751] CT
N
f-891180347
f
GR
GS
[1 0 0 1 196.17821 179.33617] CT
N
f-891180347
f
GR
GS
[1 0 0 1 187.97931 167.89267] CT
N
f-891180347
f
GR
GS
[1 0 0 1 215.68893 179.94327] CT
N
f-891180347
f
GR
GS
[1 0 0 1 251.95898 79.294] CT
N
f-891180347
f
GR
GS
[1 0 0 1 204.06506 199.75612] CT
N
f-891180347
f
GR
GS
[1 0 0 1 237.33484 71.98263] CT
N
f-891180347
f
GR
GS
[1 0 0 1 287.10373 60.39483] CT
N
f-891180347
f
GR
GS
[1 0 0 1 258.87466 106.53384] CT
N
f-891180347
f
GR
GS
[1 0 0 1 219.78366 102.55158] CT
N
f-891180347
f
GR
GS
[1 0 0 1 255.6886 146.00569] CT
N
f-891180347
f
GR
GS
[1 0 0 1 268.16748 82.33397] CT
N
f-891180347
f
GR
GS
[1 0 0 1 256.11765 135.32811] CT
N
f-891180347
f
GR
GS
[1 0 0 1 207.66035 161.02303] CT
N
f-891180347
f
GR
GS
[1 0 0 1 235.41597 90.33125] CT
N
f-891180347
f
GR
GS
[1 0 0 1 285.85321 112.40482] CT
N
f-891180347
f
GR
GS
[1 0 0 1 195.34387 140.32214] CT
N
f-891180347
f
GR
GS
[1 0 0 1 264.76791 100.35393] CT
N
f-891180347
f
GR
GS
[1 0 0 1 246.82298 91.84492] CT
N
f-891180347
f
GR
GS
[1 0 0 1 297.47891 56.95616] CT
N
f-891180347
f
GR
GS
[1 0 0 1 221.95984 152.77609] CT
N
f-891180347
f
GR
GS
[1 0 0 1 228.38251 140.40704] CT
N
f-891180347
f
GR
GS
[1 0 0 1 259.31863 123.17846] CT
N
f-891180347
f
GR
GS
[1 0 0 1 253.93501 77.63756] CT
N
f-891180347
f
GR
GS
[1 0 0 1 259.7843 145.76884] CT
N
f-891180347
f
GR
GS
[1 0 0 1 268.20554 143.73] CT
N
f-891180347
f
GR
GS
[1 0 0 1 285.71078 85.49862] CT
N
f-891180347
f
GR
GS
[1 0 0 1 249.88438 140.37047] CT
N
f-891180347
f
GR
GS
[1 0 0 1 243.29037 121.8902] CT
N
f-891180347
f
GR
GS
[1 0 0 1 213.94185 155.12544] CT
N
f-891180347
f
GR
GS
[1 0 0 1 217.88742 126.18513] CT
N
f-891180347
f
GR
GS
[1 0 0 1 256.70621 108.65118] CT
N
f-891180347
f
GR
GS
[1 0 0 1 256.20438 160.84467] CT
N
f-891180347
f
GR
GS
[1 0 0 1 220.34651 102.58095] CT
N
f-891180347
f
GR
GS
[1 0 0 1 253.55795 102.93549] CT
N
f-891180347
f
GR
GS
[1 0 0 1 255.59158 85.26673] CT
N
f-891180347
f
GR
GS
[1 0 0 1 233.52885 93.30228] CT
N
f-891180347
f
GR
GS
[1 0 0 1 322.75519 186.5054] CT
N
f-891180347
f
GR
GS
[1 0 0 1 268.32211 137.7644] CT
N
f-891180347
f
GR
GS
[1 0 0 1 243.85181 95.58238] CT
N
f-891180347
f
GR
GS
[1 0 0 1 222.53682 158.06331] CT
N
f-891180347
f
GR
GS
[1 0 0 1 251.94287 170.97496] CT
N
f-891180347
f
GR
GS
[1 0 0 1 267.58017 104.70227] CT
N
f-891180347
f
GR
GS
[1 0 0 1 184.31999 157.45506] CT
N
f-891180347
f
GR
GS
[1 0 0 1 172.69377 150.52339] CT
N
f-891180347
f
GR
GS
[1 0 0 1 165.83997 177.44028] CT
N
f-891180347
f
GR
GS
[1 0 0 1 275.53387 85.7694] CT
N
f-891180347
f
GR
GS
[1 0 0 1 206.6879 176.18446] CT
N
f-891180347
f
GR
GS
[1 0 0 1 202.89804 180.24747] CT
N
f-891180347
f
GR
GS
[1 0 0 1 270.78503 54.59028] CT
N
f-891180347
f
GR
GS
[1 0 0 1 268.14658 78.81555] CT
N
f-891180347
f
GR
GS
[1 0 0 1 176.09 175.27797] CT
N
f-891180347
f
GR
GS
[1 0 0 1 174.88258 186.24803] CT
N
f-891180347
f
GR
GS
[1 0 0 1 300.01993 55.86697] CT
N
f-891180347
f
GR
GS
[1 0 0 1 275.21188 102.77812] CT
N
f-891180347
f
GR
GS
[1 0 0 1 251.34894 92.24586] CT
N
f-891180347
f
GR
GS
[1 0 0 1 195.28828 158.84576] CT
N
f-891180347
f
GR
GS
[1 0 0 1 243.76767 57.53378] CT
N
f-891180347
f
GR
GS
[1 0 0 1 239.83765 66.67016] CT
N
f-891180347
f
GR
GS
[1 0 0 1 283.54172 61.95734] CT
N
f-891180347
f
GR
GS
[1 0 0 1 271.36575 81.01585] CT
N
f-891180347
f
GR
GS
[1 0 0 1 224.23134 88.30209] CT
N
f-891180347
f
GR
GS
[1 0 0 1 259.68677 76.67634] CT
N
f-891180347
f
GR
GS
[1 0 0 1 254.36594 72.96453] CT
N
f-891180347
f
GR
GS
[1 0 0 1 259.0878 76.16216] CT
N
f-891180347
f
GR
GS
[1 0 0 1 202.24991 158.33839] CT
N
f-891180347
f
GR
GS
[1 0 0 1 242.94775 77.06895] CT
N
f-891180347
f
GR
GS
[1 0 0 1 286.96634 60.22169] CT
N
f-891180347
f
GR
GS
[1 0 0 1 250.00066 163.13708] CT
N
f-891180347
f
GR
GS
[1 0 0 1 272.9212 89.2914] CT
N
f-891180347
f
GR
GS
[1 0 0 1 205.06715 103.32946] CT
N
f-891180347
f
GR
GS
[1 0 0 1 240.10059 130.2493] CT
N
f-891180347
f
GR
GS
[1 0 0 1 221.92342 97.01841] CT
N
f-891180347
f
GR
GS
[1 0 0 1 293.34351 71.40942] CT
N
f-891180347
f
GR
GS
[1 0 0 1 188.47098 137.53519] CT
N
f-891180347
f
GR
GS
[1 0 0 1 175.15842 151.8318] CT
N
f-891180347
f
GR
GS
[1 0 0 1 275.51999 100.45352] CT
N
f-891180347
f
GR
GS
[1 0 0 1 307.03806 202.56482] CT
N
f-891180347
f
GR
GS
[1 0 0 1 253.53624 60.96154] CT
N
f-891180347
f
GR
GS
[1 0 0 1 278.8891 48.60854] CT
N
f-891180347
f
GR
GS
[1 0 0 1 182.78864 140.16011] CT
N
f-891180347
f
GR
GS
[1 0 0 1 148.44847 208.94879] CT
N
f-891180347
f
GR
GS
[1 0 0 1 203.95862 179.12268] CT
N
f-891180347
f
GR
GS
[1 0 0 1 283.40414 57.0117] CT
N
f-891180347
f
GR
GS
[1 0 0 1 216.39236 150.17876] CT
N
f-891180347
f
GR
GS
[1 0 0 1 179.49777 201.39902] CT
N
f-891180347
f
GR
GS
[1 0 0 1 258.20804 90.56174] CT
N
f-891180347
f
GR
GS
[1 0 0 1 311.09808 30.85211] CT
N
f-891180347
f
GR
GS
[1 0 0 1 197.79463 192.17892] CT
N
f-891180347
f
GR
GS
[1 0 0 1 192.22502 167.11366] CT
N
f-891180347
f
GR
GS
[1 0 0 1 255.89063 82.4864] CT
N
f-891180347
f
GR
GS
[1 0 0 1 223.04832 157.10583] CT
N
f-891180347
f
GR
GS
[1 0 0 1 171.07953 162.81503] CT
N
f-891180347
f
GR
GS
[1 0 0 1 241.63139 162.34721] CT
N
f-891180347
f
GR
GS
[1 0 0 1 271.6506 98.80742] CT
N
f-891180347
f
GR
GS
[1 0 0 1 278.68964 98.9486] CT
N
f-891180347
f
GR
GS
[1 0 0 1 172.42993 196.7804] CT
N
f-891180347
f
GR
GS
[1 0 0 1 285.88971 68.87498] CT
N
f-891180347
f
GR
GS
[1 0 0 1 245.94147 161.50545] CT
N
f-891180347
f
GR
GS
[1 0 0 1 262.44287 101.59832] CT
N
f-891180347
f
GR
GS
[1 0 0 1 196.67805 145.6481] CT
N
f-891180347
f
GR
GS
[1 0 0 1 200.9812 158.1646] CT
N
f-891180347
f
GR
GS
[1 0 0 1 219.87311 171.64244] CT
N
f-891180347
f
GR
GS
[1 0 0 1 237.0824 113.11294] CT
N
f-891180347
f
GR
GS
[1 0 0 1 260.66293 92.88364] CT
N
f-891180347
f
GR
GS
[1 0 0 1 243.92784 85.36049] CT
N
f-891180347
f
GR
GS
[1 0 0 1 157.36224 62.5521] CT
N
f-891180347
f
GR
GS
[1 0 0 1 233.65242 166.62263] CT
N
f-891180347
f
GR
GS
[1 0 0 1 222.24387 93.64357] CT
N
f-891180347
f
GR
GS
[1 0 0 1 297.27585 77.91132] CT
N
f-891180347
f
GR
GS
[1 0 0 1 249.46906 107.29554] CT
N
f-891180347
f
GR
GS
[1 0 0 1 167.10886 207.8481] CT
N
f-891180347
f
GR
GS
[1 0 0 1 176.68556 200.79341] CT
N
f-891180347
f
GR
GS
[1 0 0 1 316.18008 55.53285] CT
N
f-891180347
f
GR
GS
[1 0 0 1 270.95898 43.56245] CT
N
f-891180347
f
GR
GS
[1 0 0 1 252.80786 68.11624] CT
N
f-891180347
f
GR
GS
[1 0 0 1 271.11481 41.03999] CT
N
f-891180347
f
GR
GS
[1 0 0 1 239.3017 168.87] CT
N
f-891180347
f
GR
GS
[1 0 0 1 293.74124 53.43592] CT
N
f-891180347
f
GR
GS
[1 0 0 1 227.6465 144.3851] CT
N
f-891180347
f
GR
GS
[1 0 0 1 257.45511 89.00604] CT
N
f-891180347
f
GR
GS
[1 0 0 1 296.70102 97.20058] CT
N
f-891180347
f
GR
GS
[1 0 0 1 297.22772 191.46063] CT
N
f-891180347
f
GR
GS
[1 0 0 1 228.4286 84.67319] CT
N
f-891180347
f
GR
GS
[1 0 0 1 248.20045 164.1635] CT
N
f-891180347
f
GR
GS
[1 0 0 1 233.79733 158.33742] CT
N
f-891180347
f
GR
GS
[1 0 0 1 199.61316 179.75368] CT
N
f-891180347
f
GR
GS
[1 0 0 1 222.90355 171.47365] CT
N
f-891180347
f
GR
GS
[1 0 0 1 184.56664 186.06593] CT
N
f-891180347
f
GR
GS
[1 0 0 1 205.11821 147.4536] CT
N
f-891180347
f
GR
GS
[1 0 0 1 297.50214 56.25784] CT
N
f-891180347
f
GR
GS
[1 0 0 1 190.91414 178.20192] CT
N
f-891180347
f
GR
GS
[1 0 0 1 237.68903 111.15997] CT
N
f-891180347
f
GR
GS
[1 0 0 1 278.15503 110.08515] CT
N
f-891180347
f
GR
GS
[1 0 0 1 212.78609 192.95432] CT
N
f-891180347
f
GR
GS
[1 0 0 1 286.90274 38.69772] CT
N
f-891180347
f
GR
GS
[1 0 0 1 154.33072 192.17651] CT
N
f-891180347
f
GR
GS
[1 0 0 1 163.73563 178.27547] CT
N
f-891180347
f
GR
GS
[1 0 0 1 225.24097 185.17928] CT
N
f-891180347
f
GR
GS
[1 0 0 1 324.9183 60.2949] CT
N
f-891180347
f
GR
GS
[1 0 0 1 209.98036 151.14859] CT
N
f-891180347
f
GR
GS
[1 0 0 1 169.53006 196.15585] CT
N
f-891180347
f
GR
GS
[1 0 0 1 265.48587 65.55775] CT
N
f-891180347
f
GR
GS
[1 0 0 1 194.653 177.2571] CT
N
f-891180347
f
GR
GS
[1 0 0 1 320.57843 52.81448] CT
N
f-891180347
f
GR
GS
[1 0 0 1 218.31641 93.33466] CT
N
f-891180347
f
GR
GS
[1 0 0 1 278.79605 46.68792] CT
N
f-891180347
f
GR
GS
[1 0 0 1 310.59464 33.7392] CT
N
f-891180347
f
GR
GS
[1 0 0 1 181.16295 145.74168] CT
N
f-891180347
f
GR
GS
[1 0 0 1 165.3562 197.33533] CT
N
f-891180347
f
GR
GS
[1 0 0 1 215.86281 132.40749] CT
N
f-891180347
f
GR
GS
[1 0 0 1 291.87018 59.70994] CT
N
f-891180347
f
GR
GS
[1 0 0 1 253.92169 119.55264] CT
N
f-891180347
f
GR
GS
[1 0 0 1 216.99133 165.57352] CT
N
f-891180347
f
GR
GS
[1 0 0 1 201.39131 179.84875] CT
N
f-891180347
f
GR
GS
[1 0 0 1 207.84998 206.22038] CT
N
f-891180347
f
GR
GS
[1 0 0 1 310.86517 204.47646] CT
N
f-891180347
f
GR
GS
[1 0 0 1 170.86342 192.61812] CT
N
f-891180347
f
GR
GS
[1 0 0 1 184.44609 172.67708] CT
N
f-891180347
f
GR
GS
[1 0 0 1 278.80783 51.56959] CT
N
f-891180347
f
GR
GS
[1 0 0 1 302.10083 191.87024] CT
N
f-891180347
f
GR
GS
[1 0 0 1 196.54483 169.03764] CT
N
f-891180347
f
GR
GS
[1 0 0 1 236.57896 164.96274] CT
N
f-891180347
f
GR
GS
[1 0 0 1 303.61829 191.13585] CT
N
f-891180347
f
GR
GS
[1 0 0 1 200.29651 110.06599] CT
N
f-891180347
f
GR
GS
[1 0 0 1 156.08041 173.96985] CT
N
f-891180347
f
GR
GS
[1 0 0 1 169.83208 195.61624] CT
N
f-891180347
f
GR
GS
[1 0 0 1 207.04347 152.69337] CT
N
f-891180347
f
GR
GS
[1 0 0 1 248.81691 157.37776] CT
N
f-891180347
f
GR
GS
[1 0 0 1 151.91209 214.19543] CT
N
f-891180347
f
GR
GS
[1 0 0 1 188.73274 173.00887] CT
N
f-891180347
f
GR
GS
[1 0 0 1 177.5421 211.6503] CT
N
f-891180347
f
GR
GS
[1 0 0 1 302.53482 27.02812] CT
N
f-891180347
f
GR
GS
[1 0 0 1 251.7986 92.23624] CT
N
f-891180347
f
GR
GS
[1 0 0 1 206.31674 135.81383] CT
N
f-891180347
f
GR
GS
[1 0 0 1 217.35567 167.87682] CT
N
f-891180347
f
GR
GS
[1 0 0 1 276.77771 65.26188] CT
N
f-891180347
f
GR
GS
[1 0 0 1 189.42836 130.90637] CT
N
f-891180347
f
GR
GS
[1 0 0 1 237.35121 161.02147] CT
N
f-891180347
f
GR
GS
[1 0 0 1 309.72717 148.46892] CT
N
f-891180347
f
GR
GS
[1 0 0 1 215.57414 168.05684] CT
N
f-891180347
f
GR
GS
[1 0 0 1 278.55624 90.23957] CT
N
f-891180347
f
GR
GS
[1 0 0 1 159.61784 189.85037] CT
N
f-891180347
f
GR
GS
[1 0 0 1 231.16763 152.2413] CT
N
f-891180347
f
GR
GS
[1 0 0 1 272.07928 102.18977] CT
N
f-891180347
f
GR
GS
[1 0 0 1 287.88174 74.53613] CT
N
f-891180347
f
GR
GS
[1 0 0 1 240.64084 75.19408] CT
N
f-891180347
f
GR
GS
[1 0 0 1 234.54211 187.05553] CT
N
f-891180347
f
GR
GS
[1 0 0 1 251.64354 85.96241] CT
N
f-891180347
f
GR
GS
[1 0 0 1 249.01814 145.86746] CT
N
f-891180347
f
GR
GS
[1 0 0 1 278.38052 121.63525] CT
N
f-891180347
f
GR
GS
[1 0 0 1 207.43784 136.45131] CT
N
f-891180347
f
GR
GS
[1 0 0 1 266.83966 113.81241] CT
N
f-891180347
f
GR
GS
[1 0 0 1 266.87784 125.55199] CT
N
f-891180347
f
GR
GS
[1 0 0 1 257.84137 92.00946] CT
N
f-891180347
f
GR
GS
[1 0 0 1 299.47552 81.86988] CT
N
f-891180347
f
GR
GS
[1 0 0 1 278.39539 87.42997] CT
N
f-891180347
f
GR
GS
[1 0 0 1 287.49826 118.0834] CT
N
f-891180347
f
GR
GS
[1 0 0 1 321.09628 177.87242] CT
N
f-891180347
f
GR
GS
[1 0 0 1 205.19679 165.58362] CT
N
f-891180347
f
GR
GS
[1 0 0 1 264.62256 118.82388] CT
N
f-891180347
f
GR
GS
[1 0 0 1 324.76642 192.76389] CT
N
f-891180347
f
GR
GS
[1 0 0 1 314.42642 94.68789] CT
N
f-891180347
f
GR
GS
[1 0 0 1 172.05684 196.75035] CT
N
f-891180347
f
GR
GS
[1 0 0 1 206.60115 152.25249] CT
N
f-891180347
f
GR
GS
[1 0 0 1 263.8913 90.73579] CT
N
f-891180347
f
GR
GS
[1 0 0 1 202.03227 106.74931] CT
N
f-891180347
f
GR
GS
[1 0 0 1 265.9303 94.08737] CT
N
f-891180347
f
GR
GS
[1 0 0 1 257.49918 70.03251] CT
N
f-891180347
f
GR
GS
[1 0 0 1 170.45097 186.13446] CT
N
f-891180347
f
GR
GS
[1 0 0 1 288.4585 49.82585] CT
N
f-891180347
f
GR
GS
[1 0 0 1 230.42923 104.37509] CT
N
f-891180347
f
GR
GS
[1 0 0 1 176.25932 212.37396] CT
N
f-891180347
f
GR
GS
[1 0 0 1 232.92488 96.91965] CT
N
f-891180347
f
GR
GS
[1 0 0 1 175.36745 168.94122] CT
N
f-891180347
f
GR
GS
[1 0 0 1 185.91209 144.48936] CT
N
f-891180347
f
GR
GS
[1 0 0 1 231.21011 144.23544] CT
N
f-891180347
f
GR
GS
[1 0 0 1 317.32745 54.88333] CT
N
f-891180347
f
GR
GS
[1 0 0 1 257.46643 117.55937] CT
N
f-891180347
f
GR
GS
[1 0 0 1 290.4072 59.44011] CT
N
f-891180347
f
GR
GS
[1 0 0 1 263.02063 75.16557] CT
N
f-891180347
f
GR
GS
[1 0 0 1 170.51778 170.6665] CT
N
f-891180347
f
GR
GS
[1 0 0 1 260.34613 99.45293] CT
N
f-891180347
f
GR
GS
[1 0 0 1 193.30392 130.46274] CT
N
f-891180347
f
GR
GS
[1 0 0 1 216.67599 173.72391] CT
N
f-891180347
f
GR
GS
[1 0 0 1 305.43109 89.68423] CT
N
f-891180347
f
GR
GS
[1 0 0 1 246.40813 134.06018] CT
N
f-891180347
f
GR
GS
[1 0 0 1 212.55615 173.90208] CT
N
f-891180347
f
GR
GS
[1 0 0 1 157.36307 185.68073] CT
N
f-891180347
f
GR
GS
[1 0 0 1 170.62195 160.55946] CT
N
f-891180347
f
GR
GS
[1 0 0 1 238.81221 79.94433] CT
N
f-891180347
f
GR
GS
[1 0 0 1 268.24048 72.78391] CT
N
f-891180347
f
GR
GS
[1 0 0 1 205.12305 95.95971] CT
N
f-891180347
f
GR
GS
[1 0 0 1 212.68076 146.27344] CT
N
f-891180347
f
GR
GS
[1 0 0 1 213.60289 155.99344] CT
N
f-891180347
f
GR
GS
[1 0 0 1 215.1329 134.40411] CT
N
f-891180347
f
GR
GS
[1 0 0 1 178.64282 131.17148] CT
N
f-891180347
f
GR
GS
[1 0 0 1 196.20059 141.04903] CT
N
f-891180347
f
GR
GS
[1 0 0 1 152.54028 203.11874] CT
N
f-891180347
f
GR
GS
[1 0 0 1 291.15842 83.02192] CT
N
f-891180347
f
GR
GS
[1 0 0 1 189.66794 173.52475] CT
N
f-891180347
f
GR
GS
[1 0 0 1 177.06764 173.31113] CT
N
f-891180347
f
GR
GS
[1 0 0 1 280.14014 97.82439] CT
N
f-891180347
f
GR
GS
[1 0 0 1 222.64009 98.64491] CT
N
f-891180347
f
GR
GS
[1 0 0 1 225.2464 170.85493] CT
N
f-891180347
f
GR
GS
[1 0 0 1 153.12032 158.7541] CT
N
f-891180347
f
GR
GS
[1 0 0 1 186.99324 166.89923] CT
N
f-891180347
f
GR
GS
[1 0 0 1 191.62703 135.96709] CT
N
f-891180347
f
GR
GS
[1 0 0 1 224.01703 158.00436] CT
N
f-891180347
f
GR
GS
[1 0 0 1 230.65965 83.03656] CT
N
f-891180347
f
GR
GS
[1 0 0 1 182.08173 161.37463] CT
N
f-891180347
f
GR
GS
[1 0 0 1 288.12759 85.84871] CT
N
f-891180347
f
GR
GS
[1 0 0 1 286.50073 49.72317] CT
N
f-891180347
f
GR
GS
[1 0 0 1 295.77069 90.80191] CT
N
f-891180347
f
GR
GS
[1 0 0 1 269.14252 36.18021] CT
N
f-891180347
f
GR
GS
[1 0 0 1 192.77597 185.20702] CT
N
f-891180347
f
GR
GS
[1 0 0 1 154.12143 178.37694] CT
N
f-891180347
f
GR
GS
[1 0 0 1 166.06496 31.34266] CT
N
f-891180347
f
GR
GS
[1 0 0 1 290.47076 59.14511] CT
N
f-891180347
f
GR
GS
[1 0 0 1 209.11023 160.61304] CT
N
f-891180347
f
GR
GS
[1 0 0 1 322.66574 205.61548] CT
N
f-891180347
f
GR
GS
[1 0 0 1 194.56863 167.27359] CT
N
f-891180347
f
GR
GS
[1 0 0 1 200.34717 170.73129] CT
N
f-891180347
f
GR
GS
[1 0 0 1 288.01117 81.67825] CT
N
f-891180347
f
GR
GS
[1 0 0 1 259.96844 97.26867] CT
N
f-891180347
f
GR
GS
[1 0 0 1 221.37827 174.76823] CT
N
f-891180347
f
GR
GS
[1 0 0 1 165.48544 175.45432] CT
N
f-891180347
f
GR
GS
[1 0 0 1 234.03783 94.16032] CT
N
f-891180347
f
GR
GS
[1 0 0 1 198.79007 152.67088] CT
N
f-891180347
f
GR
GS
[1 0 0 1 177.55963 192.21504] CT
N
f-891180347
f
GR
GS
[1 0 0 1 250.28828 112.46128] CT
N
f-891180347
f
GR
GS
[1 0 0 1 268.6825 101.44684] CT
N
f-891180347
f
GR
GS
[1 0 0 1 315.69693 63.98006] CT
N
f-891180347
f
GR
GS
[1 0 0 1 207.20859 110.01588] CT
N
f-891180347
f
GR
GS
[1 0 0 1 197.18964 168.12692] CT
N
f-891180347
f
GR
GS
[1 0 0 1 196.78134 174.62106] CT
N
f-891180347
f
GR
GS
[1 0 0 1 236.49869 89.80635] CT
N
f-891180347
f
GR
GS
[1 0 0 1 147.77019 193.6129] CT
N
f-891180347
f
GR
GS
[1 0 0 1 190.56453 145.27509] CT
N
f-891180347
f
GR
GS
[1 0 0 1 212.9735 119.18313] CT
N
f-891180347
f
GR
GS
[1 0 0 1 215.56918 94.98971] CT
N
f-891180347
f
GR
GS
[1 0 0 1 190.64558 204.96297] CT
N
f-891180347
f
GR
GS
[1 0 0 1 239.98309 87.25245] CT
N
f-891180347
f
GR
GS
[1 0 0 1 283.75543 62.68818] CT
N
f-891180347
f
GR
GS
[1 0 0 1 285.07306 60.25827] CT
N
f-891180347
f
GR
GS
[1 0 0 1 265.41626 94.62286] CT
N
f-891180347
f
GR
GS
[1 0 0 1 264.98022 87.8905] CT
N
f-891180347
f
GR
GS
[1 0 0 1 251.73158 61.94582] CT
N
f-891180347
f
GR
GS
[1 0 0 1 193.75874 139.53749] CT
N
f-891180347
f
GR
GS
[1 0 0 1 197.28104 144.07263] CT
N
f-891180347
f
GR
GS
[1 0 0 1 171.12067 201.19048] CT
N
f-891180347
f
GR
GS
[1 0 0 1 259.75888 85.23271] CT
N
f-891180347
f
GR
GS
[1 0 0 1 227.50215 115.01085] CT
N
f-891180347
f
GR
GS
[1 0 0 1 174.32118 143.38698] CT
N
f-891180347
f
GR
GS
1 LJ
0.5 LW
N
143.5 218 M
326 218 L
326 27 L
143.5 27 L
143.5 218 L
S
GR
%%Trailer
%%Pages: 1
%%EOF
