%!PS-Adobe-3.0 EPSF-3.0
%%Creator: (MATLAB, The Mathworks, Inc. Version 9.3.0.713579 \(R2017b\). Operating System: Mac OS X)
%%Title: ./thp_phi_dep.eps
%%CreationDate: 2018-07-10T12:34:22
%%Pages: (atend)
%%BoundingBox:    57    62   332   338
%%LanguageLevel: 3
%%EndComments
%%BeginProlog
%%BeginResource: procset (Apache XML Graphics Std ProcSet) 1.2 0
%%Version: 1.2 0
%%Copyright: (Copyright 2001-2003,2010 The Apache Software Foundation. License terms: http://www.apache.org/licenses/LICENSE-2.0)
/bd{bind def}bind def
/ld{load def}bd
/GR/grestore ld
/GS/gsave ld
/RM/rmoveto ld
/C/curveto ld
/t/show ld
/L/lineto ld
/ML/setmiterlimit ld
/CT/concat ld
/f/fill ld
/N/newpath ld
/S/stroke ld
/CC/setcmykcolor ld
/A/ashow ld
/cp/closepath ld
/RC/setrgbcolor ld
/LJ/setlinejoin ld
/GC/setgray ld
/LW/setlinewidth ld
/M/moveto ld
/re {4 2 roll M
1 index 0 rlineto
0 exch rlineto
neg 0 rlineto
cp } bd
/_ctm matrix def
/_tm matrix def
/BT { _ctm currentmatrix pop matrix _tm copy pop 0 0 moveto } bd
/ET { _ctm setmatrix } bd
/iTm { _ctm setmatrix _tm concat } bd
/Tm { _tm astore pop iTm 0 0 moveto } bd
/ux 0.0 def
/uy 0.0 def
/F {
  /Tp exch def
  /Tf exch def
  Tf findfont Tp scalefont setfont
  /cf Tf def  /cs Tp def
} bd
/ULS {currentpoint /uy exch def /ux exch def} bd
/ULE {
  /Tcx currentpoint pop def
  gsave
  newpath
  cf findfont cs scalefont dup
  /FontMatrix get 0 get /Ts exch def /FontInfo get dup
  /UnderlinePosition get Ts mul /To exch def
  /UnderlineThickness get Ts mul /Tt exch def
  ux uy To add moveto  Tcx uy To add lineto
  Tt setlinewidth stroke
  grestore
} bd
/OLE {
  /Tcx currentpoint pop def
  gsave
  newpath
  cf findfont cs scalefont dup
  /FontMatrix get 0 get /Ts exch def /FontInfo get dup
  /UnderlinePosition get Ts mul /To exch def
  /UnderlineThickness get Ts mul /Tt exch def
  ux uy To add cs add moveto Tcx uy To add cs add lineto
  Tt setlinewidth stroke
  grestore
} bd
/SOE {
  /Tcx currentpoint pop def
  gsave
  newpath
  cf findfont cs scalefont dup
  /FontMatrix get 0 get /Ts exch def /FontInfo get dup
  /UnderlinePosition get Ts mul /To exch def
  /UnderlineThickness get Ts mul /Tt exch def
  ux uy To add cs 10 mul 26 idiv add moveto Tcx uy To add cs 10 mul 26 idiv add lineto
  Tt setlinewidth stroke
  grestore
} bd
/QT {
/Y22 exch store
/X22 exch store
/Y21 exch store
/X21 exch store
currentpoint
/Y21 load 2 mul add 3 div exch
/X21 load 2 mul add 3 div exch
/X21 load 2 mul /X22 load add 3 div
/Y21 load 2 mul /Y22 load add 3 div
/X22 load /Y22 load curveto
} bd
/SSPD {
dup length /d exch dict def
{
/v exch def
/k exch def
currentpagedevice k known {
/cpdv currentpagedevice k get def
v cpdv ne {
/upd false def
/nullv v type /nulltype eq def
/nullcpdv cpdv type /nulltype eq def
nullv nullcpdv or
{
/upd true def
} {
/sametype v type cpdv type eq def
sametype {
v type /arraytype eq {
/vlen v length def
/cpdvlen cpdv length def
vlen cpdvlen eq {
0 1 vlen 1 sub {
/i exch def
/obj v i get def
/cpdobj cpdv i get def
obj cpdobj ne {
/upd true def
exit
} if
} for
} {
/upd true def
} ifelse
} {
v type /dicttype eq {
v {
/dv exch def
/dk exch def
/cpddv cpdv dk get def
dv cpddv ne {
/upd true def
exit
} if
} forall
} {
/upd true def
} ifelse
} ifelse
} if
} ifelse
upd true eq {
d k v put
} if
} if
} if
} forall
d length 0 gt {
d setpagedevice
} if
} bd
/RE { % /NewFontName [NewEncodingArray] /FontName RE -
  findfont dup length dict begin
  {
    1 index /FID ne
    {def} {pop pop} ifelse
  } forall
  /Encoding exch def
  /FontName 1 index def
  currentdict definefont pop
  end
} bind def
%%EndResource
%%BeginResource: procset (Apache XML Graphics EPS ProcSet) 1.0 0
%%Version: 1.0 0
%%Copyright: (Copyright 2002-2003 The Apache Software Foundation. License terms: http://www.apache.org/licenses/LICENSE-2.0)
/BeginEPSF { %def
/b4_Inc_state save def         % Save state for cleanup
/dict_count countdictstack def % Count objects on dict stack
/op_count count 1 sub def      % Count objects on operand stack
userdict begin                 % Push userdict on dict stack
/showpage { } def              % Redefine showpage, { } = null proc
0 setgray 0 setlinecap         % Prepare graphics state
1 setlinewidth 0 setlinejoin
10 setmiterlimit [ ] 0 setdash newpath
/languagelevel where           % If level not equal to 1 then
{pop languagelevel             % set strokeadjust and
1 ne                           % overprint to their defaults.
{false setstrokeadjust false setoverprint
} if
} if
} bd
/EndEPSF { %def
count op_count sub {pop} repeat            % Clean up stacks
countdictstack dict_count sub {end} repeat
b4_Inc_state restore
} bd
%%EndResource
%FOPBeginFontDict
%%IncludeResource: font Courier-Oblique
%%IncludeResource: font Courier-BoldOblique
%%IncludeResource: font Courier-Bold
%%IncludeResource: font ZapfDingbats
%%IncludeResource: font Symbol
%%IncludeResource: font Helvetica
%%IncludeResource: font Helvetica-Oblique
%%IncludeResource: font Helvetica-Bold
%%IncludeResource: font Helvetica-BoldOblique
%%IncludeResource: font Times-Roman
%%IncludeResource: font Times-Italic
%%IncludeResource: font Times-Bold
%%IncludeResource: font Times-BoldItalic
%%IncludeResource: font Courier
%FOPEndFontDict
%%BeginResource: encoding WinAnsiEncoding
/WinAnsiEncoding [
/.notdef /.notdef /.notdef /.notdef /.notdef
/.notdef /.notdef /.notdef /.notdef /.notdef
/.notdef /.notdef /.notdef /.notdef /.notdef
/.notdef /.notdef /.notdef /.notdef /.notdef
/.notdef /.notdef /.notdef /.notdef /.notdef
/.notdef /.notdef /.notdef /.notdef /.notdef
/.notdef /.notdef /space /exclam /quotedbl
/numbersign /dollar /percent /ampersand /quotesingle
/parenleft /parenright /asterisk /plus /comma
/hyphen /period /slash /zero /one
/two /three /four /five /six
/seven /eight /nine /colon /semicolon
/less /equal /greater /question /at
/A /B /C /D /E
/F /G /H /I /J
/K /L /M /N /O
/P /Q /R /S /T
/U /V /W /X /Y
/Z /bracketleft /backslash /bracketright /asciicircum
/underscore /quoteleft /a /b /c
/d /e /f /g /h
/i /j /k /l /m
/n /o /p /q /r
/s /t /u /v /w
/x /y /z /braceleft /bar
/braceright /asciitilde /bullet /Euro /bullet
/quotesinglbase /florin /quotedblbase /ellipsis /dagger
/daggerdbl /circumflex /perthousand /Scaron /guilsinglleft
/OE /bullet /Zcaron /bullet /bullet
/quoteleft /quoteright /quotedblleft /quotedblright /bullet
/endash /emdash /asciitilde /trademark /scaron
/guilsinglright /oe /bullet /zcaron /Ydieresis
/space /exclamdown /cent /sterling /currency
/yen /brokenbar /section /dieresis /copyright
/ordfeminine /guillemotleft /logicalnot /sfthyphen /registered
/macron /degree /plusminus /twosuperior /threesuperior
/acute /mu /paragraph /middot /cedilla
/onesuperior /ordmasculine /guillemotright /onequarter /onehalf
/threequarters /questiondown /Agrave /Aacute /Acircumflex
/Atilde /Adieresis /Aring /AE /Ccedilla
/Egrave /Eacute /Ecircumflex /Edieresis /Igrave
/Iacute /Icircumflex /Idieresis /Eth /Ntilde
/Ograve /Oacute /Ocircumflex /Otilde /Odieresis
/multiply /Oslash /Ugrave /Uacute /Ucircumflex
/Udieresis /Yacute /Thorn /germandbls /agrave
/aacute /acircumflex /atilde /adieresis /aring
/ae /ccedilla /egrave /eacute /ecircumflex
/edieresis /igrave /iacute /icircumflex /idieresis
/eth /ntilde /ograve /oacute /ocircumflex
/otilde /odieresis /divide /oslash /ugrave
/uacute /ucircumflex /udieresis /yacute /thorn
/ydieresis
] def
%%EndResource
%FOPBeginFontReencode
/Courier-Oblique findfont
dup length dict begin
  {1 index /FID ne {def} {pop pop} ifelse} forall
  /Encoding WinAnsiEncoding def
  currentdict
end
/Courier-Oblique exch definefont pop
/Courier-BoldOblique findfont
dup length dict begin
  {1 index /FID ne {def} {pop pop} ifelse} forall
  /Encoding WinAnsiEncoding def
  currentdict
end
/Courier-BoldOblique exch definefont pop
/Courier-Bold findfont
dup length dict begin
  {1 index /FID ne {def} {pop pop} ifelse} forall
  /Encoding WinAnsiEncoding def
  currentdict
end
/Courier-Bold exch definefont pop
/Helvetica findfont
dup length dict begin
  {1 index /FID ne {def} {pop pop} ifelse} forall
  /Encoding WinAnsiEncoding def
  currentdict
end
/Helvetica exch definefont pop
/Helvetica-Oblique findfont
dup length dict begin
  {1 index /FID ne {def} {pop pop} ifelse} forall
  /Encoding WinAnsiEncoding def
  currentdict
end
/Helvetica-Oblique exch definefont pop
/Helvetica-Bold findfont
dup length dict begin
  {1 index /FID ne {def} {pop pop} ifelse} forall
  /Encoding WinAnsiEncoding def
  currentdict
end
/Helvetica-Bold exch definefont pop
/Helvetica-BoldOblique findfont
dup length dict begin
  {1 index /FID ne {def} {pop pop} ifelse} forall
  /Encoding WinAnsiEncoding def
  currentdict
end
/Helvetica-BoldOblique exch definefont pop
/Times-Roman findfont
dup length dict begin
  {1 index /FID ne {def} {pop pop} ifelse} forall
  /Encoding WinAnsiEncoding def
  currentdict
end
/Times-Roman exch definefont pop
/Times-Italic findfont
dup length dict begin
  {1 index /FID ne {def} {pop pop} ifelse} forall
  /Encoding WinAnsiEncoding def
  currentdict
end
/Times-Italic exch definefont pop
/Times-Bold findfont
dup length dict begin
  {1 index /FID ne {def} {pop pop} ifelse} forall
  /Encoding WinAnsiEncoding def
  currentdict
end
/Times-Bold exch definefont pop
/Times-BoldItalic findfont
dup length dict begin
  {1 index /FID ne {def} {pop pop} ifelse} forall
  /Encoding WinAnsiEncoding def
  currentdict
end
/Times-BoldItalic exch definefont pop
/Courier findfont
dup length dict begin
  {1 index /FID ne {def} {pop pop} ifelse} forall
  /Encoding WinAnsiEncoding def
  currentdict
end
/Courier exch definefont pop
%FOPEndFontReencode
%%EndProlog
%%Page: 1 1
%%PageBoundingBox: 0 0 360 360
%%BeginPageSetup
[1 0 0 -1 0 360] CT
%%EndPageSetup
GS
1 GC
N
0 0 360 360 re
f
GR
GS
1 GC
N
0 0 360 360 re
f
GR
GS
1 GC
N
132 218 M
132 27 L
95 27 L
95 218 L
cp
f
GR
GS
0.149 GC
2 setlinecap
1 LJ
0.5 LW
N
95 218 M
95 27 L
S
GR
GS
0.149 GC
2 setlinecap
1 LJ
0.5 LW
N
132 218 M
132 27 L
S
GR
GS
0.149 GC
2 setlinecap
1 LJ
0.5 LW
N
95 218 M
96.91 218 L
S
GR
GS
0.149 GC
2 setlinecap
1 LJ
0.5 LW
N
95 170.25 M
96.91 170.25 L
S
GR
GS
0.149 GC
2 setlinecap
1 LJ
0.5 LW
N
95 122.5 M
96.91 122.5 L
S
GR
GS
0.149 GC
2 setlinecap
1 LJ
0.5 LW
N
95 74.75 M
96.91 74.75 L
S
GR
GS
0.149 GC
2 setlinecap
1 LJ
0.5 LW
N
95 27 M
96.91 27 L
S
GR
GS
0.149 GC
2 setlinecap
1 LJ
0.5 LW
N
132 218 M
130.09 218 L
S
GR
GS
0.149 GC
2 setlinecap
1 LJ
0.5 LW
N
132 170.25 M
130.09 170.25 L
S
GR
GS
0.149 GC
2 setlinecap
1 LJ
0.5 LW
N
132 122.5 M
130.09 122.5 L
S
GR
GS
0.149 GC
2 setlinecap
1 LJ
0.5 LW
N
132 74.75 M
130.09 74.75 L
S
GR
GS
0.149 GC
2 setlinecap
1 LJ
0.5 LW
N
132 27 M
130.09 27 L
S
GR
GS
[1 0 0 1 91 218] CT
0.149 GC
N
-2.5 2.619 M
-3.719 2.619 -4.164 1.611 QT
-4.609 0.603 -4.609 -0.788 QT
-4.609 -1.663 -4.453 -2.428 QT
-4.297 -3.194 -3.82 -3.725 QT
-3.344 -4.256 -2.5 -4.256 QT
-1.844 -4.256 -1.422 -3.936 QT
-1 -3.616 -0.781 -3.108 QT
-0.563 -2.6 -0.484 -2.014 QT
-0.406 -1.428 -0.406 -0.788 QT
-0.406 0.072 -0.563 0.822 QT
-0.719 1.572 -1.18 2.095 QT
-1.641 2.619 -2.5 2.619 QT
cp
-2.5 2.353 M
-1.938 2.353 -1.664 1.783 QT
-1.391 1.212 -1.328 0.525 QT
-1.266 -0.163 -1.266 -0.944 QT
-1.266 -1.709 -1.328 -2.342 QT
-1.391 -2.975 -1.664 -3.491 QT
-1.938 -4.006 -2.5 -4.006 QT
-3.063 -4.006 -3.336 -3.483 QT
-3.609 -2.959 -3.672 -2.334 QT
-3.734 -1.709 -3.734 -0.944 QT
-3.734 -0.397 -3.711 0.095 QT
-3.688 0.587 -3.57 1.119 QT
-3.453 1.65 -3.188 2.002 QT
-2.922 2.353 -2.5 2.353 QT
cp
f
GR
GS
[1 0 0 1 91 170.25] CT
0.149 GC
N
-16.337 2.619 M
-17.556 2.619 -18.001 1.611 QT
-18.446 0.603 -18.446 -0.788 QT
-18.446 -1.663 -18.29 -2.428 QT
-18.134 -3.194 -17.657 -3.725 QT
-17.181 -4.256 -16.337 -4.256 QT
-15.681 -4.256 -15.259 -3.936 QT
-14.837 -3.616 -14.618 -3.108 QT
-14.399 -2.6 -14.321 -2.014 QT
-14.243 -1.428 -14.243 -0.788 QT
-14.243 0.072 -14.399 0.822 QT
-14.556 1.572 -15.017 2.095 QT
-15.477 2.619 -16.337 2.619 QT
cp
-16.337 2.353 M
-15.774 2.353 -15.501 1.783 QT
-15.227 1.212 -15.165 0.525 QT
-15.102 -0.163 -15.102 -0.944 QT
-15.102 -1.709 -15.165 -2.342 QT
-15.227 -2.975 -15.501 -3.491 QT
-15.774 -4.006 -16.337 -4.006 QT
-16.899 -4.006 -17.173 -3.483 QT
-17.446 -2.959 -17.509 -2.334 QT
-17.571 -1.709 -17.571 -0.944 QT
-17.571 -0.397 -17.548 0.095 QT
-17.524 0.587 -17.407 1.119 QT
-17.29 1.65 -17.024 2.002 QT
-16.759 2.353 -16.337 2.353 QT
cp
f
GR
GS
[1 0 0 1 91 170.25] CT
0.149 GC
N
-12.993 1.853 M
-12.993 1.619 -12.829 1.462 QT
-12.665 1.306 -12.446 1.306 QT
-12.306 1.306 -12.173 1.377 QT
-12.04 1.447 -11.97 1.58 QT
-11.899 1.712 -11.899 1.853 QT
-11.899 2.072 -12.063 2.236 QT
-12.227 2.4 -12.446 2.4 QT
-12.665 2.4 -12.829 2.236 QT
-12.993 2.072 -12.993 1.853 QT
cp
f
GR
GS
[1 0 0 1 91 170.25] CT
0.149 GC
N
-10.184 1.259 M
-10.09 1.556 -9.879 1.798 QT
-9.668 2.041 -9.372 2.173 QT
-9.075 2.306 -8.762 2.306 QT
-8.043 2.306 -7.77 1.744 QT
-7.497 1.181 -7.497 0.384 QT
-7.497 0.025 -7.512 -0.209 QT
-7.528 -0.444 -7.575 -0.663 QT
-7.668 -1.006 -7.903 -1.272 QT
-8.137 -1.538 -8.465 -1.538 QT
-8.809 -1.538 -9.051 -1.436 QT
-9.293 -1.334 -9.442 -1.202 QT
-9.59 -1.069 -9.708 -0.913 QT
-9.825 -0.756 -9.856 -0.756 QT
-9.965 -0.756 L
-9.997 -0.756 -10.036 -0.788 QT
-10.075 -0.819 -10.075 -0.85 QT
-10.075 -4.178 L
-10.075 -4.209 -10.036 -4.233 QT
-9.997 -4.256 -9.965 -4.256 QT
-9.934 -4.256 L
-9.262 -3.944 -8.512 -3.944 QT
-7.762 -3.944 -7.075 -4.256 QT
-7.043 -4.256 L
-7.012 -4.256 -6.981 -4.233 QT
-6.95 -4.209 -6.95 -4.178 QT
-6.95 -4.084 L
-6.95 -4.038 -6.981 -4.038 QT
-7.325 -3.584 -7.84 -3.334 QT
-8.356 -3.084 -8.903 -3.084 QT
-9.293 -3.084 -9.715 -3.194 QT
-9.715 -1.303 L
-9.387 -1.569 -9.129 -1.686 QT
-8.872 -1.803 -8.465 -1.803 QT
-7.903 -1.803 -7.465 -1.483 QT
-7.028 -1.163 -6.793 -0.655 QT
-6.559 -0.147 -6.559 0.384 QT
-6.559 0.994 -6.856 1.502 QT
-7.153 2.009 -7.661 2.314 QT
-8.168 2.619 -8.762 2.619 QT
-9.262 2.619 -9.676 2.369 QT
-10.09 2.119 -10.325 1.689 QT
-10.559 1.259 -10.559 0.775 QT
-10.559 0.541 -10.411 0.4 QT
-10.262 0.259 -10.043 0.259 QT
-9.825 0.259 -9.676 0.408 QT
-9.528 0.556 -9.528 0.775 QT
-9.528 0.978 -9.676 1.127 QT
-9.825 1.275 -10.043 1.275 QT
-10.075 1.275 -10.122 1.267 QT
-10.168 1.259 -10.184 1.259 QT
cp
f
GR
GS
[1 0 0 1 91 170.25] CT
0.149 GC
N
-5.043 2.228 M
-5.043 2.181 -5.012 2.072 QT
-4.731 1.494 -4.489 0.931 QT
-4.247 0.369 -4.051 -0.163 QT
-3.856 -0.694 -3.7 -1.288 QT
-4.34 -1.288 L
-4.7 -1.288 -5.02 -1.061 QT
-5.34 -0.834 -5.543 -0.475 QT
-5.575 -0.444 -5.606 -0.444 QT
-5.731 -0.444 L
-5.825 -0.444 -5.825 -0.538 QT
-5.825 -0.553 -5.793 -0.6 QT
-5.465 -1.163 -5.098 -1.538 QT
-4.731 -1.913 -4.262 -1.913 QT
-0.622 -1.913 L
-0.528 -1.913 -0.457 -1.842 QT
-0.387 -1.772 -0.387 -1.663 QT
-0.387 -1.506 -0.489 -1.397 QT
-0.59 -1.288 -0.731 -1.288 QT
-2.012 -1.288 L
-2.168 -0.506 -2.184 0.244 QT
-2.184 1.197 -1.856 1.978 QT
-1.825 2.041 -1.825 2.103 QT
-1.825 2.212 -1.887 2.306 QT
-1.95 2.4 -2.051 2.455 QT
-2.153 2.509 -2.262 2.509 QT
-2.528 2.509 -2.622 2.08 QT
-2.715 1.65 -2.715 1.244 QT
-2.715 0.681 -2.622 0.15 QT
-2.528 -0.381 -2.309 -1.288 QT
-3.403 -1.288 L
-4.184 1.916 -4.356 2.244 QT
-4.497 2.509 -4.747 2.509 QT
-4.856 2.509 -4.95 2.431 QT
-5.043 2.353 -5.043 2.228 QT
cp
f
GR
GS
[1 0 0 1 91 122.5] CT
0.149 GC
N
/f183725701{-5.043 2.228 M
-5.043 2.181 -5.012 2.072 QT
-4.731 1.494 -4.489 0.931 QT
-4.247 0.369 -4.051 -0.163 QT
-3.856 -0.694 -3.7 -1.288 QT
-4.34 -1.288 L
-4.7 -1.288 -5.02 -1.061 QT
-5.34 -0.834 -5.543 -0.475 QT
-5.575 -0.444 -5.606 -0.444 QT
-5.731 -0.444 L
-5.825 -0.444 -5.825 -0.538 QT
-5.825 -0.553 -5.793 -0.6 QT
-5.465 -1.163 -5.098 -1.538 QT
-4.731 -1.913 -4.262 -1.913 QT
-0.622 -1.913 L
-0.528 -1.913 -0.457 -1.842 QT
-0.387 -1.772 -0.387 -1.663 QT
-0.387 -1.506 -0.489 -1.397 QT
-0.59 -1.288 -0.731 -1.288 QT
-2.012 -1.288 L
-2.168 -0.506 -2.184 0.244 QT
-2.184 1.197 -1.856 1.978 QT
-1.825 2.041 -1.825 2.103 QT
-1.825 2.212 -1.887 2.306 QT
-1.95 2.4 -2.051 2.455 QT
-2.153 2.509 -2.262 2.509 QT
-2.528 2.509 -2.622 2.08 QT
-2.715 1.65 -2.715 1.244 QT
-2.715 0.681 -2.622 0.15 QT
-2.528 -0.381 -2.309 -1.288 QT
-3.403 -1.288 L
-4.184 1.916 -4.356 2.244 QT
-4.497 2.509 -4.747 2.509 QT
-4.856 2.509 -4.95 2.431 QT
-5.043 2.353 -5.043 2.228 QT
cp}def
f183725701
f
GR
GS
[1 0 0 1 91 74.75] CT
0.149 GC
N
/f-290271921{-17.915 2.4 M
-17.915 2.041 L
-16.665 2.041 -16.665 1.728 QT
-16.665 -3.522 L
-17.181 -3.272 -17.962 -3.272 QT
-17.962 -3.616 L
-16.743 -3.616 -16.118 -4.256 QT
-15.977 -4.256 L
-15.946 -4.256 -15.915 -4.233 QT
-15.884 -4.209 -15.884 -4.178 QT
-15.884 1.728 L
-15.884 2.041 -14.634 2.041 QT
-14.634 2.4 L
-17.915 2.4 L
cp}def
f-290271921
f
GR
GS
[1 0 0 1 91 74.75] CT
0.149 GC
N
/f-711540231{-12.993 1.853 M
-12.993 1.619 -12.829 1.462 QT
-12.665 1.306 -12.446 1.306 QT
-12.306 1.306 -12.173 1.377 QT
-12.04 1.447 -11.97 1.58 QT
-11.899 1.712 -11.899 1.853 QT
-11.899 2.072 -12.063 2.236 QT
-12.227 2.4 -12.446 2.4 QT
-12.665 2.4 -12.829 2.236 QT
-12.993 2.072 -12.993 1.853 QT
cp}def
f-711540231
f
GR
GS
[1 0 0 1 91 74.75] CT
0.149 GC
N
/f353734786{-10.184 1.259 M
-10.09 1.556 -9.879 1.798 QT
-9.668 2.041 -9.372 2.173 QT
-9.075 2.306 -8.762 2.306 QT
-8.043 2.306 -7.77 1.744 QT
-7.497 1.181 -7.497 0.384 QT
-7.497 0.025 -7.512 -0.209 QT
-7.528 -0.444 -7.575 -0.663 QT
-7.668 -1.006 -7.903 -1.272 QT
-8.137 -1.538 -8.465 -1.538 QT
-8.809 -1.538 -9.051 -1.436 QT
-9.293 -1.334 -9.442 -1.202 QT
-9.59 -1.069 -9.708 -0.913 QT
-9.825 -0.756 -9.856 -0.756 QT
-9.965 -0.756 L
-9.997 -0.756 -10.036 -0.788 QT
-10.075 -0.819 -10.075 -0.85 QT
-10.075 -4.178 L
-10.075 -4.209 -10.036 -4.233 QT
-9.997 -4.256 -9.965 -4.256 QT
-9.934 -4.256 L
-9.262 -3.944 -8.512 -3.944 QT
-7.762 -3.944 -7.075 -4.256 QT
-7.043 -4.256 L
-7.012 -4.256 -6.981 -4.233 QT
-6.95 -4.209 -6.95 -4.178 QT
-6.95 -4.084 L
-6.95 -4.038 -6.981 -4.038 QT
-7.325 -3.584 -7.84 -3.334 QT
-8.356 -3.084 -8.903 -3.084 QT
-9.293 -3.084 -9.715 -3.194 QT
-9.715 -1.303 L
-9.387 -1.569 -9.129 -1.686 QT
-8.872 -1.803 -8.465 -1.803 QT
-7.903 -1.803 -7.465 -1.483 QT
-7.028 -1.163 -6.793 -0.655 QT
-6.559 -0.147 -6.559 0.384 QT
-6.559 0.994 -6.856 1.502 QT
-7.153 2.009 -7.661 2.314 QT
-8.168 2.619 -8.762 2.619 QT
-9.262 2.619 -9.676 2.369 QT
-10.09 2.119 -10.325 1.689 QT
-10.559 1.259 -10.559 0.775 QT
-10.559 0.541 -10.411 0.4 QT
-10.262 0.259 -10.043 0.259 QT
-9.825 0.259 -9.676 0.408 QT
-9.528 0.556 -9.528 0.775 QT
-9.528 0.978 -9.676 1.127 QT
-9.825 1.275 -10.043 1.275 QT
-10.075 1.275 -10.122 1.267 QT
-10.168 1.259 -10.184 1.259 QT
cp}def
f353734786
f
GR
GS
[1 0 0 1 91 74.75] CT
0.149 GC
N
f183725701
f
GR
GS
[1 0 0 1 91 26.99999] CT
0.149 GC
N
/f1994676109{-10.559 2.4 M
-10.559 2.134 L
-10.559 2.103 -10.543 2.072 QT
-8.981 0.353 L
-8.637 -0.022 -8.418 -0.28 QT
-8.2 -0.538 -7.981 -0.873 QT
-7.762 -1.209 -7.637 -1.561 QT
-7.512 -1.913 -7.512 -2.303 QT
-7.512 -2.709 -7.668 -3.084 QT
-7.825 -3.459 -8.122 -3.686 QT
-8.418 -3.913 -8.84 -3.913 QT
-9.278 -3.913 -9.629 -3.647 QT
-9.981 -3.381 -10.122 -2.975 QT
-10.075 -2.975 -10.012 -2.975 QT
-9.778 -2.975 -9.622 -2.827 QT
-9.465 -2.678 -9.465 -2.444 QT
-9.465 -2.209 -9.622 -2.053 QT
-9.778 -1.897 -10.012 -1.897 QT
-10.247 -1.897 -10.403 -2.061 QT
-10.559 -2.225 -10.559 -2.444 QT
-10.559 -2.819 -10.418 -3.147 QT
-10.278 -3.475 -10.012 -3.733 QT
-9.747 -3.991 -9.411 -4.123 QT
-9.075 -4.256 -8.7 -4.256 QT
-8.122 -4.256 -7.629 -4.014 QT
-7.137 -3.772 -6.848 -3.334 QT
-6.559 -2.897 -6.559 -2.303 QT
-6.559 -1.866 -6.754 -1.475 QT
-6.95 -1.084 -7.247 -0.764 QT
-7.543 -0.444 -8.004 -0.038 QT
-8.465 0.369 -8.622 0.494 QT
-9.747 1.587 L
-8.793 1.587 L
-8.075 1.587 -7.598 1.58 QT
-7.122 1.572 -7.106 1.541 QT
-6.981 1.416 -6.856 0.619 QT
-6.559 0.619 L
-6.856 2.4 L
-10.559 2.4 L
cp}def
f1994676109
f
GR
GS
[1 0 0 1 91 26.99999] CT
0.149 GC
N
f183725701
f
GR
GS
[0 -1 1 0 69.16313 122.4999] CT
0.149 GC
N
/f229093001{-25.832 -3.835 M
-26.332 -3.835 -26.629 -4.202 QT
-26.926 -4.569 -27.043 -5.085 QT
-27.16 -5.601 -27.16 -6.101 QT
-27.16 -6.116 L
-27.16 -6.663 -27.051 -7.257 QT
-26.942 -7.851 -26.746 -8.437 QT
-26.551 -9.023 -26.317 -9.476 QT
-26.16 -9.804 -25.903 -10.202 QT
-25.645 -10.601 -25.332 -10.944 QT
-25.02 -11.288 -24.66 -11.499 QT
-24.301 -11.71 -23.926 -11.71 QT
-23.91 -11.71 L
-23.52 -11.71 -23.254 -11.491 QT
-22.989 -11.273 -22.84 -10.929 QT
-22.692 -10.585 -22.629 -10.194 QT
-22.567 -9.804 -22.567 -9.444 QT
-22.567 -8.616 -22.793 -7.749 QT
-23.02 -6.882 -23.426 -6.069 QT
-23.567 -5.773 -23.832 -5.358 QT
-24.098 -4.944 -24.395 -4.616 QT
-24.692 -4.288 -25.067 -4.062 QT
-25.442 -3.835 -25.817 -3.835 QT
-25.832 -3.835 L
cp
-25.801 -4.132 M
-25.442 -4.132 -25.106 -4.523 QT
-24.77 -4.913 -24.52 -5.468 QT
-24.27 -6.023 -24.074 -6.601 QT
-23.879 -7.179 -23.785 -7.585 QT
-26.035 -7.585 L
-26.207 -6.898 -26.301 -6.398 QT
-26.395 -5.898 -26.395 -5.413 QT
-26.395 -4.132 -25.801 -4.132 QT
cp
-25.942 -7.976 M
-23.692 -7.976 L
-23.582 -8.46 -23.512 -8.788 QT
-23.442 -9.116 -23.387 -9.476 QT
-23.332 -9.835 -23.332 -10.148 QT
-23.332 -11.429 -23.926 -11.429 QT
-24.629 -11.429 -25.137 -10.304 QT
-25.645 -9.179 -25.942 -7.976 QT
cp}def
f229093001
f
GR
GS
[0 -1 1 0 69.16313 122.4999] CT
0.149 GC
N
/f-672760439{-22.637 -0.763 M
-22.715 -0.763 -22.715 -0.857 QT
-22.684 -1.029 -22.606 -1.029 QT
-22.356 -1.029 -22.254 -1.076 QT
-22.153 -1.123 -22.09 -1.31 QT
-21.2 -4.919 L
-21.137 -5.06 -21.137 -5.294 QT
-21.137 -5.638 -21.372 -5.638 QT
-21.622 -5.638 -21.739 -5.341 QT
-21.856 -5.044 -21.981 -4.591 QT
-21.981 -4.529 -22.043 -4.529 QT
-22.137 -4.529 L
-22.153 -4.529 -22.176 -4.56 QT
-22.2 -4.591 -22.2 -4.623 QT
-22.122 -4.966 -22.036 -5.208 QT
-21.95 -5.451 -21.786 -5.646 QT
-21.622 -5.841 -21.356 -5.841 QT
-21.09 -5.841 -20.879 -5.693 QT
-20.668 -5.544 -20.622 -5.279 QT
-20.403 -5.529 -20.137 -5.685 QT
-19.872 -5.841 -19.59 -5.841 QT
-19.247 -5.841 -18.997 -5.662 QT
-18.747 -5.482 -18.622 -5.193 QT
-18.497 -4.904 -18.497 -4.576 QT
-18.497 -4.06 -18.762 -3.505 QT
-19.028 -2.951 -19.481 -2.583 QT
-19.934 -2.216 -20.45 -2.216 QT
-20.684 -2.216 -20.872 -2.349 QT
-21.059 -2.482 -21.168 -2.701 QT
-21.528 -1.279 L
-21.543 -1.154 -21.559 -1.138 QT
-21.559 -1.029 -21.028 -1.029 QT
-20.95 -1.029 -20.95 -0.935 QT
-20.965 -0.826 -20.989 -0.794 QT
-21.012 -0.763 -21.075 -0.763 QT
-22.637 -0.763 L
cp
-20.434 -2.435 M
-20.168 -2.435 -19.926 -2.662 QT
-19.684 -2.888 -19.543 -3.169 QT
-19.434 -3.388 -19.332 -3.701 QT
-19.231 -4.013 -19.161 -4.365 QT
-19.09 -4.716 -19.09 -4.919 QT
-19.09 -5.107 -19.145 -5.263 QT
-19.2 -5.419 -19.309 -5.529 QT
-19.418 -5.638 -19.606 -5.638 QT
-19.887 -5.638 -20.153 -5.427 QT
-20.418 -5.216 -20.622 -4.919 QT
-20.622 -4.888 L
-21.059 -3.123 L
-21.012 -2.841 -20.856 -2.638 QT
-20.7 -2.435 -20.434 -2.435 QT
cp}def
f-672760439
f
GR
GS
[0 -1 1 0 69.16313 122.4999] CT
0.149 GC
N
/f-1128602654{-14.441 -6.491 M
-14.534 -6.491 -14.597 -6.562 QT
-14.659 -6.632 -14.659 -6.71 QT
-14.659 -6.788 -14.597 -6.858 QT
-14.534 -6.929 -14.441 -6.929 QT
-8.128 -6.929 L
-8.05 -6.929 -7.995 -6.858 QT
-7.941 -6.788 -7.941 -6.71 QT
-7.941 -6.632 -7.995 -6.562 QT
-8.05 -6.491 -8.128 -6.491 QT
-14.441 -6.491 L
cp}def
f-1128602654
f
GR
GS
[0 -1 1 0 69.16313 122.4999] CT
0.149 GC
N
/f-1107232987{-2.441 -1.819 M
-1.941 -3.804 L
-2.503 -3.804 -2.987 -4.062 QT
-3.472 -4.319 -3.761 -4.788 QT
-4.05 -5.257 -4.05 -5.804 QT
-4.05 -6.398 -3.753 -6.944 QT
-3.456 -7.491 -2.948 -7.937 QT
-2.441 -8.382 -1.847 -8.616 QT
-1.253 -8.851 -0.675 -8.851 QT
-0.003 -11.523 L
0.013 -11.585 0.075 -11.585 QT
0.216 -11.585 L
0.247 -11.585 0.278 -11.554 QT
0.309 -11.523 0.309 -11.491 QT
-0.347 -8.851 L
0.059 -8.851 0.442 -8.702 QT
0.825 -8.554 1.13 -8.28 QT
1.434 -8.007 1.598 -7.64 QT
1.763 -7.273 1.763 -6.851 QT
1.763 -6.257 1.466 -5.718 QT
1.169 -5.179 0.669 -4.741 QT
0.169 -4.304 -0.448 -4.054 QT
-1.066 -3.804 -1.612 -3.804 QT
-2.128 -1.773 L
-2.144 -1.71 -2.206 -1.71 QT
-2.347 -1.71 L
-2.378 -1.71 -2.409 -1.749 QT
-2.441 -1.788 -2.441 -1.819 QT
cp
-1.862 -4.101 M
-0.753 -8.569 L
-1.019 -8.569 -1.331 -8.46 QT
-1.644 -8.351 -1.909 -8.179 QT
-2.175 -8.007 -2.394 -7.773 QT
-2.675 -7.507 -2.878 -7.14 QT
-3.081 -6.773 -3.183 -6.374 QT
-3.284 -5.976 -3.284 -5.569 QT
-3.284 -5.163 -3.105 -4.827 QT
-2.925 -4.491 -2.605 -4.296 QT
-2.284 -4.101 -1.862 -4.101 QT
cp
-1.534 -4.101 M
-1.128 -4.101 -0.659 -4.335 QT
-0.191 -4.569 0.106 -4.882 QT
0.528 -5.288 0.763 -5.882 QT
0.997 -6.476 0.997 -7.085 QT
0.997 -7.491 0.817 -7.835 QT
0.638 -8.179 0.317 -8.374 QT
-0.003 -8.569 -0.425 -8.569 QT
-1.534 -4.101 L
cp}def
f-1107232987
f
GR
GS
[0 -1 1 0 69.16313 122.4999] CT
0.149 GC
N
/f-1865641942{5.261 -6.491 M
5.167 -6.491 5.113 -6.562 QT
5.058 -6.632 5.058 -6.71 QT
5.058 -6.788 5.113 -6.858 QT
5.167 -6.929 5.261 -6.929 QT
8.495 -6.929 L
8.495 -10.179 L
8.495 -10.257 8.558 -10.312 QT
8.62 -10.366 8.714 -10.366 QT
8.792 -10.366 8.863 -10.312 QT
8.933 -10.257 8.933 -10.179 QT
8.933 -6.929 L
12.167 -6.929 L
12.245 -6.929 12.308 -6.858 QT
12.37 -6.788 12.37 -6.71 QT
12.37 -6.632 12.308 -6.562 QT
12.245 -6.491 12.167 -6.491 QT
8.933 -6.491 L
8.933 -3.241 L
8.933 -3.163 8.863 -3.108 QT
8.792 -3.054 8.714 -3.054 QT
8.62 -3.054 8.558 -3.108 QT
8.495 -3.163 8.495 -3.241 QT
8.495 -6.491 L
5.261 -6.491 L
cp}def
f-1865641942
f
GR
GS
[0 -1 1 0 69.16313 122.4999] CT
0.149 GC
N
/f2040987944{15.98 -3.96 M
15.98 -4.257 L
15.98 -4.288 15.995 -4.319 QT
17.714 -6.21 L
18.105 -6.632 18.339 -6.913 QT
18.574 -7.194 18.816 -7.562 QT
19.058 -7.929 19.191 -8.319 QT
19.324 -8.71 19.324 -9.132 QT
19.324 -9.585 19.159 -9.999 QT
18.995 -10.413 18.667 -10.655 QT
18.339 -10.898 17.87 -10.898 QT
17.386 -10.898 17.003 -10.608 QT
16.62 -10.319 16.464 -9.866 QT
16.511 -9.882 16.589 -9.882 QT
16.839 -9.882 17.011 -9.718 QT
17.183 -9.554 17.183 -9.288 QT
17.183 -9.038 17.011 -8.858 QT
16.839 -8.679 16.589 -8.679 QT
16.324 -8.679 16.152 -8.858 QT
15.98 -9.038 15.98 -9.288 QT
15.98 -9.694 16.136 -10.062 QT
16.292 -10.429 16.581 -10.71 QT
16.87 -10.991 17.245 -11.14 QT
17.62 -11.288 18.027 -11.288 QT
18.652 -11.288 19.199 -11.023 QT
19.745 -10.757 20.058 -10.273 QT
20.37 -9.788 20.37 -9.132 QT
20.37 -8.648 20.159 -8.218 QT
19.949 -7.788 19.628 -7.437 QT
19.308 -7.085 18.792 -6.64 QT
18.277 -6.194 18.12 -6.054 QT
16.87 -4.851 L
17.933 -4.851 L
18.714 -4.851 19.238 -4.866 QT
19.761 -4.882 19.792 -4.913 QT
19.917 -5.038 20.058 -5.913 QT
20.37 -5.913 L
20.058 -3.96 L
15.98 -3.96 L
cp}def
f2040987944
f
GR
GS
[0 -1 1 0 69.16313 122.4999] CT
0.149 GC
N
/f1025072975{22.042 -4.148 M
22.042 -4.21 22.089 -4.319 QT
22.402 -4.96 22.667 -5.577 QT
22.933 -6.194 23.144 -6.78 QT
23.355 -7.366 23.527 -8.023 QT
22.824 -8.023 L
22.417 -8.023 22.074 -7.773 QT
21.73 -7.523 21.495 -7.132 QT
21.464 -7.085 21.433 -7.085 QT
21.292 -7.085 L
21.199 -7.085 21.199 -7.194 QT
21.199 -7.21 21.214 -7.257 QT
21.574 -7.866 21.988 -8.288 QT
22.402 -8.71 22.917 -8.71 QT
26.902 -8.71 L
27.011 -8.71 27.097 -8.632 QT
27.183 -8.554 27.183 -8.429 QT
27.183 -8.257 27.066 -8.14 QT
26.949 -8.023 26.792 -8.023 QT
25.386 -8.023 L
25.214 -7.163 25.199 -6.335 QT
25.199 -5.273 25.558 -4.429 QT
25.589 -4.351 25.589 -4.288 QT
25.589 -4.163 25.519 -4.062 QT
25.449 -3.96 25.339 -3.898 QT
25.23 -3.835 25.105 -3.835 QT
24.824 -3.835 24.714 -4.312 QT
24.605 -4.788 24.605 -5.226 QT
24.605 -5.851 24.714 -6.437 QT
24.824 -7.023 25.058 -8.023 QT
23.855 -8.023 L
22.995 -4.491 22.808 -4.132 QT
22.652 -3.835 22.386 -3.835 QT
22.245 -3.835 22.144 -3.921 QT
22.042 -4.007 22.042 -4.148 QT
cp}def
f1025072975
f
GR
GS
0.149 GC
2 setlinecap
1 LJ
0.5 LW
N
95 218 M
132 218 L
S
GR
GS
0.149 GC
2 setlinecap
1 LJ
0.5 LW
N
95 27 M
132 27 L
S
GR
GS
0.149 GC
2 setlinecap
1 LJ
0.5 LW
N
95 218 M
95 216.09 L
S
GR
GS
0.149 GC
2 setlinecap
1 LJ
0.5 LW
N
132 218 M
132 216.09 L
S
GR
GS
0.149 GC
2 setlinecap
1 LJ
0.5 LW
N
95 27 M
95 28.91 L
S
GR
GS
0.149 GC
2 setlinecap
1 LJ
0.5 LW
N
132 27 M
132 28.91 L
S
GR
GS
0.88 GC
N
95 190.641 M
98.364 190.641 L
98.364 186.841 L
95 186.841 L
cp
95 186.841 M
97.523 186.841 L
97.523 183.042 L
97.523 179.242 L
95 179.242 L
95 183.042 L
cp
95 179.242 M
100.045 179.242 L
100.045 175.442 L
95 175.442 L
cp
95 175.442 M
108.455 175.442 L
108.455 171.642 L
95 171.642 L
cp
95 171.642 M
110.136 171.642 L
110.136 167.842 L
95 167.842 L
cp
95 167.842 M
103.409 167.842 L
103.409 164.042 L
95 164.042 L
cp
95 164.042 M
110.136 164.042 L
110.136 160.243 L
95 160.243 L
cp
95 160.243 M
109.295 160.243 L
109.295 156.443 L
109.295 152.643 L
95 152.643 L
95 156.443 L
cp
95 152.643 M
110.977 152.643 L
110.977 148.843 L
95 148.843 L
cp
95 148.843 M
120.227 148.843 L
120.227 145.043 L
95 145.043 L
cp
95 145.043 M
124.432 145.043 L
124.432 141.244 L
95 141.244 L
cp
95 141.244 M
115.182 141.244 L
115.182 137.444 L
95 137.444 L
cp
95 137.444 M
126.114 137.444 L
126.114 133.644 L
95 133.644 L
cp
95 133.644 M
123.591 133.644 L
123.591 129.844 L
95 129.844 L
cp
95 129.844 M
113.5 129.844 L
113.5 126.044 L
95 126.044 L
cp
95 126.044 M
124.432 126.044 L
124.432 122.244 L
95 122.244 L
cp
95 122.244 M
116.023 122.244 L
116.023 118.445 L
95 118.445 L
cp
95 118.445 M
111.818 118.445 L
111.818 114.645 L
95 114.645 L
cp
95 114.645 M
116.864 114.645 L
116.864 110.845 L
95 110.845 L
cp
95 110.845 M
116.023 110.845 L
116.023 107.045 L
95 107.045 L
cp
95 107.045 M
117.705 107.045 L
117.705 103.245 L
95 103.245 L
cp
95 103.245 M
115.182 103.245 L
115.182 99.445 L
95 99.445 L
cp
95 99.445 M
117.705 99.445 L
117.705 95.646 L
95 95.646 L
cp
95 95.646 M
129.477 95.646 L
129.477 91.846 L
95 91.846 L
cp
95 91.846 M
120.227 91.846 L
120.227 88.046 L
95 88.046 L
cp
95 88.046 M
119.386 88.046 L
119.386 84.246 L
95 84.246 L
cp
95 84.246 M
113.5 84.246 L
113.5 80.446 L
95 80.446 L
cp
95 80.446 M
110.136 80.446 L
110.136 76.647 L
95 76.647 L
cp
95 76.647 M
108.455 76.647 L
108.455 72.847 L
95 72.847 L
cp
95 72.847 M
107.614 72.847 L
107.614 69.047 L
95 69.047 L
cp
95 69.047 M
100.045 69.047 L
100.045 65.247 L
95 65.247 L
cp
95 65.247 M
97.523 65.247 L
97.523 61.447 L
95 61.447 L
cp
95 50.048 M
95.841 50.048 L
95.841 46.248 L
95 46.248 L
cp
95 38.648 M
95.841 38.648 L
95.841 34.848 L
95 34.848 L
cp
f
GR
GS
2 setlinecap
10.0 ML
0.5 LW
N
95 190.641 M
98.364 190.641 L
98.364 186.841 L
95 186.841 L
95 186.841 L
S
GR
GS
2 setlinecap
10.0 ML
0.5 LW
N
97.523 186.841 M
97.523 183.042 L
95 183.042 L
95 183.042 L
S
GR
GS
2 setlinecap
10.0 ML
0.5 LW
N
97.523 183.042 M
97.523 179.242 L
S
GR
GS
2 setlinecap
10.0 ML
0.5 LW
N
95 179.242 M
95 179.242 L
100.045 179.242 L
100.045 175.442 L
S
GR
GS
2 setlinecap
10.0 ML
0.5 LW
N
95 175.442 M
95 175.442 L
108.455 175.442 L
108.455 171.642 L
S
GR
GS
2 setlinecap
10.0 ML
0.5 LW
N
95 171.642 M
95 171.642 L
110.136 171.642 L
110.136 167.842 L
95 167.842 L
95 167.842 L
S
GR
GS
2 setlinecap
10.0 ML
0.5 LW
N
103.409 167.842 M
103.409 164.042 L
S
GR
GS
2 setlinecap
10.0 ML
0.5 LW
N
95 164.042 M
95 164.042 L
110.136 164.042 L
110.136 160.243 L
95 160.243 L
95 160.243 L
S
GR
GS
2 setlinecap
10.0 ML
0.5 LW
N
109.295 160.243 M
109.295 156.443 L
95 156.443 L
95 156.443 L
S
GR
GS
2 setlinecap
10.0 ML
0.5 LW
N
109.295 156.443 M
109.295 152.643 L
S
GR
GS
2 setlinecap
10.0 ML
0.5 LW
N
95 152.643 M
95 152.643 L
110.977 152.643 L
110.977 148.843 L
S
GR
GS
2 setlinecap
10.0 ML
0.5 LW
N
95 148.843 M
95 148.843 L
120.227 148.843 L
120.227 145.043 L
S
GR
GS
2 setlinecap
10.0 ML
0.5 LW
N
95 145.043 M
95 145.043 L
124.432 145.043 L
124.432 141.244 L
95 141.244 L
95 141.244 L
S
GR
GS
2 setlinecap
10.0 ML
0.5 LW
N
115.182 141.244 M
115.182 137.444 L
S
GR
GS
2 setlinecap
10.0 ML
0.5 LW
N
95 137.444 M
95 137.444 L
126.114 137.444 L
126.114 133.644 L
95 133.644 L
95 133.644 L
S
GR
GS
2 setlinecap
10.0 ML
0.5 LW
N
123.591 133.644 M
123.591 129.844 L
95 129.844 L
95 129.844 L
S
GR
GS
2 setlinecap
10.0 ML
0.5 LW
N
113.5 129.844 M
113.5 126.044 L
S
GR
GS
2 setlinecap
10.0 ML
0.5 LW
N
95 126.044 M
95 126.044 L
124.432 126.044 L
124.432 122.244 L
95 122.244 L
95 122.244 L
S
GR
GS
2 setlinecap
10.0 ML
0.5 LW
N
116.023 122.244 M
116.023 118.445 L
95 118.445 L
95 118.445 L
S
GR
GS
2 setlinecap
10.0 ML
0.5 LW
N
111.818 118.445 M
111.818 114.645 L
S
GR
GS
2 setlinecap
10.0 ML
0.5 LW
N
95 114.645 M
95 114.645 L
116.864 114.645 L
116.864 110.845 L
95 110.845 L
95 110.845 L
S
GR
GS
2 setlinecap
10.0 ML
0.5 LW
N
116.023 110.845 M
116.023 107.045 L
S
GR
GS
2 setlinecap
10.0 ML
0.5 LW
N
95 107.045 M
95 107.045 L
117.705 107.045 L
117.705 103.245 L
95 103.245 L
95 103.245 L
S
GR
GS
2 setlinecap
10.0 ML
0.5 LW
N
115.182 103.245 M
115.182 99.445 L
S
GR
GS
2 setlinecap
10.0 ML
0.5 LW
N
95 99.445 M
95 99.445 L
117.705 99.445 L
117.705 95.646 L
S
GR
GS
2 setlinecap
10.0 ML
0.5 LW
N
95 95.646 M
95 95.646 L
129.477 95.646 L
129.477 91.846 L
95 91.846 L
95 91.846 L
S
GR
GS
2 setlinecap
10.0 ML
0.5 LW
N
120.227 91.846 M
120.227 88.046 L
95 88.046 L
95 88.046 L
S
GR
GS
2 setlinecap
10.0 ML
0.5 LW
N
119.386 88.046 M
119.386 84.246 L
95 84.246 L
95 84.246 L
S
GR
GS
2 setlinecap
10.0 ML
0.5 LW
N
113.5 84.246 M
113.5 80.446 L
95 80.446 L
95 80.446 L
S
GR
GS
2 setlinecap
10.0 ML
0.5 LW
N
110.136 80.446 M
110.136 76.647 L
95 76.647 L
95 76.647 L
S
GR
GS
2 setlinecap
10.0 ML
0.5 LW
N
108.455 76.647 M
108.455 72.847 L
95 72.847 L
95 72.847 L
S
GR
GS
2 setlinecap
10.0 ML
0.5 LW
N
107.614 72.847 M
107.614 69.047 L
95 69.047 L
95 69.047 L
S
GR
GS
2 setlinecap
10.0 ML
0.5 LW
N
100.045 69.047 M
100.045 65.247 L
95 65.247 L
95 65.247 L
S
GR
GS
2 setlinecap
10.0 ML
0.5 LW
N
97.523 65.247 M
97.523 61.447 L
95 61.447 L
95 61.447 L
S
GR
GS
2 setlinecap
10.0 ML
0.5 LW
N
95 61.447 M
95 57.647 L
95 57.647 L
95 57.647 L
S
GR
GS
2 setlinecap
10.0 ML
0.5 LW
N
95 57.647 M
95 53.848 L
95 53.848 L
95 53.848 L
S
GR
GS
2 setlinecap
10.0 ML
0.5 LW
N
95 53.848 M
95 50.048 L
S
GR
GS
2 setlinecap
10.0 ML
0.5 LW
N
95 50.048 M
95 50.048 L
95.841 50.048 L
95.841 46.248 L
95 46.248 L
95 46.248 L
S
GR
GS
2 setlinecap
10.0 ML
0.5 LW
N
95 46.248 M
95 42.448 L
95 42.448 L
95 42.448 L
S
GR
GS
2 setlinecap
10.0 ML
0.5 LW
N
95 42.448 M
95 38.648 L
S
GR
GS
2 setlinecap
10.0 ML
0.5 LW
N
95 38.648 M
95 38.648 L
95.841 38.648 L
95.841 34.848 L
95 34.848 L
S
GR
GS
1 GC
N
143.5 269 M
326 269 L
326 232 L
143.5 232 L
cp
f
GR
GS
0.149 GC
2 setlinecap
1 LJ
0.5 LW
N
143.5 269 M
326 269 L
S
GR
GS
0.149 GC
2 setlinecap
1 LJ
0.5 LW
N
143.5 232 M
326 232 L
S
GR
GS
0.149 GC
2 setlinecap
1 LJ
0.5 LW
N
143.5 269 M
143.5 267.175 L
S
GR
GS
0.149 GC
2 setlinecap
1 LJ
0.5 LW
N
189.125 269 M
189.125 267.175 L
S
GR
GS
0.149 GC
2 setlinecap
1 LJ
0.5 LW
N
234.75 269 M
234.75 267.175 L
S
GR
GS
0.149 GC
2 setlinecap
1 LJ
0.5 LW
N
280.375 269 M
280.375 267.175 L
S
GR
GS
0.149 GC
2 setlinecap
1 LJ
0.5 LW
N
326 269 M
326 267.175 L
S
GR
GS
0.149 GC
2 setlinecap
1 LJ
0.5 LW
N
143.5 232 M
143.5 233.825 L
S
GR
GS
0.149 GC
2 setlinecap
1 LJ
0.5 LW
N
189.125 232 M
189.125 233.825 L
S
GR
GS
0.149 GC
2 setlinecap
1 LJ
0.5 LW
N
234.75 232 M
234.75 233.825 L
S
GR
GS
0.149 GC
2 setlinecap
1 LJ
0.5 LW
N
280.375 232 M
280.375 233.825 L
S
GR
GS
0.149 GC
2 setlinecap
1 LJ
0.5 LW
N
326 232 M
326 233.825 L
S
GR
GS
[1 0 0 1 143.5 273] CT
0.149 GC
N
/f365287046{0 8.619 M
-1.219 8.619 -1.664 7.611 QT
-2.109 6.603 -2.109 5.212 QT
-2.109 4.337 -1.953 3.572 QT
-1.797 2.806 -1.32 2.275 QT
-0.844 1.744 0 1.744 QT
0.656 1.744 1.078 2.064 QT
1.5 2.384 1.719 2.892 QT
1.938 3.4 2.016 3.986 QT
2.094 4.572 2.094 5.212 QT
2.094 6.072 1.938 6.822 QT
1.781 7.572 1.32 8.095 QT
0.859 8.619 0 8.619 QT
cp
0 8.353 M
0.563 8.353 0.836 7.783 QT
1.109 7.212 1.172 6.525 QT
1.234 5.837 1.234 5.056 QT
1.234 4.291 1.172 3.658 QT
1.109 3.025 0.836 2.509 QT
0.563 1.994 0 1.994 QT
-0.563 1.994 -0.836 2.517 QT
-1.109 3.041 -1.172 3.666 QT
-1.234 4.291 -1.234 5.056 QT
-1.234 5.603 -1.211 6.095 QT
-1.188 6.587 -1.07 7.119 QT
-0.953 7.65 -0.688 8.002 QT
-0.422 8.353 0 8.353 QT
cp}def
f365287046
f
GR
GS
[1 0 0 1 189.125 273] CT
0.149 GC
N
/f668698095{-6.918 8.619 M
-8.137 8.619 -8.582 7.611 QT
-9.028 6.603 -9.028 5.212 QT
-9.028 4.337 -8.872 3.572 QT
-8.715 2.806 -8.239 2.275 QT
-7.762 1.744 -6.918 1.744 QT
-6.262 1.744 -5.84 2.064 QT
-5.418 2.384 -5.2 2.892 QT
-4.981 3.4 -4.903 3.986 QT
-4.825 4.572 -4.825 5.212 QT
-4.825 6.072 -4.981 6.822 QT
-5.137 7.572 -5.598 8.095 QT
-6.059 8.619 -6.918 8.619 QT
cp
-6.918 8.353 M
-6.356 8.353 -6.082 7.783 QT
-5.809 7.212 -5.747 6.525 QT
-5.684 5.837 -5.684 5.056 QT
-5.684 4.291 -5.747 3.658 QT
-5.809 3.025 -6.082 2.509 QT
-6.356 1.994 -6.918 1.994 QT
-7.481 1.994 -7.754 2.517 QT
-8.028 3.041 -8.09 3.666 QT
-8.153 4.291 -8.153 5.056 QT
-8.153 5.603 -8.129 6.095 QT
-8.106 6.587 -7.989 7.119 QT
-7.872 7.65 -7.606 8.002 QT
-7.34 8.353 -6.918 8.353 QT
cp}def
f668698095
f
GR
GS
[1 0 0 1 189.125 273] CT
0.149 GC
N
/f-1664080999{-3.575 7.853 M
-3.575 7.619 -3.411 7.462 QT
-3.247 7.306 -3.028 7.306 QT
-2.887 7.306 -2.754 7.377 QT
-2.622 7.447 -2.551 7.58 QT
-2.481 7.712 -2.481 7.853 QT
-2.481 8.072 -2.645 8.236 QT
-2.809 8.4 -3.028 8.4 QT
-3.247 8.4 -3.411 8.236 QT
-3.575 8.072 -3.575 7.853 QT
cp}def
f-1664080999
f
GR
GS
[1 0 0 1 189.125 273] CT
0.149 GC
N
/f1511736146{-0.766 7.259 M
-0.672 7.556 -0.461 7.798 QT
-0.25 8.041 0.047 8.173 QT
0.344 8.306 0.656 8.306 QT
1.375 8.306 1.648 7.744 QT
1.922 7.181 1.922 6.384 QT
1.922 6.025 1.906 5.791 QT
1.891 5.556 1.844 5.337 QT
1.75 4.994 1.516 4.728 QT
1.281 4.462 0.953 4.462 QT
0.609 4.462 0.367 4.564 QT
0.125 4.666 -0.023 4.798 QT
-0.172 4.931 -0.289 5.087 QT
-0.406 5.244 -0.438 5.244 QT
-0.547 5.244 L
-0.578 5.244 -0.617 5.212 QT
-0.656 5.181 -0.656 5.15 QT
-0.656 1.822 L
-0.656 1.791 -0.617 1.767 QT
-0.578 1.744 -0.547 1.744 QT
-0.516 1.744 L
0.156 2.056 0.906 2.056 QT
1.656 2.056 2.344 1.744 QT
2.375 1.744 L
2.406 1.744 2.438 1.767 QT
2.469 1.791 2.469 1.822 QT
2.469 1.916 L
2.469 1.962 2.438 1.962 QT
2.094 2.416 1.578 2.666 QT
1.063 2.916 0.516 2.916 QT
0.125 2.916 -0.297 2.806 QT
-0.297 4.697 L
0.031 4.431 0.289 4.314 QT
0.547 4.197 0.953 4.197 QT
1.516 4.197 1.953 4.517 QT
2.391 4.837 2.625 5.345 QT
2.859 5.853 2.859 6.384 QT
2.859 6.994 2.563 7.502 QT
2.266 8.009 1.758 8.314 QT
1.25 8.619 0.656 8.619 QT
0.156 8.619 -0.258 8.369 QT
-0.672 8.119 -0.906 7.689 QT
-1.141 7.259 -1.141 6.775 QT
-1.141 6.541 -0.992 6.4 QT
-0.844 6.259 -0.625 6.259 QT
-0.406 6.259 -0.258 6.408 QT
-0.109 6.556 -0.109 6.775 QT
-0.109 6.978 -0.258 7.127 QT
-0.406 7.275 -0.625 7.275 QT
-0.656 7.275 -0.703 7.267 QT
-0.75 7.259 -0.766 7.259 QT
cp}def
f1511736146
f
GR
GS
[1 0 0 1 189.125 273] CT
0.149 GC
N
/f1803605107{4.375 8.228 M
4.375 8.181 4.406 8.072 QT
4.688 7.494 4.93 6.931 QT
5.172 6.369 5.367 5.837 QT
5.563 5.306 5.719 4.712 QT
5.078 4.712 L
4.719 4.712 4.398 4.939 QT
4.078 5.166 3.875 5.525 QT
3.844 5.556 3.813 5.556 QT
3.688 5.556 L
3.594 5.556 3.594 5.462 QT
3.594 5.447 3.625 5.4 QT
3.953 4.837 4.32 4.462 QT
4.688 4.087 5.156 4.087 QT
8.797 4.087 L
8.891 4.087 8.961 4.158 QT
9.031 4.228 9.031 4.337 QT
9.031 4.494 8.93 4.603 QT
8.828 4.712 8.688 4.712 QT
7.406 4.712 L
7.25 5.494 7.234 6.244 QT
7.234 7.197 7.563 7.978 QT
7.594 8.041 7.594 8.103 QT
7.594 8.212 7.531 8.306 QT
7.469 8.4 7.367 8.455 QT
7.266 8.509 7.156 8.509 QT
6.891 8.509 6.797 8.08 QT
6.703 7.65 6.703 7.244 QT
6.703 6.681 6.797 6.15 QT
6.891 5.619 7.109 4.712 QT
6.016 4.712 L
5.234 7.916 5.063 8.244 QT
4.922 8.509 4.672 8.509 QT
4.563 8.509 4.469 8.431 QT
4.375 8.353 4.375 8.228 QT
cp}def
f1803605107
f
GR
GS
[1 0 0 1 234.75 273] CT
0.149 GC
N
/f1778835136{-2.014 8.228 M
-2.014 8.181 -1.983 8.072 QT
-1.701 7.494 -1.459 6.931 QT
-1.217 6.369 -1.022 5.837 QT
-0.826 5.306 -0.67 4.712 QT
-1.311 4.712 L
-1.67 4.712 -1.99 4.939 QT
-2.311 5.166 -2.514 5.525 QT
-2.545 5.556 -2.576 5.556 QT
-2.701 5.556 L
-2.795 5.556 -2.795 5.462 QT
-2.795 5.447 -2.764 5.4 QT
-2.436 4.837 -2.069 4.462 QT
-1.701 4.087 -1.233 4.087 QT
2.408 4.087 L
2.502 4.087 2.572 4.158 QT
2.642 4.228 2.642 4.337 QT
2.642 4.494 2.541 4.603 QT
2.439 4.712 2.299 4.712 QT
1.017 4.712 L
0.861 5.494 0.845 6.244 QT
0.845 7.197 1.174 7.978 QT
1.205 8.041 1.205 8.103 QT
1.205 8.212 1.142 8.306 QT
1.08 8.4 0.978 8.455 QT
0.877 8.509 0.767 8.509 QT
0.502 8.509 0.408 8.08 QT
0.314 7.65 0.314 7.244 QT
0.314 6.681 0.408 6.15 QT
0.502 5.619 0.72 4.712 QT
-0.373 4.712 L
-1.155 7.916 -1.326 8.244 QT
-1.467 8.509 -1.717 8.509 QT
-1.826 8.509 -1.92 8.431 QT
-2.014 8.353 -2.014 8.228 QT
cp}def
f1778835136
f
GR
GS
[1 0 0 1 280.375 273] CT
0.149 GC
N
/f306294935{-8.497 8.4 M
-8.497 8.041 L
-7.247 8.041 -7.247 7.728 QT
-7.247 2.478 L
-7.762 2.728 -8.543 2.728 QT
-8.543 2.384 L
-7.325 2.384 -6.7 1.744 QT
-6.559 1.744 L
-6.528 1.744 -6.497 1.767 QT
-6.465 1.791 -6.465 1.822 QT
-6.465 7.728 L
-6.465 8.041 -5.215 8.041 QT
-5.215 8.4 L
-8.497 8.4 L
cp}def
f306294935
f
GR
GS
[1 0 0 1 280.375 273] CT
0.149 GC
N
f-1664080999
f
GR
GS
[1 0 0 1 280.375 273] CT
0.149 GC
N
f1511736146
f
GR
GS
[1 0 0 1 280.375 273] CT
0.149 GC
N
f1803605107
f
GR
GS
[1 0 0 1 326 273] CT
0.149 GC
N
/f881210254{-5.03 8.4 M
-5.03 8.134 L
-5.03 8.103 -5.014 8.072 QT
-3.451 6.353 L
-3.108 5.978 -2.889 5.72 QT
-2.67 5.462 -2.451 5.127 QT
-2.233 4.791 -2.108 4.439 QT
-1.983 4.087 -1.983 3.697 QT
-1.983 3.291 -2.139 2.916 QT
-2.295 2.541 -2.592 2.314 QT
-2.889 2.087 -3.311 2.087 QT
-3.748 2.087 -4.1 2.353 QT
-4.451 2.619 -4.592 3.025 QT
-4.545 3.025 -4.483 3.025 QT
-4.248 3.025 -4.092 3.173 QT
-3.936 3.322 -3.936 3.556 QT
-3.936 3.791 -4.092 3.947 QT
-4.248 4.103 -4.483 4.103 QT
-4.717 4.103 -4.873 3.939 QT
-5.03 3.775 -5.03 3.556 QT
-5.03 3.181 -4.889 2.853 QT
-4.748 2.525 -4.483 2.267 QT
-4.217 2.009 -3.881 1.877 QT
-3.545 1.744 -3.17 1.744 QT
-2.592 1.744 -2.1 1.986 QT
-1.608 2.228 -1.319 2.666 QT
-1.03 3.103 -1.03 3.697 QT
-1.03 4.134 -1.225 4.525 QT
-1.42 4.916 -1.717 5.236 QT
-2.014 5.556 -2.475 5.962 QT
-2.936 6.369 -3.092 6.494 QT
-4.217 7.587 L
-3.264 7.587 L
-2.545 7.587 -2.069 7.58 QT
-1.592 7.572 -1.576 7.541 QT
-1.451 7.416 -1.326 6.619 QT
-1.03 6.619 L
-1.326 8.4 L
-5.03 8.4 L
cp}def
f881210254
f
GR
GS
[1 0 0 1 326 273] CT
0.149 GC
N
/f1130178499{0.486 8.228 M
0.486 8.181 0.517 8.072 QT
0.799 7.494 1.041 6.931 QT
1.283 6.369 1.478 5.837 QT
1.674 5.306 1.83 4.712 QT
1.189 4.712 L
0.83 4.712 0.51 4.939 QT
0.189 5.166 -0.014 5.525 QT
-0.045 5.556 -0.076 5.556 QT
-0.201 5.556 L
-0.295 5.556 -0.295 5.462 QT
-0.295 5.447 -0.264 5.4 QT
0.064 4.837 0.431 4.462 QT
0.799 4.087 1.267 4.087 QT
4.908 4.087 L
5.002 4.087 5.072 4.158 QT
5.142 4.228 5.142 4.337 QT
5.142 4.494 5.041 4.603 QT
4.939 4.712 4.799 4.712 QT
3.517 4.712 L
3.361 5.494 3.345 6.244 QT
3.345 7.197 3.674 7.978 QT
3.705 8.041 3.705 8.103 QT
3.705 8.212 3.642 8.306 QT
3.58 8.4 3.478 8.455 QT
3.377 8.509 3.267 8.509 QT
3.002 8.509 2.908 8.08 QT
2.814 7.65 2.814 7.244 QT
2.814 6.681 2.908 6.15 QT
3.002 5.619 3.22 4.712 QT
2.127 4.712 L
1.345 7.916 1.174 8.244 QT
1.033 8.509 0.783 8.509 QT
0.674 8.509 0.58 8.431 QT
0.486 8.353 0.486 8.228 QT
cp}def
f1130178499
f
GR
GS
[1 0 0 1 234.75009 286] CT
0.149 GC
N
/f-1977375229{-1.152 11.381 M
-0.652 9.396 L
-1.215 9.396 -1.699 9.138 QT
-2.183 8.881 -2.472 8.412 QT
-2.761 7.943 -2.761 7.396 QT
-2.761 6.802 -2.465 6.256 QT
-2.168 5.709 -1.66 5.263 QT
-1.152 4.818 -0.558 4.584 QT
0.035 4.349 0.614 4.349 QT
1.285 1.677 L
1.301 1.615 1.364 1.615 QT
1.504 1.615 L
1.535 1.615 1.567 1.646 QT
1.598 1.677 1.598 1.709 QT
0.942 4.349 L
1.348 4.349 1.731 4.498 QT
2.114 4.646 2.418 4.92 QT
2.723 5.193 2.887 5.56 QT
3.051 5.927 3.051 6.349 QT
3.051 6.943 2.754 7.482 QT
2.457 8.021 1.957 8.459 QT
1.457 8.896 0.84 9.146 QT
0.223 9.396 -0.324 9.396 QT
-0.84 11.427 L
-0.855 11.49 -0.918 11.49 QT
-1.058 11.49 L
-1.09 11.49 -1.121 11.451 QT
-1.152 11.412 -1.152 11.381 QT
cp
-0.574 9.099 M
0.535 4.631 L
0.27 4.631 -0.043 4.74 QT
-0.355 4.849 -0.621 5.021 QT
-0.886 5.193 -1.105 5.427 QT
-1.386 5.693 -1.59 6.06 QT
-1.793 6.427 -1.894 6.826 QT
-1.996 7.224 -1.996 7.631 QT
-1.996 8.037 -1.816 8.373 QT
-1.636 8.709 -1.316 8.904 QT
-0.996 9.099 -0.574 9.099 QT
cp
-0.246 9.099 M
0.16 9.099 0.629 8.865 QT
1.098 8.631 1.395 8.318 QT
1.817 7.912 2.051 7.318 QT
2.285 6.724 2.285 6.115 QT
2.285 5.709 2.106 5.365 QT
1.926 5.021 1.606 4.826 QT
1.285 4.631 0.864 4.631 QT
-0.246 9.099 L
cp}def
f-1977375229
f
GR
GS
0.149 GC
2 setlinecap
1 LJ
0.5 LW
N
143.5 269 M
143.5 232 L
S
GR
GS
0.149 GC
2 setlinecap
1 LJ
0.5 LW
N
326 269 M
326 232 L
S
GR
GS
0.149 GC
2 setlinecap
1 LJ
0.5 LW
N
143.5 269 M
145.325 269 L
S
GR
GS
0.149 GC
2 setlinecap
1 LJ
0.5 LW
N
143.5 250.5 M
145.325 250.5 L
S
GR
GS
0.149 GC
2 setlinecap
1 LJ
0.5 LW
N
143.5 232 M
145.325 232 L
S
GR
GS
0.149 GC
2 setlinecap
1 LJ
0.5 LW
N
326 269 M
324.175 269 L
S
GR
GS
0.149 GC
2 setlinecap
1 LJ
0.5 LW
N
326 250.5 M
324.175 250.5 L
S
GR
GS
0.149 GC
2 setlinecap
1 LJ
0.5 LW
N
326 232 M
324.175 232 L
S
GR
GS
0.88 GC
N
147.944 265.565 M
143.5 265.565 L
143.5 269 L
147.944 269 L
152.388 269 L
152.388 265.565 L
cp
156.832 269 M
156.832 257.836 L
152.388 257.836 L
152.388 269 L
cp
161.276 269 M
161.276 259.554 L
156.832 259.554 L
156.832 269 L
cp
165.72 269 M
165.72 262.989 L
161.276 262.989 L
161.276 269 L
cp
170.164 269 M
170.164 262.13 L
165.72 262.13 L
165.72 269 L
cp
174.608 269 M
174.608 252.683 L
170.164 252.683 L
170.164 269 L
cp
179.052 269 M
179.052 256.118 L
174.608 256.118 L
174.608 269 L
cp
183.496 269 M
183.496 262.13 L
179.052 262.13 L
179.052 269 L
cp
187.94 269 M
187.94 260.412 L
183.496 260.412 L
183.496 269 L
cp
192.384 269 M
192.384 250.966 L
187.94 250.966 L
187.94 269 L
cp
196.828 269 M
196.828 243.237 L
192.384 243.237 L
192.384 269 L
cp
201.272 250.966 M
196.828 250.966 L
196.828 269 L
201.272 269 L
205.716 269 L
205.716 250.966 L
cp
210.16 269 M
210.16 250.107 L
205.716 250.107 L
205.716 269 L
cp
214.604 269 M
214.604 253.542 L
210.16 253.542 L
210.16 269 L
cp
219.048 269 M
219.048 245.813 L
214.604 245.813 L
214.604 269 L
cp
223.492 269 M
223.492 249.248 L
219.048 249.248 L
219.048 269 L
cp
227.936 269 M
227.936 248.389 L
223.492 248.389 L
223.492 269 L
cp
232.38 269 M
232.38 252.683 L
227.936 252.683 L
227.936 269 L
cp
236.824 269 M
236.824 244.954 L
232.38 244.954 L
232.38 269 L
cp
241.268 269 M
241.268 247.531 L
236.824 247.531 L
236.824 269 L
cp
245.712 269 M
245.712 251.825 L
241.268 251.825 L
241.268 269 L
cp
250.156 269 M
250.156 238.943 L
245.712 238.943 L
245.712 269 L
cp
254.6 269 M
254.6 240.661 L
250.156 240.661 L
250.156 269 L
cp
259.044 269 M
259.044 244.096 L
254.6 244.096 L
254.6 269 L
cp
263.488 269 M
263.488 249.248 L
259.044 249.248 L
259.044 269 L
cp
267.932 269 M
267.932 245.813 L
263.488 245.813 L
263.488 269 L
cp
272.376 269 M
272.376 244.096 L
267.932 244.096 L
267.932 269 L
cp
276.82 269 M
276.82 251.825 L
272.376 251.825 L
272.376 269 L
cp
281.264 269 M
281.264 253.542 L
276.82 253.542 L
276.82 269 L
cp
285.708 269 M
285.708 259.554 L
281.264 259.554 L
281.264 269 L
cp
290.152 269 M
290.152 252.683 L
285.708 252.683 L
285.708 269 L
cp
294.596 257.836 M
290.152 257.836 L
290.152 269 L
294.596 269 L
299.04 269 L
299.04 257.836 L
cp
303.484 262.989 M
299.04 262.989 L
299.04 269 L
303.484 269 L
307.928 269 L
307.928 262.989 L
cp
312.372 269 M
312.372 264.706 L
307.928 264.706 L
307.928 269 L
cp
316.816 263.847 M
312.372 263.847 L
312.372 269 L
316.816 269 L
321.26 269 L
321.26 263.847 L
cp
325.704 269 M
325.704 264.706 L
321.26 264.706 L
321.26 269 L
cp
f
GR
GS
2 setlinecap
10.0 ML
0.5 LW
N
143.5 269 M
143.5 265.565 L
147.944 265.565 L
147.944 269 L
147.944 269 L
S
GR
GS
2 setlinecap
10.0 ML
0.5 LW
N
147.944 265.565 M
152.388 265.565 L
S
GR
GS
2 setlinecap
10.0 ML
0.5 LW
N
152.388 269 M
152.388 269 L
152.388 257.836 L
156.832 257.836 L
156.832 269 L
156.832 269 L
S
GR
GS
2 setlinecap
10.0 ML
0.5 LW
N
156.832 259.554 M
161.276 259.554 L
161.276 269 L
161.276 269 L
S
GR
GS
2 setlinecap
10.0 ML
0.5 LW
N
161.276 262.989 M
165.72 262.989 L
S
GR
GS
2 setlinecap
10.0 ML
0.5 LW
N
165.72 269 M
165.72 269 L
165.72 262.13 L
170.164 262.13 L
S
GR
GS
2 setlinecap
10.0 ML
0.5 LW
N
170.164 269 M
170.164 269 L
170.164 252.683 L
174.608 252.683 L
174.608 269 L
174.608 269 L
S
GR
GS
2 setlinecap
10.0 ML
0.5 LW
N
174.608 256.118 M
179.052 256.118 L
179.052 269 L
179.052 269 L
S
GR
GS
2 setlinecap
10.0 ML
0.5 LW
N
179.052 262.13 M
183.496 262.13 L
S
GR
GS
2 setlinecap
10.0 ML
0.5 LW
N
183.496 269 M
183.496 269 L
183.496 260.412 L
187.94 260.412 L
S
GR
GS
2 setlinecap
10.0 ML
0.5 LW
N
187.94 269 M
187.94 269 L
187.94 250.966 L
192.384 250.966 L
S
GR
GS
2 setlinecap
10.0 ML
0.5 LW
N
192.384 269 M
192.384 269 L
192.384 243.237 L
196.828 243.237 L
196.828 269 L
196.828 269 L
S
GR
GS
2 setlinecap
10.0 ML
0.5 LW
N
196.828 250.966 M
201.272 250.966 L
201.272 269 L
201.272 269 L
S
GR
GS
2 setlinecap
10.0 ML
0.5 LW
N
201.272 250.966 M
205.716 250.966 L
S
GR
GS
2 setlinecap
10.0 ML
0.5 LW
N
205.716 269 M
205.716 269 L
205.716 250.107 L
210.16 250.107 L
210.16 269 L
210.16 269 L
S
GR
GS
2 setlinecap
10.0 ML
0.5 LW
N
210.16 253.542 M
214.604 253.542 L
S
GR
GS
2 setlinecap
10.0 ML
0.5 LW
N
214.604 269 M
214.604 269 L
214.604 245.813 L
219.048 245.813 L
219.048 269 L
219.048 269 L
S
GR
GS
2 setlinecap
10.0 ML
0.5 LW
N
219.048 249.248 M
223.492 249.248 L
S
GR
GS
2 setlinecap
10.0 ML
0.5 LW
N
223.492 269 M
223.492 269 L
223.492 248.389 L
227.936 248.389 L
227.936 269 L
227.936 269 L
S
GR
GS
2 setlinecap
10.0 ML
0.5 LW
N
227.936 252.683 M
232.38 252.683 L
S
GR
GS
2 setlinecap
10.0 ML
0.5 LW
N
232.38 269 M
232.38 269 L
232.38 244.954 L
236.824 244.954 L
236.824 269 L
236.824 269 L
S
GR
GS
2 setlinecap
10.0 ML
0.5 LW
N
236.824 247.531 M
241.268 247.531 L
241.268 269 L
241.268 269 L
S
GR
GS
2 setlinecap
10.0 ML
0.5 LW
N
241.268 251.825 M
245.712 251.825 L
S
GR
GS
2 setlinecap
10.0 ML
0.5 LW
N
245.712 269 M
245.712 269 L
245.712 238.943 L
250.156 238.943 L
250.156 269 L
250.156 269 L
S
GR
GS
2 setlinecap
10.0 ML
0.5 LW
N
250.156 240.661 M
254.6 240.661 L
254.6 269 L
254.6 269 L
S
GR
GS
2 setlinecap
10.0 ML
0.5 LW
N
254.6 244.096 M
259.044 244.096 L
259.044 269 L
259.044 269 L
S
GR
GS
2 setlinecap
10.0 ML
0.5 LW
N
259.044 249.248 M
263.488 249.248 L
S
GR
GS
2 setlinecap
10.0 ML
0.5 LW
N
263.488 269 M
263.488 269 L
263.488 245.813 L
267.932 245.813 L
S
GR
GS
2 setlinecap
10.0 ML
0.5 LW
N
267.932 269 M
267.932 269 L
267.932 244.096 L
272.376 244.096 L
272.376 269 L
272.376 269 L
S
GR
GS
2 setlinecap
10.0 ML
0.5 LW
N
272.376 251.825 M
276.82 251.825 L
276.82 269 L
276.82 269 L
S
GR
GS
2 setlinecap
10.0 ML
0.5 LW
N
276.82 253.542 M
281.264 253.542 L
281.264 269 L
281.264 269 L
S
GR
GS
2 setlinecap
10.0 ML
0.5 LW
N
281.264 259.554 M
285.708 259.554 L
S
GR
GS
2 setlinecap
10.0 ML
0.5 LW
N
285.708 269 M
285.708 269 L
285.708 252.683 L
290.152 252.683 L
290.152 269 L
290.152 269 L
S
GR
GS
2 setlinecap
10.0 ML
0.5 LW
N
290.152 257.836 M
294.596 257.836 L
S
GR
GS
2 setlinecap
10.0 ML
0.5 LW
N
294.596 269 M
294.596 269 L
294.596 257.836 L
299.04 257.836 L
299.04 269 L
299.04 269 L
S
GR
GS
2 setlinecap
10.0 ML
0.5 LW
N
299.04 262.989 M
303.484 262.989 L
S
GR
GS
2 setlinecap
10.0 ML
0.5 LW
N
303.484 269 M
303.484 269 L
303.484 262.989 L
307.928 262.989 L
307.928 269 L
307.928 269 L
S
GR
GS
2 setlinecap
10.0 ML
0.5 LW
N
307.928 264.706 M
312.372 264.706 L
S
GR
GS
2 setlinecap
10.0 ML
0.5 LW
N
312.372 269 M
312.372 269 L
312.372 263.847 L
316.816 263.847 L
316.816 269 L
316.816 269 L
S
GR
GS
2 setlinecap
10.0 ML
0.5 LW
N
316.816 263.847 M
321.26 263.847 L
321.26 269 L
321.26 269 L
S
GR
GS
2 setlinecap
10.0 ML
0.5 LW
N
321.26 264.706 M
325.704 264.706 L
325.704 269 L
S
GR
GS
0.8 0 0 RC
1 LJ
2 LW
N
143.5 262.073 M
145.325 262.083 L
147.15 262.074 L
148.975 262.048 L
150.8 262.004 L
152.625 261.942 L
154.45 261.862 L
156.275 261.762 L
158.1 261.644 L
159.925 261.507 L
161.75 261.35 L
163.575 261.172 L
165.4 260.974 L
167.225 260.754 L
169.05 260.512 L
170.875 260.248 L
172.7 259.961 L
174.525 259.65 L
176.35 259.315 L
178.175 258.955 L
180 258.571 L
181.825 258.161 L
183.65 257.727 L
185.475 257.268 L
187.3 256.784 L
189.125 256.275 L
190.95 255.744 L
192.775 255.19 L
194.6 254.615 L
196.425 254.021 L
198.25 253.41 L
200.075 252.785 L
201.9 252.147 L
203.725 251.502 L
205.55 250.851 L
207.375 250.199 L
209.2 249.55 L
211.025 248.91 L
212.85 248.282 L
214.675 247.672 L
216.5 247.085 L
218.325 246.526 L
220.15 246.002 L
221.975 245.516 L
223.8 245.073 L
225.625 244.679 L
227.45 244.337 L
229.275 244.052 L
231.1 243.826 L
232.925 243.662 L
234.75 243.562 L
236.575 243.527 L
238.4 243.558 L
240.225 243.653 L
242.05 243.813 L
243.875 244.035 L
245.7 244.317 L
247.525 244.655 L
249.35 245.045 L
251.175 245.485 L
253 245.968 L
254.825 246.491 L
256.65 247.047 L
258.475 247.632 L
260.3 248.241 L
262.125 248.868 L
263.95 249.508 L
265.775 250.156 L
267.6 250.808 L
269.425 251.459 L
271.25 252.105 L
273.075 252.743 L
274.9 253.37 L
276.725 253.982 L
278.55 254.577 L
280.375 255.153 L
282.2 255.708 L
284.025 256.241 L
285.85 256.751 L
287.675 257.236 L
289.5 257.697 L
291.325 258.134 L
293.15 258.545 L
294.975 258.93 L
296.8 259.292 L
298.625 259.628 L
300.45 259.941 L
302.275 260.23 L
304.1 260.495 L
305.925 260.739 L
307.75 260.96 L
309.575 261.16 L
311.4 261.339 L
313.225 261.497 L
315.05 261.636 L
316.875 261.755 L
318.7 261.856 L
320.525 261.937 L
322.35 262.001 L
324.175 262.046 L
326 262.073 L
S
GR
GS
1 GC
N
143.5 218 M
326 218 L
326 27 L
143.5 27 L
cp
f
GR
GS
0.149 GC
2 setlinecap
1 LJ
0.5 LW
N
143.5 218 M
326 218 L
S
GR
GS
0.149 GC
2 setlinecap
1 LJ
0.5 LW
N
143.5 218 M
143.5 216.09 L
S
GR
GS
0.149 GC
2 setlinecap
1 LJ
0.5 LW
N
189.125 218 M
189.125 216.09 L
S
GR
GS
0.149 GC
2 setlinecap
1 LJ
0.5 LW
N
234.75 218 M
234.75 216.09 L
S
GR
GS
0.149 GC
2 setlinecap
1 LJ
0.5 LW
N
280.375 218 M
280.375 216.09 L
S
GR
GS
0.149 GC
2 setlinecap
1 LJ
0.5 LW
N
326 218 M
326 216.09 L
S
GR
GS
0.149 GC
2 setlinecap
1 LJ
0.5 LW
N
143.5 218 M
143.5 27 L
S
GR
GS
0.149 GC
2 setlinecap
1 LJ
0.5 LW
N
143.5 218 M
145.41 218 L
S
GR
GS
0.149 GC
2 setlinecap
1 LJ
0.5 LW
N
143.5 170.25 M
145.41 170.25 L
S
GR
GS
0.149 GC
2 setlinecap
1 LJ
0.5 LW
N
143.5 122.5 M
145.41 122.5 L
S
GR
GS
0.149 GC
2 setlinecap
1 LJ
0.5 LW
N
143.5 74.75 M
145.41 74.75 L
S
GR
GS
0.149 GC
2 setlinecap
1 LJ
0.5 LW
N
143.5 27 M
145.41 27 L
S
GR
GS
0.902 GC
N
143.5 170.25 M
326 170.25 L
326 74.75 L
143.5 74.75 L
cp
f
GR
GS
[1 0 0 1 256.13287 46.75862] CT
N
1 0 M
1 0.552 0.552 1 0 1 C
-0.552 1 -1 0.552 -1 0 C
-1 -0.552 -0.552 -1 0 -1 C
0.552 -1 1 -0.552 1 0 C
cp
f
GR
GS
[1 0 0 1 171.85213 160.28979] CT
N
/f-891180347{1 0 M
1 0.552 0.552 1 0 1 C
-0.552 1 -1 0.552 -1 0 C
-1 -0.552 -0.552 -1 0 -1 C
0.552 -1 1 -0.552 1 0 C
cp}def
f-891180347
f
GR
GS
[1 0 0 1 165.22151 124.77735] CT
N
f-891180347
f
GR
GS
[1 0 0 1 178.54799 123.55402] CT
N
f-891180347
f
GR
GS
[1 0 0 1 267.80905 107.65469] CT
N
f-891180347
f
GR
GS
[1 0 0 1 316.5546 92.24475] CT
N
f-891180347
f
GR
GS
[1 0 0 1 242.84888 83.84698] CT
N
f-891180347
f
GR
GS
[1 0 0 1 252.38661 103.38954] CT
N
f-891180347
f
GR
GS
[1 0 0 1 253.85718 91.70554] CT
N
f-891180347
f
GR
GS
[1 0 0 1 197.67079 135.94038] CT
N
f-891180347
f
GR
GS
[1 0 0 1 217.11348 150.83052] CT
N
f-891180347
f
GR
GS
[1 0 0 1 286.6192 130.69044] CT
N
f-891180347
f
GR
GS
[1 0 0 1 152.29228 75.97601] CT
N
f-891180347
f
GR
GS
[1 0 0 1 215.48993 159.66478] CT
N
f-891180347
f
GR
GS
[1 0 0 1 211.37076 153.15648] CT
N
f-891180347
f
GR
GS
[1 0 0 1 235.12854 93.34481] CT
N
f-891180347
f
GR
GS
[1 0 0 1 273.5575 117.15294] CT
N
f-891180347
f
GR
GS
[1 0 0 1 306.77609 156.19728] CT
N
f-891180347
f
GR
GS
[1 0 0 1 220.82761 82.44317] CT
N
f-891180347
f
GR
GS
[1 0 0 1 184.24358 88.49069] CT
N
f-891180347
f
GR
GS
[1 0 0 1 236.47107 170.39679] CT
N
f-891180347
f
GR
GS
[1 0 0 1 272.06369 101.45534] CT
N
f-891180347
f
GR
GS
[1 0 0 1 251.86263 93.53032] CT
N
f-891180347
f
GR
GS
[1 0 0 1 228.81836 80.43769] CT
N
f-891180347
f
GR
GS
[1 0 0 1 201.40186 92.90908] CT
N
f-891180347
f
GR
GS
[1 0 0 1 159.3382 93.02816] CT
N
f-891180347
f
GR
GS
[1 0 0 1 268.95767 172.7282] CT
N
f-891180347
f
GR
GS
[1 0 0 1 238.46849 66.11138] CT
N
f-891180347
f
GR
GS
[1 0 0 1 224.97179 86.61612] CT
N
f-891180347
f
GR
GS
[1 0 0 1 170.28719 87.6982] CT
N
f-891180347
f
GR
GS
[1 0 0 1 200.09373 80.34114] CT
N
f-891180347
f
GR
GS
[1 0 0 1 292.77484 171.45335] CT
N
f-891180347
f
GR
GS
[1 0 0 1 217.47658 81.1257] CT
N
f-891180347
f
GR
GS
[1 0 0 1 273.30252 71.77248] CT
N
f-891180347
f
GR
GS
[1 0 0 1 252.83665 91.26876] CT
N
f-891180347
f
GR
GS
[1 0 0 1 255.4391 69.98526] CT
N
f-891180347
f
GR
GS
[1 0 0 1 215.14111 90.76887] CT
N
f-891180347
f
GR
GS
[1 0 0 1 280.63013 102.00456] CT
N
f-891180347
f
GR
GS
[1 0 0 1 247.41849 81.60196] CT
N
f-891180347
f
GR
GS
[1 0 0 1 190.02734 71.17694] CT
N
f-891180347
f
GR
GS
[1 0 0 1 268.47195 182.96901] CT
N
f-891180347
f
GR
GS
[1 0 0 1 176.67993 81.16165] CT
N
f-891180347
f
GR
GS
[1 0 0 1 153.52634 96.65425] CT
N
f-891180347
f
GR
GS
[1 0 0 1 262.78098 74.50838] CT
N
f-891180347
f
GR
GS
[1 0 0 1 213.95937 127.44955] CT
N
f-891180347
f
GR
GS
[1 0 0 1 227.20551 134.35512] CT
N
f-891180347
f
GR
GS
[1 0 0 1 205.92395 136.22554] CT
N
f-891180347
f
GR
GS
[1 0 0 1 237.47395 141.95012] CT
N
f-891180347
f
GR
GS
[1 0 0 1 221.22246 143.64821] CT
N
f-891180347
f
GR
GS
[1 0 0 1 219.54137 144.59377] CT
N
f-891180347
f
GR
GS
[1 0 0 1 248.24811 149.99911] CT
N
f-891180347
f
GR
GS
[1 0 0 1 239.13652 148.57005] CT
N
f-891180347
f
GR
GS
[1 0 0 1 271.88882 157.91103] CT
N
f-891180347
f
GR
GS
[1 0 0 1 248.44693 145.12569] CT
N
f-891180347
f
GR
GS
[1 0 0 1 230.13586 138.6862] CT
N
f-891180347
f
GR
GS
[1 0 0 1 262.96399 145.46317] CT
N
f-891180347
f
GR
GS
[1 0 0 1 159.75514 147.90205] CT
N
f-891180347
f
GR
GS
[1 0 0 1 170.89014 101.41559] CT
N
f-891180347
f
GR
GS
[1 0 0 1 253.59851 91.31999] CT
N
f-891180347
f
GR
GS
[1 0 0 1 290.02621 148.50671] CT
N
f-891180347
f
GR
GS
[1 0 0 1 153.73291 134.17412] CT
N
f-891180347
f
GR
GS
[1 0 0 1 191.08461 161.07492] CT
N
f-891180347
f
GR
GS
[1 0 0 1 214.8623 154.90997] CT
N
f-891180347
f
GR
GS
[1 0 0 1 199.78998 96.52042] CT
N
f-891180347
f
GR
GS
[1 0 0 1 274.48328 136.81932] CT
N
f-891180347
f
GR
GS
[1 0 0 1 157.8203 121.59396] CT
N
f-891180347
f
GR
GS
[1 0 0 1 240.15936 100.11983] CT
N
f-891180347
f
GR
GS
[1 0 0 1 235.96738 76.53517] CT
N
f-891180347
f
GR
GS
[1 0 0 1 192.05156 88.11003] CT
N
f-891180347
f
GR
GS
[1 0 0 1 273.1889 155.13263] CT
N
f-891180347
f
GR
GS
[1 0 0 1 325.28543 155.18414] CT
N
f-891180347
f
GR
GS
[1 0 0 1 259.80862 153.4091] CT
N
f-891180347
f
GR
GS
[1 0 0 1 269.82709 153.4912] CT
N
f-891180347
f
GR
GS
[1 0 0 1 217.6351 137.64384] CT
N
f-891180347
f
GR
GS
[1 0 0 1 217.75681 113.31336] CT
N
f-891180347
f
GR
GS
[1 0 0 1 263.01465 150.4982] CT
N
f-891180347
f
GR
GS
[1 0 0 1 206.60405 101.07637] CT
N
f-891180347
f
GR
GS
[1 0 0 1 192.85992 113.22168] CT
N
f-891180347
f
GR
GS
[1 0 0 1 229.74168 89.16937] CT
N
f-891180347
f
GR
GS
[1 0 0 1 274.46094 101.02232] CT
N
f-891180347
f
GR
GS
[1 0 0 1 256.5791 149.54056] CT
N
f-891180347
f
GR
GS
[1 0 0 1 248.52391 168.17987] CT
N
f-891180347
f
GR
GS
[1 0 0 1 223.57082 72.00391] CT
N
f-891180347
f
GR
GS
[1 0 0 1 223.74663 97.93903] CT
N
f-891180347
f
GR
GS
[1 0 0 1 218.55048 130.76964] CT
N
f-891180347
f
GR
GS
[1 0 0 1 205.78587 140.12526] CT
N
f-891180347
f
GR
GS
[1 0 0 1 210.724 170.19885] CT
N
f-891180347
f
GR
GS
[1 0 0 1 255.30284 76.30897] CT
N
f-891180347
f
GR
GS
[1 0 0 1 284.20364 168.59167] CT
N
f-891180347
f
GR
GS
[1 0 0 1 203.66461 104.05899] CT
N
f-891180347
f
GR
GS
[1 0 0 1 262.9632 143.07797] CT
N
f-891180347
f
GR
GS
[1 0 0 1 227.47458 93.36665] CT
N
f-891180347
f
GR
GS
[1 0 0 1 244.32851 161.27057] CT
N
f-891180347
f
GR
GS
[1 0 0 1 216.83374 86.7001] CT
N
f-891180347
f
GR
GS
[1 0 0 1 284.01569 142.32033] CT
N
f-891180347
f
GR
GS
[1 0 0 1 293.42944 169.761] CT
N
f-891180347
f
GR
GS
[1 0 0 1 248.00182 74.99226] CT
N
f-891180347
f
GR
GS
[1 0 0 1 225.99994 78.40232] CT
N
f-891180347
f
GR
GS
[1 0 0 1 252.70894 82.20009] CT
N
f-891180347
f
GR
GS
[1 0 0 1 206.79234 153.03136] CT
N
f-891180347
f
GR
GS
[1 0 0 1 269.96396 142.54877] CT
N
f-891180347
f
GR
GS
[1 0 0 1 263.99136 125.61739] CT
N
f-891180347
f
GR
GS
[1 0 0 1 261.86551 110.87656] CT
N
f-891180347
f
GR
GS
[1 0 0 1 226.49585 83.88515] CT
N
f-891180347
f
GR
GS
[1 0 0 1 225.3644 90.05161] CT
N
f-891180347
f
GR
GS
[1 0 0 1 195.16246 78.95923] CT
N
f-891180347
f
GR
GS
[1 0 0 1 245.91394 77.29948] CT
N
f-891180347
f
GR
GS
[1 0 0 1 193.29626 85.25562] CT
N
f-891180347
f
GR
GS
[1 0 0 1 239.53175 89.65157] CT
N
f-891180347
f
GR
GS
[1 0 0 1 198.55469 121.60585] CT
N
f-891180347
f
GR
GS
[1 0 0 1 207.92197 138.17953] CT
N
f-891180347
f
GR
GS
[1 0 0 1 192.6891 134.05295] CT
N
f-891180347
f
GR
GS
[1 0 0 1 197.11919 158.46608] CT
N
f-891180347
f
GR
GS
[1 0 0 1 315.36438 164.23441] CT
N
f-891180347
f
GR
GS
[1 0 0 1 171.09801 83.26106] CT
N
f-891180347
f
GR
GS
[1 0 0 1 161.2908 97.89101] CT
N
f-891180347
f
GR
GS
[1 0 0 1 221.24913 132.43417] CT
N
f-891180347
f
GR
GS
[1 0 0 1 261.29849 69.38721] CT
N
f-891180347
f
GR
GS
[1 0 0 1 304.75211 148.38585] CT
N
f-891180347
f
GR
GS
[1 0 0 1 247.17229 170.97272] CT
N
f-891180347
f
GR
GS
[1 0 0 1 215.42636 114.29937] CT
N
f-891180347
f
GR
GS
[1 0 0 1 188.0295 137.47032] CT
N
f-891180347
f
GR
GS
[1 0 0 1 281.29132 165.58311] CT
N
f-891180347
f
GR
GS
[1 0 0 1 284.85275 148.81346] CT
N
f-891180347
f
GR
GS
[1 0 0 1 274.36429 136.41142] CT
N
f-891180347
f
GR
GS
[1 0 0 1 286.59363 161.28386] CT
N
f-891180347
f
GR
GS
[1 0 0 1 234.71994 93.46152] CT
N
f-891180347
f
GR
GS
[1 0 0 1 170.41449 92.56747] CT
N
f-891180347
f
GR
GS
[1 0 0 1 291.79568 162.6759] CT
N
f-891180347
f
GR
GS
[1 0 0 1 215.73647 130.58315] CT
N
f-891180347
f
GR
GS
[1 0 0 1 216.89481 117.37132] CT
N
f-891180347
f
GR
GS
[1 0 0 1 271.60999 140.15445] CT
N
f-891180347
f
GR
GS
[1 0 0 1 216.89452 85.26028] CT
N
f-891180347
f
GR
GS
[1 0 0 1 211.42928 96.54456] CT
N
f-891180347
f
GR
GS
[1 0 0 1 243.98425 148.76799] CT
N
f-891180347
f
GR
GS
[1 0 0 1 278.20612 144.60567] CT
N
f-891180347
f
GR
GS
[1 0 0 1 205.78584 102.52888] CT
N
f-891180347
f
GR
GS
[1 0 0 1 232.13783 83.98926] CT
N
f-891180347
f
GR
GS
[1 0 0 1 278.5174 157.79195] CT
N
f-891180347
f
GR
GS
[1 0 0 1 239.34245 91.37442] CT
N
f-891180347
f
GR
GS
[1 0 0 1 210.6734 112.0449] CT
N
f-891180347
f
GR
GS
[1 0 0 1 193.68343 107.57415] CT
N
f-891180347
f
GR
GS
[1 0 0 1 275.21454 144.45009] CT
N
f-891180347
f
GR
GS
[1 0 0 1 245.83699 87.37695] CT
N
f-891180347
f
GR
GS
[1 0 0 1 266.52542 100.80661] CT
N
f-891180347
f
GR
GS
[1 0 0 1 211.1707 108.68674] CT
N
f-891180347
f
GR
GS
[1 0 0 1 252.92265 76.40469] CT
N
f-891180347
f
GR
GS
[1 0 0 1 195.34604 87.9188] CT
N
f-891180347
f
GR
GS
[1 0 0 1 240.65271 69.98919] CT
N
f-891180347
f
GR
GS
[1 0 0 1 171.20621 87.59308] CT
N
f-891180347
f
GR
GS
[1 0 0 1 225.98801 96.63692] CT
N
f-891180347
f
GR
GS
[1 0 0 1 261.42242 142.41716] CT
N
f-891180347
f
GR
GS
[1 0 0 1 213.43289 111.4374] CT
N
f-891180347
f
GR
GS
[1 0 0 1 233.4057 139.91724] CT
N
f-891180347
f
GR
GS
[1 0 0 1 194.29025 79.15271] CT
N
f-891180347
f
GR
GS
[1 0 0 1 242.90312 107.16331] CT
N
f-891180347
f
GR
GS
[1 0 0 1 243.56366 98.06196] CT
N
f-891180347
f
GR
GS
[1 0 0 1 236.04529 83.76218] CT
N
f-891180347
f
GR
GS
[1 0 0 1 210.19972 87.21832] CT
N
f-891180347
f
GR
GS
[1 0 0 1 236.99692 128.2363] CT
N
f-891180347
f
GR
GS
[1 0 0 1 208.41432 88.43348] CT
N
f-891180347
f
GR
GS
[1 0 0 1 269.09976 160.1147] CT
N
f-891180347
f
GR
GS
[1 0 0 1 234.89156 131.86525] CT
N
f-891180347
f
GR
GS
[1 0 0 1 308.87308 143.19328] CT
N
f-891180347
f
GR
GS
[1 0 0 1 227.69136 144.86714] CT
N
f-891180347
f
GR
GS
[1 0 0 1 174.41249 98.54235] CT
N
f-891180347
f
GR
GS
[1 0 0 1 318.4176 168.64334] CT
N
f-891180347
f
GR
GS
[1 0 0 1 264.25241 140.52817] CT
N
f-891180347
f
GR
GS
[1 0 0 1 255.629 98.64184] CT
N
f-891180347
f
GR
GS
[1 0 0 1 242.52618 84.04963] CT
N
f-891180347
f
GR
GS
[1 0 0 1 278.14484 139.66148] CT
N
f-891180347
f
GR
GS
[1 0 0 1 296.92642 122.12898] CT
N
f-891180347
f
GR
GS
[1 0 0 1 216.6949 122.85528] CT
N
f-891180347
f
GR
GS
[1 0 0 1 278.6019 132.95009] CT
N
f-891180347
f
GR
GS
[1 0 0 1 168.02289 78.06756] CT
N
f-891180347
f
GR
GS
[1 0 0 1 296.90634 137.0592] CT
N
f-891180347
f
GR
GS
[1 0 0 1 280.81589 161.86726] CT
N
f-891180347
f
GR
GS
[1 0 0 1 244.37727 93.60114] CT
N
f-891180347
f
GR
GS
[1 0 0 1 255.78305 147.42326] CT
N
f-891180347
f
GR
GS
[1 0 0 1 229.96706 69.47003] CT
N
f-891180347
f
GR
GS
[1 0 0 1 270.70334 138.38335] CT
N
f-891180347
f
GR
GS
[1 0 0 1 251.899 130.22301] CT
N
f-891180347
f
GR
GS
[1 0 0 1 268.07501 123.95474] CT
N
f-891180347
f
GR
GS
[1 0 0 1 253.83923 120.15752] CT
N
f-891180347
f
GR
GS
[1 0 0 1 264.56488 128.6671] CT
N
f-891180347
f
GR
GS
[1 0 0 1 223.34235 87.31123] CT
N
f-891180347
f
GR
GS
[1 0 0 1 243.39401 167.40189] CT
N
f-891180347
f
GR
GS
[1 0 0 1 250.29831 109.65999] CT
N
f-891180347
f
GR
GS
[1 0 0 1 253.01727 108.98617] CT
N
f-891180347
f
GR
GS
[1 0 0 1 305.7254 119.30666] CT
N
f-891180347
f
GR
GS
[1 0 0 1 251.56647 85.43748] CT
N
f-891180347
f
GR
GS
[1 0 0 1 305.11432 130.17857] CT
N
f-891180347
f
GR
GS
[1 0 0 1 245.6425 80.43466] CT
N
f-891180347
f
GR
GS
[1 0 0 1 258.80112 94.35001] CT
N
f-891180347
f
GR
GS
[1 0 0 1 153.80406 62.97956] CT
N
f-891180347
f
GR
GS
[1 0 0 1 145.26665 135.56902] CT
N
f-891180347
f
GR
GS
[1 0 0 1 156.8246 91.7297] CT
N
f-891180347
f
GR
GS
[1 0 0 1 265.00027 169.5551] CT
N
f-891180347
f
GR
GS
[1 0 0 1 212.00728 133.26004] CT
N
f-891180347
f
GR
GS
[1 0 0 1 232.59741 159.39148] CT
N
f-891180347
f
GR
GS
[1 0 0 1 204.21361 106.68233] CT
N
f-891180347
f
GR
GS
[1 0 0 1 264.35352 101.65754] CT
N
f-891180347
f
GR
GS
[1 0 0 1 203.47537 114.88508] CT
N
f-891180347
f
GR
GS
[1 0 0 1 266.63388 122.60923] CT
N
f-891180347
f
GR
GS
[1 0 0 1 238.89066 90.52319] CT
N
f-891180347
f
GR
GS
[1 0 0 1 240.04523 104.15707] CT
N
f-891180347
f
GR
GS
[1 0 0 1 228.86649 90.75245] CT
N
f-891180347
f
GR
GS
[1 0 0 1 191.59082 107.58338] CT
N
f-891180347
f
GR
GS
[1 0 0 1 188.97861 120.5066] CT
N
f-891180347
f
GR
GS
[1 0 0 1 243.73689 147.00047] CT
N
f-891180347
f
GR
GS
[1 0 0 1 195.43056 113.16498] CT
N
f-891180347
f
GR
GS
[1 0 0 1 249.81042 121.39874] CT
N
f-891180347
f
GR
GS
[1 0 0 1 248.48866 142.50798] CT
N
f-891180347
f
GR
GS
[1 0 0 1 220.39101 122.70594] CT
N
f-891180347
f
GR
GS
[1 0 0 1 245.1568 109.92382] CT
N
f-891180347
f
GR
GS
[1 0 0 1 196.85143 92.47959] CT
N
f-891180347
f
GR
GS
[1 0 0 1 233.46877 94.44058] CT
N
f-891180347
f
GR
GS
[1 0 0 1 251.41037 126.52507] CT
N
f-891180347
f
GR
GS
[1 0 0 1 299.23645 121.72514] CT
N
f-891180347
f
GR
GS
[1 0 0 1 231.08247 124.66983] CT
N
f-891180347
f
GR
GS
[1 0 0 1 258.53665 121.8334] CT
N
f-891180347
f
GR
GS
[1 0 0 1 241.45419 94.67574] CT
N
f-891180347
f
GR
GS
[1 0 0 1 203.31871 83.16957] CT
N
f-891180347
f
GR
GS
[1 0 0 1 159.18901 110.07667] CT
N
f-891180347
f
GR
GS
[1 0 0 1 281.47745 127.9874] CT
N
f-891180347
f
GR
GS
[1 0 0 1 204.87595 128.23413] CT
N
f-891180347
f
GR
GS
[1 0 0 1 229.44965 144.28317] CT
N
f-891180347
f
GR
GS
[1 0 0 1 208.17976 74.52754] CT
N
f-891180347
f
GR
GS
[1 0 0 1 208.50035 119.09508] CT
N
f-891180347
f
GR
GS
[1 0 0 1 230.42181 75.19366] CT
N
f-891180347
f
GR
GS
[1 0 0 1 237.08292 97.34341] CT
N
f-891180347
f
GR
GS
[1 0 0 1 226.38501 82.04122] CT
N
f-891180347
f
GR
GS
[1 0 0 1 169.95554 126.84386] CT
N
f-891180347
f
GR
GS
[1 0 0 1 202.1673 87.20673] CT
N
f-891180347
f
GR
GS
[1 0 0 1 249.50439 144.09581] CT
N
f-891180347
f
GR
GS
[1 0 0 1 151.83092 114.1868] CT
N
f-891180347
f
GR
GS
[1 0 0 1 205.47882 147.5537] CT
N
f-891180347
f
GR
GS
[1 0 0 1 264.4166 103.54565] CT
N
f-891180347
f
GR
GS
[1 0 0 1 252.71365 100.90762] CT
N
f-891180347
f
GR
GS
[1 0 0 1 248.11253 77.12402] CT
N
f-891180347
f
GR
GS
[1 0 0 1 318.0578 141.65579] CT
N
f-891180347
f
GR
GS
[1 0 0 1 254.41159 85.88757] CT
N
f-891180347
f
GR
GS
[1 0 0 1 158.82187 87.00205] CT
N
f-891180347
f
GR
GS
[1 0 0 1 189.69022 115.70048] CT
N
f-891180347
f
GR
GS
[1 0 0 1 198.85843 93.02051] CT
N
f-891180347
f
GR
GS
[1 0 0 1 220.51265 134.74908] CT
N
f-891180347
f
GR
GS
[1 0 0 1 226.75374 121.84929] CT
N
f-891180347
f
GR
GS
[1 0 0 1 219.10274 102.95573] CT
N
f-891180347
f
GR
GS
[1 0 0 1 265.93628 146.25497] CT
N
f-891180347
f
GR
GS
[1 0 0 1 264.90442 86.16333] CT
N
f-891180347
f
GR
GS
[1 0 0 1 196.53758 155.81317] CT
N
f-891180347
f
GR
GS
[1 0 0 1 196.47429 131.41701] CT
N
f-891180347
f
GR
GS
[1 0 0 1 270.57596 89.27453] CT
N
f-891180347
f
GR
GS
[1 0 0 1 162.74419 162.98711] CT
N
f-891180347
f
GR
GS
[1 0 0 1 177.51743 149.84061] CT
N
f-891180347
f
GR
GS
[1 0 0 1 273.94632 99.17776] CT
N
f-891180347
f
GR
GS
[1 0 0 1 298.55386 106.58276] CT
N
f-891180347
f
GR
GS
[1 0 0 1 254.65645 169.83461] CT
N
f-891180347
f
GR
GS
[1 0 0 1 154.98364 128.4279] CT
N
f-891180347
f
GR
GS
[1 0 0 1 262.30753 74.21893] CT
N
f-891180347
f
GR
GS
[1 0 0 1 185.32567 92.82782] CT
N
f-891180347
f
GR
GS
[1 0 0 1 256.14856 90.09075] CT
N
f-891180347
f
GR
GS
[1 0 0 1 267.11404 137.30258] CT
N
f-891180347
f
GR
GS
[1 0 0 1 302.01266 121.375] CT
N
f-891180347
f
GR
GS
[1 0 0 1 224.076 113.6404] CT
N
f-891180347
f
GR
GS
[1 0 0 1 202.69923 170.15698] CT
N
f-891180347
f
GR
GS
[1 0 0 1 198.29082 133.23285] CT
N
f-891180347
f
GR
GS
[1 0 0 1 253.91638 151.41629] CT
N
f-891180347
f
GR
GS
[1 0 0 1 246.92775 114.07347] CT
N
f-891180347
f
GR
GS
[1 0 0 1 213.1447 94.39134] CT
N
f-891180347
f
GR
GS
[1 0 0 1 264.17593 122.66221] CT
N
f-891180347
f
GR
GS
[1 0 0 1 246.22919 137.44652] CT
N
f-891180347
f
GR
GS
[1 0 0 1 256.33762 94.70876] CT
N
f-891180347
f
GR
GS
[1 0 0 1 283.71918 100.13712] CT
N
f-891180347
f
GR
GS
[1 0 0 1 174.66962 134.48479] CT
N
f-891180347
f
GR
GS
[1 0 0 1 232.53069 150.16936] CT
N
f-891180347
f
GR
GS
[1 0 0 1 255.06947 139.69247] CT
N
f-891180347
f
GR
GS
[1 0 0 1 272.59192 129.87535] CT
N
f-891180347
f
GR
GS
[1 0 0 1 207.62584 122.53338] CT
N
f-891180347
f
GR
GS
[1 0 0 1 226.59309 96.29411] CT
N
f-891180347
f
GR
GS
[1 0 0 1 191.37863 136.46861] CT
N
f-891180347
f
GR
GS
[1 0 0 1 279.02795 98.60151] CT
N
f-891180347
f
GR
GS
[1 0 0 1 246.88792 91.39403] CT
N
f-891180347
f
GR
GS
[1 0 0 1 245.03201 92.7375] CT
N
f-891180347
f
GR
GS
[1 0 0 1 232.16367 67.10666] CT
N
f-891180347
f
GR
GS
[1 0 0 1 224.02724 186.72217] CT
N
f-891180347
f
GR
GS
[1 0 0 1 276.22842 150.711] CT
N
f-891180347
f
GR
GS
[1 0 0 1 145.96603 91.98087] CT
N
f-891180347
f
GR
GS
[1 0 0 1 275.55682 123.30795] CT
N
f-891180347
f
GR
GS
[1 0 0 1 294.15036 137.04765] CT
N
f-891180347
f
GR
GS
[1 0 0 1 249.67146 101.18273] CT
N
f-891180347
f
GR
GS
[1 0 0 1 237.42566 187.1869] CT
N
f-891180347
f
GR
GS
[1 0 0 1 271.4628 145.30765] CT
N
f-891180347
f
GR
GS
[1 0 0 1 195.71854 109.80557] CT
N
f-891180347
f
GR
GS
[1 0 0 1 252.42166 117.63656] CT
N
f-891180347
f
GR
GS
[1 0 0 1 193.13153 125.38096] CT
N
f-891180347
f
GR
GS
[1 0 0 1 240.72997 86.74476] CT
N
f-891180347
f
GR
GS
[1 0 0 1 193.68521 121.50654] CT
N
f-891180347
f
GR
GS
[1 0 0 1 166.91629 78.92312] CT
N
f-891180347
f
GR
GS
[1 0 0 1 235.17798 140.92236] CT
N
f-891180347
f
GR
GS
[1 0 0 1 183.57616 138.15843] CT
N
f-891180347
f
GR
GS
[1 0 0 1 257.53458 123.5055] CT
N
f-891180347
f
GR
GS
[1 0 0 1 155.25186 95.34447] CT
N
f-891180347
f
GR
GS
[1 0 0 1 187.46631 126.92525] CT
N
f-891180347
f
GR
GS
[1 0 0 1 274.85236 148.12077] CT
N
f-891180347
f
GR
GS
[1 0 0 1 228.71411 159.86736] CT
N
f-891180347
f
GR
GS
[1 0 0 1 222.84441 174.58263] CT
N
f-891180347
f
GR
GS
[1 0 0 1 235.77007 135.05174] CT
N
f-891180347
f
GR
GS
[1 0 0 1 256.36874 94.42215] CT
N
f-891180347
f
GR
GS
[1 0 0 1 220.16325 95.82753] CT
N
f-891180347
f
GR
GS
[1 0 0 1 265.72467 165.017] CT
N
f-891180347
f
GR
GS
[1 0 0 1 233.29922 65.16097] CT
N
f-891180347
f
GR
GS
[1 0 0 1 184.1357 124.87746] CT
N
f-891180347
f
GR
GS
[1 0 0 1 289.17447 174.58008] CT
N
f-891180347
f
GR
GS
[1 0 0 1 245.75383 174.23218] CT
N
f-891180347
f
GR
GS
[1 0 0 1 200.71475 141.93443] CT
N
f-891180347
f
GR
GS
[1 0 0 1 313.97653 172.17867] CT
N
f-891180347
f
GR
GS
[1 0 0 1 247.06322 93.04762] CT
N
f-891180347
f
GR
GS
[1 0 0 1 247.76563 169.58354] CT
N
f-891180347
f
GR
GS
[1 0 0 1 213.09848 177.29979] CT
N
f-891180347
f
GR
GS
[1 0 0 1 298.84351 146.52632] CT
N
f-891180347
f
GR
GS
[1 0 0 1 159.75774 125.09081] CT
N
f-891180347
f
GR
GS
[1 0 0 1 189.19473 141.59836] CT
N
f-891180347
f
GR
GS
[1 0 0 1 274.75024 139.28181] CT
N
f-891180347
f
GR
GS
[1 0 0 1 279.94217 152.07538] CT
N
f-891180347
f
GR
GS
[1 0 0 1 288.42987 145.79028] CT
N
f-891180347
f
GR
GS
[1 0 0 1 224.4369 162.39688] CT
N
f-891180347
f
GR
GS
[1 0 0 1 252.36438 136.9317] CT
N
f-891180347
f
GR
GS
[1 0 0 1 269.46677 152.69373] CT
N
f-891180347
f
GR
GS
[1 0 0 1 155.34337 168.84213] CT
N
f-891180347
f
GR
GS
[1 0 0 1 270.88907 157.70432] CT
N
f-891180347
f
GR
GS
[1 0 0 1 237.18169 181.96419] CT
N
f-891180347
f
GR
GS
[1 0 0 1 286.49948 163.84877] CT
N
f-891180347
f
GR
GS
[1 0 0 1 285.73834 160.4733] CT
N
f-891180347
f
GR
GS
[1 0 0 1 145.27596 139.26237] CT
N
f-891180347
f
GR
GS
[1 0 0 1 260.7981 112.36406] CT
N
f-891180347
f
GR
GS
[1 0 0 1 205.12915 100.2058] CT
N
f-891180347
f
GR
GS
[1 0 0 1 193.96414 136.32004] CT
N
f-891180347
f
GR
GS
[1 0 0 1 226.44638 148.28302] CT
N
f-891180347
f
GR
GS
[1 0 0 1 190.29794 84.98775] CT
N
f-891180347
f
GR
GS
[1 0 0 1 246.81505 93.62722] CT
N
f-891180347
f
GR
GS
[1 0 0 1 198.8335 137.2282] CT
N
f-891180347
f
GR
GS
[1 0 0 1 233.01373 179.69746] CT
N
f-891180347
f
GR
GS
[1 0 0 1 263.00464 132.74664] CT
N
f-891180347
f
GR
GS
[1 0 0 1 280.72925 87.2051] CT
N
f-891180347
f
GR
GS
[1 0 0 1 274.91321 132.70042] CT
N
f-891180347
f
GR
GS
[1 0 0 1 266.91342 134.98863] CT
N
f-891180347
f
GR
GS
[1 0 0 1 199.02705 134.27989] CT
N
f-891180347
f
GR
GS
[1 0 0 1 182.82799 96.94577] CT
N
f-891180347
f
GR
GS
[1 0 0 1 298.03406 121.58406] CT
N
f-891180347
f
GR
GS
[1 0 0 1 264.26907 110.59457] CT
N
f-891180347
f
GR
GS
[1 0 0 1 216.9525 73.72554] CT
N
f-891180347
f
GR
GS
[1 0 0 1 249.68443 89.63058] CT
N
f-891180347
f
GR
GS
[1 0 0 1 196.01266 104.80785] CT
N
f-891180347
f
GR
GS
[1 0 0 1 256.29034 187.98938] CT
N
f-891180347
f
GR
GS
[1 0 0 1 179.99387 95.42488] CT
N
f-891180347
f
GR
GS
[1 0 0 1 249.59705 95.57391] CT
N
f-891180347
f
GR
GS
[1 0 0 1 206.86832 95.80698] CT
N
f-891180347
f
GR
GS
[1 0 0 1 195.93192 130.44124] CT
N
f-891180347
f
GR
GS
[1 0 0 1 203.87358 130.3286] CT
N
f-891180347
f
GR
GS
[1 0 0 1 199.82365 107.32905] CT
N
f-891180347
f
GR
GS
[1 0 0 1 232.62354 83.00647] CT
N
f-891180347
f
GR
GS
[1 0 0 1 178.76323 120.91625] CT
N
f-891180347
f
GR
GS
[1 0 0 1 290.86584 130.63228] CT
N
f-891180347
f
GR
GS
[1 0 0 1 247.84013 166.75491] CT
N
f-891180347
f
GR
GS
[1 0 0 1 181.48146 68.5519] CT
N
f-891180347
f
GR
GS
[1 0 0 1 262.23254 100.91793] CT
N
f-891180347
f
GR
GS
[1 0 0 1 251.75728 111.91678] CT
N
f-891180347
f
GR
GS
[1 0 0 1 249.34898 136.35503] CT
N
f-891180347
f
GR
GS
[1 0 0 1 229.69122 157.34003] CT
N
f-891180347
f
GR
GS
[1 0 0 1 246.09818 88.15726] CT
N
f-891180347
f
GR
GS
[1 0 0 1 193.64116 105.84491] CT
N
f-891180347
f
GR
GS
[1 0 0 1 223.21071 168.45448] CT
N
f-891180347
f
GR
GS
[1 0 0 1 245.62582 142.81345] CT
N
f-891180347
f
GR
GS
[1 0 0 1 259.00815 151.43854] CT
N
f-891180347
f
GR
GS
[1 0 0 1 253.35371 125.70304] CT
N
f-891180347
f
GR
GS
[1 0 0 1 275.24866 108.22398] CT
N
f-891180347
f
GR
GS
[1 0 0 1 157.90302 102.11239] CT
N
f-891180347
f
GR
GS
[1 0 0 1 230.04561 159.79288] CT
N
f-891180347
f
GR
GS
[1 0 0 1 157.3786 89.03512] CT
N
f-891180347
f
GR
GS
[1 0 0 1 171.84691 149.04236] CT
N
f-891180347
f
GR
GS
[1 0 0 1 173.78647 94.0105] CT
N
f-891180347
f
GR
GS
[1 0 0 1 155.24234 112.03033] CT
N
f-891180347
f
GR
GS
[1 0 0 1 193.8045 187.89705] CT
N
f-891180347
f
GR
GS
[1 0 0 1 317.15851 101.6358] CT
N
f-891180347
f
GR
GS
[1 0 0 1 249.92194 90.70232] CT
N
f-891180347
f
GR
GS
[1 0 0 1 209.88583 88.16533] CT
N
f-891180347
f
GR
GS
[1 0 0 1 257.0148 143.41458] CT
N
f-891180347
f
GR
GS
[1 0 0 1 165.70941 106.1957] CT
N
f-891180347
f
GR
GS
[1 0 0 1 260.05167 170.65274] CT
N
f-891180347
f
GR
GS
[1 0 0 1 181.08614 130.60228] CT
N
f-891180347
f
GR
GS
[1 0 0 1 284.63086 85.89896] CT
N
f-891180347
f
GR
GS
[1 0 0 1 293.31308 159.52042] CT
N
f-891180347
f
GR
GS
[1 0 0 1 233.6133 161.18001] CT
N
f-891180347
f
GR
GS
[1 0 0 1 197.36555 74.38522] CT
N
f-891180347
f
GR
GS
[1 0 0 1 240.92033 65.94383] CT
N
f-891180347
f
GR
GS
[1 0 0 1 296.17029 172.63293] CT
N
f-891180347
f
GR
GS
[1 0 0 1 234.36934 160.93164] CT
N
f-891180347
f
GR
GS
[1 0 0 1 302.80624 143.78157] CT
N
f-891180347
f
GR
GS
[1 0 0 1 218.64825 100.68928] CT
N
f-891180347
f
GR
GS
[1 0 0 1 298.91379 110.08122] CT
N
f-891180347
f
GR
GS
[1 0 0 1 269.78165 135.38867] CT
N
f-891180347
f
GR
GS
[1 0 0 1 267.25482 124.63267] CT
N
f-891180347
f
GR
GS
[1 0 0 1 224.77367 89.21235] CT
N
f-891180347
f
GR
GS
[1 0 0 1 269.49451 128.12892] CT
N
f-891180347
f
GR
GS
[1 0 0 1 236.52008 79.60597] CT
N
f-891180347
f
GR
GS
[1 0 0 1 293.81845 115.45689] CT
N
f-891180347
f
GR
GS
[1 0 0 1 192.20432 72.23186] CT
N
f-891180347
f
GR
GS
[1 0 0 1 234.28752 171.68112] CT
N
f-891180347
f
GR
GS
[1 0 0 1 211.35345 141.9866] CT
N
f-891180347
f
GR
GS
[1 0 0 1 222.34366 173.30333] CT
N
f-891180347
f
GR
GS
[1 0 0 1 196.17821 138.96786] CT
N
f-891180347
f
GR
GS
[1 0 0 1 187.97931 118.94361] CT
N
f-891180347
f
GR
GS
[1 0 0 1 215.68893 159.99445] CT
N
f-891180347
f
GR
GS
[1 0 0 1 251.95898 97.30449] CT
N
f-891180347
f
GR
GS
[1 0 0 1 204.06506 167.64201] CT
N
f-891180347
f
GR
GS
[1 0 0 1 237.33484 74.68786] CT
N
f-891180347
f
GR
GS
[1 0 0 1 287.10373 115.18696] CT
N
f-891180347
f
GR
GS
[1 0 0 1 258.87466 131.78214] CT
N
f-891180347
f
GR
GS
[1 0 0 1 219.78366 86.88819] CT
N
f-891180347
f
GR
GS
[1 0 0 1 255.6886 167.91951] CT
N
f-891180347
f
GR
GS
[1 0 0 1 268.16748 117.30789] CT
N
f-891180347
f
GR
GS
[1 0 0 1 256.11765 157.69095] CT
N
f-891180347
f
GR
GS
[1 0 0 1 207.66035 132.67166] CT
N
f-891180347
f
GR
GS
[1 0 0 1 235.41597 91.02823] CT
N
f-891180347
f
GR
GS
[1 0 0 1 285.85321 165.88818] CT
N
f-891180347
f
GR
GS
[1 0 0 1 195.34387 99.08066] CT
N
f-891180347
f
GR
GS
[1 0 0 1 264.76791 131.76994] CT
N
f-891180347
f
GR
GS
[1 0 0 1 246.82298 104.48022] CT
N
f-891180347
f
GR
GS
[1 0 0 1 297.47891 122.60667] CT
N
f-891180347
f
GR
GS
[1 0 0 1 221.95984 139.39023] CT
N
f-891180347
f
GR
GS
[1 0 0 1 228.38251 133.74298] CT
N
f-891180347
f
GR
GS
[1 0 0 1 259.31863 148.89137] CT
N
f-891180347
f
GR
GS
[1 0 0 1 253.93501 97.71612] CT
N
f-891180347
f
GR
GS
[1 0 0 1 259.7843 171.96913] CT
N
f-891180347
f
GR
GS
[1 0 0 1 268.20554 178.74371] CT
N
f-891180347
f
GR
GS
[1 0 0 1 285.71078 138.83292] CT
N
f-891180347
f
GR
GS
[1 0 0 1 249.88438 156.20975] CT
N
f-891180347
f
GR
GS
[1 0 0 1 243.29037 130.82835] CT
N
f-891180347
f
GR
GS
[1 0 0 1 213.94185 133.34816] CT
N
f-891180347
f
GR
GS
[1 0 0 1 217.88742 108.53718] CT
N
f-891180347
f
GR
GS
[1 0 0 1 256.70621 131.63002] CT
N
f-891180347
f
GR
GS
[1 0 0 1 256.20438 183.29828] CT
N
f-891180347
f
GR
GS
[1 0 0 1 220.34651 87.50661] CT
N
f-891180347
f
GR
GS
[1 0 0 1 253.55795 122.61943] CT
N
f-891180347
f
GR
GS
[1 0 0 1 255.59158 107.07901] CT
N
f-891180347
f
GR
GS
[1 0 0 1 233.52885 92.02427] CT
N
f-891180347
f
GR
GS
[1 0 0 1 322.75519 87.60948] CT
N
f-891180347
f
GR
GS
[1 0 0 1 268.32211 172.90016] CT
N
f-891180347
f
GR
GS
[1 0 0 1 243.85181 105.10811] CT
N
f-891180347
f
GR
GS
[1 0 0 1 222.53682 145.2813] CT
N
f-891180347
f
GR
GS
[1 0 0 1 251.94287 188.96858] CT
N
f-891180347
f
GR
GS
[1 0 0 1 267.58017 139.06152] CT
N
f-891180347
f
GR
GS
[1 0 0 1 184.31999 104.67626] CT
N
f-891180347
f
GR
GS
[1 0 0 1 172.69377 85.57687] CT
N
f-891180347
f
GR
GS
[1 0 0 1 165.83997 105.32073] CT
N
f-891180347
f
GR
GS
[1 0 0 1 275.53387 128.4528] CT
N
f-891180347
f
GR
GS
[1 0 0 1 206.6879 146.81537] CT
N
f-891180347
f
GR
GS
[1 0 0 1 202.89804 146.91199] CT
N
f-891180347
f
GR
GS
[1 0 0 1 270.78503 92.30367] CT
N
f-891180347
f
GR
GS
[1 0 0 1 268.14658 113.76756] CT
N
f-891180347
f
GR
GS
[1 0 0 1 176.09 113.88586] CT
N
f-891180347
f
GR
GS
[1 0 0 1 174.88258 123.59229] CT
N
f-891180347
f
GR
GS
[1 0 0 1 300.01993 124.17687] CT
N
f-891180347
f
GR
GS
[1 0 0 1 275.21188 145.12451] CT
N
f-891180347
f
GR
GS
[1 0 0 1 251.34894 109.6179] CT
N
f-891180347
f
GR
GS
[1 0 0 1 195.28828 117.54611] CT
N
f-891180347
f
GR
GS
[1 0 0 1 243.76767 66.97145] CT
N
f-891180347
f
GR
GS
[1 0 0 1 239.83765 71.99477] CT
N
f-891180347
f
GR
GS
[1 0 0 1 283.54172 113.02155] CT
N
f-891180347
f
GR
GS
[1 0 0 1 271.36575 119.337] CT
N
f-891180347
f
GR
GS
[1 0 0 1 224.23134 77.29353] CT
N
f-891180347
f
GR
GS
[1 0 0 1 259.68677 102.77454] CT
N
f-891180347
f
GR
GS
[1 0 0 1 254.36594 93.49409] CT
N
f-891180347
f
GR
GS
[1 0 0 1 259.0878 101.63352] CT
N
f-891180347
f
GR
GS
[1 0 0 1 202.24991 124.3246] CT
N
f-891180347
f
GR
GS
[1 0 0 1 242.94775 85.64852] CT
N
f-891180347
f
GR
GS
[1 0 0 1 286.96634 114.87001] CT
N
f-891180347
f
GR
GS
[1 0 0 1 250.00066 179.09805] CT
N
f-891180347
f
GR
GS
[1 0 0 1 272.9212 129.24042] CT
N
f-891180347
f
GR
GS
[1 0 0 1 205.06715 72.26412] CT
N
f-891180347
f
GR
GS
[1 0 0 1 240.10059 135.84909] CT
N
f-891180347
f
GR
GS
[1 0 0 1 221.92342 83.59442] CT
N
f-891180347
f
GR
GS
[1 0 0 1 293.34351 132.73195] CT
N
f-891180347
f
GR
GS
[1 0 0 1 188.47098 89.10071] CT
N
f-891180347
f
GR
GS
[1 0 0 1 175.15842 89.46474] CT
N
f-891180347
f
GR
GS
[1 0 0 1 275.51999 143.12239] CT
N
f-891180347
f
GR
GS
[1 0 0 1 307.03806 87.21971] CT
N
f-891180347
f
GR
GS
[1 0 0 1 253.53624 80.62275] CT
N
f-891180347
f
GR
GS
[1 0 0 1 278.8891 94.80343] CT
N
f-891180347
f
GR
GS
[1 0 0 1 182.78864 85.77861] CT
N
f-891180347
f
GR
GS
[1 0 0 1 148.44847 118.62774] CT
N
f-891180347
f
GR
GS
[1 0 0 1 203.95862 146.89717] CT
N
f-891180347
f
GR
GS
[1 0 0 1 283.40414 107.93191] CT
N
f-891180347
f
GR
GS
[1 0 0 1 216.39236 130.96609] CT
N
f-891180347
f
GR
GS
[1 0 0 1 179.49777 143.57339] CT
N
f-891180347
f
GR
GS
[1 0 0 1 258.20804 115.11237] CT
N
f-891180347
f
GR
GS
[1 0 0 1 311.09808 110.75615] CT
N
f-891180347
f
GR
GS
[1 0 0 1 197.79463 153.50235] CT
N
f-891180347
f
GR
GS
[1 0 0 1 192.22502 122.60806] CT
N
f-891180347
f
GR
GS
[1 0 0 1 255.89063 104.61166] CT
N
f-891180347
f
GR
GS
[1 0 0 1 223.04832 144.85915] CT
N
f-891180347
f
GR
GS
[1 0 0 1 171.07953 96.17908] CT
N
f-891180347
f
GR
GS
[1 0 0 1 241.63139 169.5491] CT
N
f-891180347
f
GR
GS
[1 0 0 1 271.6506 137.42667] CT
N
f-891180347
f
GR
GS
[1 0 0 1 278.68964 144.93475] CT
N
f-891180347
f
GR
GS
[1 0 0 1 172.42993 131.55775] CT
N
f-891180347
f
GR
GS
[1 0 0 1 285.88971 122.39656] CT
N
f-891180347
f
GR
GS
[1 0 0 1 245.94147 173.21815] CT
N
f-891180347
f
GR
GS
[1 0 0 1 262.44287 130.58099] CT
N
f-891180347
f
GR
GS
[1 0 0 1 196.67805 105.80294] CT
N
f-891180347
f
GR
GS
[1 0 0 1 200.9812 122.823] CT
N
f-891180347
f
GR
GS
[1 0 0 1 219.87311 156.07266] CT
N
f-891180347
f
GR
GS
[1 0 0 1 237.0824 115.55396] CT
N
f-891180347
f
GR
GS
[1 0 0 1 260.66293 120.00347] CT
N
f-891180347
f
GR
GS
[1 0 0 1 243.92784 94.96579] CT
N
f-891180347
f
GR
GS
[1 0 0 1 157.36224 172.55998] CT
N
f-891180347
f
GR
GS
[1 0 0 1 233.65242 165.47392] CT
N
f-891180347
f
GR
GS
[1 0 0 1 222.24387 80.55495] CT
N
f-891180347
f
GR
GS
[1 0 0 1 297.27585 143.34932] CT
N
f-891180347
f
GR
GS
[1 0 0 1 249.46906 122.70013] CT
N
f-891180347
f
GR
GS
[1 0 0 1 167.10886 137.05655] CT
N
f-891180347
f
GR
GS
[1 0 0 1 176.68556 140.02458] CT
N
f-891180347
f
GR
GS
[1 0 0 1 316.18008 140.75555] CT
N
f-891180347
f
GR
GS
[1 0 0 1 270.95898 81.45786] CT
N
f-891180347
f
GR
GS
[1 0 0 1 252.80786 87.01517] CT
N
f-891180347
f
GR
GS
[1 0 0 1 271.11481 79.09851] CT
N
f-891180347
f
GR
GS
[1 0 0 1 239.3017 173.63368] CT
N
f-891180347
f
GR
GS
[1 0 0 1 293.74124 115.17471] CT
N
f-891180347
f
GR
GS
[1 0 0 1 227.6465 136.95074] CT
N
f-891180347
f
GR
GS
[1 0 0 1 257.45511 112.76865] CT
N
f-891180347
f
GR
GS
[1 0 0 1 296.70102 162.03697] CT
N
f-891180347
f
GR
GS
[1 0 0 1 297.22772 65.84827] CT
N
f-891180347
f
GR
GS
[1 0 0 1 228.4286 78.05738] CT
N
f-891180347
f
GR
GS
[1 0 0 1 248.20045 178.2404] CT
N
f-891180347
f
GR
GS
[1 0 0 1 233.79733 157.34036] CT
N
f-891180347
f
GR
GS
[1 0 0 1 199.61316 142.98033] CT
N
f-891180347
f
GR
GS
[1 0 0 1 222.90355 159.07545] CT
N
f-891180347
f
GR
GS
[1 0 0 1 184.56664 133.54526] CT
N
f-891180347
f
GR
GS
[1 0 0 1 205.11821 116.4417] CT
N
f-891180347
f
GR
GS
[1 0 0 1 297.50214 121.93268] CT
N
f-891180347
f
GR
GS
[1 0 0 1 190.91414 132.32439] CT
N
f-891180347
f
GR
GS
[1 0 0 1 237.68903 114.23588] CT
N
f-891180347
f
GR
GS
[1 0 0 1 278.15503 155.51178] CT
N
f-891180347
f
GR
GS
[1 0 0 1 212.78609 169.96744] CT
N
f-891180347
f
GR
GS
[1 0 0 1 286.90274 93.2795] CT
N
f-891180347
f
GR
GS
[1 0 0 1 154.33072 108.01168] CT
N
f-891180347
f
GR
GS
[1 0 0 1 163.73563 103.95357] CT
N
f-891180347
f
GR
GS
[1 0 0 1 225.24097 175.22736] CT
N
f-891180347
f
GR
GS
[1 0 0 1 324.9183 154.66283] CT
N
f-891180347
f
GR
GS
[1 0 0 1 209.98036 125.2253] CT
N
f-891180347
f
GR
GS
[1 0 0 1 169.53006 127.89828] CT
N
f-891180347
f
GR
GS
[1 0 0 1 265.48587 97.72515] CT
N
f-891180347
f
GR
GS
[1 0 0 1 194.653 135.29256] CT
N
f-891180347
f
GR
GS
[1 0 0 1 320.57843 142.6404] CT
N
f-891180347
f
GR
GS
[1 0 0 1 218.31641 76.13567] CT
N
f-891180347
f
GR
GS
[1 0 0 1 278.79605 92.78545] CT
N
f-891180347
f
GR
GS
[1 0 0 1 310.59464 113.1163] CT
N
f-891180347
f
GR
GS
[1 0 0 1 181.16295 89.6588] CT
N
f-891180347
f
GR
GS
[1 0 0 1 165.3562 124.70949] CT
N
f-891180347
f
GR
GS
[1 0 0 1 215.86281 112.64062] CT
N
f-891180347
f
GR
GS
[1 0 0 1 291.87018 119.49052] CT
N
f-891180347
f
GR
GS
[1 0 0 1 253.92169 139.61725] CT
N
f-891180347
f
GR
GS
[1 0 0 1 216.99133 146.98773] CT
N
f-891180347
f
GR
GS
[1 0 0 1 201.39131 144.93639] CT
N
f-891180347
f
GR
GS
[1 0 0 1 207.84998 178.06747] CT
N
f-891180347
f
GR
GS
[1 0 0 1 310.86517 93.13673] CT
N
f-891180347
f
GR
GS
[1 0 0 1 170.86342 125.756] CT
N
f-891180347
f
GR
GS
[1 0 0 1 184.44609 120.03025] CT
N
f-891180347
f
GR
GS
[1 0 0 1 278.80783 97.67942] CT
N
f-891180347
f
GR
GS
[1 0 0 1 302.10083 71.35796] CT
N
f-891180347
f
GR
GS
[1 0 0 1 196.54483 129.05304] CT
N
f-891180347
f
GR
GS
[1 0 0 1 236.57896 166.87689] CT
N
f-891180347
f
GR
GS
[1 0 0 1 303.61829 72.21171] CT
N
f-891180347
f
GR
GS
[1 0 0 1 200.29651 74.00782] CT
N
f-891180347
f
GR
GS
[1 0 0 1 156.08041 91.6362] CT
N
f-891180347
f
GR
GS
[1 0 0 1 169.83208 127.67474] CT
N
f-891180347
f
GR
GS
[1 0 0 1 207.04347 123.69641] CT
N
f-891180347
f
GR
GS
[1 0 0 1 248.81691 172.09984] CT
N
f-891180347
f
GR
GS
[1 0 0 1 151.91209 127.49931] CT
N
f-891180347
f
GR
GS
[1 0 0 1 188.73274 124.84834] CT
N
f-891180347
f
GR
GS
[1 0 0 1 177.5421 151.77792] CT
N
f-891180347
f
GR
GS
[1 0 0 1 302.53482 97.97004] CT
N
f-891180347
f
GR
GS
[1 0 0 1 251.7986 110.07888] CT
N
f-891180347
f
GR
GS
[1 0 0 1 206.31674 106.05627] CT
N
f-891180347
f
GR
GS
[1 0 0 1 217.35567 149.67233] CT
N
f-891180347
f
GR
GS
[1 0 0 1 276.77771 109.24702] CT
N
f-891180347
f
GR
GS
[1 0 0 1 189.42836 83.47385] CT
N
f-891180347
f
GR
GS
[1 0 0 1 237.35121 163.74384] CT
N
f-891180347
f
GR
GS
[1 0 0 1 309.72717 35.9382] CT
N
f-891180347
f
GR
GS
[1 0 0 1 215.57414 147.98785] CT
N
f-891180347
f
GR
GS
[1 0 0 1 278.55624 136.08609] CT
N
f-891180347
f
GR
GS
[1 0 0 1 159.61784 111.21892] CT
N
f-891180347
f
GR
GS
[1 0 0 1 231.16763 148.49208] CT
N
f-891180347
f
GR
GS
[1 0 0 1 272.07928 141.25771] CT
N
f-891180347
f
GR
GS
[1 0 0 1 287.88174 130.14249] CT
N
f-891180347
f
GR
GS
[1 0 0 1 240.64084 81.35928] CT
N
f-891180347
f
GR
GS
[1 0 0 1 234.54211 186.83795] CT
N
f-891180347
f
GR
GS
[1 0 0 1 251.64354 103.64277] CT
N
f-891180347
f
GR
GS
[1 0 0 1 249.01814 160.80016] CT
N
f-891180347
f
GR
GS
[1 0 0 1 278.38052 167.29788] CT
N
f-891180347
f
GR
GS
[1 0 0 1 207.43784 107.86707] CT
N
f-891180347
f
GR
GS
[1 0 0 1 266.83966 147.39665] CT
N
f-891180347
f
GR
GS
[1 0 0 1 266.87784 159.17621] CT
N
f-891180347
f
GR
GS
[1 0 0 1 257.84137 116.17632] CT
N
f-891180347
f
GR
GS
[1 0 0 1 299.47552 149.61002] CT
N
f-891180347
f
GR
GS
[1 0 0 1 278.39539 133.10815] CT
N
f-891180347
f
GR
GS
[1 0 0 1 287.49826 173.28842] CT
N
f-891180347
f
GR
GS
[1 0 0 1 321.09628 77.24032] CT
N
f-891180347
f
GR
GS
[1 0 0 1 205.19679 134.65396] CT
N
f-891180347
f
GR
GS
[1 0 0 1 264.62256 150.08775] CT
N
f-891180347
f
GR
GS
[1 0 0 1 324.76642 95.97285] CT
N
f-891180347
f
GR
GS
[1 0 0 1 314.42642 178.07527] CT
N
f-891180347
f
GR
GS
[1 0 0 1 172.05684 131.13724] CT
N
f-891180347
f
GR
GS
[1 0 0 1 206.60115 122.79259] CT
N
f-891180347
f
GR
GS
[1 0 0 1 263.8913 121.23438] CT
N
f-891180347
f
GR
GS
[1 0 0 1 202.03227 72.50774] CT
N
f-891180347
f
GR
GS
[1 0 0 1 265.9303 126.71992] CT
N
f-891180347
f
GR
GS
[1 0 0 1 257.49918 93.84126] CT
N
f-891180347
f
GR
GS
[1 0 0 1 170.45097 118.84068] CT
N
f-891180347
f
GR
GS
[1 0 0 1 288.4585 106.03584] CT
N
f-891180347
f
GR
GS
[1 0 0 1 230.42923 99.85308] CT
N
f-891180347
f
GR
GS
[1 0 0 1 176.25932 151.15907] CT
N
f-891180347
f
GR
GS
[1 0 0 1 232.92488 95.00954] CT
N
f-891180347
f
GR
GS
[1 0 0 1 175.36745 106.79292] CT
N
f-891180347
f
GR
GS
[1 0 0 1 185.91209 93.37682] CT
N
f-891180347
f
GR
GS
[1 0 0 1 231.21011 140.53067] CT
N
f-891180347
f
GR
GS
[1 0 0 1 317.32745 141.30684] CT
N
f-891180347
f
GR
GS
[1 0 0 1 257.46643 141.33383] CT
N
f-891180347
f
GR
GS
[1 0 0 1 290.4072 117.68955] CT
N
f-891180347
f
GR
GS
[1 0 0 1 263.02063 104.7529] CT
N
f-891180347
f
GR
GS
[1 0 0 1 170.51778 103.44264] CT
N
f-891180347
f
GR
GS
[1 0 0 1 260.34613 126.24123] CT
N
f-891180347
f
GR
GS
[1 0 0 1 193.30392 87.0863] CT
N
f-891180347
f
GR
GS
[1 0 0 1 216.67599 154.80811] CT
N
f-891180347
f
GR
GS
[1 0 0 1 305.43109 163.65733] CT
N
f-891180347
f
GR
GS
[1 0 0 1 246.40813 146.26129] CT
N
f-891180347
f
GR
GS
[1 0 0 1 212.55615 150.67455] CT
N
f-891180347
f
GR
GS
[1 0 0 1 157.36307 104.68946] CT
N
f-891180347
f
GR
GS
[1 0 0 1 170.62195 93.44462] CT
N
f-891180347
f
GR
GS
[1 0 0 1 238.81221 84.19574] CT
N
f-891180347
f
GR
GS
[1 0 0 1 268.24048 107.83421] CT
N
f-891180347
f
GR
GS
[1 0 0 1 205.12305 64.95287] CT
N
f-891180347
f
GR
GS
[1 0 0 1 212.68076 123.17631] CT
N
f-891180347
f
GR
GS
[1 0 0 1 213.60289 133.86139] CT
N
f-891180347
f
GR
GS
[1 0 0 1 215.1329 113.87333] CT
N
f-891180347
f
GR
GS
[1 0 0 1 178.64282 72.45108] CT
N
f-891180347
f
GR
GS
[1 0 0 1 196.20059 100.70416] CT
N
f-891180347
f
GR
GS
[1 0 0 1 152.54028 117.08009] CT
N
f-891180347
f
GR
GS
[1 0 0 1 291.15842 142.05759] CT
N
f-891180347
f
GR
GS
[1 0 0 1 189.66794 126.34297] CT
N
f-891180347
f
GR
GS
[1 0 0 1 177.06764 112.94219] CT
N
f-891180347
f
GR
GS
[1 0 0 1 280.14014 145.32858] CT
N
f-891180347
f
GR
GS
[1 0 0 1 222.64009 85.97096] CT
N
f-891180347
f
GR
GS
[1 0 0 1 225.2464 160.90871] CT
N
f-891180347
f
GR
GS
[1 0 0 1 153.12032 73.32249] CT
N
f-891180347
f
GR
GS
[1 0 0 1 186.99324 116.91819] CT
N
f-891180347
f
GR
GS
[1 0 0 1 191.62703 90.83565] CT
N
f-891180347
f
GR
GS
[1 0 0 1 224.01703 146.7715] CT
N
f-891180347
f
GR
GS
[1 0 0 1 230.65965 78.7557] CT
N
f-891180347
f
GR
GS
[1 0 0 1 182.08173 106.25332] CT
N
f-891180347
f
GR
GS
[1 0 0 1 288.12759 141.71237] CT
N
f-891180347
f
GR
GS
[1 0 0 1 286.50073 103.8842] CT
N
f-891180347
f
GR
GS
[1 0 0 1 295.77069 154.66466] CT
N
f-891180347
f
GR
GS
[1 0 0 1 269.14252 72.17458] CT
N
f-891180347
f
GR
GS
[1 0 0 1 192.77597 141.27803] CT
N
f-891180347
f
GR
GS
[1 0 0 1 154.12143 93.99307] CT
N
f-891180347
f
GR
GS
[1 0 0 1 166.06496 150.45859] CT
N
f-891180347
f
GR
GS
[1 0 0 1 290.47076 117.4611] CT
N
f-891180347
f
GR
GS
[1 0 0 1 209.11023 133.77908] CT
N
f-891180347
f
GR
GS
[1 0 0 1 322.66574 106.62594] CT
N
f-891180347
f
GR
GS
[1 0 0 1 194.56863 125.22076] CT
N
f-891180347
f
GR
GS
[1 0 0 1 200.34717 134.72614] CT
N
f-891180347
f
GR
GS
[1 0 0 1 288.01117 137.42007] CT
N
f-891180347
f
GR
GS
[1 0 0 1 259.96844 123.66167] CT
N
f-891180347
f
GR
GS
[1 0 0 1 221.37827 160.77371] CT
N
f-891180347
f
GR
GS
[1 0 0 1 165.48544 102.96375] CT
N
f-891180347
f
GR
GS
[1 0 0 1 234.03783 93.41496] CT
N
f-891180347
f
GR
GS
[1 0 0 1 198.79007 115.0361] CT
N
f-891180347
f
GR
GS
[1 0 0 1 177.55963 132.36101] CT
N
f-891180347
f
GR
GS
[1 0 0 1 250.28828 128.72327] CT
N
f-891180347
f
GR
GS
[1 0 0 1 268.6825 136.95976] CT
N
f-891180347
f
GR
GS
[1 0 0 1 315.69693 148.69711] CT
N
f-891180347
f
GR
GS
[1 0 0 1 207.20859 81.19173] CT
N
f-891180347
f
GR
GS
[1 0 0 1 197.18964 128.81718] CT
N
f-891180347
f
GR
GS
[1 0 0 1 196.78134 134.884] CT
N
f-891180347
f
GR
GS
[1 0 0 1 236.49869 91.63647] CT
N
f-891180347
f
GR
GS
[1 0 0 1 147.77019 102.58196] CT
N
f-891180347
f
GR
GS
[1 0 0 1 190.56453 99.03166] CT
N
f-891180347
f
GR
GS
[1 0 0 1 212.9735 96.39237] CT
N
f-891180347
f
GR
GS
[1 0 0 1 215.56918 74.91553] CT
N
f-891180347
f
GR
GS
[1 0 0 1 190.64558 158.80438] CT
N
f-891180347
f
GR
GS
[1 0 0 1 239.98309 92.72927] CT
N
f-891180347
f
GR
GS
[1 0 0 1 283.75543 113.97605] CT
N
f-891180347
f
GR
GS
[1 0 0 1 285.07306 112.92515] CT
N
f-891180347
f
GR
GS
[1 0 0 1 265.41626 126.7174] CT
N
f-891180347
f
GR
GS
[1 0 0 1 264.98022 119.5287] CT
N
f-891180347
f
GR
GS
[1 0 0 1 251.73158 79.71831] CT
N
f-891180347
f
GR
GS
[1 0 0 1 193.75874 96.63705] CT
N
f-891180347
f
GR
GS
[1 0 0 1 197.28104 104.85853] CT
N
f-891180347
f
GR
GS
[1 0 0 1 171.12067 134.59758] CT
N
f-891180347
f
GR
GS
[1 0 0 1 259.75888 111.40637] CT
N
f-891180347
f
GR
GS
[1 0 0 1 227.50215 107.42543] CT
N
f-891180347
f
GR
GS
[1 0 0 1 174.32118 80.14365] CT
N
f-891180347
f
GR
GS
1 LJ
0.5 LW
N
143.5 218 M
326 218 L
326 27 L
143.5 27 L
143.5 218 L
S
GR
%%Trailer
%%Pages: 1
%%EOF
